(* CAPO - Computational Analysis Platform for Oberon - by Alan Freed and Felix Friedrich. *)
(* Version 1, Update 2 *)

модуль ArrayXdRat;   (** AUTHOR "fof"; PURPOSE "Basic operations on an X-dimensional array of Rational"; *)
 (** any item containing the string "dbg"  is for debugging purposes only and will be removed from this module, do NOT use *)

использует НИЗКОУР, NbrInt, ArrayXdBytes, Array1d := Array1dRat, dbgOut := ЛогЯдра, NbrRat, DataErrors,
	Array1dInt, DataIO;

конст
	generic* = 0;  vector* = 1;  matrix* = 2;  cube* = 3;  hcube* = 4;
	(** The version used when reading/writing an arbitrary dimensional array to file. *)
	VERSION* = 1;

	StrictBoundaryC* = 0;   (* data beyond limit -> TRAP *)
	AbsorbingBoundaryC* = 1;   (* data beyond limit = zero*)
	PeriodicBoundaryC* = 2;   (* data[x] =data[x MOD LEN(data)], torus *)
	SymmetricOnBoundaryC* = 3;   (*  mirror boundaries, using border point once; W= reflection centered on point N *)
	SymmetricOffBoundaryC* = 4;   (* mirror boundaries, using border point twice; reflection centered between point N and point N+1 *)
	AntisymmetricOnBoundaryC* = 5;   (* like SymmetricOnBoundaryC but with additional change of sign if out of bounds *)
	AntisymmetricOffBoundaryC* = 6;   (* like SymmetricOffBoundaryC but with additional change of sign if out of bounds *)
тип
	Value* = Array1d.Value;  Index* = цел32;  Array1* = Array1d.Array;  IntValue* = Array1dInt.Value;
	Array2* = укль на массив из массив из Value;
	Array3* = укль на массив из массив из массив из Value;
	Array4* = укль на массив из массив из массив из массив из Value;
	Map* = Array1d.Map;

	(** Class Array has been DataIO registered, and therefore, any instance of it can be made persistent
	by using the DataIO Reader and Writer, or more simply, by calling procedures Load and Store below. *)

	Array* = окласс (ArrayXdBytes.Array)
	перем data-: Array1;   (*! will probably be removed, do not use ! *)

		(** override *)
		проц {перекрыта}Allocate*( size: цел32;  перем adr: Index;  перем ptr: динамическиТипизированныйУкль );
		нач
			нов( data, size );  adr := адресОт( data[0] );  ptr := data;
		кон Allocate;

		проц {перекрыта}GetInfo*( перем elementsize: Index );
		нач
			elementsize := размер16_от( Value );
		кон GetInfo;

		проц {перекрыта}AlikeX*( ): ArrayXdBytes.Array;
		перем copy: Array;
		нач
			нов( copy, origin, len );  возврат copy;
		кон AlikeX;

		(** new *)

	(** Read and Write are for internal use only.
		Exporting them permits extensible, persistent, data types to be constructed. *)
		проц Read*( R: DataIO.Reader );
		нач {единолично}
			LoadXd( R )
		кон Read;

		проц Write*( W: DataIO.Writer );
		нач
			StoreXd( W, истина )
		кон Write;

		проц Type*( ): цел8;
		(* generic, vector, matrix, cube, hcube *)
		нач
			если dim < 5 то возврат устарПреобразуйКБолееУзкомуЦел( устарПреобразуйКБолееУзкомуЦел( dim ) ) иначе возврат 0 всё;
		кон Type;

		проц Get1*( x: Index ): Value;
		перем v: Value;
		нач
			ArrayXdBytes.Get1( сам, x, v );  возврат v;
		кон Get1;

		проц Set1*( x: Index;  v: Value );
		нач
			ArrayXdBytes.Set1( сам, x, v );
		кон Set1;

		проц Get2*( x, y: Index ): Value;
		перем v: Value;
		нач
			ArrayXdBytes.Get2( сам, x, y, v );  возврат v;
		кон Get2;

		проц Set2*( x, y: Index;  v: Value );
		нач
			ArrayXdBytes.Set2( сам, x, y, v );
		кон Set2;

		проц Get3*( x, y, z: Index ): Value;
		перем v: Value;
		нач
			ArrayXdBytes.Get3( сам, x, y, z, v );  возврат v;
		кон Get3;

		проц Set3*( x, y, z: Index;  v: Value );
		нач
			ArrayXdBytes.Set3( сам, x, y, z, v );
		кон Set3;

		проц Get4*( x, y, z, t: Index ): Value;
		перем v: Value;
		нач
			ArrayXdBytes.Get4( сам, x, y, z, t, v );  возврат v;
		кон Get4;

		проц Set4*( x, y, z, t: Index;  v: Value );
		нач
			ArrayXdBytes.Set4( сам, x, y, z, t, v );
		кон Set4;

		проц GetX*( перем x: массив из Index;  dim: Index ): Value;
		перем v: Value;
		нач
			ArrayXdBytes.GetX( сам, x, dim, v );  возврат v;
		кон GetX;

		проц SetX*( перем x: массив из Index;  dim: Index;  v: Value );
		нач
			ArrayXdBytes.SetX( сам, x, dim, v );
		кон SetX;

		(*** Get  with boundary conditions *)

	(** absorbing: data beyond limit = zero *)
		проц Get1BAbsorbing*( x: Index ): Value;
		перем v: Value;
		нач
			если ArrayXdBytes.InBounds( o0, l0, x ) то ArrayXdBytes.Get1( сам, x, v );  возврат v иначе возврат zero всё;
		кон Get1BAbsorbing;

		проц Get2BAbsorbing*( x, y: Index ): Value;
		перем v: Value;
		нач
			если ArrayXdBytes.InBounds( o0, l0, x ) и ArrayXdBytes.InBounds( o1, l1, y ) то
				ArrayXdBytes.Get2( сам, x, y, v );  возврат v
			иначе возврат zero
			всё;
		кон Get2BAbsorbing;

		проц Get3BAbsorbing*( x, y, z: Index ): Value;
		перем v: Value;
		нач
			если ArrayXdBytes.InBounds( o0, l0, x ) и ArrayXdBytes.InBounds( o1, l1, y ) и ArrayXdBytes.InBounds( o2, l2, z ) то
				ArrayXdBytes.Get3( сам, x, y, z, v );  возврат v
			иначе возврат zero
			всё;
		кон Get3BAbsorbing;

		проц Get4BAbsorbing*( x, y, z, t: Index ): Value;
		перем v: Value;
		нач
			если ArrayXdBytes.InBounds( o0, l0, x ) и ArrayXdBytes.InBounds( o1, l1, y ) и ArrayXdBytes.InBounds( o2, l2, z ) и
				ArrayXdBytes.InBounds( o3, l3, t ) то
					ArrayXdBytes.Get4( сам, x, y, z, t, v );  возврат v
			иначе возврат zero
			всё;
		кон Get4BAbsorbing;

		проц GetXBAbsorbing*( b: массив из Index;  dim: Index ): Value;
		перем v: Value;  i: Index;
		нач
			i := 0;
			нцПока (i < dim) делай
				если ~ArrayXdBytes.InBounds( origin[i], len[i], b[i] ) то возврат zero всё;
				увел( i );
			кц;
			ArrayXdBytes.GetX( сам, b, dim, v );  возврат v
		кон GetXBAbsorbing;

	(** periodic: data[x] =data[x MOD LEN(data)]  *)

		проц Get1BPeriodic*( x: Index ): Value;
		перем v: Value;
		нач
			ArrayXdBytes.Get1( сам, ArrayXdBytes.PeriodicBounds( o0, l0, x ), v );  возврат v
		кон Get1BPeriodic;

		проц Get2BPeriodic*( x, y: Index ): Value;
		перем v: Value;
		нач
			ArrayXdBytes.Get2( сам, ArrayXdBytes.PeriodicBounds( o0, l0, x ), ArrayXdBytes.PeriodicBounds( o1, l1, y ), v );
			возврат v
		кон Get2BPeriodic;

		проц Get3BPeriodic*( x, y, z: Index ): Value;
		перем v: Value;
		нач
			ArrayXdBytes.Get3( сам, ArrayXdBytes.PeriodicBounds( o0, l0, x ), ArrayXdBytes.PeriodicBounds( o1, l1, y ),
											ArrayXdBytes.PeriodicBounds( o2, l2, z ), v );
			возврат v
		кон Get3BPeriodic;

		проц Get4BPeriodic*( x, y, z, t: Index ): Value;
		перем v: Value;
		нач
			ArrayXdBytes.Get4( сам, ArrayXdBytes.PeriodicBounds( o0, l0, x ), ArrayXdBytes.PeriodicBounds( o1, l1, y ),
											ArrayXdBytes.PeriodicBounds( o2, l2, z ), ArrayXdBytes.PeriodicBounds( o3, l3, z ), v );
			возврат v
		кон Get4BPeriodic;

		проц GetXBPeriodic*( b: массив из Index;  dim: Index ): Value;
		перем v: Value;  i: Index;
		нач
			i := 0;
			нцПока (i < dim) делай b[i] := ArrayXdBytes.PeriodicBounds( origin[i], len[i], b[i] );  увел( i ) кц;
			ArrayXdBytes.GetX( сам, b, dim, v );  возврат v
		кон GetXBPeriodic;

	(** mirror boundaries, using border point twice;   reflection centered between point N and point N+1 *)
		проц Get1BSymmetricOffB*( x: Index ): Value;
		перем v: Value;
		нач
			ArrayXdBytes.Get1( сам, ArrayXdBytes.MirrorOffB( o0, l0, x ), v );  возврат v
		кон Get1BSymmetricOffB;

		проц Get2BSymmetricOffB*( x, y: Index ): Value;
		перем v: Value;
		нач
			ArrayXdBytes.Get2( сам, ArrayXdBytes.MirrorOffB( o0, l0, x ), ArrayXdBytes.MirrorOffB( o1, l1, y ), v );  возврат v
		кон Get2BSymmetricOffB;

		проц Get3BSymmetricOffB*( x, y, z: Index ): Value;
		перем v: Value;
		нач
			ArrayXdBytes.Get3( сам, ArrayXdBytes.MirrorOffB( o0, l0, x ), ArrayXdBytes.MirrorOffB( o1, l1, y ),
											ArrayXdBytes.MirrorOffB( o2, l2, z ), v );
			возврат v
		кон Get3BSymmetricOffB;

		проц Get4BSymmetricOffB*( x, y, z, t: Index ): Value;
		перем v: Value;
		нач
			ArrayXdBytes.Get4( сам, ArrayXdBytes.MirrorOffB( o0, l0, x ), ArrayXdBytes.MirrorOffB( o1, l1, y ),
											ArrayXdBytes.MirrorOffB( o2, l2, z ), ArrayXdBytes.MirrorOffB( o3, l3, z ), v );
			возврат v
		кон Get4BSymmetricOffB;

		проц GetXBSymmetricOffB*( b: массив из Index;  dim: Index ): Value;
		перем v: Value;  i: Index;
		нач
			i := 0;
			нцПока (i < dim) делай b[i] := ArrayXdBytes.MirrorOffB( origin[i], len[i], b[i] );  увел( i ) кц;
			ArrayXdBytes.GetX( сам, b, dim, v );  возврат v
		кон GetXBSymmetricOffB;

	(** mirror boundaries, using border point once;   reflection centered on point N*)
		проц Get1BSymmetricOnB*( x: Index ): Value;
		перем v: Value;
		нач
			x := ArrayXdBytes.MirrorOnB( o0, l0, x );  ArrayXdBytes.Get1( сам, x, v );  возврат v
		кон Get1BSymmetricOnB;

		проц Get2BSymmetricOnB*( x, y: Index ): Value;
		перем v: Value;
		нач
			x := ArrayXdBytes.MirrorOnB( o0, l0, x );  y := ArrayXdBytes.MirrorOnB( o1, l1, y );
			ArrayXdBytes.Get2( сам, x, y, v );  возврат v
		кон Get2BSymmetricOnB;

		проц Get3BSymmetricOnB*( x, y, z: Index ): Value;
		перем v: Value;
		нач
			x := ArrayXdBytes.MirrorOnB( o0, l0, x );  y := ArrayXdBytes.MirrorOnB( o1, l1, y );
			z := ArrayXdBytes.MirrorOnB( o2, l2, z );  ArrayXdBytes.Get3( сам, x, y, z, v );  возврат v
		кон Get3BSymmetricOnB;

		проц Get4BSymmetricOnB*( x, y, z, t: Index ): Value;
		перем v: Value;
		нач
			x := ArrayXdBytes.MirrorOnB( o0, l0, x );  y := ArrayXdBytes.MirrorOnB( o1, l1, y );
			z := ArrayXdBytes.MirrorOnB( o2, l2, z );  t := ArrayXdBytes.MirrorOnB( o3, l3, z );
			ArrayXdBytes.Get4( сам, x, y, z, t, v );  возврат v
		кон Get4BSymmetricOnB;

		проц GetXBSymmetricOnB*( b: массив из Index;  dim: Index ): Value;
		перем v: Value;  i: Index;
		нач
			i := 0;
			нцПока (i < dim) делай b[i] := ArrayXdBytes.MirrorOnB( origin[i], len[i], b[i] );  увел( i ) кц;
			ArrayXdBytes.GetX( сам, b, dim, v );  возврат v
		кон GetXBSymmetricOnB;

	(* like SymmetricOffB but with change of sign  if not in range *)
		проц Get1BAntisymmetricOffB*( x: Index ): Value;
		перем v: Value;
		нач
			если ArrayXdBytes.InBounds( o0, l0, x ) то ArrayXdBytes.Get1( сам, x, v );  возврат v
			иначе ArrayXdBytes.Get1( сам, ArrayXdBytes.MirrorOffB( o0, l0, x ), v );  возврат -v;
			всё;
		кон Get1BAntisymmetricOffB;

		проц Get2BAntisymmetricOffB*( x, y: Index ): Value;
		перем v: Value;
		нач
			если ArrayXdBytes.InBounds( o0, l0, x ) и ArrayXdBytes.InBounds( o1, l1, y ) то
				ArrayXdBytes.Get2( сам, x, y, v );  возврат v
			иначе
				ArrayXdBytes.Get2( сам, ArrayXdBytes.MirrorOffB( o0, l0, x ), ArrayXdBytes.MirrorOffB( o1, l1, y ), v );  возврат -v
			всё;
		кон Get2BAntisymmetricOffB;

		проц Get3BAntisymmetricOffB*( x, y, z: Index ): Value;
		перем v: Value;
		нач
			если ArrayXdBytes.InBounds( o0, l0, x ) и ArrayXdBytes.InBounds( o1, l1, y ) и ArrayXdBytes.InBounds( o2, l2, z ) то
				ArrayXdBytes.Get3( сам, x, y, z, v );  возврат v
			иначе
				ArrayXdBytes.Get3( сам, ArrayXdBytes.MirrorOffB( o0, l0, x ), ArrayXdBytes.MirrorOffB( o1, l1, y ),
												ArrayXdBytes.MirrorOffB( o2, l2, z ), v );
				возврат -v
			всё;
		кон Get3BAntisymmetricOffB;

		проц Get4BAntisymmetricOffB*( x, y, z, t: Index ): Value;
		перем v: Value;
		нач
			если ArrayXdBytes.InBounds( o0, l0, x ) и ArrayXdBytes.InBounds( o1, l1, y ) и ArrayXdBytes.InBounds( o2, l2, z ) и
				ArrayXdBytes.InBounds( o3, l3, t ) то
					ArrayXdBytes.Get4( сам, x, y, z, t, v );  возврат v
			иначе
				ArrayXdBytes.Get4( сам, ArrayXdBytes.MirrorOffB( o0, l0, x ), ArrayXdBytes.MirrorOffB( o1, l1, y ),
												ArrayXdBytes.MirrorOffB( o2, l2, z ), ArrayXdBytes.MirrorOffB( o3, l3, t ), v );
				возврат -v
			всё;
		кон Get4BAntisymmetricOffB;

		проц GetXBAntisymmetricOffB*( b: массив из Index;  dim: Index ): Value;
		перем v: Value;  i: Index;  inv: булево;
		нач
			i := 0;  inv := ложь;
			нцПока (i < dim) делай
				inv := inv или (~ArrayXdBytes.InBounds( origin[i], len[i], b[i] ));
				b[i] := ArrayXdBytes.MirrorOffB( origin[i], len[i], b[i] );  увел( i );
			кц;
			ArrayXdBytes.GetX( сам, b, dim, v );
			если inv то возврат -v иначе возврат v всё;
		кон GetXBAntisymmetricOffB;

	(** like SymmetricOnB but with change of sign  if not in range *)
		проц Get1BAntisymmetricOnB*( x: Index ): Value;
		перем v: Value;
		нач
			если ArrayXdBytes.InBounds( o0, l0, x ) то ArrayXdBytes.Get1( сам, x, v );  возврат v
			иначе ArrayXdBytes.Get1( сам, ArrayXdBytes.MirrorOnB( o0, l0, x ), v );  возврат -v;
			всё;
		кон Get1BAntisymmetricOnB;

		проц Get2BAntisymmetricOnB*( x, y: Index ): Value;
		перем v: Value;
		нач
			если ArrayXdBytes.InBounds( o0, l0, x ) и ArrayXdBytes.InBounds( o1, l1, y ) то
				ArrayXdBytes.Get2( сам, x, y, v );  возврат v
			иначе
				ArrayXdBytes.Get2( сам, ArrayXdBytes.MirrorOnB( o0, l0, x ), ArrayXdBytes.MirrorOnB( o1, l1, y ), v );  возврат -v
			всё;
		кон Get2BAntisymmetricOnB;

		проц Get3BAntisymmetricOnB*( x, y, z: Index ): Value;
		перем v: Value;
		нач
			если ArrayXdBytes.InBounds( o0, l0, x ) и ArrayXdBytes.InBounds( o1, l1, y ) и ArrayXdBytes.InBounds( o2, l2, z ) то
				ArrayXdBytes.Get3( сам, x, y, z, v );  возврат v
			иначе
				ArrayXdBytes.Get3( сам, ArrayXdBytes.MirrorOnB( o0, l0, x ), ArrayXdBytes.MirrorOnB( o1, l1, y ),
												ArrayXdBytes.MirrorOnB( o2, l2, z ), v );
				возврат -v
			всё;
		кон Get3BAntisymmetricOnB;

		проц Get4BAntisymmetricOnB*( x, y, z, t: Index ): Value;
		перем v: Value;
		нач
			если ArrayXdBytes.InBounds( o0, l0, x ) и ArrayXdBytes.InBounds( o1, l1, y ) и ArrayXdBytes.InBounds( o2, l2, z ) и
				ArrayXdBytes.InBounds( o3, l3, t ) то
					ArrayXdBytes.Get4( сам, x, y, z, t, v );  возврат v
			иначе
				ArrayXdBytes.Get4( сам, ArrayXdBytes.MirrorOnB( o0, l0, x ), ArrayXdBytes.MirrorOnB( o1, l1, y ),
												ArrayXdBytes.MirrorOnB( o2, l2, z ), ArrayXdBytes.MirrorOnB( o3, l3, t ), v );
				возврат -v
			всё;
		кон Get4BAntisymmetricOnB;

		проц GetXBAntisymmetricOnB*( b: массив из Index;  dim: Index ): Value;
		перем v: Value;  i: Index;  inv: булево;
		нач
			i := 0;  inv := ложь;
			нцПока (i < dim) делай
				inv := inv или (~ArrayXdBytes.InBounds( origin[i], len[i], b[i] ));
				b[i] := ArrayXdBytes.MirrorOnB( origin[i], len[i], b[i] );  увел( i );
			кц;
			ArrayXdBytes.GetX( сам, b, dim, v );
			если inv то возврат -v иначе возврат v всё;
		кон GetXBAntisymmetricOnB;

	(** copy using the current boundary condition SELF:bc*)
		проц CopyToArray*( dest: Array;  srcpos, srclen, destpos, destlen: ArrayXdBytes.IndexArray );
		нач
			CopyArrayToArrayPartB( сам, dest, bc, srcpos, srclen, destpos, destlen );
		кон CopyToArray;

	(** apply map m to all entries, dimension ordering is not necessarily preserved! *)
		проц MapAll*( m: Array1d.Map );
		нач
			если m # НУЛЬ то Array1d.ApplyMap( m, data^, 0, длинаМассива( data ) );  иначе DataErrors.Error( "A NIL mapping function was supplied." ) всё
		кон MapAll;

		проц Negate*;
		нач {единолично}
			Array1d.Negate( data^, 0, длинаМассива( data ) );
			(*
				FOR i := 0 TO len - 1 DO vec[i] := -vec[i] END
				*)
		кон Negate;

	(** arr := arr+x *)
		проц Add*( x: Array );
		нач
			если x # НУЛЬ то
				если длинаМассива( data ) = длинаМассива( x.data ) то
					нач {единолично}
					(*FOR i := 0 TO len - 1 DO vec[i] := vec[i] - x.vec[i] END*)
						Array1d.AddAA( data^, x.data^, data^, 0, len[0] );
					кон
				иначе DataErrors.Error( "Lengths of the two arrays were not equal." )
				всё
			иначе DataErrors.Error( "The supplied array to be subtracted was NIL." )
			всё
		кон Add;

	(** arr := arr-x *)
		проц Subtract*( x: Array );
		нач
			если x # НУЛЬ то
				если длинаМассива( data ) = длинаМассива( x.data ) то
					нач {единолично}
					(*FOR i := 0 TO len - 1 DO vec[i] := vec[i] - x.vec[i] END*)
						Array1d.SubtractAA( data^, x.data^, data^, 0, len[0] );
					кон
				иначе DataErrors.Error( "Lengths of the two arrays were not equal." )
				всё
			иначе DataErrors.Error( "The supplied array to be subtracted was NIL." )
			всё
		кон Subtract;

	(* arr[i] := a*arr[i]  forall i*)
		проц Multiply*( a: Value );
		перем i: Index;
		нач {единолично}
			нцДля i := 0 до длинаМассива( data ) - 1 делай data[i] := a * data[i] кц
		кон Multiply;

	(** arr[i] :=arr[i] / a forall i *)
		проц Divide*( a: Value );
		перем i: Index;
		нач
			если a # 0 то
				нач {единолично}
					нцДля i := 0 до длинаМассива( data ) - 1 делай data[i] := data[i] / a;  кц
				кон;
			иначе DataErrors.Error( "Division by zero." )
			всё
		кон Divide;

		проц dbgWrite*;
		перем x, y, z: цел32;
			str: массив 256 из симв8;
		нач
			если Type() = vector то
				нцДля x := origin[0] до origin[0] + len[0] - 1 делай
					NbrRat.RatToString( Get1( x ), str );  dbgOut.пСтроку8( str );  dbgOut.пСтроку8( "|" );
				кц;
				dbgOut.пВК_ПС;
			аесли Type() = matrix то
				нцДля y := origin[1] до origin[1] + len[1] - 1 делай
					нцДля x := origin[0] до origin[0] + len[0] - 1 делай
						NbrRat.RatToString( Get2( x, y ), str );  dbgOut.пСтроку8( str );  dbgOut.пСтроку8( "|" );
					кц;
					dbgOut.пВК_ПС;
				кц;
				dbgOut.пВК_ПС;
			аесли Type() = cube то
				нцДля z := origin[2] до origin[2] + len[2] - 1 делай
					нцДля y := origin[1] до origin[1] + len[1] - 1 делай
						нцДля x := origin[0] до origin[0] + len[0] - 1 делай
							NbrRat.RatToString( Get3( x, y, z ), str );  dbgOut.пСтроку8( str );  dbgOut.пСтроку8( "|" );
						кц;
						dbgOut.пВК_ПС;
					кц;
					dbgOut.пВК_ПС;
				кц;
			всё;

		кон dbgWrite;

	кон Array;
перем
	zero: Value;

	проц New1d*( ox, w: Index ): Array;
	перем res: Array;
	нач
		нов( res, ArrayXdBytes.Array1( ox ), ArrayXdBytes.Array1( w ) );  возврат res;
	кон New1d;

	проц New2d*( ox, w, oy, h: Index ): Array;
	перем res: Array;
	нач
		нов( res, ArrayXdBytes.Array2( ox, oy ), ArrayXdBytes.Array2( w, h ) );  возврат res;
	кон New2d;

	проц New3d*( ox, w, oy, h, oz, d: Index ): Array;
	перем res: Array;
	нач
		нов( res, ArrayXdBytes.Array3( ox, oy, oz ), ArrayXdBytes.Array3( w, h, d ) );  возврат res;
	кон New3d;

	проц New4d*( ox, w, oy, h, oz, d, ot, dt: Index ): Array;
	перем res: Array;
	нач
		нов( res, ArrayXdBytes.Array4( ox, oy, oz, ot ), ArrayXdBytes.Array4( w, h, d, dt ) );  возврат res;
	кон New4d;

	проц CopyVecToVec*( src, dest: Array;  srcx, destx, len: Index );
	нач
		если (src.dim # 1) или (dest.dim # 1) то СТОП( 1001 ) всё;
		ArrayXdBytes.CopyArrayPartToArrayPart( src, dest, ArrayXdBytes.Index1( srcx ), ArrayXdBytes.Index1( len ),
																		ArrayXdBytes.Index1( destx ), ArrayXdBytes.Index1( len ) );
	кон CopyVecToVec;

	проц CopyMtxToVec*( src, dest: Array;  dim: Index;  srcx, srcy, destx, len: Index );
	перем slen: ArrayXdBytes.IndexArray;
	нач
		если (src.dim # 2) или (dest.dim # 1) то СТОП( 1002 ) всё;
		slen := ArrayXdBytes.Index2( 1, 1 );  slen[dim] := len;
		ArrayXdBytes.CopyArrayPartToArrayPart( src, dest, ArrayXdBytes.Index2( srcx, srcy ), slen,
																		ArrayXdBytes.Index1( destx ), ArrayXdBytes.Index1( len ) );
	кон CopyMtxToVec;

	проц CopyVecToMtx*( src, dest: Array;  dim: Index;  srcx, destx, desty, len: Index );
	перем slen: ArrayXdBytes.IndexArray;
	нач
		если (src.dim # 1) или (dest.dim # 2) то СТОП( 1002 ) всё;
		slen := ArrayXdBytes.Index2( 1, 1 );  slen[dim] := len;
		ArrayXdBytes.CopyArrayPartToArrayPart( src, dest, ArrayXdBytes.Index1( srcx ), ArrayXdBytes.Index1( len ),
																		ArrayXdBytes.Index2( destx, desty ), slen );
	кон CopyVecToMtx;

	проц CopyCubeToVec*( src, dest: Array;  dim: Index;  srcx, srcy, srcz, destx, len: Index );
	перем slen: ArrayXdBytes.IndexArray;
	нач
		если (src.dim # 3) или (dest.dim # 1) то СТОП( 1003 ) всё;
		slen := ArrayXdBytes.Index3( 1, 1, 1 );  slen[dim] := len;
		ArrayXdBytes.CopyArrayPartToArrayPart( src, dest, ArrayXdBytes.Index3( srcx, srcy, srcz ), slen,
																		ArrayXdBytes.Index1( destx ), ArrayXdBytes.Index1( len ) );
	кон CopyCubeToVec;

	проц CopyVecToCube*( src, dest: Array;  dim: Index;  srcx, destx, desty, destz, len: Index );
	перем slen: ArrayXdBytes.IndexArray;
	нач
		если (src.dim # 1) или (dest.dim # 3) то СТОП( 1002 ) всё;
		slen := ArrayXdBytes.Index3( 1, 1, 1 );  slen[dim] := len;
		ArrayXdBytes.CopyArrayPartToArrayPart( src, dest, ArrayXdBytes.Index1( srcx ), ArrayXdBytes.Index1( len ),
																		ArrayXdBytes.Index3( destx, desty, destz ), slen );
	кон CopyVecToCube;

	проц CopyHCubeToVec*( src, dest: Array;  dim: Index;  srcx, srcy, srcz, srct, destx, len: Index );
	перем slen: ArrayXdBytes.IndexArray;
	нач
		если (src.dim # 4) или (dest.dim # 1) то СТОП( 1004 ) всё;
		slen := ArrayXdBytes.Index4( 1, 1, 1, 1 );  slen[dim] := len;
		ArrayXdBytes.CopyArrayPartToArrayPart( src, dest, ArrayXdBytes.Index4( srcx, srcy, srcz, srct ), slen,
																		ArrayXdBytes.Index1( destx ), ArrayXdBytes.Index1( len ) );
	кон CopyHCubeToVec;

	проц CopyVecToHCube*( src, dest: Array;  dim: Index;  srcx, destx, desty, destz, destt, len: Index );
	перем slen: ArrayXdBytes.IndexArray;
	нач
		если (src.dim # 1) или (dest.dim # 4) то СТОП( 1002 ) всё;
		slen := ArrayXdBytes.Index4( 1, 1, 1, 1 );  slen[dim] := len;
		ArrayXdBytes.CopyArrayPartToArrayPart( src, dest, ArrayXdBytes.Index1( srcx ), ArrayXdBytes.Index1( len ),
																		ArrayXdBytes.Index4( destx, desty, destz, destt ), slen );
	кон CopyVecToHCube;

	проц CopyMtxToMtx*( src, dest: Array;  srcx, srcy, destx, desty, lenx, leny: Index );
	перем slen: ArrayXdBytes.IndexArray;
	нач
		если (src.dim # 2) или (dest.dim # 2) то СТОП( 1005 ) всё;
		slen := ArrayXdBytes.Index2( lenx, leny );
		ArrayXdBytes.CopyArrayPartToArrayPart( src, dest, ArrayXdBytes.Index2( srcx, srcy ), slen,
																		ArrayXdBytes.Index2( destx, desty ), slen );
	кон CopyMtxToMtx;

	проц CopyCubeToMtx*( src, dest: Array;  dimx, dimy: Index;  srcx, srcy, srcz, destx, desty, lenx, leny: Index );
	перем slen: ArrayXdBytes.IndexArray;
	нач
		если (src.dim # 3) или (dest.dim # 2) то СТОП( 1005 ) всё;
		slen := ArrayXdBytes.Index3( 1, 1, 1 );  slen[dimx] := lenx;  slen[dimy] := leny;
		ArrayXdBytes.CopyArrayPartToArrayPart( src, dest, ArrayXdBytes.Index3( srcx, srcy, srcz ), slen,
																		ArrayXdBytes.Index2( destx, desty ), ArrayXdBytes.Index2( lenx, leny ) );
	кон CopyCubeToMtx;

	проц CopyMtxToCube*( src, dest: Array;  dimx, dimy: Index;  srcx, srcy, destx, desty, destz, lenx, leny: Index );
	перем slen: ArrayXdBytes.IndexArray;
	нач
		если (src.dim # 2) или (dest.dim # 3) то СТОП( 1005 ) всё;
		slen := ArrayXdBytes.Index3( 1, 1, 1 );  slen[dimx] := lenx;  slen[dimy] := leny;
		ArrayXdBytes.CopyArrayPartToArrayPart( src, dest, ArrayXdBytes.Index2( srcx, srcy ), ArrayXdBytes.Index2( lenx, leny ),
																		ArrayXdBytes.Index3( destx, desty, destz ), slen );
	кон CopyMtxToCube;

	проц CopyHCubeToMtx*( src, dest: Array;  dimx, dimy: Index;  srcx, srcy, srcz, srct, destx, desty, lenx, leny: Index );
	перем slen: ArrayXdBytes.IndexArray;
	нач
		если (src.dim # 4) или (dest.dim # 2) то СТОП( 1005 ) всё;
		slen := ArrayXdBytes.Index4( 1, 1, 1, 1 );  slen[dimx] := lenx;  slen[dimy] := leny;
		ArrayXdBytes.CopyArrayPartToArrayPart( src, dest, ArrayXdBytes.Index4( srcx, srcy, srcz, srct ), slen,
																		ArrayXdBytes.Index2( destx, desty ), ArrayXdBytes.Index2( lenx, leny ) );
	кон CopyHCubeToMtx;

	проц CopyMtxToHCube*( src, dest: Array;  dimx, dimy: Index;
														srcx, srcy, destx, desty, destz, destt, lenx, leny: Index );
	перем slen: ArrayXdBytes.IndexArray;
	нач
		если (src.dim # 2) или (dest.dim # 4) то СТОП( 1005 ) всё;
		slen := ArrayXdBytes.Index4( 1, 1, 1, 1 );  slen[dimx] := lenx;  slen[dimy] := leny;
		ArrayXdBytes.CopyArrayPartToArrayPart( src, dest, ArrayXdBytes.Index2( srcx, srcy ), ArrayXdBytes.Index2( lenx, leny ),
																		ArrayXdBytes.Index4( destx, desty, destz, destt ), slen );
	кон CopyMtxToHCube;

	проц CopyCubeToCube*( src, dest: Array;  srcx, srcy, srcz, destx, desty, destz, lenx, leny, lenz: Index );
	перем slen: ArrayXdBytes.IndexArray;
	нач
		если (src.dim # 3) или (dest.dim # 3) то СТОП( 1005 ) всё;
		slen := ArrayXdBytes.Index3( lenx, leny, lenz );
		ArrayXdBytes.CopyArrayPartToArrayPart( src, dest, ArrayXdBytes.Index3( srcx, srcy, srcz ), slen,
																		ArrayXdBytes.Index3( destx, desty, destz ), slen );
	кон CopyCubeToCube;

	проц CopyHCubeToCube*( src, dest: Array;  dimx, dimy, dimz: Index;
														srcx, srcy, srcz, srct, destx, desty, destz, lenx, leny, lenz: Index );
	перем slen: ArrayXdBytes.IndexArray;
	нач
		если (src.dim # 4) или (dest.dim # 3) то СТОП( 1005 ) всё;
		slen := ArrayXdBytes.Index4( 1, 1, 1, 1 );  slen[dimx] := lenx;  slen[dimy] := leny;  slen[dimz] := lenz;
		ArrayXdBytes.CopyArrayPartToArrayPart( src, dest, ArrayXdBytes.Index4( srcx, srcy, srcz, srct ), slen,
																		ArrayXdBytes.Index3( destx, desty, destz ),
																		ArrayXdBytes.Index3( lenx, leny, lenz ) );
	кон CopyHCubeToCube;

	проц CopyCubeToHCube*( src, dest: Array;  dimx, dimy, dimz: Index;
														srcx, srcy, srcz, destx, desty, destz, destt, lenx, leny, lenz: Index );
	перем slen: ArrayXdBytes.IndexArray;
	нач
		если (src.dim # 3) или (dest.dim # 4) то СТОП( 1005 ) всё;
		slen := ArrayXdBytes.Index4( 1, 1, 1, 1 );  slen[dimx] := lenx;  slen[dimy] := leny;  slen[dimz] := lenz;
		ArrayXdBytes.CopyArrayPartToArrayPart( src, dest, ArrayXdBytes.Index3( srcx, srcy, srcz ),
																		ArrayXdBytes.Index3( lenx, leny, lenz ),
																		ArrayXdBytes.Index4( destx, desty, destz, destt ), slen );
	кон CopyCubeToHCube;

	проц CopyHCubeToHCube*( src, dest: Array;
															srcx, srcy, srcz, srct, destx, desty, destz, destt, lenx, leny, lenz, lent: Index );
	перем slen: ArrayXdBytes.IndexArray;
	нач
		если (src.dim # 4) или (dest.dim # 4) то СТОП( 1005 ) всё;
		slen := ArrayXdBytes.Index4( lenx, leny, lenz, lent );
		ArrayXdBytes.CopyArrayPartToArrayPart( src, dest, ArrayXdBytes.Index4( srcx, srcy, srcz, srct ), slen,
																		ArrayXdBytes.Index4( destx, desty, destz, destt ), slen );
	кон CopyHCubeToHCube;

	проц CopyArrayToVec*( перем src: массив из Value;  dest: Array;  srcx, destx, len: Index );
	нач
		если dest.dim # 1 то СТОП( 1005 ) всё;
		ArrayXdBytes.CheckLEQ( 0, srcx );  ArrayXdBytes.CheckLE( srcx + len, длинаМассива( src ) );
		ArrayXdBytes.CopyMemoryToArrayPart( адресОт( src[srcx] ), dest, len, ArrayXdBytes.Index1( destx ),
																		ArrayXdBytes.Index1( len ) );
	кон CopyArrayToVec;

	проц CopyVecToArray*( src: Array;  перем dest: массив из Value;  srcx, destx, len: Index );
	нач
		если src.dim # 1 то СТОП( 1005 ) всё;
		ArrayXdBytes.CheckLEQ( 0, destx );  ArrayXdBytes.CheckLE( destx + len, длинаМассива( dest ) );
		ArrayXdBytes.CopyArrayPartToMemory( src, адресОт( dest[destx] ), ArrayXdBytes.Index1( srcx ),
																		ArrayXdBytes.Index1( len ), len );
	кон CopyVecToArray;

	проц CopyArrayToMtx*( перем src: массив из массив из Value;  dest: Array;  srcx, srcy, destx, desty, lenx, leny: Index );
	перем srcmem: ArrayXdBytes.ArrayMemoryStructure;
	нач
		если dest.dim # 2 то СТОП( 1005 ) всё;
		srcmem :=
			ArrayXdBytes.MakeMemoryStructure( 2, ArrayXdBytes.Index2( 0, 0 ), ArrayXdBytes.Index2( длинаМассива( src, 1 ), длинаМассива( src, 0 ) ),
																		размер16_от( Value ), адресОт( src[0, 0] ) );
		ArrayXdBytes.CopyArrayPartToArrayPart( srcmem, dest, ArrayXdBytes.Index2( srcx, srcy ),
																		ArrayXdBytes.Index2( lenx, leny ), ArrayXdBytes.Index2( destx, desty ),
																		ArrayXdBytes.Index2( lenx, leny ) );
	кон CopyArrayToMtx;

	проц CopyMtxToArray*( src: Array;  перем dest: массив из массив из Value;  srcx, srcy, destx, desty, lenx, leny: Index );
	перем destmem: ArrayXdBytes.ArrayMemoryStructure;
	нач
		если src.dim # 2 то СТОП( 1005 ) всё;
		destmem :=
			ArrayXdBytes.MakeMemoryStructure( 2, ArrayXdBytes.Index2( 0, 0 ), ArrayXdBytes.Index2( длинаМассива( dest, 1 ), длинаМассива( dest, 0 ) ),
																		размер16_от( Value ), адресОт( dest[0, 0] ) );
		ArrayXdBytes.CopyArrayPartToArrayPart( src, destmem, ArrayXdBytes.Index2( srcx, srcy ),
																		ArrayXdBytes.Index2( lenx, leny ), ArrayXdBytes.Index2( destx, desty ),
																		ArrayXdBytes.Index2( lenx, leny ) );
	кон CopyMtxToArray;

	проц CopyArrayToCube*( перем src: массив из массив из массив из Value;  dest: Array;
													srcx, srcy, srcz, destx, desty, destz, lenx, leny, lenz: Index );
	перем srcmem: ArrayXdBytes.ArrayMemoryStructure;
	нач
		если dest.dim # 3 то СТОП( 1005 ) всё;
		srcmem :=
			ArrayXdBytes.MakeMemoryStructure( 3, ArrayXdBytes.Index3( 0, 0, 0 ),
																		ArrayXdBytes.Index3( длинаМассива( src, 2 ), длинаМассива( src, 1 ), длинаМассива( src, 0 ) ), размер16_от( Value ),
																		адресОт( src[0, 0, 0] ) );
		ArrayXdBytes.CopyArrayPartToArrayPart( srcmem, dest, ArrayXdBytes.Index3( srcx, srcy, srcz ),
																		ArrayXdBytes.Index3( lenx, leny, lenz ),
																		ArrayXdBytes.Index3( destx, desty, destz ),
																		ArrayXdBytes.Index3( lenx, leny, lenz ) );
	кон CopyArrayToCube;

	проц CopyCubeToArray*( src: Array;  перем dest: массив из массив из массив из Value;
													srcx, srcy, srcz, destx, desty, destz, lenx, leny, lenz: Index );
	перем destmem: ArrayXdBytes.ArrayMemoryStructure;
	нач
		если src.dim # 3 то СТОП( 1005 ) всё;
		destmem :=
			ArrayXdBytes.MakeMemoryStructure( 3, ArrayXdBytes.Index3( 0, 0, 0 ),
																		ArrayXdBytes.Index3( длинаМассива( dest, 2 ), длинаМассива( dest, 1 ), длинаМассива( dest, 0 ) ), размер16_от( Value ),
																		адресОт( dest[0, 0, 0] ) );
		ArrayXdBytes.CopyArrayPartToArrayPart( src, destmem, ArrayXdBytes.Index3( srcx, srcy, srcz ),
																		ArrayXdBytes.Index3( lenx, leny, lenz ),
																		ArrayXdBytes.Index3( destx, desty, destz ),
																		ArrayXdBytes.Index3( lenx, leny, lenz ) );
	кон CopyCubeToArray;

	проц CopyArrayToHCube*( перем src: массив из массив из массив из массив из Value;  dest: Array;
														srcx, srcy, srcz, srct, destx, desty, destz, destt, lenx, leny, lenz, lent: Index );
	перем srcmem: ArrayXdBytes.ArrayMemoryStructure;
	нач
		если dest.dim # 4 то СТОП( 1005 ) всё;
		srcmem :=
			ArrayXdBytes.MakeMemoryStructure( 4, ArrayXdBytes.Index4( 0, 0, 0, 0 ),
																		ArrayXdBytes.Index4( длинаМассива( src, 3 ), длинаМассива( src, 2 ), длинаМассива( src, 1 ), длинаМассива( src, 0 ) ), размер16_от( Value ),
																		адресОт( src[0, 0, 0] ) );
		ArrayXdBytes.CopyArrayPartToArrayPart( srcmem, dest, ArrayXdBytes.Index4( srcx, srcy, srcz, srct ),
																		ArrayXdBytes.Index4( lenx, leny, lenz, lent ),
																		ArrayXdBytes.Index4( destx, desty, destz, destt ),
																		ArrayXdBytes.Index4( lenx, leny, lenz, lent ) );
	кон CopyArrayToHCube;

	проц CopyHCubeToArray*( src: Array;  перем dest: массив из массив из массив из массив из Value;
														srcx, srcy, srcz, srct, destx, desty, destz, destt, lenx, leny, lenz, lent: Index );
	перем destmem: ArrayXdBytes.ArrayMemoryStructure;
	нач
		если src.dim # 4 то СТОП( 1005 ) всё;
		destmem :=
			ArrayXdBytes.MakeMemoryStructure( 4, ArrayXdBytes.Index4( 0, 0, 0, 0 ),
																		ArrayXdBytes.Index4( длинаМассива( dest, 3 ), длинаМассива( dest, 2 ), длинаМассива( dest, 1 ), длинаМассива( dest, 0 ) ), размер16_от( Value ),
																		адресОт( dest[0, 0, 0] ) );
		ArrayXdBytes.CopyArrayPartToArrayPart( src, destmem, ArrayXdBytes.Index4( srcx, srcy, srcz, srct ),
																		ArrayXdBytes.Index4( lenx, leny, lenz, lent ),
																		ArrayXdBytes.Index4( destx, desty, destz, destt ),
																		ArrayXdBytes.Index4( lenx, leny, lenz, lent ) );
	кон CopyHCubeToArray;

	проц CopyArrayToArrayPartB*( src: Array;  dest: ArrayXdBytes.ArrayMemoryStructure;  boundaryCondition: цел8;
																srcpos, srclen, destpos, destlen: ArrayXdBytes.IndexArray );

	перем temp: ArrayXdBytes.ArrayMemoryStructure;
		spos, dpos, last, borigin, blen, srcposcut, srclencut, destoffset: ArrayXdBytes.IndexArray;  i, dim: цел32;
		val: Value;  temp2: Array;  enumB: ArrayXdBytes.BoundaryEnum;
		Get: проц {делегат} ( x: массив из Index;
																																													dim: Index ): Value;
		noinbound: булево;  v: Value;

		(* for debugging
			PROCEDURE OutIndex( idx: ArrayXdBytes.IndexArray;  name: ARRAY OF CHAR );
		VAR i: SIGNED32;
		BEGIN
			dbgOut.String( name );
			FOR i := 0 TO LEN( idx ) - 1 DO dbgOut.Int( idx[i], 1 );  dbgOut.String( "," );  END;
			dbgOut.Ln;
		END OutIndex;
		*)

		проц Same( a, b: ArrayXdBytes.IndexArray ): булево;
		нач
			если длинаМассива( a ) # длинаМассива( b ) то возврат ложь всё;
			нцДля i := 0 до длинаМассива( a ) - 1 делай
				если a[i] # b[i] то возврат ложь всё;
			кц;
			возврат истина;
		кон Same;

	нач
		dim := src.dim;
		если boundaryCondition = StrictBoundaryC то
			ArrayXdBytes.CopyArrayPartToArrayPart( src, dest, srcpos, srclen, destpos, destlen );   (* checks are done there *)
		иначе
			srcposcut := ArrayXdBytes.IndexCpy( srcpos );  srclencut := ArrayXdBytes.IndexCpy( srclen );
			нов( enumB, src, srcposcut, srclencut );
			если (Same( srcposcut, srcpos )) и (Same( srclencut, srclen )) то  (* no boundaries *)
				ArrayXdBytes.CopyArrayPartToArrayPart( src, dest, srcpos, srclen, destpos, destlen );  возврат;
			иначе
				просей boundaryCondition из
				PeriodicBoundaryC:
						Get := src.GetXBPeriodic;
				| SymmetricOnBoundaryC:
						Get := src.GetXBSymmetricOnB;
				| SymmetricOffBoundaryC:
						Get := src.GetXBSymmetricOffB;
				| AntisymmetricOnBoundaryC:
						Get := src.GetXBAntisymmetricOnB;
				| AntisymmetricOffBoundaryC:
						Get := src.GetXBAntisymmetricOffB;
				| AbsorbingBoundaryC:
						ArrayXdBytes.FillArrayPart( dest, destpos, destlen, val );   (* fill with 0 first *)
						Get := НУЛЬ;
				всё;
				нов( destoffset, dim );  noinbound := ложь;
				если Same( srclen, destlen ) то  (* same geometry, direct copy to boundary rects can be used*)
					нцДля i := 0 до dim - 1 делай
						destoffset[i] := destpos[i] + srcposcut[i] - srcpos[i];
						если srclencut[i] = 0 то noinbound := истина всё;
					кц;
					если ~noinbound то
						ArrayXdBytes.CopyArrayPartToArrayPart( src, dest, srcposcut, srclencut, destoffset, srclencut );
					всё;
					нцДля i := 0 до dim - 1 делай destoffset[i] := destpos[i] - srcpos[i];  кц;
					temp := dest;
				иначе  (* not the same geometry, direct copy using rectangles cannot be used *)
					нов( temp2, srcpos, srclen );  temp := temp2;
					нцДля i := 0 до dim - 1 делай
						destoffset[i] := 0;
						если srclencut[i] = 0 то noinbound := истина всё;
					кц;
					если ~noinbound то
						ArrayXdBytes.CopyArrayPartToArrayPart( src, temp, srcposcut, srclencut, srcposcut, srclencut );
					всё;
				всё;

				если Get # НУЛЬ то
					нов( spos, dim );  нов( dpos, dim );  нов( last, dim );

					нцПока (enumB.Get( borigin, blen )) делай  (* enumeration of rects describing the region out of range *)
						нцДля i := 0 до dim - 1 делай spos[i] := borigin[i];  last[i] := spos[i] + blen[i];  dpos[i] := spos[i] + destoffset[i] кц;
						нцДо
							v := Get( spos^, dim );
							НИЗКОУР.копируйПамять( адресОт( v ), ArrayXdBytes.AdrX( temp, dpos^, dim ), размер16_от( Value ) );   (* optimize adress handling of destination, compute here ! *)

							(*temp.SetX( dpos^, dim, Get( spos^, dim ) );*) i := 0;  увел( spos[i] );  увел( dpos[i] );
							нцПока (i < dim - 1) и (spos[i] = last[i]) делай
								spos[i] := borigin[i];  dpos[i] := destoffset[i] + borigin[i];  увел( i );  увел( spos[i] );  увел( dpos[i] );
							кц;
						кцПри spos[i] = last[i];
					кц;
				всё;

				если temp # dest то ArrayXdBytes.CopyArrayPartToArrayPart( temp, dest, srcpos, srclen, destpos, destlen );
				всё;

			всё;
		всё;
	кон CopyArrayToArrayPartB;

	операция ":="*( перем l: Array1;  r: Array );
	нач
		если r = НУЛЬ то l := НУЛЬ;  возврат всё;
		ArrayXdBytes.CheckEQ( 1, r.dim );   (*ArrayXdBytes.CheckEQ( r.origin[0], 0 );  *)
		если (l = НУЛЬ ) или (длинаМассива( l ) # r.len[0]) то нов( l, r.len[0] );  всё;
		ArrayXdBytes.CopyArrayToMemory( r, адресОт( l[0] ), длинаМассива( l, 0 ) );
	кон ":=";

	операция ":="*( перем l: Array2;  r: Array );
	нач
		если r = НУЛЬ то l := НУЛЬ;  возврат всё;
		ArrayXdBytes.CheckEQ( 2, r.dim );   (*ArrayXdBytes.CheckEQ( r.origin[0], 0 );  ArrayXdBytes.CheckEQ( r.origin[1], 0 );  *)
		если (l = НУЛЬ ) или (длинаМассива( l, 1 ) # r.len[0]) или (длинаМассива( l, 0 ) # r.len[1]) то нов( l, r.len[1], r.len[0] );  всё;
		ArrayXdBytes.CopyArrayToMemory( r, адресОт( l[0, 0] ), длинаМассива( l, 0 ) * длинаМассива( l, 1 ) );
	кон ":=";

	операция ":="*( перем l: Array3;  r: Array );
	нач
		если r = НУЛЬ то l := НУЛЬ;  возврат всё;
		ArrayXdBytes.CheckEQ( 3, r.dim );   (*ArrayXdBytes.CheckEQ( r.origin[0], 0 );  ArrayXdBytes.CheckEQ( r.origin[1], 0 );  ArrayXdBytes.CheckEQ( r.origin[2], 0 ); *)
		если (l = НУЛЬ ) или (длинаМассива( l, 2 ) # r.len[0]) или (длинаМассива( l, 1 ) # r.len[1]) или (длинаМассива( l, 0 ) # r.len[2]) то нов( l, r.len[2], r.len[1], r.len[0] );  всё;
		ArrayXdBytes.CopyArrayToMemory( r, адресОт( l[0, 0, 0] ), длинаМассива( l, 0 ) * длинаМассива( l, 1 ) * длинаМассива( l, 2 ) );
	кон ":=";

(*
	OPERATOR ":="( VAR l: Array4;  r: Array );
	BEGIN
		IF r = NIL THEN l := NIL;  RETURN END;
		ArrayXdBytes.CheckEQ( 4, r.dim );   (*ArrayXdBytes.CheckEQ( r.origin[0], 0 );  ArrayXdBytes.CheckEQ( r.origin[1], 0 );  ArrayXdBytes.CheckEQ( r.origin[2], 0 );
		ArrayXdBytes.CheckEQ( r.origin[3], 0 );  *)
		IF (l = NIL ) OR (LEN( l, 3 ) # r.len[0]) OR (LEN( l, 2 ) # r.len[1]) OR (LEN( l, 1 ) # r.len[2]) OR (LEN( l, 0 ) # r.len[3]) THEN
			NEW( l, r.len[3], r.len[2], r.len[1], r.len[0] );
		END;
		ArrayXdBytes.CopyArrayToMemory( r, ADDRESSOF( l[0, 0, 0, 0] ), LEN( l, 0 ) * LEN( l, 1 ) * LEN( l, 2 ) * LEN( l, 3 ) );
	END ":=";
*)

	проц Fill*( l: Array;  r: Value );
	нач
		Array1d.Fill( r, l.data^, 0, длинаМассива( l.data ) );
	кон Fill;

(*
	OPERATOR ":="*( VAR l: Array;  r: Value );
	BEGIN
		IF l # NIL THEN Fill( l, r ) END;
	END ":=";

	OPERATOR ":="*( VAR l: Array;  r: IntValue );
	VAR r1: Value;
	BEGIN
		r1 := r; l := r1;
	END ":=";
	*)

	проц Add*( l, r, res: Array );
	нач
		ArrayXdBytes.CheckEqDimensions( l, r );  Array1d.AddAA( l.data^, r.data^, res.data^, 0, длинаМассива( res.data ) );
	кон Add;

	операция "+"*( l, r: Array ): Array;
	перем res: Array;
	нач
		нов( res, l.origin, l.len );  Add( l, r, res );  возврат res;
	кон "+";

	проц Sub*( l, r, res: Array );
	нач
		ArrayXdBytes.CheckEqDimensions( l, r );  Array1d.SubtractAA( l.data^, r.data^, res.data^, 0, длинаМассива( res.data ) );
	кон Sub;

	операция "-"*( l, r: Array ): Array;
	перем res: Array;
	нач
		нов( res, l.origin, l.len );  Sub( l, r, res );  возврат res;
	кон "-";

	проц Mul*( l, r, res: Array );
	нач
		ArrayXdBytes.CheckEqDimensions( l, r );  Array1d.MultAA( l.data^, r.data^, res.data^, 0, длинаМассива( res.data ) );
	кон Mul;

	проц Div*( l, r, res: Array );
	нач
		ArrayXdBytes.CheckEqDimensions( l, r );  Array1d.DivAA( l.data^, r.data^, res.data^, 0, длинаМассива( res.data ) );
	кон Div;

(*
	PROCEDURE Mod*( l, r, res: Array );
	BEGIN
		ArrayXdBytes.CheckEqDimensions( l, r );  Array1d.ModAA( l.data^, r.data^, res.data^, 0, LEN( res.data ) );
	END Mod;
*)

	проц AddAV*( l: Array;  r: Value;  res: Array );
	нач
		Array1d.AddAV( l.data^, r, res.data^, 0, длинаМассива( res.data ) );
	кон AddAV;

(*
	OPERATOR "+"( l: Array;  r: Value ): Array;
	VAR res: Array;
	BEGIN
		NEW( res, l.origin^, l.len^ );  AddAV( l, r, res );  RETURN res;
	END "+";
*)

	операция "+"( l: Array;  r: IntValue ): Array;
	перем res: Array;  r1: Value;
	нач
		нов( res, l.origin, l.len );  r1 := r;  AddAV( l, r1, res );  возврат res;
	кон "+";

(*
	OPERATOR "+"( l: Value;  r: Array ): Array;
	BEGIN
		RETURN r + l
	END "+";
*)

	операция "+"( l: IntValue;  r: Array ): Array;
	нач
		возврат r + l
	кон "+";

	проц MulAV*( l: Array;  r: Value;  res: Array );
	нач
		Array1d.MultAV( l.data^, r, res.data^, 0, длинаМассива( res.data ) );
	кон MulAV;

(*
	OPERATOR "*"( l: Array;  r: Value ): Array;
	VAR res: Array;
	BEGIN
		NEW( res, l.origin^, l.len^ );  MulAV( l, r, res );  RETURN res;
	END "*";
*)

(*
	OPERATOR "*"( l: Value;  r: Array ): Array;
	BEGIN
		RETURN r * l
	END "*";
*)

	операция "*"( l: Array;  r: IntValue ): Array;
	перем res: Array;  r1: Value;
	нач
		нов( res, l.origin, l.len );  r1 := r;  MulAV( l, r1, res );  возврат res;
	кон "*";

	операция "*"( l: IntValue;  r: Array ): Array;
	нач
		возврат r * l
	кон "*";

	проц DivAV*( l: Array;  r: Value;  res: Array );
	нач
		Array1d.DivAV( l.data^, r, res.data^, 0, длинаМассива( res.data ) );
	кон DivAV;

(*
	OPERATOR "/"( l: Array;  r: Value ): Array;
	VAR res: Array;
	BEGIN
		NEW( res, l.origin^, l.len^ );  DivAV( l, r, res );  RETURN res;
	END "/";

	OPERATOR "/"( l: Array;  r: IntValue ): Array;
	VAR res: Array;  r1: Value;
	BEGIN
		NEW( res, l.origin^, l.len^ );  r1 := r;  DivAV( l, r1, res );  RETURN res;
	END "/";
*)

	проц DivVA*( l: Value;  r: Array;  res: Array );
	нач
		Array1d.DivVA( l, r.data^, res.data^, 0, длинаМассива( res.data ) );
	кон DivVA;

(*
	OPERATOR "/"( l: Value;  r: Array ): Array;
	VAR res: Array;
	BEGIN
		NEW( res, r.origin^, r.len^ );  DivVA( l, r, res );  RETURN res;
	END "/";
*)

	операция "/"( l: IntValue;  r: Array ): Array;
	перем res: Array;  l1: Value;
	нач
		нов( res, r.origin, r.len );  l1 := l;  DivVA( l1, r, res );  возврат res;
	кон "/";

(*
	PROCEDURE ModAV*( l: Array;  r: Value;  res: Array );
	BEGIN
		Array1d.ModAV( l.data^, r, res.data^, 0, LEN( res.data ) );
	END ModAV;

	OPERATOR "MOD"( l: Array;  r: Value ): Array;
	VAR res: Array;
	BEGIN
		NEW( res, l.origin^, l.len^ );  ModAV( l, r, res );  RETURN res;
	END "MOD";

	PROCEDURE ModVA*( l: Value;  r: Array;  res: Array );
	BEGIN
		Array1d.ModVA( l, r.data^, res.data^, 0, LEN( res.data ) );
	END ModVA;

	OPERATOR "MOD"( l: Value;  r: Array ): Array;
	VAR res: Array;
	BEGIN
		NEW( res, r.origin^, r.len^ );  ModVA( l, r, res );  RETURN res;
	END "MOD";
*)

	проц SubAV*( l: Array;  r: Value;  res: Array );
	нач
		Array1d.SubtractAV( l.data^, r, res.data^, 0, длинаМассива( res.data ) );
	кон SubAV;

(*
	OPERATOR "-"( l: Array;  r: Value ): Array;
	VAR res: Array;
	BEGIN
		NEW( res, l.origin^, l.len^ );  SubAV( l, r, res );  RETURN res;
	END "-";

	OPERATOR "-"( l: Array;  r: IntValue ): Array;
	VAR res: Array;  r1: Value;
	BEGIN
		NEW( res, l.origin^, l.len^ );  r1 := r;  SubAV( l, r1, res );  RETURN res;
	END "-";
*)

	проц SubVA*( l: Value;  r: Array;  res: Array );
	нач
		Array1d.SubtractVA( l, r.data^, res.data^, 0, длинаМассива( res.data ) );
	кон SubVA;

	операция "-"*( l: Value;  r: Array ): Array;
	перем res: Array;
	нач
		нов( res, r.origin, r.len );  SubVA( l, r, res );  возврат res;
	кон "-";

	операция "-"*( l: IntValue;  r: Array ): Array;
	перем res: Array;  l1: Value;
	нач
		нов( res, r.origin, r.len );  l1 := l;  SubVA( l1, r, res );  возврат res;
	кон "-";
(* The procedures needed to register an arbitrary Array so that its instances can be made persistent. *)
	проц LoadArray( R: DataIO.Reader;  перем obj: окласс );
	перем a: Array;  version: цел8;  ver: NbrInt.Integer;
	нач
		R.чЦел8_мз( version );
		если version = -1 то
			obj := НУЛЬ  (* Version tag is -1 for NIL. *)
		иначе
			если version = VERSION то нов( a, ArrayXdBytes.Array1( 0 ), ArrayXdBytes.Array1( 0 ) );  a.LoadXd( R );  obj := a
					иначе  (* Encountered an unknown version number. *)
				ver := version;  DataErrors.IntError( ver, "Alien version number encountered." );  СТОП( 1000 )
			всё
		всё
	кон LoadArray;

	проц StoreArray( W: DataIO.Writer;  obj: окласс );
	перем a: Array;
	нач
		если obj = НУЛЬ то W.пЦел8_мз( -1 ) иначе W.пЦел8_мз( VERSION );  a := obj( Array );  a.StoreXd( W, истина ) всё
	кон StoreArray;

	проц Register;
	перем a: Array;
	нач
		нов( a, ArrayXdBytes.Array1( 0 ), ArrayXdBytes.Array1( 0 ) );  DataIO.PlugIn( a, LoadArray, StoreArray )
	кон Register;

(** Load and Store are procedures for external use that read/write an instance of an arbitrary array from/to a file. *)
	проц Load*( R: DataIO.Reader;  перем obj: Array );
	перем ptr: окласс;
	нач
		R.Object( ptr );  obj := ptr( Array )
	кон Load;

	проц Store*( W: DataIO.Writer;  obj: Array );
	нач
		W.Object( obj )
	кон Store;

нач
	Register
кон ArrayXdRat.
