модуль CDRecord;

(*
References:
	Mt. Fuji Commands for Multimedia Devices (SFF8090i v6)
	ECMA-130 Data interchange on read-only 120 mm optical data disks
*)

использует НИЗКОУР, Kernel, ATADisks, Lib := CDRecordLib, Utils := CDRecordUtils, Disks, Plugins, ЛогЯдра, Files, Strings, Objects, MakeIsoImages;

конст
	ResOk=0; ResErr=1;
	Debug = ложь;
	UseDma = истина;
	UseBufferedReader = истина;
	MaxRecorders* = 2;
	BufferSize = 16*1024*1024;

	RawSectorSize = 2352;
	BlockSize = 2048;
	DataSectorSize = 2048; (* Yellow Book Mode 1 *)
	AudioSectorSize = RawSectorSize;
	TrackLimit = 99;
	TransferSize = 200; (* in sectors *)
	MinTrackSize = 300; (* in sectors *)
	DefaultPregap = 150; (* in sectors *)
	InitialPregap = 150; (* initial pregap which is not accessible with logical addressing *)

	(* incremental writing *)
	NoRunInBlocks = 2;
	NoRunOutBlocks = 1;
	NoLinkBlocks = 4;

	FifoSize = 16*1024*1024;
	ListCurrentMaxSpeeds = ложь; (* not recommended *)
	NotificationPeriod = 1000; (* client is informed every NotificationPeriod about status *)

	SingleSpeed* = 176; (* kByte/s *)

	(* Burn Settings *)
	TrackAtOnce* = Lib.WTTao; SessionAtOnce* = Lib.WTSao;

	tnoLeadout* = 0AAH; (* track number of lead out*)
	(* Track Types *)
	AudioTrack* = 0; DataTrack* = 1;

	BestSpeed = 0FFFFH;
	(* track properties *)

	(* media functions *)
	MFCdRw* = 0; MFCdr* = 1; MFSao* = 2; MFBufe* = 3; MFMultisession* = 4; MFCaddy* = 5; MFTray* = 6; MFPopup* = 7;

	(* Errors *)
	ErrFileNotFound* = 3000;
	ErrTrackSizeExceeded* = 3001;
	ErrNotEnoughFreeSpace* = 3003;
	ErrNoMediumPresent* = 3004;
	ErrDriveNotReady* = 3005;
	ErrNoIsoFile* = 3006;
	ErrWrongWaveFile* = 3007; (* not an appropriate wav file (must be 16 bit encoded, 44.1kHz and 2 channel) *)
	ErrCalibrationFailed* = 3008;
	ErrDiscNotEmpty* = 3009;
	ErrCDRWNotEmpty* = 3010;
	ErrDiscNotAppendable*=  3011;
	ErrCDRWNotAppendable* = 3012;
	ErrSendingCueSheet* = 3013;
	ErrIncompatibleMedium* = 3014;
	ErrWriting* = 3015;
	ErrVerificationFailed* = 3016;

	(* record operations *)
	Writing* = 0; ClosingTrack* = 1; ClosingSession* = 2; SendingCueSheet* = 3; Calibrating* = 4; FillingFifo* = 5; FlushingCache* = 6; Verifying* = 7;
тип
	Buffer = укль на массив из симв8;

	Capabilities* = запись
		writeSpeeds* : укль на массив из цел32;
		mediaFunc* : мнвоНаБитахМЗ;
	кон;

	WriteParams = запись
		writeType, multisession, trackMode, DBType: цел32;
		testWrite, bufe: булево;
	кон;

	RecordingStatus* = окласс(Utils.Status)
	перем
		currentSpeed*: цел32; (* raw speed *)
		freeBuffer*, bufferSize*, operation*, secsTransferred*, secsVerified*: цел32;
		empty*: цел32; (* number of times sw buffer was empty *)
	кон RecordingStatus;

	BurnSettings* = запись
		writeType*: цел32;
		verify*, bufe*, multisession*, append*: булево;
		speed*: цел32;
	кон;

	Disc* = окласс
		перем
			erasable*: булево;
			status*, statusLastSession*, nofSessions*: цел32;
			usedBlocks*, freeBlocks*: цел32;
			type*: цел32;
			latestLeadOut*: MSF;
	кон Disc;

	(* extended disc information for CDR/CDRW media*)
	DiscEx* = окласс(Disc)
		перем
			refSpeed*: цел32; (* valid only for CDRW *)
			minSpeed*, maxSpeed*: цел32;
			subtype*: цел32;
	кон DiscEx;

	Track = окласс
		перем
			tno, padding, nofsecs, startSec, secsize, type: цел32;
			bytespt: цел32; (* bytes per transfer *)
			secspt: цел32; (* secs per transfer *)
			pregap: цел32; (* pregap in sectors *)
			size: цел32; (* size of track in bytes *)
			permission: булево;

		проц &New*(tno, trackType: цел32; permitCopy: булево);
		нач
			сам.tno := tno;
			сам.permission := permitCopy;
			сам.type := trackType;
			если type = AudioTrack то
				secsize := AudioSectorSize;
			иначе
				secsize := DataSectorSize;
			всё;
			secspt := TransferSize;
			bytespt := secsize*secspt;
		кон New;
	кон Track;

	InformationTrack* = окласс(Track)
		перем
			file-: Files.File;

		проц &NewInfTrack*(tno, trackType: цел32; permitCopy: булево; file: Files.File);
		нач
			New(tno, trackType, permitCopy);
			сам.file := file;
			pregap := DefaultPregap;
			InitTrack();
		кон NewInfTrack;

		проц InitTrack;
		нач
			padding := 0;
			nofsecs := file.Length()(цел32) DIV secsize;
			если file.Length() остОтДеленияНа secsize # 0 то
				увел(nofsecs);
				padding := secsize - (file.Length()(цел32) остОтДеленияНа secsize);
			всё;
			если nofsecs < MinTrackSize то
				увел(padding, (MinTrackSize - nofsecs) * secsize);
				nofsecs := MinTrackSize;
			всё;
			size := nofsecs*secsize;
		кон InitTrack;
	кон InformationTrack;

	MSF = запись
		min, sec, frame: цел32;
	кон;

	CueSheetEntry = запись
			ctladr, tNo, index, dataForm: симв8;
			scms, min, sec, frame: симв8;
	кон;

	CueSheet = окласс
		перем
			nofEntries, cur: цел32;
			adr: адресВПамяти;
			buf: укль на массив из CueSheetEntry;

		проц &New*(compilation: Compilation);
		нач
			nofEntries := 2*compilation.nofTracks - 2;
			нов(buf, nofEntries);
			adr := адресОт(buf[0]);
			GenerateSheet(compilation.tracks, compilation.nofTracks);
		кон New;

		проц GenerateSheet(конст tracks: массив из Track; nofTracks: цел32);
		перем
			i: цел32;
			df: симв8;
		нач
			нцДля i := 0 до nofTracks - 1 делай
				если i = 0 то (* leadin *)
					Lib.SetField(df, Lib.DFMMask, Lib.DFMOfs, Lib.DFMLeadin);
					AddEntry(tracks[i], 0, df);
				аесли i = nofTracks-1 то (* leadout *)
					Lib.SetField(df, Lib.DFMMask, Lib.DFMOfs, Lib.DFMLeadout);
					AddEntry(tracks[i], 1, df);
				иначе
					если tracks[i].type = AudioTrack то
						Lib.SetField(df, Lib.DFMMask, Lib.DFMOfs, Lib.DFMDigitalAudio);
					иначе
						Lib.SetField(df, Lib.DFMMask, Lib.DFMOfs, Lib.DFMCdRomMode1);
					всё;
					(* we always add index 0 even if there is no pregap*)
					AddEntry(tracks[i], 0, df);
					AddEntry(tracks[i], 1, df);
				всё;
			кц;
		кон GenerateSheet;

		проц AddEntry(track: Track; index: цел32; df: симв8);
		перем
			ctladr: симв8;
			startSec: цел32;
			msf: MSF;
			entry: CueSheetEntry;
			nibble: мнвоНаБитахМЗ; (* q channel nibble *)
		нач
			startSec := track.startSec;
			если index = 0 то
				умень(startSec, track.pregap);
			всё;

			nibble := {};
			если track.type = DataTrack то включиВоМнвоНаБитах(nibble, Lib.QCDataTrack) всё;
			если track.permission то включиВоМнвоНаБитах(nibble, Lib.QCCopyPermitted) всё;
			Lib.SetField(ctladr, Lib.CTLMask, Lib.CTLOfs, НИЗКОУР.подмениТипЗначения(цел32, nibble));
			Lib.SetField(ctladr, Lib.ADRMask, Lib.ADROfs, Lib.ADRTno);

			SectorToMsf(startSec, msf);

			entry.ctladr := ctladr;
			entry.tNo := симв8ИзКода(track.tno);
			entry.index := симв8ИзКода(index);
			entry.dataForm := df;
			entry.scms := 0X;
			entry.min := симв8ИзКода(msf.min);
			entry.sec := симв8ИзКода(msf.sec);
			entry.frame :=симв8ИзКода(msf.frame);

			buf[cur] := entry;
			увел(cur);
		кон AddEntry;

		проц Print;
		перем
			i: цел32;
			entry: CueSheetEntry;
		нач
			ЛогЯдра.пВК_ПС;
			нцДля i := 0 до nofEntries - 1 делай
				entry := buf[i];
				ЛогЯдра.пЦел64(кодСимв8(entry.ctladr), 5);
				ЛогЯдра.пЦел64(кодСимв8(entry.tNo), 5);
				ЛогЯдра.пЦел64(кодСимв8(entry.index), 5);
				ЛогЯдра.пЦел64(кодСимв8(entry.dataForm), 5);
				ЛогЯдра.пЦел64(кодСимв8(entry.scms), 5);
				ЛогЯдра.пЦел64(кодСимв8(entry.min), 5);
				ЛогЯдра.пЦел64(кодСимв8(entry.sec), 5);
				ЛогЯдра.пЦел64(кодСимв8(entry.frame), 5);
				ЛогЯдра.пВК_ПС;
			кц;
		кон Print;
	кон CueSheet;

	Compilation* = окласс
	перем
		nofTracks-, totalSize-: цел32;
		tracks-: массив TrackLimit из Track;

		проц &New*;
		нач
			nofTracks := 0;
			totalSize := -InitialPregap; (* 150 sector pregap of first track is not accessible with logical addressing *)
		кон New;

		проц Finish*;
		перем
			i: цел32;
		нач
			утв(nofTracks >= 1);

			(* leadin *)
			нов(tracks[0], 0H, tracks[1].type, tracks[1].permission);
			tracks[0].pregap := InitialPregap;
			увел(nofTracks, 1);

			(* leadout *)
			нов(tracks[nofTracks], tnoLeadout, tracks[nofTracks-1].type, tracks[nofTracks-1].permission);
			увел(nofTracks, 1);
			(* set the start sector for each track *)

			нцДля i := 1 до nofTracks-1 делай
				увел(totalSize, tracks[i].pregap);
				tracks[i].startSec := totalSize;
				увел(totalSize, tracks[i].nofsecs);
			кц;
		кон Finish;

		(* Returns the number of total sectors *)
		проц GetSize*(raw, secs: булево): цел32;
		перем
			i, size: цел32;
		нач
			size := 0;
			если raw то (* incl lead in  ... *)
				нцДля i := 1 до nofTracks - 1 делай
					если secs то
						увел(size, tracks[i].nofsecs + tracks[i].pregap);
					иначе
						увел(size, tracks[i].nofsecs * tracks[i].secsize + tracks[i].pregap*tracks[i].secsize);
					всё;
				кц;
			иначе
				нцДля i := 1 до nofTracks -2 делай
					если secs то
						увел(size, tracks[i].nofsecs);
					иначе
						увел(size, tracks[i].nofsecs * tracks[i].secsize);
					всё;
				кц;
			всё;
			возврат size;
		кон GetSize;

		проц AddTrack*(filename: Strings.String; trackType : цел32; permitCopy: булево) : целМЗ;
		перем
			res: целМЗ;
			track: InformationTrack;
			file: Files.File;
		нач
			если nofTracks >= TrackLimit то
				возврат ErrTrackSizeExceeded;
			аесли FileExists(filename) то
				если trackType = AudioTrack то
					если ~IsWavFile(filename) то
						возврат ErrWrongWaveFile;
					всё;
				иначе
					если ~IsIsoFile(filename) то
						возврат ErrNoIsoFile;
					всё;
				всё;
				увел(nofTracks, 1);
				file := Files.Old(filename^);
				нов(track, nofTracks, trackType, permitCopy, file);
				tracks[nofTracks] := track;
				res := ResOk;
			иначе
				res := ErrFileNotFound;
			всё;
			возврат res;
		кон AddTrack;
	кон Compilation;

	CDRecorder* = окласс
		перем
			cap*: Capabilities;
			dev*: ATADisks.DeviceATAPI;
			recStatus*: RecordingStatus;
			onRecordStatusChanged: Utils.StatusProc;
			name*: массив 128 из симв8;
			reader: Reader;
			locked*: булево;
			dma*: булево;
			timer: Kernel.Timer;

		проц &New*(перем dev: ATADisks.DeviceATAPI; cap: Capabilities);
		нач
			сам.dev := dev;
			dma := ATADisks.DMABit в НИЗКОУР.подмениТипЗначения(мнвоНаБитахМЗ, dev.id.type);
			сам.cap := cap;
			копируйСтрокуДо0(dev.desc, name);
			onRecordStatusChanged := НУЛЬ;
			нов(timer);
		кон New;

		проц UpdateCapacity*;
		перем
			size: цел32; res: целМЗ;
		нач
			dev.GetSize(size, res);
		кон UpdateCapacity;

		проц GetBufferCapacity(перем totalCapacity, unusedCapacity: цел32): целМЗ;
		перем
			capacity: Lib.BufferCapacity;
			res: целМЗ;
		нач
			res := Lib.ReadBufferCapacity(dev, ложь, адресОт(capacity), размер16_от(Lib.BufferCapacity));
			если res = ResOk то
				totalCapacity := Utils.ConvertBE32Int(capacity.BufferLength);
				unusedCapacity := Utils.ConvertBE32Int(capacity.BlankLength);
			всё;
			возврат res;
		кон GetBufferCapacity;

		проц Record*(перем compilation: Compilation; settings: BurnSettings; onRecordStatusChanged: Utils.StatusProc): целМЗ;
		перем
			disc: Disc;
			res: целМЗ; i, op, nwa, secs: цел32;
			nibble: мнвоНаБитахМЗ; (* the control nibble of the q channel *)
			params: WriteParams;
			cuesheet: CueSheet;
			track: InformationTrack;
			uReader: UnbufferedReader;
			bufReader: BufferedReader;
		нач {единолично}
			сам.onRecordStatusChanged := onRecordStatusChanged;
			нов(recStatus);
			нов(disc);
			res := GetDiscInfo(disc);
			если res # ResOk то возврат res всё;

			если settings.append  то
				если (disc.status # Lib.DSEmpty) и (disc.status # Lib.DSAppendable) то
					если disc.erasable то
						возврат ErrCDRWNotAppendable;
					иначе
						возврат ErrDiscNotAppendable;
					всё;
				всё;
			иначе
				если (disc.status # Lib.DSEmpty) то
					если  disc.erasable то
						возврат ErrCDRWNotEmpty;
					иначе
						возврат ErrDiscNotEmpty;
					всё;
				всё;
			всё;

			если compilation.GetSize(истина, истина) > disc.freeBlocks то возврат ErrNotEnoughFreeSpace всё;
			Lock();
			если SetWriteSpeed(settings.speed) # ResOk то Abort(); возврат ResErr всё;

			recStatus.operation := Calibrating; StatusChanged();
			если Lib.SendOPCInformation(dev, истина) # ResOk то Abort(); возврат ErrCalibrationFailed всё;

			(* IF settings.verify THEN op := ATADisks.WriteAndVerify ELSE op := Disks.Write END; *)
			op := Disks.Write; (* we only verify after having written the whole compilation *)
			InitWriteParams(settings, params);

			если UseBufferedReader то
				нов(bufReader, compilation, TransferSize*RawSectorSize);
				recStatus.operation := FillingFifo; StatusChanged();
				bufReader.Init();
				reader := bufReader;
			иначе
				нов(uReader, compilation, TransferSize*RawSectorSize);
				reader := uReader;
			всё;

			если settings.writeType = SessionAtOnce то
				если SetWriteParams(params, ложь) # ResOk то Abort(); возврат ResErr всё;
				если Debug то res := PrintWriteParams() всё;
				нов(cuesheet, compilation);
				если Debug то cuesheet.Print() всё;
				recStatus.operation := SendingCueSheet; StatusChanged();
				если Lib.SendCueSheet(dev, cuesheet.adr, cuesheet.nofEntries*размер16_от(CueSheetEntry)) # ResOk то
					res := dev.RequestSense(); Abort(); возврат ErrSendingCueSheet;
				всё;
				(* in case of multisession. but most recorder don't support multisession in sao mode anyway *)
				если Lib.GetNextAddress(dev, nwa) # ResOk то возврат ResErr всё;
				(* some drive return wrong start sec for sao if disc is empty *)
				если nwa <= 0 то nwa := -InitialPregap всё;
				если settings.multisession  то
					нцДля i := 0 до compilation.nofTracks - 1 делай
						увел(compilation.tracks[i].startSec, nwa + InitialPregap);
					кц;
				всё;
			всё;

			(* Read Capacity returns a capacity of 1 for empty media so we have to set it explicitly*)
			MsfToSector(disc.latestLeadOut, secs);
			dev.SetCapacity(secs);
			исключиИзМнваНаБитах(dev.flags, Disks.ReadOnly);

			нцДля i := 1 до compilation.nofTracks-2 делай
				track := compilation.tracks[i](InformationTrack);
				(* set blockSize *)
				dev.SetBlockSize(track.secsize);

				если settings.writeType = TrackAtOnce то
					nibble := {};
					если track.type = DataTrack то
						включиВоМнвоНаБитах(nibble, Lib.QCDataTrack);
						params.DBType := Lib.DBIsoMode1;
					иначе
						params.DBType := Lib.DBRaw;
					всё;
					если track.permission то включиВоМнвоНаБитах(nibble, Lib.QCCopyPermitted) всё;
					params.trackMode := НИЗКОУР.подмениТипЗначения(цел32, nibble);
					если (SetWriteParams(params, ложь) # ResOk) или (Lib.GetNextAddress(dev, track.startSec) # ResOk) то Abort(); возврат ResErr всё;
					если Debug то res := PrintWriteParams() всё;
				иначе
					res := PadTrack(op, track);
					если res # ResOk то Abort(); возврат ErrWriting всё;
				всё;
				res := WriteTrack(op, track);
				если res # ResOk то Abort(); возврат ErrWriting всё;

				если settings.writeType = TrackAtOnce то
					(* close Track: Write PMA *)
					recStatus.operation := ClosingTrack; StatusChanged();
					res := Lib.CloseTrackSess(dev, истина, Lib.CFTrack, Lib.TRInvisible);
					WaitUntilFinished();
				всё;
			кц;
			если settings.writeType = TrackAtOnce то
				(* close Session: write PMA to toc *)
				recStatus.operation := ClosingSession; StatusChanged();
				res := Lib.CloseTrackSess(dev, истина, Lib.CFSession, Lib.Ignore);
			иначе
				recStatus.operation := FlushingCache; StatusChanged();
				res := Lib.SynchronizeCache(dev, истина);
			всё;
			WaitUntilFinished();
			если settings.verify то
				recStatus.operation := Verifying; StatusChanged();
				если VerifyCompilation(compilation) # ResOk то
					если Debug то GetSense(dev) всё;
					Abort(); возврат ErrVerificationFailed
				всё;
			всё;
			Unlock();
			включиВоМнвоНаБитах(dev.flags, Disks.ReadOnly);
			если (reader # НУЛЬ) и (reader суть BufferedReader) то
				recStatus.empty := reader(BufferedReader).empty;
			иначе
				recStatus.empty := -1;
			всё;
			reader := НУЛЬ;
			возврат ResOk;
		кон Record;

		проц InitWriteParams(перем settings: BurnSettings; перем params: WriteParams);
		нач
			params.writeType := settings.writeType;
			params.bufe := settings.bufe;
			если settings.multisession то
				params.multisession := Lib.MSNextSessB0;
			иначе
				params.multisession := Lib.MSNoNextSessNoB0;
			всё;
		кон InitWriteParams;

		(* only data tracks are verified. reading DA is not accurate enough since there is no sync pattern. *)
		проц VerifyCompilation(compilation: Compilation): целМЗ;
		перем
			i: цел32;
			track: InformationTrack;
		нач
			(* reloading not possible for notebook drives but LMT is the same in the capability page *)
			(*
			Unlock();
			IF (dev.MediaEject(FALSE, FALSE) # ResOk) OR (dev.MediaEject(FALSE, TRUE) # ResOk) THEN
				Abort(); RETURN ResErr;
			END;
			Lock();
			WHILE (~IsReady()) & (~CheckNoMediumPresent()) DO
				GetSense(dev);
				Objects.Yield();
			END;
			*)
			нцДля i := 1 до compilation.nofTracks-2 делай
				track := compilation.tracks[i](InformationTrack);
				если (track.type = DataTrack) и (VerifyTrack(track) # ResOk) то возврат ResErr всё;
			кц;
			возврат ResOk;
		кон VerifyCompilation;

		проц VerifyTrack(track: InformationTrack): целМЗ;
		перем
			lba, secs, nofBlocks, timestamp, ofs: цел32;
			discBuf: укль на массив из цел32;
			fileBuf: укль на массив из симв8;
			count: размерМЗ;
			r: Files.Reader;
		нач
			(*
			IF track.type = DataTrack THEN
				type := Lib.STMode1;
			ELSE
				type := Lib.STCdDa;
			END;
			flags := Lib.HNone + Lib.UserData + Lib.EFNone;
			*)
			утв(track.type = DataTrack);
			dev.SetBlockSize(track.secsize);
			timestamp := Kernel.GetTicks ();
			нов(discBuf, track.bytespt DIV 4);
			нов(fileBuf, track.bytespt + 4);
			ofs := НИЗКОУР.подмениТипЗначения (цел32, 4 - адресОт(fileBuf^) остОтДеленияНа 4);

			Files.OpenReader(r, track.file, 0);
			secs := track.nofsecs; lba := track.startSec;
			nofBlocks := track.secspt;
			нцПока secs > 0 делай
				если secs < track.secspt то
					nofBlocks := secs;
				всё;
				если dev.TransferEx(Disks.Read, lba, nofBlocks, адресОт(discBuf^), dma и UseDma) # ResOk то возврат ResErr всё;
				(* IF Lib.ReadCD(dev, lba, nofBlocks, ADDRESSOF(discBuf^), nofBlocks*track.secsize, type, Lib.SCNoData, flags, dma & UseDma) # ResOk THEN RETURN ResErr END; *)

				r.чБайты(fileBuf^, ofs, nofBlocks*track.secsize, count);
				если ~CompareData(адресОт(fileBuf^) + ofs, адресОт(discBuf^), nofBlocks*track.secsize) то возврат ResErr всё;
				увел(lba, nofBlocks); умень(secs, nofBlocks);

				увел(recStatus.secsVerified, nofBlocks);
				если Kernel.GetTicks () - timestamp >= NotificationPeriod то
					StatusChanged();
				всё;
			кц;
			StatusChanged();
			возврат ResOk;
		кон VerifyTrack;

		проц CompareData(adr1, adr2: адресВПамяти; len: цел32): булево;
		перем
			i: цел32;
		нач
			нцДля i:= 0 до (len DIV 4) - 1 делай
				если НИЗКОУР.прочти32битаПоАдресу(adr1) # НИЗКОУР.прочти32битаПоАдресу(adr2) то ЛогЯдра.пСтроку8("ERROR"); возврат ложь всё;
				увел(adr1, 4); увел(adr2, 4);
			кц;
			возврат истина;
		кон CompareData;

		проц Abort;
		перем
			size: цел32; res: целМЗ;
		нач
			Unlock();
			(* restore previous blockSize *)
			dev.GetSize(size, res);
			включиВоМнвоНаБитах(dev.flags, Disks.ReadOnly);
			если (reader # НУЛЬ) и (reader суть BufferedReader) то
				reader(BufferedReader).Abort();
			всё;
			reader := НУЛЬ;
		кон Abort;

		проц Write(op, startSec, nofBlocks: цел32; adr: адресВПамяти): целМЗ;
		перем
			res: целМЗ;
		нач
			нц
				res := dev.TransferEx(op, startSec, nofBlocks, adr, dma и UseDma);
				если (res # ResOk) и IsInProgress() то
					timer.Sleep(150);
				иначе
					прервиЦикл;
				всё;
			кц;
			возврат res;
		кон Write;

		проц PadTrack(op: цел32; track: InformationTrack) : целМЗ;
		перем
			res: целМЗ;
			startSec, secsToPad, nofBlocks: цел32;
			buf: укль на массив из симв8;
		нач
			recStatus.operation := Writing;
			StatusChanged();
			secsToPad := track.pregap;
			нов(buf, track.bytespt);
			если secsToPad >= track.secspt то
				(* Utils.ClearBuffer(buf^, 0, track.bytespt); *) (* memory is already cleared on allocation *)
			иначе
				(* Utils.ClearBuffer(buf^, 0, secsToPad*track.secsize); *) (* memory is already cleared on allocation *)
			всё;

			startSec := track.startSec - track.pregap;
			нцДо
				если secsToPad >= track.secspt то
					nofBlocks := track.secspt;
				иначе
					nofBlocks := secsToPad;
				всё;

				res := Write(op, startSec, nofBlocks, адресОт(buf^));

				если res # ResOk то возврат ResErr всё;
				увел(startSec, nofBlocks);

			кцПри startSec >= track.startSec;
			возврат res;
		кон PadTrack;

		проц WriteTrack(op: цел32; перем track: InformationTrack) : целМЗ;
		перем
			res: целМЗ; startSec, bytesRead, count, nofBlocks: цел32;
			timestamp, lastSecs: цел32;
			buf: Buffer;
		нач
			lastSecs := recStatus.secsTransferred;
			startSec := track.startSec;
			recStatus.operation := Writing;
			StatusChanged();
			timestamp := Kernel.GetTicks ();

			нцДо
				count := reader.GetBuffer(buf)(цел32);
				nofBlocks := count DIV track.secsize;

				res := Write(op, startSec, nofBlocks, адресОт(buf^));
				если res # ResOk то возврат ResErr всё;

				увел(startSec, nofBlocks);
				увел(bytesRead, count);
				reader.ReleaseBuffer();

				увел(recStatus.secsTransferred, nofBlocks);
				если Kernel.GetTicks () - timestamp >= NotificationPeriod то
					recStatus.currentSpeed := арифмСдвиг(1000*((RawSectorSize * (recStatus.secsTransferred-lastSecs)) DIV (Kernel.GetTicks () - timestamp)) , -10);
					res := GetBufferCapacity(recStatus.bufferSize, recStatus.freeBuffer);
					StatusChanged();
					timestamp := Kernel.GetTicks (); lastSecs := recStatus.secsTransferred;
				всё;
			кцПри bytesRead >= track.size;

			recStatus.currentSpeed := 0;
			recStatus.freeBuffer := recStatus.bufferSize;
			возврат ResOk;
		кон WriteTrack;

		проц SetWriteSpeed(speed: цел32): целМЗ;
		нач
			возврат Lib.SetCDSpeed(dev, BestSpeed, speed*SingleSpeed, 0H);
		кон SetWriteSpeed;

		проц IsReady*(): булево;
		нач
			возврат dev.TestUnitReady() = ResOk;
		кон IsReady;

		проц GetDiscInfo*(disc: Disc): цел32;
		перем
			info: Lib.DiscInfo;
			res: целМЗ; secsize,secs, nwa: цел32;
		нач
			если dev.TestUnitReady() # ResOk то
				res := dev.RequestSense();
				если CheckNoMediumPresent() то
					возврат ErrNoMediumPresent;
				иначе
					возврат  ErrDriveNotReady;
				всё;
			всё;

			если dev.ReadCapacity(secsize, disc.usedBlocks) # ResOk то возврат ResErr всё;

			если  Lib.ReadDiscInformation(dev, Lib.DTDiscInfoBlock, адресОт(info), размер16_от(Lib.DiscInfo)) # ResOk то возврат ResErr всё;

			disc.erasable := Lib.DIBErasableBit в НИЗКОУР.подмениТипЗначения(мнвоНаБитахМЗ, info.Byte2);
			disc.status := Lib.GetField(info.Byte2, Lib.DIBDiscStatusMask, Lib.DIBDiscStatusOfs);
			disc.statusLastSession := Lib.GetField(info.Byte2, Lib.DIBSessionStatusMask, Lib.DIBSessionStatusOfs);

			disc.nofSessions := кодСимв8(info.NofSessions);
			disc.type := кодСимв8(info.DiscType);

			disc.latestLeadOut.min := кодСимв8(info.LastLeadOut[1]);
			disc.latestLeadOut.sec := кодСимв8(info.LastLeadOut[2]);
			disc.latestLeadOut.frame := кодСимв8(info.LastLeadOut[3]);

			если disc.status = Lib.DSComplete то
				disc.freeBlocks := 0;
			иначе
				если Lib.GetNextAddress(dev, nwa) # ResOk то возврат ResErr всё;
				MsfToSector(disc.latestLeadOut, secs);
				disc.freeBlocks := secs - nwa;
			всё;
			возврат ResOk;
		кон GetDiscInfo;

		проц GetDiscInfoEx*(disc: DiscEx): целМЗ;
		перем
			adr: адресВПамяти;
			res, clvLow, clvHigh: цел32;
			descr: Lib.ATIPDescriptorPtr;
			buf: укль на массив из симв8;
		нач
			res := GetDiscInfo(disc);
			если res # ResOk то возврат res всё;

			нов(buf, размер16_от(Lib.ATIPHeader) + размер16_от(Lib.ATIPDescriptor));

			adr := адресОт(buf[0]);
			если Lib.ReadToc(dev, ложь, Lib.TCFormatATIP, 0, adr, длинаМассива(buf^)(цел32)) # ResOk то возврат ResErr всё;

			descr := НИЗКОУР.подмениТипЗначения(Lib.ATIPDescriptorPtr, adr + размер16_от(Lib.ATIPHeader));
			утв(адресОт(descr^) = НИЗКОУР.подмениТипЗначения(адресВПамяти, descr));

			disc.subtype := Lib.GetField(descr.Byte2, Lib.ATSubTypeMask, Lib.ATSubTypeOfs);
			если Lib.ATCdRwBit в НИЗКОУР.подмениТипЗначения(мнвоНаБитахМЗ, descr.Byte2) то
				disc.refSpeed := Lib.CLVToSpeed(Lib.GetField(descr.Byte0, Lib.ATRefSpeedMask, Lib.ATRefSpeedOfs));
			всё;

			если Lib.ATA1ValidBit в НИЗКОУР.подмениТипЗначения(мнвоНаБитахМЗ, descr.Byte2) то
				clvLow := Lib.GetField(descr.A1Values[0], Lib.ATCLVLowMask, Lib.ATCLVLowOfs);
				clvHigh := Lib.GetField(descr.A1Values[0], Lib.ATCLVHighMask, Lib.ATCLVHighOfs);
				если clvLow # 0 то disc.minSpeed := Lib.CLVToSpeed(clvLow) всё;
				если clvHigh # 0 то disc.maxSpeed := Lib.CLVToSpeed(clvHigh) всё;
				если disc.erasable и (disc.subtype = Lib.ATCdRwHighSpeed) и (clvHigh # 0) то
					disc.maxSpeed := Lib.CLVToHighSpeed(clvHigh);
				всё;
			всё;

			если (Lib.ATA2ValidBit в НИЗКОУР.подмениТипЗначения(мнвоНаБитахМЗ, descr.Byte2)) и disc.erasable и ((disc.subtype = Lib.ATCdRwUltraHighSpeed) или (disc.subtype = Lib.ATCdRwUltraHighSpeedPlus)) то
				clvLow := Lib.GetField(descr.A2Values[0], Lib.ATCLVLowMask, Lib.ATCLVLowOfs);
				clvHigh := Lib.GetField(descr.A2Values[0], Lib.ATCLVHighMask, Lib.ATCLVHighOfs);
				если (clvLow # 0) то disc.minSpeed := Lib.CLVToUltraHighSpeed(clvLow) всё;
				если (clvHigh # 0) то disc.maxSpeed := Lib.CLVToUltraHighSpeed(clvHigh) всё;
			всё;
			возврат ResOk;
		кон GetDiscInfoEx;

		проц GetWriteParams(перем  params: WriteParams): целМЗ;
		перем
			res: целМЗ;
			page: Lib.WriteParameterPage;
		нач
			res := Lib.ModeSense(dev, Lib.MPCurrent, Lib.MPWriteParameters, адресОт(page), размер16_от(Lib.WriteParameterPage));
			если res = ResOk то
				params.writeType := Lib.GetField(page.Byte2, Lib.MPWWriteTypeMask, Lib.MPWWriteTypeOfs);
				params.testWrite := Lib.MPWTestWriteBit в НИЗКОУР.подмениТипЗначения(мнвоНаБитахМЗ, page.Byte2);
				params.multisession := Lib.GetField(page.Byte3, Lib.MPWMultisessionMask, Lib.MPWMultisessionOfs);
				params.trackMode := Lib.GetField(page.Byte3, Lib.MPWTrackModeMask, Lib.MPWTrackModeOfs);
				params.bufe := Lib.MPWBufeBit в НИЗКОУР.подмениТипЗначения(мнвоНаБитахМЗ, page.Byte3);
				params.DBType := Lib.GetField(page.Byte3, Lib.MPWDataBlockMask, Lib.MPWDataBlockOfs);
			всё;
			возврат res;
		кон GetWriteParams;

		проц SetWriteParams(перем params: WriteParams; save: булево): целМЗ;
		перем
			page: Lib.WriteParameterPage;
			tmp: целМЗ;

		нач
			если Lib.ModeSense(dev, Lib.MPCurrent, Lib.MPWriteParameters, адресОт(page), размер16_от(Lib.WriteParameterPage)) # ResOk то
				tmp :=dev.RequestSense(); возврат ResErr;
			 всё;

			Utils.SetBE16(0H, page.Header.DataLength);
			исключиИзМнваНаБитах(НИЗКОУР.подмениТипЗначения(мнвоНаБитахМЗ, page.Byte0), Lib.MPPSBit);

			Lib.SetField(page.Byte2, Lib.MPWWriteTypeMask, Lib.MPWWriteTypeOfs, params.writeType);
			если params.testWrite то
				Lib.SetBit(page.Byte2, Lib.MPWTestWriteBit);
			иначе
				Lib.ClearBit(page.Byte2, Lib.MPWTestWriteBit);
			всё;
			если params.bufe то
				Lib.SetBit(page.Byte2, Lib.MPWBufeBit);
			иначе
				Lib.ClearBit(page.Byte2, Lib.MPWBufeBit);
			всё;

			Lib.SetField(page.Byte3, Lib.MPWTrackModeMask, Lib.MPWTrackModeOfs, params.trackMode);
			Lib.SetField(page.Byte3, Lib.MPWMultisessionMask, Lib.MPWMultisessionOfs, params.multisession);

			Lib.SetField(page.Byte4, Lib.MPWDataBlockMask, Lib.MPWDataBlockOfs, params.DBType);

			если Lib.ModeSelect(dev, save, адресОт(page), размер16_от(Lib.WriteParameterPage)) # ResOk то
				tmp := dev.RequestSense(); возврат ResErr;
			всё;
			возврат ResOk;
		кон SetWriteParams;

		проц PrintWriteParams(): целМЗ;
		перем
			page: Lib.WriteParameterPage;
			tmp: целМЗ;
		нач
			если Lib.ModeSense(dev, Lib.MPCurrent, Lib.MPWriteParameters, адресОт(page), размер16_от(Lib.WriteParameterPage)) # ResOk то
				tmp := dev.RequestSense(); возврат ResErr;
			всё;
			ЛогЯдра.пСтроку8("Byte 0: "); ЛогЯдра.пМнвоНаБитахМЗКакБиты(НИЗКОУР.подмениТипЗначения(мнвоНаБитахМЗ, page.Byte0), 0, 8); ЛогЯдра.пВК_ПС;
			ЛогЯдра.пСтроку8("Page Length: "); ЛогЯдра.пЦел64(кодСимв8(page.Length), 5); ЛогЯдра.пВК_ПС;
			ЛогЯдра.пСтроку8("Byte 2: "); ЛогЯдра.пМнвоНаБитахМЗКакБиты(НИЗКОУР.подмениТипЗначения(мнвоНаБитахМЗ, page.Byte2), 0, 8); ЛогЯдра.пВК_ПС;
			ЛогЯдра.пСтроку8("Byte 3: "); ЛогЯдра.пМнвоНаБитахМЗКакБиты(НИЗКОУР.подмениТипЗначения(мнвоНаБитахМЗ, page.Byte3), 0, 8); ЛогЯдра.пВК_ПС;
			ЛогЯдра.пСтроку8("Byte 4: "); ЛогЯдра.пМнвоНаБитахМЗКакБиты(НИЗКОУР.подмениТипЗначения(мнвоНаБитахМЗ, page.Byte4), 0, 8); ЛогЯдра.пВК_ПС;
			ЛогЯдра.пСтроку8("Link Size: "); ЛогЯдра.пЦел64(кодСимв8(page.LinkSize), 5); ЛогЯдра.пВК_ПС;
			ЛогЯдра.пСтроку8("Byte7: "); ЛогЯдра.пМнвоНаБитахМЗКакБиты(НИЗКОУР.подмениТипЗначения(мнвоНаБитахМЗ, page.Byte7), 0, 8); ЛогЯдра.пВК_ПС;
			ЛогЯдра.пСтроку8("Session Format: "); ЛогЯдра.пЦел64(кодСимв8(page.SessionFormat), 8); ЛогЯдра.пВК_ПС;
			ЛогЯдра.пСтроку8("Packet Size: "); ЛогЯдра.пЦел64(Utils.ConvertBE32Int(page.PacketSize), 5); ЛогЯдра.пВК_ПС;
			ЛогЯдра.пСтроку8("Audio Pause Length: "); ЛогЯдра.пЦел64(Utils.ConvertBE16Int(page.PauseLength), 5); ЛогЯдра.пВК_ПС;
			возврат ResOk;
		кон PrintWriteParams;

		проц Lock;
		нач
			если dev.MediaLock(истина) = ResOk то
				locked := истина;
			всё;
		кон Lock;

		проц Unlock;
		нач
			если locked то
				если dev.MediaLock(ложь) = ResOk то locked := ложь всё;
			всё;
		кон Unlock;

		проц StatusChanged;
		нач
			если onRecordStatusChanged # НУЛЬ то
					onRecordStatusChanged(recStatus);
			всё;
		кон StatusChanged;

		проц CheckIncompatibleMedium(): булево;
		перем
			msg: ATADisks.GetSenseMsg;
			res: целМЗ;
		нач
			dev.Handle(msg, res);
			возврат (msg.sense = 5) и (msg.asc = 30);
		кон CheckIncompatibleMedium;

		(* wait until completion of long immediate operations *)
		проц WaitUntilFinished*;
		перем
			msg: ATADisks.GetSenseMsg;
			res, tmp: целМЗ;
			timer: Kernel.Timer;
		нач
			нов(timer);
			нцДо
				timer.Sleep(1000);
				res := dev.TestUnitReady();
				res := dev.RequestSense();
				dev.Handle(msg, tmp);
			кцПри (msg.sense # 2) или (msg.asc # 4) или (res # ResOk);
		кон WaitUntilFinished;

		(* check if no medium present *)
		проц CheckNoMediumPresent*(): булево;
		перем
			msg: ATADisks.GetSenseMsg;
			res: целМЗ;
		нач
			dev.Handle(msg, res);
			возврат (msg.sense = 2) и (msg.asc = 3AH) и ((msg.ascq = 0) или (msg.ascq = 1) или (msg.ascq = 2));
		кон CheckNoMediumPresent;

		(* long operation in progress *)
		проц IsInProgress*(): булево;
		перем
			msg: ATADisks.GetSenseMsg;
			res: целМЗ;
		нач
			dev.Handle(msg, res);
			возврат (msg.sense = 2) и (msg.asc = 4) и ((msg.ascq = 4) или (msg.ascq = 7) или (msg.ascq = 8));
		кон IsInProgress;

	кон CDRecorder;

	Reader = окласс
		перем
			compilation: Compilation;

		проц GetBuffer(перем buf: Buffer): размерМЗ;
			(* abstract *)
		кон GetBuffer;

		проц ReleaseBuffer;
			(* abstract *)
		кон ReleaseBuffer;
	кон Reader;

	UnbufferedReader = окласс(Reader)
		перем
			r: Files.Reader;
			buffer: Buffer;
			trackno: цел32;
			bytesRead: размерМЗ;
			track: InformationTrack;

		проц &New*(compilation: Compilation; bufSize: размерМЗ);
		нач
			сам.compilation := compilation;
			r := НУЛЬ; track := НУЛЬ;
			trackno := 0;
			нов(buffer, bufSize);
		кон New;

		проц {перекрыта}GetBuffer(перем buf: Buffer): размерМЗ;
		перем
			amount, rem: размерМЗ;
		нач
			если  (r = НУЛЬ) и (track = НУЛЬ) то
				увел(trackno);
				track := compilation.tracks[trackno](InformationTrack);
				Files.OpenReader(r, track.file, 0);
				bytesRead := 0;
			всё;

			amount := 0;
			если r # НУЛЬ то
				r.чБайты(buffer^, 0, track.bytespt, amount);
			всё;

			увел(bytesRead, amount);
			если (amount < track.bytespt) то
				r := НУЛЬ;
				rem := матМинимум(track.bytespt-amount, track.size  - bytesRead);
				Utils.ClearBuffer(buffer^, amount, rem);
				увел(amount, rem); увел(bytesRead, rem);
			всё;

			если bytesRead >= track.size то
				track := НУЛЬ;
			всё;

			buf := buffer;
			возврат amount;
		кон GetBuffer;

		проц {перекрыта}ReleaseBuffer;
			(* nothing to do for sequential reader *)
		кон ReleaseBuffer;
	кон UnbufferedReader;

	(* buffer for 1 consumer / 1 producer *)
	(* shared variables have single writer *)
	ReadBuffer = окласс
		перем
			buf: Buffer;
			len: размерМЗ;

		проц &New*(bufSize: размерМЗ);
		нач
			len := 0;
			нов(buf, bufSize);
		кон New;
	кон ReadBuffer;

	Fifo = укль на массив из ReadBuffer;

	BufferedReader = окласс(Reader)
		перем
			nBuffers: цел32;
			fifo: Fifo;
			pIndex, cIndex: цел32;
			finished: булево;
			empty*: цел32; (* number of times buffer was empty, should be zero *)
			aborted: булево;

		проц &New*(compilation: Compilation; bufSize: цел32);
		перем
			i: цел32;
		нач
			finished := ложь; empty := 0;
			сам.compilation := compilation;
			nBuffers := FifoSize DIV bufSize;
			нов(fifo, nBuffers);
			нцДля i:=0  до nBuffers-1 делай
				нов(fifo[i], bufSize);
			кц;
			cIndex := 0; pIndex := 0;
			aborted := ложь;
		кон New;

		проц Abort;
		нач
			aborted := истина;
		кон Abort;

		проц {перекрыта}GetBuffer(перем buf: Buffer): размерМЗ;
		перем
			rBuffer: ReadBuffer;
		нач
			rBuffer := WaitBufferAvailable(истина);
			buf := rBuffer.buf;
			возврат rBuffer.len;
		кон GetBuffer;

		проц Read;
		перем
			i: цел32;
			track: InformationTrack;
		нач
			нцДля i := 1 до compilation.nofTracks-2 делай
				если aborted то возврат всё;
				track := compilation.tracks[i](InformationTrack);
				ReadTrack(track);
			кц;
			finished := истина;
		кон Read;

		проц ReadTrack(track: InformationTrack);
		перем
			bytesRead, amount, rem: размерМЗ;
			r: Files.Reader;
			rBuffer: ReadBuffer;
		нач
			Files.OpenReader(r, track.file, 0);
			bytesRead := 0;
			нцДо
				rBuffer := WaitBufferAvailable(ложь);
				если aborted то возврат всё;
				r.чБайты(rBuffer.buf^, 0, track.bytespt, amount);
				увел(bytesRead, amount);
				если amount < track.bytespt то
					rem := матМинимум(track.bytespt-amount, track.size - bytesRead);
					Utils.ClearBuffer(rBuffer.buf^, amount, rem);
					увел(amount, rem); увел(bytesRead, rem);
				всё;
				rBuffer.len := amount;
				pIndex := (pIndex + 1) остОтДеленияНа nBuffers;
			кцПри bytesRead >= track.file.Length();

			нцПока bytesRead < track.size делай
				rBuffer := WaitBufferAvailable(ложь);
				amount := матМинимум(track.bytespt, track.size  - bytesRead);
				Utils.ClearBuffer(rBuffer.buf^, 0, amount);
				rBuffer.len := amount;
				увел(bytesRead, amount);
				pIndex := (pIndex + 1) остОтДеленияНа nBuffers;
			кц;

		кон ReadTrack;

		проц {перекрыта}ReleaseBuffer;
		нач
			cIndex := (cIndex + 1) остОтДеленияНа nBuffers;
		кон ReleaseBuffer;

		(* fill half of buffer *)
		проц Init;
		нач
			нцПока (pIndex < nBuffers DIV 2) и ~finished и ~aborted делай
				Objects.Yield();
			кц
		кон Init;

		проц WaitBufferAvailable(read: булево): ReadBuffer;
		нач
			если read то
				если cIndex = pIndex то
					увел(empty);
				всё;
				нцПока (cIndex = pIndex) делай (* buffer empty *)
					Objects.Yield();
				кц;
				возврат fifo[cIndex];
			иначе
				нцПока ((pIndex + 1) остОтДеленияНа nBuffers = cIndex) и ~aborted  делай
					Objects.Yield();
				кц;
				возврат fifo[pIndex];
			всё;
		кон WaitBufferAvailable;

		нач {активное}
			Read();
	кон BufferedReader;


проц IdentifyRecorders*(перем recorders: массив из CDRecorder): целМЗ;
перем
	devTable: Plugins.Table;
	device : ATADisks.DeviceATAPI;
	i, cur: размерМЗ;
	cap: Capabilities;
	res : целМЗ;
нач
	res := ResErr;
	нцДля i := 0 до MaxRecorders-1 делай
		recorders[i] := НУЛЬ;
	кц;
	Disks.registry.GetAll(devTable);
	cur := 0;
	если devTable # НУЛЬ то
		нцДля i := 0 до длинаМассива(devTable^) - 1 делай
			если devTable[i] суть ATADisks.DeviceATAPI то
				(* KernelLog.String("Identifying"); *)
				device := devTable[i](ATADisks.DeviceATAPI);
				если GetCapabilities(device, cap) # ResOk то возврат ResErr всё;
				если MFCdr в cap.mediaFunc то
					нов(recorders[cur], device, cap);
					увел(cur, 1);
				всё;
			всё;
		кц;
	всё;
	возврат ResOk;
кон IdentifyRecorders;

проц GetCapabilities(перем dev: ATADisks.DeviceATAPI; перем cap: Capabilities) : целМЗ;
перем
	buf : укль на массив из симв8;
	ofs, size, numSpeeds, i, curSpeed, maxSpeed, speed, tmp: цел32;
	adr: адресВПамяти;
	header: Lib.ModeHeader;
	page: Lib.CapabilityPagePtr;
	speedDescr: Lib.SpeedDescriptorPtr;
	feature: Lib.MasteringFeature;
	writeSpeedHeader: Lib.WriteSpeedHeader;
	writeSpeedDescr: Lib.WriteSpeedDescrPtr;
нач
	(* get mode parameter header to determine size of whole page *)

	если Lib.ModeSense(dev, Lib.MPCurrent, Lib.MPCapabilities, адресОт(header), размер16_от(Lib.ModeHeader)) # ResOk то возврат ResErr всё;

	size := Utils.ConvertBE16Int(header.DataLength)+ 2;  (* size of whole page *)
	(* we need an array here since Capability mode page has variable length *)
	нов(buf, size);

	(* now get whole capabilites page *)

	adr := адресОт(buf[0]);
	если Lib.ModeSense(dev, Lib.MPCurrent, Lib.MPCapabilities, adr, size) # ResOk то возврат ResErr всё;
	page := НИЗКОУР.подмениТипЗначения(Lib.CapabilityPagePtr, adr);
	утв(адресОт(page^) = НИЗКОУР.подмениТипЗначения(адресВПамяти, page));

	(* Media Functions *)
	если Lib.MPCCdrBit в НИЗКОУР.подмениТипЗначения(мнвоНаБитахМЗ, page.Byte3) то включиВоМнвоНаБитах(cap.mediaFunc, MFCdr) всё;
	если Lib.MPCCdRwBit в НИЗКОУР.подмениТипЗначения(мнвоНаБитахМЗ, page.Byte3) то включиВоМнвоНаБитах(cap.mediaFunc, MFCdRw) всё;
	если Lib.MPCMultisessionBit в НИЗКОУР.подмениТипЗначения(мнвоНаБитахМЗ, page.Byte4) то включиВоМнвоНаБитах(cap.mediaFunc, MFMultisession) всё;
	если Lib.MPCBufeBit в НИЗКОУР.подмениТипЗначения(мнвоНаБитахМЗ, page.Byte4) то включиВоМнвоНаБитах(cap.mediaFunc, MFBufe) всё;

	просей Lib.GetField(page.Byte6, Lib.LMTMask, Lib.LMTOfs) из
		  Lib.LMTCaddy: включиВоМнвоНаБитах(cap.mediaFunc, MFCaddy);
		| Lib.LMTTray: включиВоМнвоНаБитах(cap.mediaFunc, MFTray);
		| Lib.LMTPopUp: включиВоМнвоНаБитах(cap.mediaFunc, MFCaddy);
		иначе
	всё;

	numSpeeds := Utils.ConvertBE16Int(page.NofWriteDescriptors);

	(* some drives do not list maximum and current write speed in descriptor table, but fields are actually obsoleted *)

	curSpeed := Utils.ConvertBE16Int(page.CurWriteSpeed2); умень(curSpeed, curSpeed остОтДеленияНа 2*SingleSpeed);
	maxSpeed := Utils.ConvertBE16Int(page.MaxWriteSpeed); умень(maxSpeed, maxSpeed остОтДеленияНа 2*SingleSpeed);

	(* get first descriptor *)
	увел(adr, размер16_от(Lib.CapabilityPage));
	speedDescr := НИЗКОУР.подмениТипЗначения(Lib.SpeedDescriptorPtr, adr);
	увел(adr, размер16_от(Lib.SpeedDescriptor));
	speed := Utils.ConvertBE16Int(speedDescr.WriteSpeed);

	если ListCurrentMaxSpeeds то
		если (maxSpeed > curSpeed) и (curSpeed > speed) то
			увел(numSpeeds, 2);
			нов(cap.writeSpeeds, numSpeeds);
			cap.writeSpeeds[0] := maxSpeed; cap.writeSpeeds[1] := curSpeed; ofs := 2;
		аесли maxSpeed > speed то
			увел(numSpeeds);
			нов(cap.writeSpeeds, numSpeeds); cap.writeSpeeds[0] := maxSpeed; ofs := 1;
		иначе
			нов(cap.writeSpeeds, numSpeeds); ofs := 0;
		всё;
	иначе
		нов(cap.writeSpeeds, numSpeeds); ofs := 0;
	всё;

	cap.writeSpeeds[ofs] := speed; увел(ofs);
	нцДля i := ofs до numSpeeds-1 делай
		speedDescr := НИЗКОУР.подмениТипЗначения(Lib.SpeedDescriptorPtr, adr);
		cap.writeSpeeds[i] := Utils.ConvertBE16Int(speedDescr.WriteSpeed);
		увел(adr, размер16_от(Lib.SpeedDescriptor));
	кц;

	(* Get Performance. If we get more speeds here, we use the descriptors provided by this command *)
	(* first only get header *)

	если Lib.GetPerformance(dev, Lib.PTypeWriteSpeed, 0H, 0H, 0, адресОт(writeSpeedHeader), размер16_от(Lib.WriteSpeedHeader)) # ResOk то
		size := Utils.ConvertBE32Int(writeSpeedHeader.DataLength) + 4;
		tmp := (size - размер16_от(Lib.WriteSpeedHeader)) DIV размер16_от(Lib.WriteSpeedDescr);
		если tmp > numSpeeds то
			numSpeeds := tmp;
			нов(buf, size);
			adr := адресОт(buf[0]);
			если Lib.GetPerformance(dev, Lib.PTypeWriteSpeed, 0H, 0H, numSpeeds, adr, size) # ResOk то возврат ResErr всё;
			увел(adr, размер16_от(Lib.WriteSpeedHeader));
			нов(cap.writeSpeeds, numSpeeds);
			нцДля i:=0 до numSpeeds-1 делай
				writeSpeedDescr := НИЗКОУР.подмениТипЗначения(Lib.WriteSpeedDescrPtr, adr);
				cap.writeSpeeds[i] := Utils.ConvertBE32Int(writeSpeedDescr.WriteSpeed);
				увел(adr, размер16_от(Lib.WriteSpeedDescr));
			кц;
		всё;
	всё;

	(* although spec says that speeds are sorted in descending order, this is not always the case *)
	InsertionSort(cap.writeSpeeds^, длинаМассива(cap.writeSpeeds));

	(* GetConfiguration provides further information *)
	если Lib.GetConfiguration(dev, Lib.FOne, Lib.FMastering, адресОт(feature), размер16_от(Lib.MasteringFeature)) # ResOk то возврат ResErr всё;
	если  Lib.FDMSaoBit в НИЗКОУР.подмениТипЗначения(мнвоНаБитахМЗ, feature.Byte4) то включиВоМнвоНаБитах(cap.mediaFunc, MFSao) всё;
	возврат ResOk;
кон GetCapabilities;

проц InsertionSort(перем arr: массив из цел32; size: размерМЗ);
перем
	i, j: размерМЗ; index: цел32;
нач
	нцДля i := 1 до size - 1 делай
		index := arr[i]; j := i;
		нцПока (j > 0) и (arr[j-1] < index) делай
			arr[j] := arr[j-1]; умень(j);
		кц;
		arr[j] := index;
	кц;
кон InsertionSort;

проц GetSense*(dev: ATADisks.DeviceATAPI);
перем
	msg: ATADisks.GetSenseMsg;
	res: целМЗ;
нач
	res := dev.RequestSense();
	dev.Handle(msg, res);
	ЛогЯдра.пСтроку8("sense: "); ЛогЯдра.п16ричное(msg.sense, 5);
	ЛогЯдра.пСтроку8(" asc: "); ЛогЯдра.п16ричное(msg.asc, 5);
	ЛогЯдра.пСтроку8(" ascq: "); ЛогЯдра.п16ричное(msg.ascq, 5);
	ЛогЯдра.пВК_ПС;
кон GetSense;

проц FileExists(filename: Strings.String): булево;
нач
	возврат (filename # НУЛЬ) и (Files.Old(filename^) # НУЛЬ);
кон FileExists;

проц IsIsoFile(filename: Strings.String): булево;
перем
	info: MakeIsoImages.ISOInfo;
нач
	нов(info);
	возврат info.Open(filename) = ResOk;
кон IsIsoFile;

проц IsWavFile(filename: Strings.String): булево;
перем
	info: Utils.WAVInfo;
нач
	нов(info);
	если info.Open(filename) = ResOk то
		если (info.nofchannels = 2) и (info.samplerate = 44100) и (info.encoding = 16) то
			возврат истина;
		всё;
	всё;
	возврат ложь;
кон IsWavFile;

проц SectorToMsf(sector: цел32; перем msf: MSF);
перем
	rem: цел32;
нач
	rem := sector + InitialPregap; (* see Mt. Fuji Table 621 LBA to MSF Translation *)
	msf.min := округлиВниз(rem / (60*75));
	умень(rem, msf.min*60*75);
	msf.sec := округлиВниз(rem / 75);
	умень(rem, msf.sec*75);
	msf.frame := rem;
кон SectorToMsf;

проц MsfToSector(перем msf: MSF; перем sector: цел32);
нач
	sector := 75*(60*msf.min + msf.sec) + msf.frame - InitialPregap;
кон MsfToSector;

проц Test*;
перем
	res: целМЗ;
	settings: BurnSettings;
	compilation: Compilation;
	recorders: массив MaxRecorders из CDRecorder;
нач
	res := IdentifyRecorders(recorders);
	если recorders[0] # НУЛЬ то
			ЛогЯдра.пСтроку8("Recording");

			(* audio test: wav files must be 16 bit encoded, 44.1kHz and 2 channel*)
			нов(compilation);
			res := compilation.AddTrack(Strings.NewString("Auto0:/Data/TRACK0.WAV"), AudioTrack, ложь);
			compilation.Finish();

			(* iso file *)
			(*
			NEW(compilation);
			res := compilation.AddTrack(Strings.NewString("Auto0:/Data/TEST1.ISO"), DataTrack, FALSE);
			Print("res track 1", res);
			compilation.Finish();
			*)

			settings.speed := 16;
			settings.writeType := TrackAtOnce;
			settings.verify := ложь;

			res :=recorders[0].Record(compilation, settings, PrintStatus);
	иначе
		ЛогЯдра.пСтроку8("no ready recorder found");
	всё;
кон Test;

проц PrintStatus(status: Utils.Status);
перем
	recStatus: RecordingStatus;
нач
	recStatus := status(RecordingStatus);
	ЛогЯдра.пСтроку8("current Speed: "); ЛогЯдра.пЦел64(recStatus.currentSpeed, 8); ЛогЯдра.пВК_ПС;
	ЛогЯдра.пСтроку8("secs Transferred: "); ЛогЯдра.пЦел64(recStatus.secsTransferred, 8); ЛогЯдра.пВК_ПС;
	ЛогЯдра.пСтроку8("free Buffer: "); ЛогЯдра.пЦел64(recStatus.freeBuffer, 8); ЛогЯдра.пВК_ПС;
	ЛогЯдра.пСтроку8("buffer Size: "); ЛогЯдра.пЦел64(recStatus.bufferSize, 8); ЛогЯдра.пВК_ПС;
кон PrintStatus;

кон CDRecord.


CDRecord.Test~

