модуль FoxScanner;   (**  AUTHOR "fof & fn"; PURPOSE "Oberon Compiler: Scanner";  **)
(* (c) fof ETH Zürich, 2009 *)
(* Этот модуль, в т.ч. написание ключевых слов, должен быть синхронизирован с:
   - FoxScanner.Mod 
   - TFAOParser.Mod
   - Release.Mod   
   *)

использует Потоки, Strings, Diagnostics, Basic := FoxBasic, D := Debugging, StringPool, ReaderSchitUTF8LF, UCS32, ПереводыЭлементовКода, БВыраж, Files, ЛогЯдра;

конст
	Trace = ложь;   (* debugging output *)
	НавязыватьПометкуПерекрыта* = ложь;

	(* Максимальная длина идентификатора в буквах записанного в UTF8, в байтах.
	  Должно совпадать с размером Modules.Name *)
	MaxIdentifierLength* = ПереводыЭлементовКода.МаксБуквВИдентификаторе;

	(* parametrization of numeric scanner: *)
	MaxHexDigits* = 8;   (* maximal hexadecimal longint length *)
	MaxHugeHexDigits* = 16;   (* maximal hexadecimal hugeint length *)
	MaxRealExponent* = 38;   (* maximal real exponent *)
	MaxLongrealExponent* = 308;   (* maximal longreal exponent *)

	(* scanner constants *)
	EOT* = 0X; LF* = 0AX; CR* = 0DX; TAB* = 09X; ESC* = 1BX;

тип
	уСтрокаU8* = Strings.String;
	ИндексИдентификатора* = StringPool.Index;
	СтрокаИдентификатора*= ПереводыЭлементовКода.СтрокаИдентификатора;
	КодПодтипа*= цел16;

конст

(** Виды лексем (symbols) *)
	(*
	note: order of symbols is important for the parser, do not modify without looking it up

	FoxProgTools.Enum --export --linefeed=6
	None
	(* RelationOps: Equal ... Is *)
	Equal DotEqual Unequal DotUnequal
	Less DotLess  LessEqual DotLessEqual Greater DotGreater GreaterEqual DotGreaterEqual
	LessLessQ GreaterGreaterQ Questionmarks ExclamationMarks
	In Is
	(* MulOps: Times ... And *)
	Times TimesTimes DotTimes PlusTimes Slash Backslash DotSlash Div Mod And
	(* AddOps: Or ... Minus *)
	Or Plus Minus
	(* Prefix Unary Operators Plus ... Not *)
		Not
	(* expressions may start with Plus ... Identifier *)
		LeftParenthesis LeftBracket LeftBrace Number Character String Nil Imag True False Self Result New Identifier
		(* statementy may start with Self ... Begin *)
		If Case While Repeat For Loop With Exit Await Return Ignore Begin
		(* symbols, expressions and statements cannot start with *)
		Semicolon Transpose RightBrace RightBracket RightParenthesis
		Questionmark ExclamationMark
		LessLess GreaterGreater
		Upto Arrow Period Comma Colon Of Then Do To By Becomes Bar End Else Elsif Until Finally
		(* declaration elements *)
		Code Const Type Var Out Procedure Operator Import Definition Module Cell CellNet Extern
		(* composite type symbols *)
		Array Object Record Pointer Enum Port Address Size Alias
		(* assembler constants *)
		Ln PC PCOffset
		(* number types *)
		Shortint Integer Longint Hugeint Real Longreal
		Comment Escape
		EndOfText
		~
	*)
	None*= 0;
	
	(* цитаты кода *)
	МакросЧтенияЦитˉ* = 2;
	ЗакрывающееИмяКнцˉ* = 3;
	
	СимволМакроВызова* = 5; 
	(* RelationOps: Equal ... Is *)
	Equal*= 10; DotEqual*= 20; Unequal*= 30; DotUnequal*= 40; Less*= 50; DotLess*= 60;
	LessEqual*= 70; DotLessEqual*= 80; Greater*= 90; DotGreater*= 100; GreaterEqual*= 110; DotGreaterEqual*= 120;
	LessLessQ*= 130; GreaterGreaterQ*= 140; ВопросительныеЗнаки*= 150; ВосклицательныеЗнаки*= 160; В*= 170; Суть*= 180;
	(* MulOps: Times ... And *)
	ЗнакУмножить*= 190; УмножитьУмножить*= 200; ТочкаУмножить*= 210; ПлюсУмножить*= 220; Косая*= 230; ОбратнаяКосая*= 240;
	ТочкаИКосая*= 250; Div*= 260; Mod*= 270; 

	(* SIZEOF2, размерОт - выкручиваемся из того, что OF - это "из", а нам нужен не "размер из", а "размер от". Кстати,
	наверное и "адрес от" нужен скорее, чем "адрес из", хотя звучит менее дико *)
	Size2* = 265;
	Address2* = 266;

	Родись* = 278; (* Родись - это не операция, но пусть побудет тут, т.к. в англоязычной
	   версии признак конструктура записывается так же, как булево «и» *)
	   (* в англоязычной версии & сначала нормализуется к And0, не имеющему семантики *)
	   И_или_Родись* = 279; 
	   (* And1 означает булево "и", в русской версии его сразу определяем *)
	   И* = 280;
	(* AddOps: Or ... Minus *)
	Или*= 290; ЗнакПлюс*= 300; ЗнакМинус*= 310;  
	(* Prefix Unary Operators Plus ... Not *)
	Не*= 320;
	(* expressions may start with Plus ... Identifier *)
	ОткрывающаяКруглаяСкобка*= 330; ОткрывающаяКвадратнаяСкобка*= 340; ОткрывающаяФигурнаяСкобка*= 350; Число*= 360; Character*= 370;
	СтрокиЛитералМульти*= 380; СтрокиЛитерал*= 390;
	Нуль*= 400; Imag*= 410; Правда*= 420; Ложь*= 430; Сам*= 440; Результат*= 450;
	Нов*= 460; Идентификатор*= 470;
	(* statementy may start with Self ... Begin *)
	Если*= 480; Просей*= 490; Цикл_пока*= 500; Цикл_до*= 510; Цикл_для*= 520; Цикл*= 530;
	Просей_тип*= 540; Прерви_цикл*= 550; Дождись*= 560; Возврат*= 570; Неважно*= 580; Тело*= 590;
	(* symbols, expressions and statements cannot start with *)
	ТочкаСЗапятой*= 600; Transpose*= 610; ЗакрываяющаяФигурнаяСкобка*= 620; ЗакрывающаяКвадратнаяСкобка*= 630; ЗакрывающаяКруглаяСкобка*= 640; ВопросительныйЗнак*= 650;
	ВосклицательныйЗнак*= 660; МеньшеМеньше*= 670; БольшеБольше*= 680; Upto*= 690; Arrow*= 700; ЗнакПрепинанияТочка*= 710;
	Запятая*= 720; Двоеточие*= 730; Of*= 740; То*= 750; Делай*= 760; НаТип2*= 770; До* = 773; ДоПредела2* = 775;
	By*= 780; Becomes*= 790; Bar*= 800; 
	
	(* в англоязычной версии - все виды End *)
	Кн*= 810; 
	(* в русскоязычной - три вида End отличаются *)
	EndIf* = 811; EndLoop* = 812; 
	
	
	Иначе*= 820; Аесли*= 830;
	Until*= 840; Finally*= 850;
	(* declaration elements *)
	Code*= 860; Const*= 870; Type*= 880; Var*= 890; Out*= 900; Проц*= 910;
	Операция*= 920; Использует*= 930; Определение*= 940; Модуль*= 950; Cell*= 960; CellNet*= 970;
	Extern*= 980;
	(* composite type symbols *)
	Array*= 990; Object*= 1000; Record*= 1010; Pointer*= 1020; Enum*= 1030; Port*= 1040;
	Address*= 1050; Size*= 1060; Alias*= 1070;
	(* assembler constants *)
	Ln*= 1080; PC*= 1090; PCOffset*= 1100;
	(* number types *)
	Shortint*= 1110; Integer*= 1120; Longint*= 1130; Hugeint*= 1140; Real*= 1150; Longreal*= 1160;
	Comment*= 1170;

	ПереносСтроки* = 1180;
	Отступ* = 1190;
	ПробелыВнутриСтроки* = 1200; (* но могут быть и в конце строки *)
	НеразобранныйТекст* = 1205; (* в нём важно поле String. Используется для ассемблерного кода, но можно 
		попробовать использовать и для синтетических лексем, к-рые можно только напечатать *)
	НеактивныйБлокПрепроцессора* = 1210;

	ТекстПослеEnd* = 1215;
	ИскусственнаяЛексема* = 1217; (* лексема, созданная из строки ИПП макросов, см. ЯвиИскусственнуюЛексему1 *)
	КонецТекста*= 1220; 

	ОдинарнаяКавычка = 27X;  ДвойнаяКавычка* = 22X;
	Многоточие = 7FX;   (* used in Scanner.GetNumber to return with ".." when reading an interval like 3..5 *)

тип

	ВариантыПеревода* = ПереводыЭлементовКода.ВариантыПеревода;

	
перем
	кодСимволаМакроВызова- : бцел32; 
	

проц ORDв*(ч: ВариантыПеревода):бцел32;
нач (* ORD не работает *)
	если ч = ВариантыПеревода.Unknown то возврат 0 всё;
	если ч = ВариантыПеревода.Uppercase то возврат 1 всё;
	если ч = ВариантыПеревода.Русский то возврат 2 всё;
	СТОП(3033) кон ORDв;


тип
	(* keywords book keeping *)
	КлючевоеСлово* = массив 64 из симв8;

	ТаблицаКлючевыхСлов* = окласс(Basic.HashTableInt); (* string -> symbol *)
	перем table: укль на массив из ИндексИдентификатора;

		проц &новТаблицаКлючевыхСлов*(size: размерМЗ);
		перем i: размерМЗ;
		нач
			Init(size); нов(table,size); нцДля i := 0 до size-1 делай table[i] := -1; кц;
		кон новТаблицаКлючевыхСлов;

		проц ДайВидЛексемыПоИндексуИдентификатора*(identifier: ИндексИдентификатора): ВидЛексемы;
		нач
			если Has(identifier) то
				возврат ВидЛексемы(GetInt(identifier))
			иначе (* do not modify index *)
				возврат -1
			всё;
		кон ДайВидЛексемыПоИндексуИдентификатора;

		проц ДайВидЛексемыПоСтроке*(конст имяСтр: массив из симв8): ВидЛексемы;
		перем stringPoolIndex: StringPool.Index;
		нач
			StringPool.GetIndex(имяСтр,stringPoolIndex);
			если Has(stringPoolIndex) то
				возврат ВидЛексемы(GetInt(stringPoolIndex))
			иначе (* do not modify index *)
				возврат -1
			всё;
		кон ДайВидЛексемыПоСтроке;

		проц ДайИндексИдентификатораПоВидуЛексемы*(ВЛ: ВидЛексемы; перем ИИ: ИндексИдентификатора);
		нач
			ИИ := table[ВЛ]
		кон ДайИндексИдентификатораПоВидуЛексемы;

		проц ДайСтрокуПоВидуЛексемы*(symbol: ВидЛексемы; перем name: массив из симв8);
		перем stringPoolIndex: StringPool.Index;
		нач
			stringPoolIndex := table[symbol];
			если stringPoolIndex < 0 то
				name := ""
			иначе
				StringPool.GetString(stringPoolIndex,name);
			всё;
		кон ДайСтрокуПоВидуЛексемы;

		проц ПримиПаруСтрокаИВидЛексемы*(конст name: массив из симв8; symbol: ВидЛексемы);
		перем stringPoolIndex: StringPool.Index;
		нач
			StringPool.GetIndex(name,stringPoolIndex);
			table[symbol] := stringPoolIndex;
			PutInt(stringPoolIndex,symbol);
		кон ПримиПаруСтрокаИВидЛексемы;

	кон ТаблицаКлючевыхСлов;
	
	
конст
	ДлинаОграничителяСтроки* = 4;
тип

	ВидЛексемы*=цел32;
	МестоВТексте*= Basic.Position;

	(**
		token: data structure for the data transfer of the last read input from the scanner to the parser
	**)
	Лексема*= укль на запись
		местоВТексте*: МестоВТексте;
		видЛексемы-: ВидЛексемы; (* symbol of token - вид лексемы *)
		индексИдентификатора*: ИндексИдентификатора; (* identifier *)
		строкаИдентификатора*: СтрокаИдентификатора; (* cache of identifier's string *)
		string*: уСтрокаU8;  (* string or identifier *)
		stringLength*: размерМЗ; (* length of string, if stringLength = 2 then this may be interpreted as character and integer = ORD(ch) *)
		строковыйЛитералСПунктуацией*: уСтрокаU8; (* только для строковых литералов c - вид литерала как он был при вводе, 
			кавычки не добавлены *)
		строковогоЛитералаСПунктуациейДлина*: размерМЗ;
		чемОткрываетсяСтрока*: UCS32.PStringJQ; (* для строки; для Character-а - будет содержать одиночную кавычку, если 
			он формы 'c' или NIL, если он формы NNNX; тж комментарий в светлом будущем. Максимальная длина этой последовательности
			с учётом завершающего нуля равна ДлинаОграничителяСтроки *)
		numberType*: КодПодтипа;  (* Integer, HugeInteger, Real or Longreal *)
		integer*: цел64;
		character*: симв8;
		real*: вещ64;
		пред*: Лексема; (* следующий любой токен, в т.ч. пробел или комментарий *)
		след*: Лексема; (* предыдущий токен, в т.ч. пробел или комментарий *)
		неОтклПрепроц*: булево
	кон;

	проц ЗамениSymbolВЛексеме*(token: Лексема; symbol: ВидЛексемы);
	нач token.видЛексемы := symbol кон ЗамениSymbolВЛексеме;

	
(* по-хорошему, все лексемы должны возникать из исходника, но пока у нас нет такой возможности. Здесь - самая простая искусственная лексема, содержащая произвольный текст и имеющая
	вид "комментарий" (а правильно ли ей иметь такой вид - это отдельный вопрос ) *)
проц ЯвиИскусственнуюЛексему1*(конст ТекстКакЕсть: массив из симв8) : Лексема;
перем рез: Лексема; 
нач
	нов(рез);
	(* место в тексте содержит все нули *)
	рез.видЛексемы := ИскусственнаяЛексема;
	рез.string := Strings.NewString(ТекстКакЕсть);
	рез.stringLength := Strings.Length(ТекстКакЕсть) + 1;
	возврат рез кон ЯвиИскусственнуюЛексему1;
	

проц ЯвиИскусственныйИдентификатор*(диагностика:  Diagnostics.Diagnostics; конст Имя: массив из симв8; где: МестоВТексте):Лексема;
нач
	нов(результат);
	результат.местоВТексте := где;
	результат.видЛексемы := Идентификатор;
	если ~ ЗаполниИмяВИдентификаторе(диагностика, результат, Имя) то
		возврат НУЛЬ
	иначе
		возврат результат всё кон ЯвиИскусственныйИдентификатор;


проц ЗаполниИмяВИдентификаторе(диагностика: Diagnostics.Diagnostics; token: Лексема; identifierStringUTF8a : массив из симв8) : булево;
нач
	если Strings.Length(identifierStringUTF8a) > MaxIdentifierLength то
		Basic.ErrorC(диагностика, "", token.местоВТексте, Basic.IdentifierTooLong, "");
		возврат ложь всё;
	копируйСтрокуДо0(identifierStringUTF8a, token.строкаИдентификатора);
	StringPool.GetIndex(token.строкаИдентификатора, token.индексИдентификатора); возврат истина кон ЗаполниИмяВИдентификаторе;


проц ЯвиИскусственнуюЛексемуКонцаТекста*(послеЛексемы: Лексема) : Лексема;
нач
	нов(результат);
	результат.видЛексемы := КонецТекста;
	результат.местоВТексте := послеЛексемы.местоВТексте;
	СшейСпискиЛексем(послеЛексемы,результат);
	возврат результат кон ЯвиИскусственнуюЛексемуКонцаТекста;	
	

тип
	Строкопостроитель* = окласс (* taken from TF's scanner *)
	перем длина : размерМЗ; (* длина строки без завершающего нуля, в байтах *)
		данные : уСтрокаU8;

		проц &новСтрокопостроитель*(начРазмер : размерМЗ);
		нач
			если начРазмер < 256 то начРазмер := 256 всё;
			нов(данные, начРазмер); длина := 0;
		кон новСтрокопостроитель;

		проц Add*(конст buf: массив из симв8; ofs, len: размерМЗ; propagate: булево; перем res: целМЗ);
		перем i : размерМЗ; n: уСтрокаU8;
		нач
			если длина + len + 1 >= длинаМассива(данные) то
				нов(n, длинаМассива(данные) + len + 1); нцДля i := 0 до длина - 1 делай n[i] := данные[i] кц;
				данные := n
			всё;
			нцПока len > 0 делай
				данные[длина] := buf[ofs];
				увел(ofs); увел(длина); умень(len)
			кц;
			данные[длина] := 0X;
		кон Add;

		проц ОтрежьХвост*(квоБайт : размерМЗ);
		нач
			умень(длина, квоБайт);
			если длина < 0 то длина := 0 всё;
			если длина > 0 то данные[длина - 1] := 0X иначе данные[длина] := 0X всё
		кон ОтрежьХвост;

		проц СотриВсё*;
		нач
			данные[0] := 0X;
			длина := 0
		кон СотриВсё;

		проц ДайПисца*() : Потоки.Писарь;
		перем w : Потоки.Писарь;
		нач
			нов(w, сам.Add, 256);
			возврат w
		кон ДайПисца;

		проц ДайЧтеца*(): Потоки.Чтец;
		перем r: Потоки.ЧтецИзСтроки;
		нач
			нов(r, 256);
			r.ПримиСтроку8ДляЧтения(данные^);
			возврат r
		кон ДайЧтеца;

		проц ДайУкльНаДанные*(перем len: размерМЗ) : уСтрокаU8;
		нач
			len := длина;
			возврат данные
		кон ДайУкльНаДанные;

		проц ДайКопиюДанных*(перем len: размерМЗ): уСтрокаU8;
		перем new: уСтрокаU8;
		нач
			len := длина;
			нов(new,len+1);
			копируйСтрокуДо0(данные^,new^);
			возврат new
		кон ДайКопиюДанных;

	кон Строкопостроитель;


	БазовыйЛексер* = окласс
	перем
		source-: уСтрокаU8; (* имя исходного файла *)
		былаЛиОшибкаРазбора-: булево;   (* if error occured during scanning *)
		вариантПеревода-: ВариантыПеревода; (* На каком языке модуль? *)
		диагностика: Diagnostics.Diagnostics;   (* error logging *)
		предТокенНеПробел: Лексема;
		
		проц &новБазовыйЛексер(конст вхИмяИсходногоФайла: массив из симв8);
		нач
			нов(сам.source, Strings.Length(вхИмяИсходногоФайла)+1);
			копируйСтрокуДо0 (вхИмяИсходногоФайла, сам.source^);
			былаЛиОшибкаРазбора := ложь;
			вариантПеревода := ВариантыПеревода.Unknown кон новБазовыйЛексер;
		
		
		проц ResetError*();
		нач былаЛиОшибкаРазбора := ложь
		кон ResetError;

		(** set the diagnostics mode of the scanner (diagnostics = NIL ==> no report) and reset the error state
				intended for silent token peeeking after the end of a module *)
		проц ResetErrorDiagnostics*(перем diagnostics: Diagnostics.Diagnostics);
		перем d: Diagnostics.Diagnostics;
		нач
			былаЛиОшибкаРазбора := ложь;
			d := сам.диагностика; сам.диагностика := diagnostics; diagnostics := d;
		кон ResetErrorDiagnostics;
		
		проц ResetCase*; (*! needs a better naming ! *)
		нач
			СТОП(100); (* абстрактная *)
		кон ResetCase;
	
		проц SetCase*(c: ВариантыПеревода);
		нач
			вариантПеревода := c;
		кон SetCase;
		
		проц ДайТокенВТЧПробел(перем token: Лексема ): булево;
		нач 
			СТОП(100); (* абстрактная *)
		кон ДайТокенВТЧПробел;
		
		проц SkipToEndOfCode*(перем startPos,endPos: Потоки.ТипМестоВПотоке; перем token: Лексема): ВидЛексемы;
		нач СТОП(100); (* абстрактная *) кон SkipToEndOfCode;

		(* GetNextToken, если нет ошибки в лексике, возвращает содержательный токен (не пробел и не комментарий) и истину. В противном случае возвращает что попало и ложь. Если нет ошибки, то несодержательные токены, предшествующие данному,	могут быть получены через пред. Токен ищется, начиная с текущего символа, записанного в ch *)
		проц ДочитайЛексему*(перем token: Лексема ): булево;
		перем успех : булево;
		нач
			нц
				успех := ДайТокенВТЧПробел( token );
				если ~успех то прервиЦикл всё;
				просей token.видЛексемы из
					ПробелыВнутриСтроки, (* НеактивныйБлокПрепроцессора, *) Отступ, ПереносСтроки, ТекстПослеEnd (*, Comment *):
						(* ничего не делаем, пойдём дальше *)
					иначе
						прервиЦикл; всё; кц;
			предТокенНеПробел := token;
			возврат успех кон ДочитайЛексему;
			
		(* То же, что GetNextToken, но записывает, отключен ли токен в препроцессоре. *)
		проц GetNextTokenЗаметивСостояниеПрепроцессора*(перем token: Лексема; неОтклПрепроц: булево): булево;
		перем успех : булево;
		нач
			нц
				успех := ДайТокенВТЧПробел( token );
				если ~успех то прервиЦикл всё;
				token.неОтклПрепроц := неОтклПрепроц;
				просей token.видЛексемы из
					ПробелыВнутриСтроки, (* НеактивныйБлокПрепроцессора, *) Отступ, ПереносСтроки, ТекстПослеEnd (*, Comment *):
						(* ничего не делаем, пойдём дальше *)
					иначе
						прервиЦикл; всё; кц;
			предТокенНеПробел := token;
			возврат успех кон GetNextTokenЗаметивСостояниеПрепроцессора;
			
		проц ПрочтиТекстПослеКонцаМодуля*(перем token: Лексема);
		нач СТОП(100); (* абстрактная *) кон ПрочтиТекстПослеКонцаМодуля;
		
		
	кон БазовыйЛексер;



	(** scanner reflects the following EBNF
		Token				= String | Symbol | Number | Keyword | Identifier.
		Symbol				=  | '#' | '&' | '(' ['*' any '*' ')'] | ')' | '*'['*'] | '+'['*'] | ',' | '-' | '.' [ '.' | '*' | '/' | '=' | '#' | '>'['='] | '<' ['=']
											| '/' | ':' ['='] | ';'  | '<' ['=' | '<' ['?'] ] | '=' | '>' [ '=' | '>' ['?']]
											| '[' | ']' | '^' | '{' | '|' | '}' | '~' | '\' |  '`' |  '?' ['?'] | '!' ['!']
		Identifier			= Letter {Letter | Digit | '_'}.
		Letter					= 'A' | 'B' | .. | 'Z' | 'a' | 'b' | .. | 'z'.
		Digit						= '0' | '1' | '2' | '3' | '4' | '5' | '6' | '7' | '8' | '9' .
		String					= There is a rich syntax for a string. See

				http://xn---115-f4d0bap3j.xn-----6kcajervcdvqarhfgengcekya4c.xn--p1ai/xn--80ac0aqt/xn--foxparserfoxscanner-pspubaaj8l5b0a3a
				or look at this (gitlab.com/budden/ja-o-s)
				2013-07-11 SHA-1: 2bf5495ada893e893689ad861fa757de4ad23258

String literals can now be defined in three ways:
(a)  starting and ending with ":  "String. No commands. No escapes. EOS:"
(b)  starting and ending with \" and "\ respectivey: \"String. With commands such as newline \n. "Substrings" possible. EOS escapable with \"\\ EOS:"\
(c)  starting and ending with \<esc>" and "<esc>\, respectivly, where <esc> denotes a non-whitespace character : \+"String. No commands.
      No escapes. "Substring" possible. \"Substring"\ possible. \X"Substring"X\ possible. EOS:"+\
Multi string literals possible : Log.String("first string" "second string" \"Third string\n"\
Escaped strings also handled by command region selector in WMTextView => "~" can be escaped by strings [end of command otherwise].

		Character			= Digit [HexDigit] 'X'.
		Number				= Integer | Real.
		Integer				= Digit {Digit} | Digit {HexDigit} 'H' | '0x' {HexDigit}.
		Real						= Digit {Digit} '.' {Digit} [ScaleFactor].
		ScaleFactor		= ('E' | 'D') ['+' | '-'] digit {digit}.
		HexDigit			= Digit | 'A' | 'B' | 'C' | 'D' | 'E' | 'F'.
	**)

	Лексер* = окласс(БазовыйЛексер)
	перем

		(* helper state information *)
		чтец: Потоки.Чтец;   (* source *)

		лит: UCS32.CharJQ;   (* look-ahead character *)
		местоВТексте: МестоВТексте;  (* current position *)

		естьПодсмотреннаяЛит : булево; (* вызывали ли Peek? *)
		подсмотреннаяЛит : UCS32.CharJQ;


		неПрочиталиНиОдногоИдентификатораЛи: булево;   (* support of lower vs. upper case keywords  *)
		писарьСборщикаСтроки, писарьСборщикаСтрДляСЛСП: Потоки.Писарь;
		сборщикСтроки: Строкопостроитель;
		сборщикСтрДляСЛСП: Строкопостроитель; (* для поля строковыйЛитералСПунктуацией *)

		предТокенВТЧПробел: Лексема;

		(*
			source: name of the source code for reference in error outputs
			reader: input stream
			position: reference position (offset) of the input stream , for error output
			diagnostics: error output object
		*)
		проц & новЛексер*( конст l0source: массив из симв8; reader: Потоки.Чтец; pos: МестоВТексте; diagnostics: Diagnostics.Diagnostics );
		нач
			новБазовыйЛексер(l0source);

			нов(сборщикСтроки,1024);
			нов(сборщикСтрДляСЛСП, 1024);
			писарьСборщикаСтроки := сборщикСтроки.ДайПисца();
			писарьСборщикаСтрДляСЛСП := сборщикСтрДляСЛСП.ДайПисца();
			сам.чтец := reader;
			сам.диагностика := diagnostics;
			лит := UCS32.CHARvCharJQ(" ");
			неПрочиталиНиОдногоИдентификатораЛи := истина;
			сам.местоВТексте := pos;
			умень(местоВТексте.start, 1); (* one token lookahead *)
			если reader = НУЛЬ то лит := UCS32.IntToCharJQ(UCS32.KodEot) иначе GetNextCharacter всё;
			если Trace то D.Str( "New scanner  " ); D.Ln; всё;
			если l0source = "" то сам.местоВТексте.reader := reader всё;
			если l0source # "" то 
				нов(сам.местоВТексте.имяФайла);
				UCS32.COPYJQvJQ(UCS32.U8vNovJQ(l0source)^,сам.местоВТексте.имяФайла^) всё;
		кон новЛексер;

		проц {перекрыта}ResetCase*; 
		нач
			неПрочиталиНиОдногоИдентификатораЛи := истина; вариантПеревода := ВариантыПеревода.Unknown;
		кон ResetCase;


		(** report an error occured during scanning **)
		проц ErrorS(конст msg: массив из симв8);
		нач
			Basic.Error(диагностика, source^, местоВТексте,  msg);
			былаЛиОшибкаРазбора := истина;
		кон ErrorS;

		(** report an error occured during scanning **)
		проц Error( code: цел16 );
		нач
			Basic.ErrorC(диагностика, source^, местоВТексте, code, "");
			былаЛиОшибкаРазбора := истина;
		кон Error;

		проц ВозьмиСледБуквуНаСамомДеле(перем куда: UCS32.CharJQ);
		перем oldPozVLiterakh : Потоки.ТипМестоВПотоке;
		нач
			просейТип чтец:
				| ReaderSchitUTF8LF.ЧтецЮникодаОбёртка делай
					oldPozVLiterakh := чтец.pozVLiterakh;
					утв(чтец.чЮ8(куда));
					если куда.UCS32CharCode = UCS32.KodEot то
						увел(местоВТексте.start, 1)
					иначе
						увел(местоВТексте.start, чтец.pozVLiterakh - oldPozVLiterakh)
					всё;
				иначе
					утв(чтец.чЮ8(куда));
					увел(местоВТексте.start, 1);
				всё;

			если куда = UCS32.CHARvCharJQ(LF) то
				увел(местоВТексте.line); местоВТексте.linepos := местоВТексте.start+1 всё;
			(*
			(* not necessary, as Streams returns 0X if reading failed, but in case Streams.Reader.Char is modified ...  *)
			IF reader.res # Streams.Ok THEN куда := EOT END;
			*)
		кон ВозьмиСледБуквуНаСамомДеле;

		(** get next character, end of text results in ch = EOT **)
		проц GetNextCharacter;
		нач
		если естьПодсмотреннаяЛит то
			лит := подсмотреннаяЛит;
			естьПодсмотреннаяЛит := ложь;
			подсмотреннаяЛит := UCS32.IntToCharJQ(UCS32.KodEot);
		иначе
			ВозьмиСледБуквуНаСамомДеле(лит) всё кон GetNextCharacter;

		(* пока что косяк будет в том, что позиция в потоке будет вычисляться во время Peek, а не
		во время GetNextCharacter, т.е. она будет сдвигаться преждевременно *)
		проц Peek(): UCS32.CharJQ;
		нач
		если ~естьПодсмотреннаяЛит то
			ВозьмиСледБуквуНаСамомДеле(подсмотреннаяЛит);
			естьПодсмотреннаяЛит := истина всё;
		возврат подсмотреннаяЛит кон Peek;

		(* simple case can be utilized when endString does not contain first character, which is the case for our string convention *)
		проц ConsumeStringUntil(конст endString: массив из UCS32.CharJQ; useControl: булево);
		перем escapePos: цел32; ech: UCS32.CharJQ; i: цел32; startPosition: Потоки.ТипМестоВПотоке;
		конст
			Control = '\';
			Delimiter = '"';

				проц Append(з : UCS32.CharJQ);
				нач
					если з.UCS32CharCode = UCS32.KodEot то
						ErrorS("Нежданно кончился текст посреди строкового литерала"); былаЛиОшибкаРазбора := истина;
					иначе
						писарьСборщикаСтроки.пСимв32_вЮ8(з);
					всё;
				кон Append;

		нач
			(* traverse *)
			escapePos := 0; ech := endString[0]; startPosition := местоВТексте.start;
			GetNextCharacter;
			нц
				если лит = ech то
					увел(escapePos); ech := endString[escapePos];
					GetNextCharacter;
				аесли useControl и (лит = UCS32.IntToCharJQ(кодСимв8(Control))) то
					писарьСборщикаСтрДляСЛСП.пСимв32_вЮ8(лит);
					GetNextCharacter;
					если (лит = UCS32.IntToCharJQ(кодСимв8(Control))) или (лит = UCS32.IntToCharJQ(кодСимв8(Delimiter))) то
						Append(лит)
					аесли лит = UCS32.CHARvCharJQ('n') то
						(* Append(CR); *) Append(UCS32.IntToCharJQ(кодСимв8(LF)));
					аесли лит = UCS32.CHARvCharJQ('t') то
						Append(UCS32.IntToCharJQ(UCS32.KodTAB))
					иначе
						ErrorS("Плохая управляющая конструкция в строковом литерале")
					всё;
					писарьСборщикаСтрДляСЛСП.пСимв32_вЮ8(лит);
					GetNextCharacter
				аесли escapePos = 0 то (* frequent case *)
					писарьСборщикаСтрДляСЛСП.пСимв32_вЮ8(лит);
					Append(лит); GetNextCharacter;
				иначе
					(* account for "forgotten" characters *)
					нцДля i := 0 до escapePos-1 делай
						писарьСборщикаСтрДляСЛСП.пСимв32_вЮ8(endString[i]);
						Append(endString[i]);
					кц;
					(* restart *)
					ech := endString[0]; escapePos := 0;
				всё;
			если (лит = UCS32.IntToCharJQ(UCS32.KodEot)) то
				местоВТексте.start := startPosition;
				ErrorS("Нежданно кончился текст посреди строкового литерала (2)");
				лит := UCS32.IntToCharJQ(UCS32.KodEot);
				прервиЦикл всё;
			если (ech = UCS32.IntToCharJQ(UCS32.KodEot)) то
				прервиЦикл всё;
			если былаЛиОшибкаРазбора то прервиЦикл всё кц кон ConsumeStringUntil;


		(* По построению, прочитали либо открывающую ", либо ASCII буква-затенитель, а за ней - открывающая " *)
		проц GetEscapedString(перем token: Лексема);
		перем endString: массив ДлинаОграничителяСтроки из UCS32.CharJQ; 
			чемОткрывается: UCS32.PStringJQ; 
			escape: UCS32.CharJQ;
		нач
			(* уже прочитана обратная косая *)
			сборщикСтроки.СотриВсё;
			сборщикСтрДляСЛСП.СотриВсё;
			если лит = UCS32.CHARvCharJQ('"') то
				escape := UCS32.IntToCharJQ(UCS32.KodEot);
			иначе
				escape := лит; GetNextCharacter;
			всё;
			утв(лит = UCS32.CHARvCharJQ('"'));
				если escape # UCS32.IntToCharJQ(UCS32.KodEot) то
					endString[0] := лит;
					endString[1] := escape;
					endString[2] := UCS32.CHARvCharJQ('\');
					endString[3] := UCS32.IntToCharJQ(UCS32.KodEot);
				иначе
					endString[0] := лит;
					endString[1] := UCS32.CHARvCharJQ('\');
					endString[2] := UCS32.IntToCharJQ(UCS32.KodEot);
				всё;
				ConsumeStringUntil(endString, escape = UCS32.IntToCharJQ(UCS32.KodEot));
			писарьСборщикаСтроки.пСимв8(0X); писарьСборщикаСтроки.ПротолкниБуферВПоток;
			писарьСборщикаСтрДляСЛСП.пСимв8(0X); писарьСборщикаСтрДляСЛСП.ПротолкниБуферВПоток;
			нов(чемОткрывается,ДлинаОграничителяСтроки);
			ПереверниСтрокуЪ(endString,чемОткрывается^);
			token.чемОткрываетсяСтрока := чемОткрывается;
			token.string := сборщикСтроки.ДайКопиюДанных(token.stringLength);
			token.строковыйЛитералСПунктуацией := 
				сборщикСтрДляСЛСП.ДайКопиюДанных(token.строковогоЛитералаСПунктуациейДлина);
		кон GetEscapedString;

		(** get a string starting at current position
			string = {'"' {Character} '"'} | {"'" {Character} "'"}.
		**)
		(* multiline indicates that a string may occupy more than one lines, either concatenated or via multi-strings " "  " "
		*)
		проц ПрочтиСтрокиЛитерал(перем token: Лексема; multiLine, multiString, useControl: булево; чемОткрывается: UCS32.PStringJQ);
		перем och: UCS32.CharJQ; error: булево;
		конст control = '\';

			проц Append(ch :UCS32.CharJQ);
			нач
				если ch.UCS32CharCode = UCS32.KodEot то
					ErrorS("Неожиданный конец текста внутри строкового литерала"); error := истина
				иначе
					писарьСборщикаСтроки.пСимв32_вЮ8(ch);
					писарьСборщикаСтрДляСЛСП.пСимв32_вЮ8(ch)
				всё;
			кон Append;

		нач
			(* мультистроки теперь должны возникать в парсере *)
			утв(~ multiString);
			сборщикСтроки.СотриВсё;
			сборщикСтрДляСЛСП.СотриВсё;
			если лит.UCS32CharCode # UCS32.KodEot то
				och := лит
			иначе
				och := лит; error := ложь всё;
			нц
				если error то прервиЦикл всё;
				GetNextCharacter;
				если (лит = och) или (лит.UCS32CharCode = UCS32.KodEot) то прервиЦикл всё;
				если useControl и (лит.UCS32CharCode = кодСимв8(control)) то
					писарьСборщикаСтрДляСЛСП.пСимв32_вЮ8(лит);
					GetNextCharacter;
					если (лит.UCS32CharCode = кодСимв8(control)) или (лит = och) то
						Append(лит)
					аесли лит.UCS32CharCode = кодСимв8('n') то
						Append(UCS32.CHARvCharJQ(CR)); Append(UCS32.CHARvCharJQ(LF));
					аесли лит.UCS32CharCode = кодСимв8('t') то
						Append(UCS32.CHARvCharJQ(TAB))
					иначе
						ErrorS("Неизвестный диграф с '\'")
					всё;
				иначе
					если ~multiLine и (лит.UCS32CharCode < кодСимв8(" ")) то Error( Basic.StringIllegalCharacter ); прервиЦикл всё;
					Append(лит) всё кц;
			если лит.UCS32CharCode = UCS32.KodEot то
				ErrorS("Неожиданный конец текста внутри строкового литерала")
			иначе
				GetNextCharacter; (* Здесь мы уж не ждём юникод *)
			всё;
			писарьСборщикаСтроки.пСимв8(0X); писарьСборщикаСтроки.ПротолкниБуферВПоток;
			писарьСборщикаСтрДляСЛСП.пСимв8(0X); писарьСборщикаСтрДляСЛСП.ПротолкниБуферВПоток;
			token.string := сборщикСтроки.ДайКопиюДанных(token.stringLength);
			token.строковыйЛитералСПунктуацией := сборщикСтрДляСЛСП.ДайКопиюДанных(token.строковогоЛитералаСПунктуациейДлина);
			token.чемОткрываетсяСтрока := чемОткрывается;
		кон ПрочтиСтрокиЛитерал;

		(**
			Identifier = Letter {Letter | Digit | '_'} .
			Letter = 'A' | 'B' | .. |  'Z' | 'a' | 'b' |  .. | 'z' .
			Digit = '0' | '1' | '2' | '3' | '4' | '5' | '6' | '7' | '8' | '9'.

			'_' is the underscore character
		**)
		проц ДочитайИдентификатор( перем token: Лексема );
		перем i: размерМЗ; identifierStringJQ : массив MaxIdentifierLength + 1 из UCS32.CharJQ;
		identifierStringUTF8a : массив UCS32.JQLenToU8Len * (MaxIdentifierLength + 1) из симв8;
		нач
			i := 0;
			нцДо
				identifierStringJQ[i] := лит; увел( i );
				GetNextCharacter
			кцПри ~(СимволДопустимВИдентификатореЛи(лит,ложь)) 
				(* следующая проверка - предварительная, т.к. ограничение длины задано в байтах,
				а не знаках юникода *)
				или (i = MaxIdentifierLength);
			если i = MaxIdentifierLength то Error( Basic.IdentifierTooLong );  умень( i ) всё;
			identifierStringJQ[i] := UCS32.IntToCharJQ(UCS32.KodEot); увел( i );
			UCS32.COPYJQvU8(identifierStringJQ, identifierStringUTF8a);
			былаЛиОшибкаРазбора := ~ЗаполниИмяВИдентификаторе(диагностика, token, identifierStringUTF8a);
		кон ДочитайИдентификатор;

		проц РазбериПробелы( перем token: Лексема; sym : ВидЛексемы );
		перем level: цел32;
		нач
			сборщикСтроки.СотриВсё;
			level := 1;
			нцПока (лит = UCS32.CHARvCharJQ(" "))или(лит = UCS32.CHARvCharJQ(TAB)) делай
					писарьСборщикаСтроки.пСимв32_вЮ8(лит);
					GetNextCharacter;
				кц;
			писарьСборщикаСтроки.пСимв32_вЮ8(UCS32.IntToCharJQ(UCS32.KodEot));
			писарьСборщикаСтроки.ПротолкниБуферВПоток;
			token.видЛексемы := sym;
			token.string := сборщикСтроки.ДайКопиюДанных(token.stringLength);
		кон РазбериПробелы;

		(**
		Number       =  Integer | Real.
		Integer      =  Digit {Digit} | Digit {HexDigit} 'H' | '0x' {HexDigit}.
		Real         =  Digit {Digit} '.' {Digit} [ScaleFactor].
		ScaleFactor  =  ('E' | 'D') ['+' | '-'] digit {digit}.
		HexDigit     =  Digit | 'A' | 'B' | 'C' | 'D' | 'E' | 'F'.
		Digit = '0' | '1' | '2' | '3' | '4' | '5' | '6' | '7' | '8' | '9' .
		**)
		проц GetNumber(перем token: Лексема): ВидЛексемы;
		перем i, m, n, d, e, si: цел32;
			dig: массив 24 из UCS32.CharJQ;
			f: вещ64;  expCh: UCS32.CharJQ;  neg, long: булево;
			result: ВидЛексемы;
			hugeint, tenh, number, nextInt: цел64;
			digits: цел32;

			(** 10^e **)
			проц Ten( l1e: цел32 ): вещ64;
			перем x, p: вещ64;
			нач
				x := 1;  p := 10;
				нцПока l1e > 0 делай
					если нечётноеЛи¿( l1e ) то x := x * p всё;
					l1e := l1e DIV 2;
					если l1e > 0 то p := p * p всё  (* prevent overflow *)
				кц;
				возврат x
			кон Ten;

			(** return decimal number associated to character ch , error if none **)
			проц Decimal( ch: UCS32.CharJQ ): цел32;
			нач  (* ("0" <= ch) & (ch <= "9") OR ("A" <= ch) & (ch <= "F") *)
				если ch <= UCS32.CHARvCharJQ("9") то
					возврат цел32(ch.UCS32CharCode) - цел32(кодСимв8( "0" ))
				иначе Error( Basic.NumberIllegalCharacter );  возврат 0 всё
			кон Decimal;

			(** return hexadecimal number associated to character ch, error if none **)
			проц Hexadecimal( ch: UCS32.CharJQ ): цел32;
			нач
				если ch <= UCS32.CHARvCharJQ("9") то возврат цел32(ch.UCS32CharCode) - кодСимв8( "0" )
				аесли ch <= UCS32.CHARvCharJQ("F") то возврат цел32(ch.UCS32CharCode) - кодСимв8( "A" ) + 10
				аесли ch <= UCS32.CHARvCharJQ("f") то возврат цел32(ch.UCS32CharCode) - кодСимв8( "a" ) + 10
				иначе Error( Basic.NumberIllegalCharacter );  возврат 0
				всё
			кон Hexadecimal;

			проц IsHexDigit(ch: UCS32.CharJQ): булево;
			нач
				возврат (ch >= UCS32.CHARvCharJQ("0")) и (ch <= UCS32.CHARvCharJQ("9"))
					или (ch >= UCS32.CHARvCharJQ("a")) и (ch <=UCS32.CHARvCharJQ("f"))
					или (ch >= UCS32.CHARvCharJQ("A")) и (ch <= UCS32.CHARvCharJQ("F"))
			кон IsHexDigit;

			проц IsBinaryDigit(ch: UCS32.CharJQ): булево;
			нач
				возврат (ch >= UCS32.CHARvCharJQ("0")) и (ch <= UCS32.CHARvCharJQ("1"))
			кон IsBinaryDigit;

			проц ЗапишиВВидимоеПредставление();
			нач 
				token.строкаИдентификатора[si] := симв8ИзКода(лит.UCS32CharCode остОтДеленияНа 128); увел(si);
			кон ЗапишиВВидимоеПредставление;

			проц Прочитай16ричноеЧисло;
			нач
				(* стоим на букве 0, следующая - x *)
					digits := 0;
				ЗапишиВВидимоеПредставление();
				GetNextCharacter; ЗапишиВВидимоеПредставление();
				GetNextCharacter;
					если (лит = UCS32.CHARvCharJQ("'")) и IsHexDigit(Peek()) то
					ЗапишиВВидимоеПредставление();
						GetNextCharacter всё;
					нцПока IsHexDigit(лит) делай
					ЗапишиВВидимоеПредставление();
						number := number * 10H + Hexadecimal(лит);
						увел(digits);
						GetNextCharacter;
					если (лит = UCS32.CHARvCharJQ("'")) и IsHexDigit(Peek()) то 
						ЗапишиВВидимоеПредставление();
						GetNextCharacter всё кц;
					token.integer := number;
					если (digits > MaxHexDigits) или (digits = MaxHexDigits) и (number > матМаксимум(цел32)) то
						token.numberType := Hugeint
					иначе
					token.numberType := Integer	всё кон Прочитай16ричноеЧисло;
			
			проц ПрочитайДвоичноеЧисло();
			нач
				(* стоим на букве 0, следующая - b *)
					digits := 0;
				ЗапишиВВидимоеПредставление();
				GetNextCharacter; 
				ЗапишиВВидимоеПредставление();
				GetNextCharacter;
					если (лит = UCS32.CHARvCharJQ("'")) и IsBinaryDigit(Peek()) то
					ЗапишиВВидимоеПредставление();
						GetNextCharacter всё;
					нцПока IsBinaryDigit(лит) делай
					ЗапишиВВидимоеПредставление();
						number := number * 2;
						увел(digits);
						если лит = UCS32.CHARvCharJQ("1") то увел(number) всё;
						GetNextCharacter;
						если (лит = UCS32.CHARvCharJQ("'"))
						и IsBinaryDigit(Peek()) то 
							ЗапишиВВидимоеПредставление();
							GetNextCharacter всё кц;
					token.integer := number;
					если digits > 32 то
						token.numberType := Hugeint
					иначе
					token.numberType := Integer всё кон ПрочитайДвоичноеЧисло;

		нач  (* ("0" <= ch) & (ch <= "9") *)
			result := Число;
			i := 0;  m := 0;  n := 0;  d := 0;  si := 0;  long := ложь;

			если (лит = UCS32.CHARvCharJQ("0")) то
				если (Peek() = UCS32.CHARvCharJQ("x")) то 
					Прочитай16ричноеЧисло();
					возврат result;
				аесли (Peek() = UCS32.CHARvCharJQ("b")) то 
					ПрочитайДвоичноеЧисло();
					возврат result всё всё;

			нц  (* read mantissa *)
				если (UCS32.CHARvCharJQ("0") <= лит) и (лит <= UCS32.CHARvCharJQ("9"))
						или (d = 0)
							и (UCS32.CHARvCharJQ("A") <= лит)
							и (лит <= UCS32.CHARvCharJQ("F")) то
					если (m > 0) или (лит # UCS32.CHARvCharJQ("0")) то  (* ignore leading zeros *)
						если n < длинаМассива( dig ) то dig[n] := лит;  увел( n ) всё;
						увел( m )
					всё;
					ЗапишиВВидимоеПредставление();
				  GetNextCharacter;  увел( i )
				аесли лит = UCS32.CHARvCharJQ(".") то
					если Peek() = UCS32.CHARvCharJQ(".") то
						(* это диапазон число..число - не часть числа! *)
						GetNextCharacter; (* читаем вторую точку *)
						(* подменяем две точки на знак .. *)
						лит := UCS32.CHARvCharJQ(Многоточие);  прервиЦикл всё;
					ЗапишиВВидимоеПредставление();
 					GetNextCharacter;
					если d = 0 то  (* i > 0 *) d := i
					иначе Error( Basic.NumberIllegalCharacter )
					всё
				аесли лит = UCS32.CHARvCharJQ("'") то 
					ЗапишиВВидимоеПредставление();
					GetNextCharacter; (* ignore *)
				иначе прервиЦикл
				всё
			кц;   (* 0 <= n <= m <= i, 0 <= d <= i *)
			если d = 0 то  (* integer *)
				если n = m то
					token.integer := 0;  i := 0;
					если лит = UCS32.CHARvCharJQ("X") то  (* character *)
						ЗапишиВВидимоеПредставление();
						GetNextCharacter;  
						result := Character; 
						token.чемОткрываетсяСтрока := НУЛЬ; (* впрочем, это уже и так правда *)
						если  (n <= 2) то
							нцПока i < n делай token.integer := token.integer * 10H + Hexadecimal( dig[i] );  увел( i ) кц;
							token.character := симв8ИзКода(token.integer);
						иначе Error( Basic.NumberTooLarge )
						всё
					аесли лит = UCS32.CHARvCharJQ("H") то  (* hexadecimal *)
						ЗапишиВВидимоеПредставление();
						GetNextCharacter;
						если (n < MaxHexDigits)
							или (n=MaxHexDigits) и (dig[0] <= UCS32.CHARvCharJQ("7"))  то (* otherwise the positive (!) number is not in the range of longints *)
							token.numberType := Integer;
							(* IF (n = MaxHexDigits) & (dig[0] > "7") THEN  (* prevent overflow *) token.integer := -1 END;  *)
							нцПока i < n делай token.integer := token.integer * 10H + Hexadecimal( dig[i] );  увел( i ) кц;
						аесли n <= MaxHugeHexDigits то
							token.numberType := Hugeint;
							если (n = MaxHugeHexDigits) и (dig[0] > UCS32.CHARvCharJQ("7")) то
								(* prevent overflow *)
								token.integer := -1 всё;
							нцПока i < n делай token.integer := Hexadecimal( dig[i] ) + token.integer * 10H; увел( i ) кц;
						иначе
							token.numberType := Hugeint; (* to make parser able to go on *)
							Error( Basic.NumberTooLarge )
						всё
					иначе  (* decimal *)
						token.numberType := Integer;
						нцПока (i < n) и ~long  делай
							d := Decimal( dig[i] );  увел( i );
							если token.integer >= матМаксимум(цел32) DIV 10 то (* multiplication overflow *)long := истина всё;
							nextInt := token.integer*10+d;
							если nextInt >=0 то token.integer := nextInt иначе (* overflow *) long := истина всё;
						кц;
						если long то
							i := 0; (* restart computation , artificial limit because of compiler problems with hugeint *)
							hugeint := 0;
							tenh := 10; (* compiler does not like constants here ! *)
							token.numberType := Hugeint;
							нцПока i < n делай
								d := Decimal( dig[i] );  увел( i );
								если hugeint > матМаксимум(цел64) DIV 10 то Error( Basic.NumberTooLarge) всё;
								hugeint := hugeint * tenh + d;
								если hugeint < 0 то Error( Basic.NumberTooLarge ) всё
							кц;
							token.integer := hugeint;
						всё
					всё
				иначе
					token.numberType := Hugeint;
					Error( Basic.NumberTooLarge )
				всё
			иначе  (* fraction *)
				f := 0;  e := 0;  expCh := UCS32.CHARvCharJQ("E");
				нцПока n > 0 делай  (* 0 <= f < 1 *) умень( n );  f := (Decimal( dig[n] ) + f) / 10 кц;
				если (лит = UCS32.CHARvCharJQ("E")) или (лит = UCS32.CHARvCharJQ("D")) то
					expCh := лит;  
					ЗапишиВВидимоеПредставление();
					GetNextCharacter;  neg := ложь;
					если лит = UCS32.CHARvCharJQ("-") то
						neg := истина;  
						ЗапишиВВидимоеПредставление();
						GetNextCharacter
					аесли лит = UCS32.CHARvCharJQ("+") то
						ЗапишиВВидимоеПредставление();
						GetNextCharacter
					всё;
					если (UCS32.CHARvCharJQ("0") <= лит) и (лит <= UCS32.CHARvCharJQ("9")) то
						нцДо
							n := Decimal( лит );  
							ЗапишиВВидимоеПредставление();
							GetNextCharacter;
							если e <= (матМаксимум( цел16 ) - n) DIV 10 то e := e * 10 + n иначе Error( Basic.NumberTooLarge ) всё
						кцПри (лит < UCS32.CHARvCharJQ("0")) или (UCS32.CHARvCharJQ("9") < лит);
						если neg то e := -e всё
					иначе Error( Basic.NumberIllegalCharacter )
					всё
				всё;
				умень( e, i - d - m );   (* decimal point shift *)
				если expCh = UCS32.CHARvCharJQ("E") то
					token.numberType := Real;
					если (1 - MaxRealExponent < e) и (e <= MaxRealExponent) то
						если e < 0 то token.real :=  f / Ten( -e ) иначе token.real := f * Ten( e )  всё;
						token.real := вещ32 (token.real);
					иначе Error( Basic.NumberTooLarge )
					всё
				иначе
					token.numberType := Longreal;
					если (1 - MaxLongrealExponent < e) и (e <= MaxLongrealExponent) то
						если e < 0 то token.real := f / Ten( -e ) иначе token.real := f * Ten( e ) всё
					иначе Error( Basic.NumberTooLarge )
					всё
				всё
			всё;
			token.строкаИдентификатора[si] := 0X;
			возврат result;
		кон GetNumber;

		проц {перекрыта}ПрочтиТекстПослеКонцаМодуля*(перем token: Лексема);
		перем буфер: Strings.Buffer; зап: Потоки.Писарь;
		нач
			нов(буфер, 10);
			нов(token);
			token.местоВТексте := местоВТексте;
			token.местоВТексте.лексема := token;
			token.видЛексемы := ТекстПослеEnd;

			зап := буфер.GetWriter();
			нц
				если лит.UCS32CharCode = UCS32.KodEot то
					прервиЦикл всё;
				зап.пСимв32_вЮ8(лит);
				GetNextCharacter кц;
			зап.ПротолкниБуферВПоток;
				
			token.string := буфер.GetString();
			token.stringLength := Strings.Length(token.string^);
			
			token.пред := предТокенВТЧПробел;
			если предТокенВТЧПробел # НУЛЬ то
				предТокенВТЧПробел.след := token всё;
			предТокенВТЧПробел := token;
		 
		кон ПрочтиТекстПослеКонцаМодуля;


		(** read / skip a comment **)
		проц ReadComment(перем token: Лексема);
		перем level: цел32;
		нач
			сборщикСтроки.СотриВсё;
			level := 1;
			нцПока (level > 0) и (лит.UCS32CharCode # UCS32.KodEot) делай
				если лит = UCS32.CHARvCharJQ("(") то
					писарьСборщикаСтроки.пСимв32_вЮ8(лит);
					GetNextCharacter;
					если лит = UCS32.CHARvCharJQ("*") то увел(level); писарьСборщикаСтроки.пСимв32_вЮ8(лит); GetNextCharacter;  всё;
				аесли лит = UCS32.CHARvCharJQ("*") то
					писарьСборщикаСтроки.пСимв32_вЮ8(лит);
					GetNextCharacter;
					если лит =UCS32.CHARvCharJQ(")") то умень(level); писарьСборщикаСтроки.пСимв32_вЮ8(лит); GetNextCharacter;  всё;
				иначе
					писарьСборщикаСтроки.пСимв32_вЮ8(лит);
					GetNextCharacter;
				всё;
			кц;

			если level > 0 то
				Error(Basic.CommentNotClosed)
			всё;

			писарьСборщикаСтроки.пСимв8(0X);
			писарьСборщикаСтроки.ПротолкниБуферВПоток;
			сборщикСтроки.ОтрежьХвост(2); (* remove comment closing *)
			token.видЛексемы := Comment;
			token.string := сборщикСтроки.ДайКопиюДанных(token.stringLength);
		кон ReadComment;

		(* SkipToEndOfCode собирает маш_код в лексему. Разбор длится 
			до управляющей конструкции (конец файла,  End или #, а про With я не понял).
			Вид управляющей конструкции и возвращается в символе токена.  *)
		проц {перекрыта}SkipToEndOfCode*(перем startPos,endPos: Потоки.ТипМестоВПотоке; перем token: Лексема): ВидЛексемы;
		перем s: цел32; newline: булево; врем: массив 2 из UCS32.CharJQ;
		нач
			утв(вариантПеревода # ВариантыПеревода.Unknown);
			сборщикСтроки.СотриВсё;
			startPos := token.местоВТексте.end;
			s := Code; newline := ложь;
			нц
				если (s = КонецТекста) или (s = Кн) или (s = Просей_тип) или (s = Unequal) то
					прервиЦикл всё;
				нов(token); ДобавьЛексемуВЦепочку(token);
				token.неОтклПрепроц := истина; (* смело! *)
				token.местоВТексте := местоВТексте;
				token.местоВТексте.лексема := token;
				endPos := местоВТексте.start;
				если СимволДопустимВИдентификатореЛи(лит,истина) то 
					newline := ложь;
					ДочитайИдентификатор(token);
					если вариантПеревода = ВариантыПеревода.Unknown то
						ErrorS("Не задан язык документа");
						GetNextCharacter;
						возврат НеразобранныйТекст всё;
					ПодбериСимволИзВыбранногоНабора(вариантПеревода,token.индексИдентификатора,s);
					если (s # Кн) и (s # Просей_тип) (* & (s # If) & (s # Else) & (s # Elsif) *) то
						писарьСборщикаСтроки.пСтроку8(token.строкаИдентификатора);
						s := НеразобранныйТекст 
					всё;
					token.string := Strings.NewString(token.строкаИдентификатора);
				аесли (лит = UCS32.CHARvCharJQ('#')) и newline то
					s := Unequal;
					GetNextCharacter;
					token.string := Strings.NewString("#");
				аесли лит.UCS32CharCode = UCS32.KodEot то
					s := КонецТекста;
					token.string := Strings.NewString("");
				иначе
					s := НеразобранныйТекст;
					если лит > UCS32.CHARvCharJQ(' ') то 
						newline := ложь;
					аесли (лит = UCS32.CHARvCharJQ(CR)) или (лит = UCS32.CHARvCharJQ(LF)) то
						s := ПереносСтроки;
						newline := истина;
					всё;
					писарьСборщикаСтроки.пСимв32_вЮ8(лит);
					врем[0]:=лит;
					врем[1]:=UCS32.IntToCharJQ(UCS32.KodEot);
					token.string := UCS32.JQvNovU8(врем);
					GetNextCharacter;
				всё;
				token.видЛексемы := s;
				если Trace то
					D.Str("SkipToEndOfCode: лексема в коде"); D.Str(token.string^); D.Str("!"); D.Int(Strings.Length(token.string^),0); D.Str("!!"); 
					D.Int(token.видЛексемы,0); D.Ln; D.Update всё;
				token.местоВТексте.end := местоВТексте.start;
			кц;
			писарьСборщикаСтроки.ПротолкниБуферВПоток;
			нов(token); (* эта лексема содержит суммарную строку, поэтому её НЕ добавляем в цепочку лексем *)
			token.string := сборщикСтроки.ДайКопиюДанных(token.stringLength);
			token.видЛексемы := s;
			token.местоВТексте := местоВТексте;
			token.местоВТексте.start := startPos;
			token.местоВТексте.end := местоВТексте.start;
			token.местоВТексте.лексема := token;

			если Trace то
				D.String("SkipToEndOfCode: выхожу"); D.Int(startPos,1); D.String(","); D.Int(endPos,1); D.Ln;
				PrintToken(D.Log,token,ВариантыПеревода.Русский); D.Ln;
			всё;
			утв((s = Кн)или(s = Unequal)или(s = КонецТекста));
			возврат s
		кон SkipToEndOfCode;

			проц ПодбериСимволИзВыбранногоНабора(регистрПервойБуквы : ВариантыПеревода; identifier: ИндексИдентификатора; перем s:ВидЛексемы);
			перем kt : ТаблицаКлючевыхСлов; symbol: ВидЛексемы;
			нач
				(* Есть DIV, к-рый одинаково пишется в обоих вариантах, но то, с чего начинается модуль, 
				   например, слова MODULE и модуль, начинаются с буквы "своего" языка, поэтому нижеследующее
				   условие верно. Поэтому регистрПервойБуквы имеет значение только в ситуации, когда язык
				   документа ещё не определён, в самом начале документа. *)
				если (вариантПеревода=ВариантыПеревода.Русский) 
					или (вариантПеревода=ВариантыПеревода.Unknown) и (регистрПервойБуквы = ВариантыПеревода.Русский) то
						kt := keywords_Русские
				аесли (вариантПеревода=ВариантыПеревода.Uppercase) 
					или (вариантПеревода=ВариантыПеревода.Unknown) и (регистрПервойБуквы = ВариантыПеревода.Uppercase) то
						kt := keywordsUpper всё;
				если kt # НУЛЬ то
					symbol := kt.ДайВидЛексемыПоИндексуИдентификатора(identifier);
					если  (symbol >= 0) то s := symbol всё;
					если (s = Модуль) или (s=CellNet) то вариантПеревода := регистрПервойБуквы всё;
					если неПрочиталиНиОдногоИдентификатораЛи и (s # Модуль) и (s # CellNet) и (вариантПеревода = ВариантыПеревода.Unknown) то
						вариантПеревода := регистрПервойБуквы; s := Идентификатор всё всё;
				если неПрочиталиНиОдногоИдентификатораЛи и (s # Модуль) и (s # CellNet) и (вариантПеревода = ВариантыПеревода.Unknown) то
					вариантПеревода := ВариантыПеревода.Uppercase всё;

				(* Особым образом обработаем TO и &, которые переводится неоднозначно *)
				если вариантПеревода = ВариантыПеревода.Uppercase	то
					если (symbol = ДоПредела2) или (symbol = НаТип2) то
						s := До всё всё кон ПодбериСимволИзВыбранногоНабора;


		(** Возвращает токен «первого уровня» **)
		проц {перекрыта}ДайТокенВТЧПробел(перем token: Лексема ): булево;
		перем s: ВидЛексемы; 
		нач
			нов(token);
			token.местоВТексте := местоВТексте;
			token.местоВТексте.лексема := token;
			s := None;
			сборщикСтроки.СотриВсё;
			нцПока лит = UCS32.CHARvCharJQ(CR) делай GetNextCharacter() кц;
			если лит = UCS32.IntToCharJQ(UCS32.KodEot) то
				s := КонецТекста
			аесли (лит = UCS32.CHARvCharJQ(LF)) то
				s := ПереносСтроки; GetNextCharacter;
			аесли (лит = UCS32.CHARvCharJQ(" ")) или (лит.UCS32CharCode = UCS32.KodTAB) то
				если (предТокенВТЧПробел # НУЛЬ) и (предТокенВТЧПробел.видЛексемы = ПереносСтроки) то
					s := Отступ
			 	иначе
			 		s := ПробелыВнутриСтроки всё;
				РазбериПробелы( token, s )
			аесли UCS32.РусскаяБукваЛи( лит ) то
				s := Идентификатор; ДочитайИдентификатор( token );
				ПодбериСимволИзВыбранногоНабора(ВариантыПеревода.Русский,token.индексИдентификатора,s);
			иначе
				просей лит.UCS32CharCode из  (* ch > " " *)
				(* юникодные литеры - в конце *)
				UCS32.KodEot: s := КонецТекста
				| кодСимв8(ДвойнаяКавычка):
						s := СтрокиЛитералМульти; ПрочтиСтрокиЛитерал(token,истина, ложь, ложь, UCS32.U8vNovJQ('"'));
				| кодСимв8(ОдинарнаяКавычка):
						s := СтрокиЛитерал; ПрочтиСтрокиЛитерал(token,ложь, ложь,ложь, UCS32.U8vNovJQ("'"));
						(* to be replaced by:
						s := Character; GetString(token);
						IF token.stringLength #2 THEN  (* stringlength = 1 for empty string '' *)
							Error(Basic.IllegalCharacterValue)
						END;
						*)
				| кодСимв8('#'):     s := Unequal;  GetNextCharacter
				| кодСимв8('&'):     если вариантПеревода=ВариантыПеревода.Uppercase то s := И_или_Родись иначе s := Родись всё; GetNextCharacter
				| кодСимв8('('):     GetNextCharacter;
						если лит.UCS32CharCode = кодСимв8('*') то GetNextCharacter; ReadComment(token);  s := Comment; иначе s := ОткрывающаяКруглаяСкобка всё
				| кодСимв8(')'):     s := ЗакрывающаяКруглаяСкобка;  GetNextCharacter
				| кодСимв8('*'):    GetNextCharacter; если лит.UCS32CharCode = кодСимв8('*') то GetNextCharacter;  s := УмножитьУмножить иначе s := ЗнакУмножить всё
				| кодСимв8('+'):    GetNextCharacter; если лит.UCS32CharCode = кодСимв8('*') то GetNextCharacter; s := ПлюсУмножить иначе s := ЗнакПлюс всё
				| кодСимв8(','):     s := Запятая;  GetNextCharacter
				| кодСимв8('-'):    s := ЗнакМинус;  GetNextCharacter
				| кодСимв8('.'):     GetNextCharacter;
						если лит.UCS32CharCode = кодСимв8('.') то GetNextCharacter; s := Upto;
						аесли лит.UCS32CharCode = кодСимв8('*') то GetNextCharacter; s := ТочкаУмножить;
						аесли лит.UCS32CharCode = кодСимв8('/') то GetNextCharacter; s := ТочкаИКосая;
						аесли лит.UCS32CharCode = кодСимв8('=') то GetNextCharacter; s := DotEqual;
						аесли лит.UCS32CharCode = кодСимв8('#') то GetNextCharacter; s := DotUnequal;
						аесли лит.UCS32CharCode = кодСимв8('>') то GetNextCharacter;
							если лит.UCS32CharCode = кодСимв8('=') то s := DotGreaterEqual; GetNextCharacter
							иначе s := DotGreater;
							всё
						аесли лит.UCS32CharCode = кодСимв8('<') то GetNextCharacter;
							если лит.UCS32CharCode = кодСимв8('=') то s := DotLessEqual; GetNextCharacter
							иначе s := DotLess;
							всё
						иначе s := ЗнакПрепинанияТочка всё
				| кодСимв8('/'):     s := Косая;  GetNextCharacter
				| кодСимв8('0')..кодСимв8('9'):   s := GetNumber(token);
				| кодСимв8(':'):     GetNextCharacter;
						если лит.UCS32CharCode = кодСимв8('=') то GetNextCharacter;  s := Becomes  иначе s := Двоеточие всё
				| кодСимв8(';'):     s := ТочкаСЗапятой;  GetNextCharacter
				| кодСимв8('<'):     GetNextCharacter;
						если лит.UCS32CharCode = кодСимв8('=') то GetNextCharacter;  s := LessEqual
						аесли лит.UCS32CharCode = кодСимв8('<') то GetNextCharacter;
							если лит.UCS32CharCode = кодСимв8('?') то GetNextCharacter; s := LessLessQ
							иначе s := МеньшеМеньше
							всё;
						иначе s := Less;
						всё
				| кодСимв8('='):     s := Equal;  GetNextCharacter
				| кодСимв8('>'):     GetNextCharacter;
						если лит.UCS32CharCode = кодСимв8('=') то GetNextCharacter;  s := GreaterEqual
						аесли лит = UCS32.CHARvCharJQ('>') то GetNextCharacter;
							если лит = UCS32.CHARvCharJQ('?') то GetNextCharacter; s := GreaterGreaterQ
							иначе s := БольшеБольше
							всё;
						иначе s := Greater;  всё
				| кодСимв8('['):     s := ОткрывающаяКвадратнаяСкобка;  GetNextCharacter
				| кодСимв8(']'):     s := ЗакрывающаяКвадратнаяСкобка;  GetNextCharacter
				| кодСимв8('^'):     s := Arrow;  GetNextCharacter
				| кодСимв8('{'):     s := ОткрывающаяФигурнаяСкобка;  GetNextCharacter
				| кодСимв8('|'):     s := Bar;  GetNextCharacter
				| кодСимв8('}'):     s := ЗакрываяющаяФигурнаяСкобка;  GetNextCharacter
				| кодСимв8('~'):     s := Не;  GetNextCharacter
				| кодСимв8('\'):     s := ОбратнаяКосая;  GetNextCharacter;
						если лит.UCS32CharCode = кодСимв8(ДвойнаяКавычка) то
							s := СтрокиЛитералМульти;
							GetEscapedString(token);
							(*
							GetString(token, TRUE, TRUE, TRUE)
							*)
							(* В качестве затеняющего символа пока что можно указывать только ASCII *)
						аесли (лит > UCS32.CHARvCharJQ(" ")) и (лит.UCS32CharCode < UCS32.GranicaASCII)
								и (Peek() = UCS32.CHARvCharJQ(ДвойнаяКавычка)) то
							s := СтрокиЛитерал;
							GetEscapedString(token);
						иначе
							GetNextCharacter;
							ErrorS("Неверное начало строкового литерала");
						всё;
				| кодСимв8('`'):     s := Transpose; GetNextCharacter
				| кодСимв8('?'):     s := ВопросительныйЗнак; GetNextCharacter;
					если лит.UCS32CharCode = кодСимв8('?') то
						s := ВопросительныеЗнаки; GetNextCharacter всё;
				| кодСимв8('!'):     s := ВосклицательныйЗнак; GetNextCharacter;
					если лит.UCS32CharCode = кодСимв8('!') то
						s := ВосклицательныеЗнаки; GetNextCharacter всё;
				| кодСимв8(Многоточие):
						s := Upto;  GetNextCharacter
				| кодСимв8('A')..кодСимв8('Z'): s := Идентификатор; ДочитайИдентификатор( token );
						ПодбериСимволИзВыбранногоНабора(ВариантыПеревода.Uppercase,token.индексИдентификатора,s);
				| кодСимв8('_'), кодСимв8('a')..кодСимв8('z'): s := Идентификатор; ДочитайИдентификатор( token );
				иначе 
					если лит.UCS32CharCode = кодСимволаМакроВызова то
						s := СимволМакроВызова;  GetNextCharacter;
					иначе
					s := Идентификатор;  ДочитайИдентификатор( token ); 
						ErrorS("Неверная буква") всё всё всё;
			неПрочиталиНиОдногоИдентификатораЛи := ложь;

			token.видЛексемы := s;
			token.местоВТексте.end := местоВТексте.start;

			если Trace то PrintToken(D.Log,token,ВариантыПеревода.Русский); D.Ln; всё;

			ДобавьЛексемуВЦепочку(token);

			возврат ~былаЛиОшибкаРазбора
		кон ДайТокенВТЧПробел;

		проц ДобавьЛексемуВЦепочку(лексема : Лексема);
		нач
			лексема.пред := предТокенВТЧПробел;
			если предТокенВТЧПробел # НУЛЬ то
				предТокенВТЧПробел.след := лексема всё;
			предТокенВТЧПробел := лексема кон ДобавьЛексемуВЦепочку;


	кон Лексер;
	
	(** Этот лексер предназначен, чтобы взять цепочку лексем
	и скормить её парсеру так, как будто мы прочитали лесемы из текста. 
	При выдаче каждая лексема копируется и из них склеивается новый список.
	Нужен для повторного расширения макросов, т.к. парсер макровызовов - это тоже парсер. Поскольку 
	для текущего примера повторное расширением макросов не понадобилось, пусть пока побудет в запасе *)
	ПсевдоЛексерСпискаЛексем* = окласс(БазовыйЛексер)
	перем 
		Первая, Последняя: Лексема;
		
		ТекущаяНаВыдачу: Лексема;
		всегоПрочитано, пределДлиныДляЗащитыОтЗацикливания: цел64;
		
		проц &новПсевдоЛексерСпискаЛексем*(конст вхИмяИсходногоФайла: массив из симв8; вхПервая, вхПоследняя: Лексема; вхПределДлиныДляЗащитыОтЗацикливания: цел64; вхДиагностика: Diagnostics.Diagnostics);
		нач
			новБазовыйЛексер(вхИмяИсходногоФайла);
			диагностика := вхДиагностика;
			(* интересно, а как обрабатывать случай пустого списка лексем? Наверное, сразу синтезировать лексему конца текста. *)
			утв(вхПервая # НУЛЬ); 
			утв(вхПоследняя # НУЛЬ);
			ПроверьДобротностьСпискаЛексем(вхПервая,вхПоследняя,истина);
			СкопируйСписокЛексемОтИДо(вхПервая, вхПоследняя, Первая, Последняя);
			ПроверьДобротностьСпискаЛексем(Первая,Последняя,ложь);
			утв(Первая # вхПервая);
			утв(Последняя # вхПоследняя);
			если Последняя.видЛексемы # КонецТекста то
				Последняя := ЯвиИскусственнуюЛексемуКонцаТекста(Последняя) всё;
			ТекущаяНаВыдачу := Первая;
			пределДлиныДляЗащитыОтЗацикливания := вхПределДлиныДляЗащитыОтЗацикливания кон новПсевдоЛексерСпискаЛексем;
			
		проц {перекрыта}ДайТокенВТЧПробел(перем token: Лексема ): булево;
		нач
			если ТекущаяНаВыдачу = НУЛЬ то
				(* Инспекция(143) *) всё;
			утв(ТекущаяНаВыдачу # НУЛЬ); (* если это нарушено, то мы читаем за концом списка лексем *)
			token := ТекущаяНаВыдачу;
			утв(всегоПрочитано < пределДлиныДляЗащитыОтЗацикливания);
			если ТекущаяНаВыдачу = Последняя то
				ТекущаяНаВыдачу := НУЛЬ 
			иначе
				ТекущаяНаВыдачу := ТекущаяНаВыдачу.след всё;
			возврат истина кон ДайТокенВТЧПробел;
			
		
		проц ResetError*();
		нач былаЛиОшибкаРазбора := ложь
		кон ResetError;

		(** set the diagnostics mode of the scanner (diagnostics = NIL ==> no report) and reset the error state
			intended for silent token peeeking after the end of a module *)
		проц ResetErrorDiagnostics*(перем diagnostics: Diagnostics.Diagnostics);
		перем d: Diagnostics.Diagnostics;
		нач
			былаЛиОшибкаРазбора := ложь;
			d := сам.диагностика; сам.диагностика := diagnostics; diagnostics := d;
		кон ResetErrorDiagnostics;

		проц {перекрыта}SkipToEndOfCode*(перем startPos,endPos: Потоки.ТипМестоВПотоке; перем token: Лексема): ВидЛексемы;
		нач СТОП(100); (* абстрактная *) кон SkipToEndOfCode;

		проц {перекрыта}ПрочтиТекстПослеКонцаМодуля*(перем token: Лексема);
		нач СТОП(100); (* абстрактная *) кон ПрочтиТекстПослеКонцаМодуля;
		
	кон ПсевдоЛексерСпискаЛексем;
	

	Context*=запись
		position: МестоВТексте;
		readerPosition : Потоки.ТипМестоВПотоке;
		ch: симв8;
	кон;

	(** assembler scanner reflects the following EBNF
		Token			= String | Symbol | Number | Identifier.
		Symbol			= '\' | '#' | '(' ['*' any '*' ')'] | ')' | CR [LF] | LF | '*' | '+' | ',' | '-' | '~' | '.' | '/' | '%' | ':' | ';' | '=' | '[' | ']' | '{' | '}' | '!' | '^' | '$'['$'].
		String				= '"' {Character} '"' | "'" {Character} "'".
		Identifier		= '@' | Letter {'@' | '.' | Letter | Digit | '_'} .
		Letter				= 'A' | 'B' | .. |  'Z' | 'a' | 'b' |  .. | 'z' .
		Digit				= '0' | '1' | '2' | '3' | '4' | '5' | '6' | '7' | '8' | '9'.
		BinaryDigit	= '0' | '1' .
		Number			= Integer | Real.
		Character		= Digit [HexDigit] 'X'.
		Integer			=  Digit {Digit} | Digit {HexDigit} 'H' | '0x' {HexDigit} | '0b' {BinaryDigit}.
		Real					= Digit {Digit} '.' {Digit} [ScaleFactor].
		ScaleFactor	= ('E' | 'D') ['+' | '-'] digit {digit}.
		HexDigit		= Digit | 'A' | 'B' | 'C' | 'D' | 'E' | 'F'.
	**)

	AssemblerScanner* = окласс (Лексер) (*!  move to different module? unify with compiler scanner? *)
	перем
		startContext-: Context;

		проц &InitAssemblerScanner*( конст l2source: массив из симв8; reader: Потоки.Чтец; position: МестоВТексте; diagnostics: Diagnostics.Diagnostics );
		нач
			новЛексер(l2source,reader,position,diagnostics);
			GetContext(startContext);
		кон InitAssemblerScanner;

		проц GetContext*(перем context: Context);
		нач
			утв(лит.UCS32CharCode < UCS32.GranicaASCII);
			context.ch := симв8ИзКода(лит.UCS32CharCode остОтДеленияНа 128);
			context.position := местоВТексте;
			context.readerPosition := чтец.МестоВПотоке();
		кон GetContext;

		проц SetContext*(конст context: Context);
		нач
			чтец.ПерейдиКМестуВПотоке(context.readerPosition);
			лит := UCS32.CHARvCharJQ(context.ch);
			местоВТексте := context.position;
		кон SetContext;

		проц SkipToEndOfLine*;
		нач
			нцПока (лит # UCS32.CHARvCharJQ(EOT))
				и (лит # UCS32.CHARvCharJQ(CR))
				и (лит # UCS32.CHARvCharJQ(LF)) делай
				GetNextCharacter
			кц;
		кон SkipToEndOfLine;

		(**
			note: in contrast to a regular identifier, an assembler scanner identifier may also contain periods and the '@'-token

			Identifier = '@' | Letter {'@' | '.' | Letter | Digit | '_'} .
			Letter = 'A' | 'B' | .. |  'Z' | 'a' | 'b' |  .. | 'z' .
			Digit = '0' | '1' | '2' | '3' | '4' | '5' | '6' | '7' | '8' | '9'.

			'_' is the underscore character
		**)
		проц {перекрыта}ДочитайИдентификатор( перем token: Лексема );
		перем
			i: цел32;

			проц CharacterIsAllowed(character: UCS32.CharJQ): булево;
			нач
				просей character.UCS32CharCode из
				| кодСимв8('a') .. кодСимв8('z'), кодСимв8('A') .. кодСимв8('Z'), кодСимв8('0') .. кодСимв8('9'), кодСимв8('@'), кодСимв8('.'), кодСимв8('_'): возврат истина
				иначе возврат ложь
				всё;
			кон CharacterIsAllowed;
		нач
			i := 0;
			нцДо
				token.строкаИдентификатора[i] := симв8ИзКода(лит.UCS32CharCode остОтДеленияНа 128);
				увел( i );  GetNextCharacter
			кцПри ~CharacterIsAllowed(лит) или (i = MaxIdentifierLength);

			если i = MaxIdentifierLength то Error( Basic.IdentifierTooLong );  умень( i ) всё;
			token.строкаИдентификатора[i] := 0X;
		кон ДочитайИдентификатор;

		(** get next token **)
		проц {перекрыта}ДочитайЛексему*(перем token: Лексема ): булево;
		перем s: цел32;

			проц SkipBlanks;
			нач
				нцПока (лит <= UCS32.CHARvCharJQ(' '))
					и (лит # UCS32.CHARvCharJQ(CR))
					и (лит # UCS32.CHARvCharJQ(LF))
					и (лит # UCS32.CHARvCharJQ(EOT)) делай
					(* ignore control characters except line feeds *)
					GetNextCharacter
				кц;
			кон SkipBlanks;


		нач
			нцДо
				(* В обычном сканере здесь есть ДайТокенВТЧПробел, и лексемы строятся в цепочку.
				   Здесь пока такого нет, а ведь может и понадобиться... *)
				нов(token); 
				SkipBlanks;
				s := None;
				token.местоВТексте := местоВТексте;
				token.местоВТексте.лексема := token;
				просей лит.UCS32CharCode из  (* ch > ' ' *)
				| кодСимв8(EOT):	s := КонецТекста;
				| кодСимв8(ДвойнаяКавычка):
						s := СтрокиЛитерал; ПрочтиСтрокиЛитерал(token, истина, ложь, истина, UCS32.U8vNovJQ('"'));
				| кодСимв8(ОдинарнаяКавычка):
						s := Character; ПрочтиСтрокиЛитерал(token, ложь, ложь, ложь, UCS32.U8vNovJQ("'")); token.character := token.string[0];
						если token.stringLength #2 то  (* stringlength = 1 for empty string '' *)
							Error(Basic.IllegalCharacterValue)
						всё;
				| кодСимв8('\'):     s := ОбратнаяКосая;  GetNextCharacter;
						если лит.UCS32CharCode = кодСимв8(ДвойнаяКавычка) то s := СтрокиЛитерал; ПрочтиСтрокиЛитерал(token, ложь, ложь, истина, UCS32.U8vNovJQ('\"')) всё;
				| кодСимв8('#'):     s := Unequal;  GetNextCharacter; (* for the ARM assembler *)
				| кодСимв8('('): GetNextCharacter;
						если лит.UCS32CharCode = кодСимв8('*') то GetNextCharacter; ReadComment(token);  s := Comment; иначе s := ОткрывающаяКруглаяСкобка всё
				| кодСимв8(')'):     s := ЗакрывающаяКруглаяСкобка;  GetNextCharacter
				| кодСимв8(CR): GetNextCharacter; s := Ln;
					если лит.UCS32CharCode = кодСимв8(LF) то GetNextCharacter всё;
				| кодСимв8(LF): GetNextCharacter; s := Ln;
					если лит.UCS32CharCode = кодСимв8(CR) то GetNextCharacter всё;
				| кодСимв8('*'):    s := ЗнакУмножить; GetNextCharacter;
				| кодСимв8('+'):    s := ЗнакПлюс ; GetNextCharacter;
				| кодСимв8(','):     s := Запятая;  GetNextCharacter
				| кодСимв8('-'):    s := ЗнакМинус;  GetNextCharacter
				| кодСимв8('~'):    s := Не;  GetNextCharacter
				| кодСимв8('.'):     s:= ЗнакПрепинанияТочка; GetNextCharacter
				| кодСимв8('/'):     s := Div;  GetNextCharacter
				| кодСимв8('%'):	s := Mod; GetNextCharacter
				| кодСимв8('0')..кодСимв8('9'):   s := GetNumber(token);
				| кодСимв8(':'):     s := Двоеточие; GetNextCharacter;
				| кодСимв8(';'):    s := Comment; SkipToEndOfLine;
				| кодСимв8('='):     s := Equal;  GetNextCharacter
				| кодСимв8('['):     s := ОткрывающаяКвадратнаяСкобка;  GetNextCharacter
				| кодСимв8(']'):     s := ЗакрывающаяКвадратнаяСкобка;  GetNextCharacter
				| кодСимв8('{'):     s := ОткрывающаяФигурнаяСкобка;  GetNextCharacter
				| кодСимв8('}'):     s := ЗакрываяющаяФигурнаяСкобка;  GetNextCharacter
				| кодСимв8('!'):     s := ВосклицательныйЗнак; GetNextCharacter;
				| кодСимв8('^'):     s := Arrow; GetNextCharacter;

				| кодСимв8('A')..кодСимв8('Z'): s := Идентификатор; ДочитайИдентификатор( token );
				| кодСимв8('a')..кодСимв8('z'): s := Идентификатор; ДочитайИдентификатор( token);
				| кодСимв8('@'):     s := Идентификатор; ДочитайИдентификатор( token); (* the '@'-token initiates an assembly scanner identifier *)
				| кодСимв8('$'): GetNextCharacter;
					если лит.UCS32CharCode = кодСимв8('$') то s := PCOffset; GetNextCharacter иначе s := PC; всё
				иначе s := None; GetNextCharacter;
				всё;
				token.местоВТексте.end := местоВТексте.start;
			кцПри s # Comment;

			token.видЛексемы := s;

			если Trace то 
				D.Ln;  D.Str( "Scan at " );  D.Int( token.местоВТексте.start,1 );  
				D.Str( ": " );  PrintToken(D.Log,token,ВариантыПеревода.Русский); D.Update;  всё;
			возврат ~былаЛиОшибкаРазбора
		кон ДочитайЛексему;

	кон AssemblerScanner;

	перем
		reservedCharacter: массив UCS32.DiapazonJunikodaSKirillicejj из булево;
		symbols-: массив КонецТекста+1 из КлючевоеСлово;
		keywordsLower-, keywordsUpper-, keywords_Русские-: ТаблицаКлючевыхСлов;

	(** return a new scanner on a stream, error output via diagnostics  **)
	проц NewScanner*( конст source: массив из симв8; reader: Потоки.Чтец; position: Потоки.ТипМестоВПотоке; diagnostics: Diagnostics.Diagnostics ): Лексер;
	перем s: Лексер; pos: МестоВТексте; ro : ReaderSchitUTF8LF.ЧтецЮникодаОбёртка;
	нач
		pos.start := position;
		pos.end := position;
		pos.line := 1;
		pos.linepos := 0;
		если reader # НУЛЬ то
			нов(ro, reader); reader := ro всё;
		нов(pos.имяФайла);
		UCS32.COPYU8vJQ(source, pos.имяФайла^);
		нов( s, source, reader, pos, diagnostics );  возврат s;
	кон NewScanner;

	проц NewAssemblerScanner*( конст source: массив из симв8; reader: Потоки.Чтец; position: Потоки.ТипМестоВПотоке; diagnostics: Diagnostics.Diagnostics ): AssemblerScanner;
	перем s: AssemblerScanner;pos: МестоВТексте; ro : ReaderSchitUTF8LF.ЧтецЮникодаОбёртка;
	нач
		pos.start := position;
		pos.end := position;
		pos.line := 1;
		pos.linepos := 0;
		если reader # НУЛЬ то
			нов(ro, reader); reader := ro всё;
		нов( s, source, reader, pos, diagnostics );  возврат s;
	кон NewAssemblerScanner;

	проц TokenToString*(конст token: Лексема; case: ВариантыПеревода; перем str: массив из симв8);
	перем id: StringPool.Index;
	нач
		просей token.видЛексемы из
		Идентификатор, Число: копируйСтрокуДо0(token.строкаИдентификатора, str)
		| СтрокиЛитерал, СтрокиЛитералМульти, Comment, ТекстПослеEnd: утв(длинаМассива(str) >= длинаМассива(token.string^)); копируйСтрокуДо0(token.string^, str);
		иначе
			GetKeyword(case, token.видЛексемы, id);
			если id < 0 то str := "" иначе StringPool.GetString(id, str) всё;
		всё;
	кон TokenToString;
	
	проц НужноОтграничить_И_ОтСоседаЛи(сосед: Лексема) : булево;
	нач
		если сосед = НУЛЬ то возврат ложь 
		аесли (сосед.видЛексемы = Comment)
			или (сосед.видЛексемы = ПробелыВнутриСтроки)
			или (сосед.видЛексемы = ПереносСтроки)
			или (сосед.видЛексемы = Отступ) то 
				возврат ложь 
		иначе
			возврат истина всё кон НужноОтграничить_И_ОтСоседаЛи;

	проц СимволДопустимВИдентификатореЛи*(лит : UCS32.CharJQ; началоИдентификатораЛи : булево) : булево;
	нач
		если UCS32.БукваЛи(лит) то возврат истина
		аесли началоИдентификатораЛи то возврат ложь
		аесли UCS32.ЗнакПрепинанияДляИдентификатораЛи(лит) то возврат истина;
		аесли UCS32.ЦифраЛи(лит) то возврат истина всё;
		возврат ложь 	кон СимволДопустимВИдентификатореЛи;
			
	
	(* Печать лексем для тестирования лексера-линзы. Не воссоздаёт исходный текст в точности *)
	проц TokenToString2*(конст token: Лексема; case: ВариантыПеревода; перем str: укль на массив из симв8);
	перем id: StringPool.Index; sw : Strings.Buffer;
		wr : Потоки.Писарь; симв: ВидЛексемы;
		чемЗакрываетсяСтрока: массив ДлинаОграничителяСтроки из UCS32.CharJQ;
	нач
		str := НУЛЬ;
		симв := token.видЛексемы;
		просей симв из
		| Идентификатор, Число: str := Strings.NewString(token.строкаИдентификатора)
		| СтрокиЛитерал, СтрокиЛитералМульти:
			нов(sw,10);
			wr := sw.GetWriter();
			wr.пСтроку32(token.чемОткрываетсяСтрока^,0);
			wr.пСтроку8(token.строковыйЛитералСПунктуацией^);
			ПереверниСтрокуЪ(token.чемОткрываетсяСтрока^,чемЗакрываетсяСтрока);
			wr.пСтроку32(чемЗакрываетсяСтрока,0);
			wr.ПротолкниБуферВПоток;
			str := sw.GetString();
		| Character:
			нов(sw,10);
			wr := sw.GetWriter();
			если token.чемОткрываетсяСтрока # НУЛЬ то
				wr.пСтроку32(token.чемОткрываетсяСтрока^,1);
				wr.пСимв8(token.character);
				wr.пСтроку32(token.чемОткрываетсяСтрока^,1)
			иначе
				wr.пСтроку8(token.строкаИдентификатора);
				(* IF ORD(token.character)>=0xA0 THEN
					wr.Char('0') END;
				wr.Hex(ORD(token.character),-2);
				wr.Char('X'); *) всё;
			wr.ПротолкниБуферВПоток;		
			str := sw.GetString();
		| Comment:
			нов(sw,10);
			wr := sw.GetWriter();
			wr.пСтроку8("(*");
			wr.пСтроку8(token.string^);
			wr.пСтроку8("*)");
			wr.ПротолкниБуферВПоток;
			str := sw.GetString();
		| ПереносСтроки: str := Strings.NewString(\"\n"\);
		| ПробелыВнутриСтроки, Отступ, ТекстПослеEnd, НеразобранныйТекст, ИскусственнаяЛексема: 
			str := Strings.NewString(token.string^);
		иначе
			GetKeyword(case, симв, id);
			нов(sw,10);
			wr := sw.GetWriter();
			если (симв = И) и (case = ВариантыПеревода.Русский) 
					и НужноОтграничить_И_ОтСоседаЛи(token.пред) то
				wr.пСтроку8(" ") всё;
			если id >= 0 то
				нов(str,MaxIdentifierLength + 1 );
				StringPool.GetString(id, str^)
			аесли token.string # НУЛЬ то
				str := Strings.NewString( token.string^ );
			иначе
				нов(str,10);
				Strings.IntToStr(token.видЛексемы, str^);
				СТОП(4536);
				всё;
			wr.пСтроку8(str^);
			если (симв = И) и (case = ВариантыПеревода.Русский) 
					и НужноОтграничить_И_ОтСоседаЛи(token.след) то
				wr.пСтроку8(" ") всё;
			wr.ПротолкниБуферВПоток;
			str := sw.GetString();
		всё;
	кон TokenToString2;



	(* Печать лексемы в виде S-выражения *)
	проц TokenToString2a*(конст token: Лексема; case: ВариантыПеревода; перем стр: укль на массив из симв8);
	перем id: StringPool.Index; sw : Strings.Buffer;
		wr : Потоки.Писарь; 
		симв: ВидЛексемы; стр2 : СтрокаИдентификатора;
		чемЗакрываетсяСтрока: массив ДлинаОграничителяСтроки из UCS32.CharJQ;
	нач
		стр := НУЛЬ;
		нов(sw,16);
		wr := sw.GetWriter();
		wr.пСтроку8("#S(TROB:LEXEM :POS ");
		wr.пЦел64(token.местоВТексте.start,0);
		если ~token.неОтклПрепроц то
			wr.пСтроку8(" :NE-OTKL-PREPROC NIL") всё;			
		wr.пСтроку8(\" :STRING \""\);
		просей token.видЛексемы из
		Идентификатор, Число: 
			wr.пСтроку8(token.строкаИдентификатора);
		| СтрокиЛитерал, СтрокиЛитералМульти:
			wr.пСтроку32(token.чемОткрываетсяСтрока^,16+4);
			wr.пСтроку32(UCS32.U8vNovJQ(token.строковыйЛитералСПунктуацией^)^,16+4);
			ПереверниСтрокуЪ(token.чемОткрываетсяСтрока^,чемЗакрываетсяСтрока);
			wr.пСтроку32(чемЗакрываетсяСтрока,16+4);
		| Character:
			если token.чемОткрываетсяСтрока # НУЛЬ то
				wr.пСтроку32(token.чемОткрываетсяСтрока^,16+4);
				wr.пСимв8(token.character);
				wr.пСтроку32(token.чемОткрываетсяСтрока^,16+4)
			иначе
				wr.пСтроку8(token.строкаИдентификатора) всё;
		| Comment:
			wr.пСтроку8("(*");
			wr.пСтроку32(UCS32.U8vNovJQ(token.string^)^,16+4);
			wr.пСтроку8("*)");
		| ПереносСтроки: wr.пСтроку8(\"\n"\);
		| ПробелыВнутриСтроки, Отступ, ТекстПослеEnd, НеразобранныйТекст: 
			wr.пСтроку32(UCS32.U8vNovJQ(token.string^)^,16+4);
		(* | Code: wr.String("CODE"); *)
		иначе
			симв := token.видЛексемы;	
			GetKeyword(case, симв, id);
			если (симв = И) и (case = ВариантыПеревода.Русский) 
					и НужноОтграничить_И_ОтСоседаЛи(token.пред) то
				wr.пСтроку8(" ") всё;
			если id >= 0 то
				StringPool.GetString(id, стр2);
				wr.пСтроку8(стр2);
			аесли token.string # НУЛЬ то
				wr.пСтроку32(UCS32.U8vNovJQ(token.string^)^,16+4);
			иначе
				Strings.IntToStr(token.видЛексемы, стр2);
				СТОП(4536);
				всё; 
			если (симв = И) и (case = ВариантыПеревода.Русский) 
					и НужноОтграничить_И_ОтСоседаЛи(token.след) то
				wr.пСтроку8(" ") всё всё;
		wr.пСтроку8(\"\")"\); 
		wr.пВК_ПС;
		wr.ПротолкниБуферВПоток;
		стр := sw.GetString();
 кон TokenToString2a;


	(* если передана последняяЛексема, печатаем диапазон ровно от первой до последней. *)
	проц ПечЦепочкуЛексем*(п, писарьКартыМест: Потоки.Писарь; конст перваяЛексема, последняяЛексема: Лексема; 
		printCase: ВариантыПеревода; лексемыВВидеИсх, info, можноПечататьЛексемуКонцаТекста¿: булево);
	перем л: Лексема; буфер : укль на массив из симв8; текИмяФайла: укль на Files.FileNameUCS32;
	нач
		л := перваяЛексема;
		если последняяЛексема = НУЛЬ то 
			нцПока л.пред # НУЛЬ делай л := л.пред кц всё;
		(* такое начало нужно, чтобы лисповый формат отличался от обероновского *)
		если ~ лексемыВВидеИсх то
			п.пСтроку8(";;;"); п.пВК_ПС; 	п.пСтроку8("(") всё;
		нц
			если л = НУЛЬ то прервиЦикл всё;
			если писарьКартыМест # НУЛЬ то
				ЗапишиМестоЛексемыВКартуМест(л, писарьКартыМест, п.МестоВПотоке(), текИмяФайла) всё;
			если info или лексемыВВидеИсх то
				если (л.видЛексемы = КонецТекста) и 
					можноПечататьЛексемуКонцаТекста¿ то
					п.пСтроку8("<КонецТекста>")
			иначе
					TokenToString2(л, printCase, буфер) всё;
			иначе
				TokenToString2a(л, printCase, буфер) всё;
			п.пСтроку8(буфер^);
			(* п.Int(л.symbol,0); п.String("~"); *)
			если л = последняяЛексема то прервиЦикл всё;
			л := л.след кц;
		если ~ лексемыВВидеИсх то п.пСтроку8(")") всё кон ПечЦепочкуЛексем;

		
	проц ПишиЦепочкуЛексемДляОтладкиЛЯ*(конст перваяЛексема, последняяЛексема: Лексема);
	перем п: Потоки.Писарь;
	нач 
		Потоки.НастройПисаря(п,ЛогЯдра.ЗапишиВПоток);
		п.пСтроку8("ЦепочкаЛексем:„");
		если перваяЛексема = НУЛЬ то
			п.пСтроку8("ПерваяЛексема = НУЛЬ") 
		аесли последняяЛексема = НУЛЬ то
			п.пСтроку8("ПоследняяЛексема = НУЛЬ")
		иначе
			ПечЦепочкуЛексем(п, НУЛЬ, перваяЛексема, последняяЛексема, ВариантыПеревода.Русский, истина, ложь, истина) всё;
		п.пСтроку8("“");
		п.ПротолкниБуферВПоток() кон ПишиЦепочкуЛексемДляОтладкиЛЯ;
		

проц ПроверьДобротностьСпискаЛексем*(Нач,Кон: Лексема; списокНеСамодостаточный: булево);
перем л1, л2: Лексема;
нач
	если (Нач = НУЛЬ) или (Кон = НУЛЬ) то
		трассируй("В списке нет начала или конца");
		(* Инспекция(101); *) СТОП(101) всё;
	если ~списокНеСамодостаточный и (Нач.пред # НУЛЬ) то
		трассируй("В списке есть что-то до начала");
		(* Инспекция(101); *) СТОП(101) всё;
	если ~списокНеСамодостаточный и (Кон.след # НУЛЬ) то
		трассируй("В списке есть что-то после конца");
		(* Инспекция(101); *) СТОП(101) всё;
	л1 := Нач; л2 := Нач;
	нц
		если л1 = Кон то
			возврат всё;
		если ~списокНеСамодостаточный то
			если (л1.местоВТексте.лексема # НУЛЬ) и (л1.местоВТексте.лексема # л1) то
				трассируй("лексема в поле местоВТексте не указывает на саму лексему");
				(* Инспекция(101); *) СТОП(101) всё всё;
		если л1.след = НУЛЬ то
			трассируй("конец списка недостижим из его начала");
			(* Инспекция(101); *) СТОП(101) всё;
		л1 := л1.след;
		если л2 # НУЛЬ то
			л2 := л2.след;
			если л2 # НУЛЬ то
				л2 := л2.след всё всё;
		если (л2 # НУЛЬ) и (л1 = л2) то 
			трассируй("циклический список");
			(* Инспекция(101); *) СТОП(101) всё кц
кон ПроверьДобротностьСпискаЛексем;


(* Копирование - не глубокое. В частности, место в тексте внутри лексемы будет показывать на старую лексему! *)	
проц СкопируйСписокЛексемОтИДо*(вхНачало, вхКонец: Лексема; перем выхНачало, выхКонец: Лексема);	
перем вхТек, выхПред, выхТек: Лексема;
нач
	утв(вхКонец # НУЛЬ);
	нов(выхНачало);
	вхТек := вхНачало;
	выхТек := выхНачало;
	нц
		(* мы не должны дойти до конца, по построению (читай весь цикл) *)
		если вхТек = НУЛЬ то 
			(* Инспекция(101); *) СТОП(102) всё;
		(* копируем данные *)
		выхТек^ := вхТек^;
		выхТек.местоВТексте.лексема := выхТек;
		(* подшиваем новую лексему *)
		выхТек.пред := выхПред;
		если выхПред # НУЛЬ то
			выхПред.след := выхТек всё;
		(* если дошли до конца входа, то выходим *)
		если вхТек = вхКонец то 
			выхТек.след := НУЛЬ;
			выхКонец := выхТек;
			выхНачало.пред := НУЛЬ;
			возврат всё;
		(* идём вперёд по исходному списку *)
		вхТек := вхТек.след;
		(* и готовим новое звено для копии *)
		выхПред := выхТек;
		нов(выхТек) кц кон СкопируйСписокЛексемОтИДо;
		

проц СшейСпискиЛексем*(конецПервогоСписка, началоВторогоСписка: Лексема);
нач
	конецПервогоСписка.след := началоВторогоСписка;
	началоВторогоСписка.пред := конецПервогоСписка кон СшейСпискиЛексем;
		

		
	проц ЗапишиМестоЛексемыВКартуМест(л : Лексема; писарьКартыМест: Потоки.Писарь; местоВПотокеЗаписи: Потоки.ТипМестоВПотоке; перем текИмяФайла: укль на Files.FileNameUCS32);
	нач
		писарьКартыМест.пЦел64(местоВПотокеЗаписи,0);
		писарьКартыМест.пСтроку8(" (");
		писарьКартыМест.пЦел64(л.местоВТексте.start,0);
		(* здесь мы не случайно сравниваем указатели на строку, а не их значения,
			поскольку при чтении имя файла представлено указателем на строку, к-рая
			разделяется между всеми лексемами *)
		если текИмяФайла # л.местоВТексте.имяФайла то
			текИмяФайла := л.местоВТексте.имяФайла;
			писарьКартыМест.пСтроку8(" переключисьНаФайл ");
			если текИмяФайла = НУЛЬ то
				БВыраж.Пиши(НУЛЬ, писарьКартыМест)
			иначе 
				БВыраж.Пиши(БВыраж.симв(текИмяФайла^),писарьКартыМест) всё всё;
		писарьКартыМест.пСтроку8(")");
		писарьКартыМест.пВК_ПС;
	кон ЗапишиМестоЛексемыВКартуМест;

	(** debugging output **)
	проц PrintToken*(w: Потоки.Писарь; конст token: Лексема; case : ВариантыПеревода);
	перем str: массив 256 из симв8;
	нач
		w.пЦел64(token.местоВТексте.start,1); w.пСтроку8("-");w.пЦел64(token.местоВТексте.end,1); w.пСтроку8(":");
		w.пСтроку8(symbols[token.видЛексемы]);
		если token.видЛексемы= Число то
			просей token.numberType из
				Integer: w.пСтроку8("(integer)")
				|Hugeint: w.пСтроку8("(hugeint)")
				|Real: w.пСтроку8("(real)")
				|Longreal: w.пСтроку8("(longreal)")
			всё;
		всё;
		если (token.видЛексемы = СтрокиЛитералМульти) или (token.видЛексемы = СтрокиЛитерал) то
			w.пСтроку8(":");
			если token.чемОткрываетсяСтрока = НУЛЬ то
				w.пСтроку8("<NIL>")
			иначе
				w.пСтроку32(token.чемОткрываетсяСтрока^, 1) всё;
			w.пСтроку8(token.string^); 
			(* w.StringJQ(ЗадомНаперёд(token.чемОткрываетсяСтрока^)^, 1);  *)
		аесли token.видЛексемы = Comment то
			w.пСтроку8("(*"); w.пСтроку8(token.string^); w.пСтроку8("*)");
		иначе
			TokenToString(token, case, str); w.пСтроку8(": "); w.пСтроку8(str);
			w.пСтроку8(", symbol = "); w.пЦел64(token.видЛексемы,0); 
		w.пСтроку8(", line = "); w.пЦел64(token.местоВТексте.start,0);
		всё
	кон PrintToken;

	
	проц ПереверниСтрокуЪ(конст Источн: UCS32.StringJQ; перем Приёмн: UCS32.StringJQ);
	перем длинаМинус1, i: размерМЗ;
	нач
		длинаМинус1 := UCS32.LengthStringJQ(Источн) - 1;
		утв(длинаМассива(Приёмн) > длинаМинус1 + 1);
		если длинаМинус1 >= 0 то
			нцДля i := 0 до длинаМинус1 делай
				Приёмн[i] := Источн[длинаМинус1 - i] кц всё;
		Приёмн[длинаМинус1 + 1] := UCS32.IntToCharJQ(UCS32.KodEot);
	кон ПереверниСтрокуЪ;
	
	(* возвращает свежую копию лексем. Желательно потом сделать кеш, чтобы не парсить при каждом вызове макроса *)
	проц ЗагрузиШаблонМакросаИзФайла*(диагностика: Diagnostics.Diagnostics; имяФайла: массив из симв8; перем Начало, Конец : Лексема; вариантПеревода: ВариантыПеревода;
		включаяЛексемуКонцаТекста:булево): булево;
	перем лексер: Лексер; reader: Потоки.Чтец; ошибка¿ : булево;
	нач 
		Начало := НУЛЬ; Конец := НУЛЬ;	
		reader := Basic.GetFileReader(имяФайла);
		если reader = НУЛЬ то
			диагностика.Error (имяФайла, Потоки.НевернаяПозицияВПотоке, "не удалось открыть файл"); ошибка¿ := истина;
			возврат ложь всё;
		лексер := NewScanner(имяФайла, reader, 0, диагностика);
		если ~лексер.ДайТокенВТЧПробел(Начало) то 
			Начало := НУЛЬ; возврат ложь всё;
		нц
			если ~лексер.ДайТокенВТЧПробел(Конец) то 
				Начало := НУЛЬ; Конец := НУЛЬ; возврат ложь
			аесли Конец.видЛексемы = КонецТекста то
				если включаяЛексемуКонцаТекста то
					возврат истина 
				аесли Конец = Начало то
					Начало := НУЛЬ; Конец := НУЛЬ;
					возврат ложь;
				иначе
					Конец := Конец.пред; Конец.след := НУЛЬ;
					возврат истина всё всё кц кон ЗагрузиШаблонМакросаИзФайла;
	

	(** reserved characters are the characters that may not occur within an identifier.
	Везде, где эта переменная используется и также используются русские буквы,
	[должны быть] вставлены соответствующие костыли **)
	проц InitReservedCharacters;
	перем i: цел32;
	нач
		нцДля i := 0 до длинаМассива( reservedCharacter ) - 1 делай
			просей i из
				| кодСимв8('0')..кодСимв8('9'): reservedCharacter[i] := ложь;
			иначе
				если UCS32.БукваЛи(UCS32.IntToCharJQ(i)) то
					reservedCharacter[i] := ложь
				аесли UCS32.ЗнакПрепинанияДляИдентификатораЛи(UCS32.IntToCharJQ(i)) то
					reservedCharacter[i] := ложь;
				иначе
					reservedCharacter[i] := истина всё всё кц;
		кодСимволаМакроВызова := UCS32.Lit("§")^[0].UCS32CharCode кон InitReservedCharacters;

	(* get keyword by symbol *)
	проц GetKeyword*(case:ВариантыПеревода; symbol: ВидЛексемы; перем identifier: ИндексИдентификатора);
	нач
		если case = ВариантыПеревода.Uppercase то
			keywordsUpper.ДайИндексИдентификатораПоВидуЛексемы(symbol,identifier);
		аесли case = ВариантыПеревода.Русский то
			keywords_Русские.ДайИндексИдентификатораПоВидуЛексемы(symbol,identifier);
		иначе
			СТОП(3003);
		всё;
	кон GetKeyword;

	проц InitSymbols;
	(* VAR i: SIGNED32; *)
	нач
		symbols[None] := "None";
		symbols[Equal] := "Equal";
		symbols[DotEqual] := "DotEqual";
		symbols[Unequal] := "Unequal";
		symbols[СимволМакроВызова] := "СимволМакроВызова";
		symbols[DotUnequal] := "DotUnequal";
		symbols[Less] := "Less";
		symbols[DotLess] := "DotLess";
		symbols[LessEqual] := "LessEqual";
		symbols[DotLessEqual] := "DotLessEqual";
		symbols[Greater] := "Greater";
		symbols[DotGreater] := "DotGreater";
		symbols[GreaterEqual] := "GreaterEqual";
		symbols[DotGreaterEqual] := "DotGreaterEqual";
		symbols[LessLessQ] := "LessLessQ";
		symbols[GreaterGreaterQ] := "GreaterGreaterQ";
		symbols[В] := "In";
		symbols[Суть] := "Is";
		symbols[ЗнакУмножить] := "Times";
		symbols[УмножитьУмножить] := "TimesTimes";
		symbols[ТочкаУмножить] := "DotTimes";
		symbols[ПлюсУмножить] := "PlusTimes";
		symbols[Косая] := "Slash";
		symbols[ОбратнаяКосая] := "Backslash";
		symbols[ТочкаИКосая] := "DotSlash";
		symbols[Div] := "Div";
		symbols[Mod] := "Mod";
		symbols[И_или_Родись] := "And0";
		symbols[И] := "And";
		symbols[Родись] := "&";
		symbols[Или] := "Or";
		symbols[ЗнакПлюс] := "Plus";
		symbols[ЗнакМинус] := "Minus";
		symbols[Не] := "Not";
		symbols[ОткрывающаяКруглаяСкобка] := "LeftParenthesis";
		symbols[ОткрывающаяКвадратнаяСкобка] := "LeftBracket";
		symbols[ОткрывающаяФигурнаяСкобка] := "LeftBrace";
		symbols[Число] := "Number";
		symbols[Character] := "Character";
		symbols[СтрокиЛитерал] := "СтрокиЛитерал";
		symbols[СтрокиЛитералМульти] := "СтрокиЛитералМульти";
		symbols[Нуль] := "Nil";
		symbols[Imag] := "Imag";
		symbols[Правда] := "True";
		symbols[Ложь] := "False";
		symbols[Сам] := "Self";
		symbols[Нов] := "New";
		symbols[Результат] := "Result";
		symbols[Идентификатор] := "Identifier";
		symbols[Если] := "If";
		symbols[Просей] := "Case";
		symbols[Цикл_пока] := "While";
		symbols[Цикл_до] := "Repeat";
		symbols[Цикл_для] := "For";
		symbols[Цикл] := "Loop";
		symbols[Просей_тип] := "With";
		symbols[Прерви_цикл] := "Exit";
		symbols[Дождись] := "Await";
		symbols[Возврат] := "Return";
		symbols[Неважно] := "Ignore";
		symbols[Тело] := "Begin";
		symbols[ТочкаСЗапятой] := "Semicolon";
		symbols[Transpose] := "Transpose";
		symbols[ЗакрываяющаяФигурнаяСкобка] := "RightBrace";
		symbols[ЗакрывающаяКвадратнаяСкобка] := "RightBracket";
		symbols[ЗакрывающаяКруглаяСкобка] := "RightParenthesis";
		symbols[ВопросительныйЗнак] := "Questionmark";
		symbols[ВосклицательныйЗнак] := "ExclamationMark";
		symbols[ВопросительныеЗнаки] := "Questionmarks";
		symbols[ВосклицательныеЗнаки] := "ExclamationMarks";
		symbols[МеньшеМеньше] := "LessLess";
		symbols[БольшеБольше] := "GreaterGreater";
		symbols[Upto] := "Upto";
		symbols[Arrow] := "Arrow";
		symbols[ЗнакПрепинанияТочка] := "Period";
		symbols[Запятая] := "Comma";
		symbols[Двоеточие] := "Colon";
		symbols[Of] := "Of";
		symbols[То] := "Then";
		symbols[Делай] := "Do";
		symbols[НаТип2] := "ToType";
		symbols[До] := "To";
		symbols[ДоПредела2] := "ToLimit";
		symbols[By] := "By";
		symbols[Becomes] := "Becomes";
		symbols[Bar] := "Bar";
		symbols[Кн] := "End";
		symbols[Иначе] := "Else";
		symbols[Аесли] := "Elsif";
		symbols[Extern] := "Extern";
		symbols[Until] := "Until";
		symbols[Finally] := "Finally";
		symbols[Code] := "Code";
		symbols[Const] := "Const";
		symbols[Type] := "Type";
		symbols[Var] := "Var";
		symbols[Out] := "Out";
		symbols[Проц] := "Procedure";
		symbols[Операция] := "Operator";
		symbols[Использует] := "Import";
		symbols[Определение] := "Definition";
		symbols[Модуль] := "Module";
		symbols[Cell] := "Cell";
		symbols[CellNet] := "CellNet";
		symbols[Array] := "Array";
		symbols[Object] := "Object";
		symbols[Record] := "Record";
		symbols[Pointer] := "Pointer";
		symbols[Enum] := "Enum";
		symbols[Port] := "Port";
		symbols[Address] := "Address";
		symbols[Alias] := "Alias";
		symbols[Size] := "Size";
		symbols[Ln] := "Ln";
		symbols[PC] := "PC";
		symbols[PCOffset] := "PCOffset";
		symbols[Shortint] := "Shortint";
		symbols[Integer] := "Integer";
		symbols[Longint] := "Longint";
		symbols[Hugeint] := "Hugeint";
		symbols[Real] := "Real";
		symbols[Longreal] := "Longreal";
		symbols[Comment] := "Comment";
		symbols[КонецТекста] := "EndOfText";
		symbols[ПереносСтроки] := "ПереносСтроки";
		symbols[Отступ] := "Отступ";
		symbols[ПробелыВнутриСтроки] := "ПробелыВнутриСтроки";
		symbols[НеактивныйБлокПрепроцессора] := "НеактивныйБлокПрепроцессора";
		(* FOR i := 0 TO EndOfText DO ASSERT(symbols[i] # "") END; *)
	кон InitSymbols;

	(** enter keywords in the list of keywords (both upper- and lowercase)  **)
	проц InitKeywords;

		проц Enter1(конст name: массив из симв8; symbol: цел32; case: мнвоНаБитах32);
		нач
			если ORDв(ВариантыПеревода.Uppercase) в case то keywordsUpper.ПримиПаруСтрокаИВидЛексемы(name,symbol) всё;
			если ORDв(ВариантыПеревода.Русский) в case то keywords_Русские.ПримиПаруСтрокаИВидЛексемы(name,symbol) всё;
			Basic.SetErrorExpected(symbol,name);
		кон Enter1;

		проц Enter(конст name: массив из симв8; конст русскоеИмя: массив из симв8; symbol: цел32);
		нач
			Enter1(name,symbol,мнвоНаБитах32({ORDв(ВариантыПеревода.Uppercase)}));
			Enter1(русскоеИмя,symbol,мнвоНаБитах32({ORDв(ВариантыПеревода.Русский)}));
		кон Enter;

		проц EnterSymbol(конст name: массив из симв8; symbol: цел32);
		нач
			Enter1(name,symbol,мнвоНаБитах32({ORDв(ВариантыПеревода.Uppercase),ORDв(ВариантыПеревода.Русский)}));
		кон EnterSymbol;

	нач
		нов(keywordsUpper,КонецТекста+1);
		нов(keywordsLower,КонецТекста+1);
		нов(keywords_Русские,КонецТекста+1);

		(* constructs and statements *)
		(* Этот список должен быть синхронизирован с:
		  - BimboScannerUCS32.Mod
		  - SyntaxHighlighter.XML
		  - LisGlobal.Mod *)

		Enter("цитˉ","цитˉ",МакросЧтенияЦитˉ);
		Enter("кнцˉ","кнцˉ",ЗакрывающееИмяКнцˉ);

		Enter( "&" , "и", И );
		Enter( "&" , "<и_или_родись>", И_или_Родись);
		Enter( "&" , "&", Родись);
	  
		Enter( "CELL", "CELL", Cell );
		Enter( "CELLNET", "CELLNET", CellNet);
		Enter( "AWAIT" , "дождись", Дождись);
		Enter( "BEGIN" , "нач", Тело);
		Enter( "BY" , "шаг", By);
		Enter( "CONST" , "конст", Const);
		Enter( "CASE" , "просей", Просей);
		Enter( "CODE" , "машКод", Code);
		Enter( "DEFINITION", "определение", Определение);
		Enter( "DO" , "делай", Делай);
		Enter( "DIV" , "DIV", Div);
		Enter( "END","всё",EndIf);
		Enter( "END","кц",EndLoop);
		Enter( "END" , "кон", Кн); (* важно, что он последний, хотя я не знаю, почему это работает *)
		Enter( "ENUM", "перечисление", Enum);
		Enter( "ELSE" , "иначе", Иначе);
		Enter( "ELSIF" , "аесли", Аесли);
		Enter( "EXIT" , "прервиЦикл", Прерви_цикл);
		Enter( "EXTERN" , "отКомпоновщика", Extern);
		Enter( "FALSE" , "ложь", Ложь); (* В КуМир - Да/Нет *)
		Enter( "FOR" , "нцДля", Цикл_для);
		Enter( "FINALLY" , "выходя", Finally);
		Enter( "IF" , "если", Если);
		Enter( "IGNORE" , "неважно", Неважно);
		Enter( "IMAG" , "IMAG", Imag);
		Enter( "IN" , "в", В); (* нужно отдельное слово для порта ввода *)
		Enter( "IS" , "суть", Суть);
		Enter( "IMPORT" , "использует", Использует); 
		Enter( "LOOP" , "нц", Цикл);
		Enter( "MODULE", "модуль", Модуль);
		Enter( "MOD" , "остОтДеленияНа", Mod); (* - временное название, чтобы не было проблем. это операция, не процедура! Excel: ОСТАТ, КуМир: MOD, 1С: %, И21: ОСТАТОК, PacslABC - mod *)
		Enter( "NEW", "нов", Нов);
		Enter( "NIL" , "НУЛЬ", Нуль );
		Enter( "OF" , "из", Of);
		Enter( "OR" , "или", Или);
		Enter( "OUT", "дляВывода", Out); (* временное название - используется для портов обмена данными *)
		Enter( "OPERATOR", "операция", Операция);
		Enter( "PROCEDURE", "проц", Проц);
		Enter( "PORT", "портОбменаДанными", Port); (* используется в активных ячейках *)
		Enter( "REPEAT" , "нцДо", Цикл_до);
		Enter( "RESULT", "результат", Результат);
		Enter( "RETURN" , "возврат", Возврат);
		Enter( "SELF", "сам", Сам);
		Enter( "THEN" , "то", То);
		(* здесь три раза встречается to, оно чинится в 
			ПодбериСимволИзВыбранногоНабора *)
		Enter( "TO" , "на", НаТип2);
		Enter( "TO" , "<на_или_до>", До);
		Enter( "TO" , "до", ДоПредела2);
		Enter( "TRUE" , "истина", Правда);
		Enter( "TYPE" , "тип", Type);
		Enter( "UNTIL" , "кцПри", Until );
		Enter( "VAR" , "перем", Var ); (* аргрез выкидываем, заменяем на перем, хотя идея в КуМире хороша *)
		Enter( "WHILE" , "нцПока", Цикл_пока);
		Enter( "WITH" , "просейТип", Просей_тип);
		
		(* types - не нужно помещать в @Global.перев.XML. Вреда от их 
			размещения там не будет, если они там совпадают с тем, что написано тут.
			Также часть типов упомянута в LisGlobal.Mod *)
		Enter( "ADDRESS" , "адресВПамяти", Address);
		Enter( "ARRAY" , "массив", Array ); (* в КуМире таб *)
		Enter( "OBJECT" , "окласс", Object);
		Enter( "POINTER" , "укль", Pointer);
		Enter( "RECORD" , "запись", Record); 
		Enter( "SIZE" , "размерМЗ", Size);
		Enter( "SIZEOF2", "размерОт", Size2);
		Enter( "ADDRESSOF2", "операцияАдресОт", Address2);

		(* какая-то особая штука, её как раз НУЖНО помешать в @Global.перев.XML *)
		Enter( "ALIAS" , "срезМатМассива", Alias);

		(* tokens *)
		(* & ищи выше *)
		EnterSymbol( "§", СимволМакроВызова );
		EnterSymbol( "#", Unequal);
		EnterSymbol( "(", ОткрывающаяКруглаяСкобка);
		EnterSymbol( ")", ЗакрывающаяКруглаяСкобка);
		EnterSymbol( "*", ЗнакУмножить);
		EnterSymbol( "**",УмножитьУмножить);
		EnterSymbol( "+", ЗнакПлюс);
		EnterSymbol( "+*", ПлюсУмножить);
		EnterSymbol( ",", Запятая);
		EnterSymbol( "-", ЗнакМинус);
		EnterSymbol(".",ЗнакПрепинанияТочка );
		EnterSymbol("..",Upto );
		EnterSymbol(".*",ТочкаУмножить );
		EnterSymbol("./",ТочкаИКосая );
		EnterSymbol(".=",DotEqual );
		EnterSymbol(".#",DotUnequal );
		EnterSymbol(".>",DotGreater );
		EnterSymbol(".>=",DotGreaterEqual );
		EnterSymbol(".<", DotLess);
		EnterSymbol(".<=",DotLessEqual );
		EnterSymbol( "/", Косая);
		EnterSymbol( ":", Двоеточие);
		EnterSymbol( ":=",Becomes);
		EnterSymbol( ";", ТочкаСЗапятой);
		EnterSymbol( "<", Less);
		EnterSymbol( "<=", LessEqual);
		EnterSymbol( "=", Equal);
		EnterSymbol( ">", Greater);
		EnterSymbol( ">=", GreaterEqual);
		EnterSymbol( "[", ОткрывающаяКвадратнаяСкобка);
		EnterSymbol( "]", ЗакрывающаяКвадратнаяСкобка);
		EnterSymbol( "^", Arrow);
		EnterSymbol( "{", ОткрывающаяФигурнаяСкобка);
		EnterSymbol( "|",Bar);
		EnterSymbol( "}", ЗакрываяющаяФигурнаяСкобка);
		EnterSymbol( "~", Не);
		EnterSymbol( "\", ОбратнаяКосая);
		EnterSymbol( "`", Transpose);
		EnterSymbol( "?",ВопросительныйЗнак);
		EnterSymbol( "??",ВопросительныеЗнаки);
		EnterSymbol( "!",ВосклицательныйЗнак);
		EnterSymbol( "!!",ВосклицательныеЗнаки);
		EnterSymbol( "<<",МеньшеМеньше);
		EnterSymbol( "<<?",LessLessQ);
		EnterSymbol( ">>",БольшеБольше);
		EnterSymbol( ">>?",GreaterGreaterQ);

		
		Basic.SetErrorMessage(Число,"ожидалось число");
		Basic.SetErrorMessage(СтрокиЛитералМульти,"ожидался строковой литерал");
		Basic.SetErrorMessage(СтрокиЛитерал,"ожидался строковой литерал");
		Basic.SetErrorMessage(Character,"ожидался литерал знака");
		Basic.SetErrorMessage(Идентификатор,"ожидался идентификатор");
		Basic.SetErrorMessage(КонецТекста,"неожиданная лексема перед концом");
	кон InitKeywords;

нач
	InitReservedCharacters; InitSymbols; InitKeywords
кон FoxScanner.

См. TestLisScanner.Mod 
