модуль FoxОтлПеч; (** Отладочная печать деревьев синт. разбора Fox. (С) Денис Будяк 2020 *)

использует
	Scanner := FoxScanner, SyntaxTree := FoxSyntaxTree, 
	Basic := FoxBasic, Потоки,
	НИЗКОУР, 
	pp := PodrobnajaPechatq,  ЛогЯдра, 
	УтилитыДляПереводаКода := FoxУтилитыДляПереводаКода, 
	ПЭК := ПереводыЭлементовКода, Modules
	;

(* Устанавливает пр-ру отладочной печати в такую, которая умеет 
   печатать подробности синтаксических деревьев *)
проц ПечататьСинтДеревьяОсобо*;
нач
	pp.процедураОтладочнойПечатиПоУмолчанию := МояОтлПеч;
кон ПечататьСинтДеревьяОсобо;

проц НапечатайПоследнийРазобранныйМодуль*;
перем kl : Потоки.Писарь; k : pp.KontekstPechati;
нач
	Потоки.НастройПисаря(kl, ЛогЯдра.ЗапишиВПоток);
	(* pp.процедураОтладочнойПечатиПоУмолчанию := NIL; *)
	pp.ZadajjKontekstPechatiPoUmolch(k); k.w := kl;
	k.процедураОтладочнойПечати := МояОтлПеч;
	k.пределГлубины := 9;
	pp.PechVKontekste(k,SyntaxTree.последнийРазобранныйМодуль,ложь);
	кон НапечатайПоследнийРазобранныйМодуль;

проц Печ*(w : Потоки.Писарь; чё: динамическиТипизированныйУкль);	
перем k : pp.KontekstPechati;
нач
	pp.ZadajjKontekstPechatiPoUmolch(k); k.w := w;
	k.процедураОтладочнойПечати := МояОтлПеч;
	pp.PechVKontekste(k, чё, ложь);
кон Печ;

(*	Возврат: 0 - процедура не умеет печатать такую запись, 
		1 - напечатано, 
		2 - ошибка при печати (при получении этого возврата процедура
		отладочной печати будет сброшена в пустую)
*)
проц МояОтлПеч(перем k: pp.KontekstPechati; конст оит: pp.ОбъектИТип; конст имяТипа: pp.ModulesName) : бцел8;
перем имяМодуля: pp.ModulesName; w: Потоки.Писарь; адр : адресВПамяти;
нач 
	w := k.w;
	если оит.mod = НУЛЬ то возврат 0 всё;
	копируйСтрокуДо0(оит.mod.name,имяМодуля);
	если имяМодуля = "FoxScanner" то 
		адр := pp.АдресИзОбъектИТип(оит);
		если (имяТипа = "Token")или(имяТипа="Лексема") то
			возврат ПечЛексему(k, НИЗКОУР.подмениТипЗначения(Scanner.Лексема, адр))
		иначе
			возврат 0 всё
	аесли имяМодуля = "FoxSyntaxTree" то 
		адр := pp.АдресИзОбъектИТип(оит);
		трассируй(имяТипа);
		если (имяТипа = "Identifier") или (имяТипа = "ИдентификаторВ_исходнике") то
		возврат ПечIdentifier(k,НИЗКОУР.подмениТипЗначения(SyntaxTree.ИдентификаторВ_исходнике, адр));
		аесли (имяТипа = "Module") или (имяТипа = "ДеревоМодуля") то
		возврат ПечModule(k,НИЗКОУР.подмениТипЗначения(SyntaxTree.ДеревоМодуля, адр));
		аесли (имяТипа = "ModuleScope") или (имяТипа = "ВнутренняяОбластьВидимостиМодуля") то
		возврат ПечModuleScope(k, НИЗКОУР.подмениТипЗначения(SyntaxTree.ВнутренняяОбластьВидимостиМодуля, адр));
		аесли (имяТипа = "Import") или (имяТипа = "ОбъявлениеИмпортаМодуля") то
		возврат ПечImport(k, НИЗКОУР.подмениТипЗначения(SyntaxTree.ОбъявлениеИмпортаМодуля, адр));
		аесли (имяТипа = "Procedure")или(имяТипа = "Operator")или(имяТипа = "ОбъявлениеПроцедуры")или(имяТипа = "ОбъявлениеОперации") то
		возврат ПечProcedure(k, НИЗКОУР.подмениТипЗначения(SyntaxTree.ОбъявлениеПроцедуры, адр));
		аесли (имяТипа = "SymbolDesignator")или(имяТипа="Обращение˛осмысленноеКакОбрК_именованнойСущности") то
		возврат ПечSymbolDesignator(k, НИЗКОУР.подмениТипЗначения(SyntaxTree.Обращение˛осмысленноеКакОбрК_именованнойСущности, адр));
		аесли (имяТипа = "ParameterDesignator")или(имяТипа="Обращение˛разобранноеКакВызовВ_круглСкобках") то
			возврат ПечParameterDesignator(k, НИЗКОУР.подмениТипЗначения(SyntaxTree.Обращение˛разобранноеКакВызовВ_круглСкобках, адр)) всё всё;
	возврат 0 кон МояОтлПеч;
		
проц ПечImport(перем k: pp.KontekstPechati; im: SyntaxTree.ОбъявлениеИмпортаМодуля) : бцел8;
перем рез: бцел8;
нач
	если (im = НУЛЬ)или(k.ЗапасГлубины()<1) то
		ПечСсылSymbol(k, im); возврат 1 всё;
	ПечСсылSymbol(k, im); 
	(* k.w.String(" moduleName:"); ПечIdentifier(k, im.moduleName); *)
	если im.непосредственноИмпортируетсяЛи¿ то k.w.пСтроку8("(direct)") всё;
	увел(k.текГлубина, 1); k.w.пВК_ПС; k.Отступ(0);
	k.w.пСтроку8(" module:");
	рез :=  ПечModule(k,im.деревоМодуля); 
	увел(k.текГлубина, -1); возврат рез кон ПечImport;
	
проц ПечProcedure(перем k: pp.KontekstPechati; p: SyntaxTree.ОбъявлениеПроцедуры) : бцел8;
нач
	если (p = НУЛЬ)или(k.ЗапасГлубины()<1) то
		ПечСсылSymbol(k, p); возврат 1 всё;
	ПечСсылSymbol(k, p); 
	увел(k.текГлубина, 1); 
	k.w.пВК_ПС; k.Отступ(0); k.w.пСтроку8("level:"); k.w.пЦел64(p.уровеньВложенностиПодПроцедуры,0);
	k.w.пВК_ПС; k.Отступ(0); k.w.пСтроку8("procedureScope:"); 
	pp.ПечВКонтекстеВнутр(k, p.внутренняяОбластьВидимости, ложь, истина);
	если p.внутренняяОбластьВидимости # НУЛЬ то
		k.w.пВК_ПС; k.Отступ(0); k.w.пСтроку8("procedureScope.body:") всё;
		pp.ПечВКонтекстеВнутр(k, p.внутренняяОбластьВидимости.Тело, ложь, истина);
	увел(k.текГлубина, -1); 
	возврат 1 кон ПечProcedure;



проц ПечСсылModule(перем k: pp.KontekstPechati; m: SyntaxTree.ДеревоМодуля);
нач
	если m = НУЛЬ то k.w.пСтроку8("«No Module»") всё;
	pp.ПечВКонтекстеВнутр(k, m, ложь, истина); 
	k.w.пСтроку8("«Module ");
	ПечBasicString(k,m.имя.И);
	k.w.пСтроку8("»") кон ПечСсылModule;

проц ПечModule(перем k: pp.KontekstPechati; m: SyntaxTree.ДеревоМодуля) : бцел8;
нач
	если (m = НУЛЬ)или(k.ЗапасГлубины()<1) то
		ПечСсылModule(k, m); возврат 1 всё;
	ПечСсылSymbol(k, m);  
	k.w.пСтроку8(" sourceName: "); k.w.пСтроку8(m.имяФайлаИсходника); 
	k.w.пСтроку8(" context: "); неважно ПечIdentifier(k, m.контекстA2); 
	увел(k.текГлубина, 1); k.w.пВК_ПС; k.Отступ(0);
	pp.ПечВКонтекстеВнутр(k, m.внутренняяОбластьВидимостиМодуля, ложь, ложь); 
	увел(k.текГлубина, -1);
	k.w.ПротолкниБуферВПоток;
	возврат 1 кон ПечModule;
	
	
проц ПечСсылSymbol(перем k: pp.KontekstPechati; s: SyntaxTree.ОбъявлениеИменованнойСущности);
нач
	pp.ПечВКонтекстеВнутр(k, s, ложь, истина); 
	k.w.пСтроку8("«");
	k.w.ПротолкниБуферВПоток;
	k.w.пСтроку8(Modules.TypeOf(s).name);
	k.w.пСтроку8("(Symbol) "); неважно ПечIdentifier(k, s.имя); k.w.пСтроку8(" ");
	если (s.имя.л = НУЛЬ) или (s.имя.л.местоВТексте.start # s.начВ_тексте.start) то
		k.w.пСтроку8(" position.start:"); k.w.пЦел64(s.начВ_тексте.start,0); всё;
	k.w.пСтроку8("»");
кон ПечСсылSymbol;


проц ПечSymbolDesignator(перем k: pp.KontekstPechati; s: SyntaxTree.Обращение˛осмысленноеКакОбрК_именованнойСущности): бцел8;
нач
	pp.ПечВКонтекстеВнутр(k, s, ложь, истина); 
	k.w.пСтроку8("«");
	k.w.ПротолкниБуферВПоток;
	k.w.пСтроку8(Modules.TypeOf(s).name);
	k.w.пСтроку8("(SymbolDesignator) "); неважно ПечIdentifier(k, s.Объявление.имя); k.w.пСтроку8(" ");
	если (s.Объявление.имя.л = НУЛЬ) или (s.Объявление.имя.л.местоВТексте.start # s.начВ_тексте.start) то
		k.w.пСтроку8(" position.start:"); k.w.пЦел64(s.начВ_тексте.start,0); всё;
	k.w.пСтроку8("»");
	возврат 1;
кон ПечSymbolDesignator;


проц ПечParameterDesignator(перем k: pp.KontekstPechati; s: SyntaxTree.Обращение˛разобранноеКакВызовВ_круглСкобках): бцел8;
нач
	pp.ПечВКонтекстеВнутр(k, s, ложь, истина); 
	k.w.пСтроку8("«");
	k.w.ПротолкниБуферВПоток;
	k.w.пСтроку8(Modules.TypeOf(s).name);
	k.w.пСтроку8("(ParameterDesignator) left:"); pp.ПечВКонтекстеВнутр(k, s.лев, ложь, ложь); k.w.пСтроку8(" ");
	k.w.пСтроку8(" param1:"); pp.ПечВКонтекстеВнутр(k, s.параметры, ложь, ложь);
	k.w.пСтроку8("»");
	возврат 1;
кон ПечParameterDesignator;


(* (* Эта процедура работала, когда Identifier был записью,
   а не указателем. Она показывает пример, как это делается *)
TYPE PIdentifier = POINTER {UNSAFE, UNTRACED} TO SyntaxTree.Identifier; 
PROCEDURE ПечIdentifierПоАдр(VAR k: pp.KontekstPechati; адр: ADDRESS) : UNSIGNED8;
	VAR ч: PIdentifier; чч : SyntaxTree.Identifier;
BEGIN
	ч := SYSTEM.VAL(PIdentifier, адр);
	чч := ч^;
	ПечIdentifier(k, чч); RETURN 1 END ПечIdentifierПоАдр; *)
	

проц ПечBasicString(перем k: pp.KontekstPechati; bs: Basic.String);
	перем ids: Scanner.СтрокаИдентификатора; 
нач
	если bs = Basic.invalidString то
		k.w.пСтроку8("«No String»")
	иначе
		Basic.GetString(bs,ids);
		k.w.пСтроку8(ids) всё кон ПечBasicString;

проц ПечIdentifier(перем k: pp.KontekstPechati; конст ч: SyntaxTree.ИдентификаторВ_исходнике): бцел8;
нач
	k.w.пСтроку8("≡");
	ПечBasicString(k,ч.И);
	если (ч.п # Basic.emptyString) то
		k.w.пСтроку8("|");
		ПечBasicString(k,ч.п) всё;
	если (ч.л # НУЛЬ) то
		k.w.пСтроку8("@");
		k.w.пЦел64(ч.л.местоВТексте.start,0) всё;
	k.w.пСтроку8(" ");
	возврат 1;
кон ПечIdentifier;


проц ПечЛексему(перем k: pp.KontekstPechati; конст л: Scanner.Лексема): бцел8;
нач
	k.w.пСтроку8("≈");
	k.w.пЦел64(л.видЛексемы,0);
	если л.string # НУЛЬ то
		k.w.пСтроку8("„");
		k.w.пСтроку8(л.string^);
		k.w.пСтроку8("“") всё;
	k.w.пСтроку8("@");
	k.w.пЦел64(л.местоВТексте.start,0);
	k.w.пСтроку8(" ");
	возврат 1;
кон ПечЛексему;



проц ПечModuleScope(перем k: pp.KontekstPechati; s: SyntaxTree.ВнутренняяОбластьВидимостиМодуля): бцел8;
нач
	k.w.пСтроку8("«ModuleScope ");
	ПечScope(k,s); k.w.пСтроку8("»"); возврат 1 кон ПечModuleScope;

проц ПечСсылScope(перем k: pp.KontekstPechati; s: SyntaxTree.ВнутренняяОбластьВидимости);
перем w: Потоки.Писарь;
нач
	w := k.w;
	w.пСтроку8("«Scope: ");
	если s.первоеОбъявление = НУЛЬ то
		w.пСтроку8("«no symbols»")
	иначе
		ПечСсылSymbol(k, s.первоеОбъявление);
		w.пСтроку8("("); w.пЦел64(s.квоОбъявлений,0); w.пСтроку8(")") всё;
	если s.пэкИменованнаяОбластьВидимости = НУЛЬ то
		w.пСтроку8("«НУЛЬ переводов»")
	аесли s.пэкИменованнаяОбластьВидимости = УтилитыДляПереводаКода.нулеваяОбластьВидимости то
		w.пСтроку8("«нет переводов»")
	аесли s.пэкИменованнаяОбластьВидимости суть ПЭК.Перевод то
	иначе
		w.пСтроку8("«1-й перевод: "); 
		w.пСтроку8(s.пэкИменованнаяОбластьВидимости(ПЭК.Перевод).ru^); w.пСтроку8("»") всё;
	если s.охватывающаяОбластьВидимости # НУЛЬ то
		w.пСтроку8("\");
		ПечСсылScope(k,s.охватывающаяОбластьВидимости);
	аесли s.модульˉвладелец # НУЛЬ то
		w.пСтроку8("\");
		ПечСсылSymbol(k, s.модульˉвладелец)
	всё;
	w.пСтроку8("»"); w.ПротолкниБуферВПоток;
кон ПечСсылScope;



проц ПечScope(перем k: pp.KontekstPechati; s: SyntaxTree.ВнутренняяОбластьВидимости);
	перем Сим: SyntaxTree.ОбъявлениеИменованнойСущности;
нач
	если (s = НУЛЬ)или(k.ЗапасГлубины() < 1) то
		ПечСсылScope(k, s); возврат всё;
	k.w.пСтроку8("«Scope"); увел(k.текГлубина);
	k.w.пВК_ПС; k.Отступ(0);
	если s.модульˉвладелец # НУЛЬ то
		k.w.пСтроку8("ownerModule:"); ПечСсылModule(k, s.модульˉвладелец) всё;
	k.w.пВК_ПС; k.Отступ(0);
	k.w.пСтроку8("firstSymbol(и следующие): ["); увел(k.текГлубина);
	Сим := s.первоеОбъявление;
	нцПока Сим # НУЛЬ делай
		k.w.пВК_ПС; k.Отступ(0);
		ПечСсылSymbol(k, Сим);
		Сим := Сим.следщОИС кц;
	увел(k.текГлубина, -2);		
	k.w.пСтроку8("] /Scope»"); 
	кон ПечScope;
	

(*			PROCEDURE debugWriteScope(w: Streams.Writer; s: SyntaxTree.Scope);
		BEGIN
			w.String("Переделай debugWriteScope на FoxОтлПеч");
			w.String("«Scope: ");
			IF s.firstSymbol = NIL THEN
				w.String("«no symbols»")
			ELSE
				debugWriteSymbol(w, s.firstSymbol);
				w.String("("); w.Int(s.numberSymbols,0); w.String(")") END;
			IF s.пэкИменованнаяОбластьВидимости = NIL THEN
				w.String("«НУЛЬ переводов»")
			ELSIF s.пэкИменованнаяОбластьВидимости = УтилитыДляПереводаКода.нулеваяОбластьВидимости THEN
				w.String("«нет переводов»")
			ELSE
				w.String("«1-й перевод: "); w.String(s.пэкИменованнаяОбластьВидимости.ru^); w.String("»") END;
			IF s.outerScope # NIL THEN
				w.String("\");
				debugWriteScope(w,s.outerScope);
			ELSIF
				s.ownerModule # NIL THEN
				w.String("\");
				debugWriteSymbol(w, s.ownerModule)
			END;
			w.String("»"); w.Update;
		END debugWriteScope;
 *)




нач
кон FoxОтлПеч.

System.DoCommands
	FoxОтлПеч.Дуй~
	WMKernelLog.Open~~
