(** AUTHOR "rg"; PURPOSE "IA32 decoder for binary executable code"; *)

модуль I386Decoder2;

использует Decoder:=BtDecoder, Потоки, Strings, ЛогЯдра;

конст
	objFileSuffix = "Obx";

	(* prefix *)
	pCS = 2EX; pDS = 3EX; pES = 26X; pFS = 64X; pGS = 65X; pSS = 36X; pREP = 0F3X;
	AdrSize = 67X; OpSize = 66X; none = -1;

	(* fp sizes *)
	FPSizeNone = 0;
	FPSizeSingle = 1;
	FPSizeDouble = 2;
	FPSizeExtended = 3;
	FPSizeWord = 4;
	FPSizeShort = 5;
	FPSizeLong = 6;
	FPSizeSmall = 7;
	FPSizeBig = 9;
	FPSizeBCD = 10;

	(* representations *)
	RepInt = 0;
	RepHex = 1;
	RepBoth = 2;
	RepRelJmp = 3;

	(* argument structure *)
	ArgNone = -2;
	ArgImm = 0;
	ArgReg = 1;
	ArgMem = 2;
	ArgRegReg = 3; (* must be the first constant for a 2 arguments structure *)
	ArgRegImm = 4;
	ArgRegMem = 5;
	ArgMemReg = 6;
	ArgMemImm = 7;
	ArgImmReg = 8;
	ArgImmImm = 9;
	ArgRegRegImm = 10;
	ArgRegMemImm = 11;
	ArgMemRegImm = 12;
	ArgRegRegReg = 13;
	ArgMemRegReg = 14;

	(* i386 Register *)
	EAX = 0; ECX = 1; EDX = 2; EBX = 3; ESP = 4; EBP = 5; ESI = 6; EDI = 7; (* 32 bit register *)
	AX = 0; CX = 1; DX = 2; BX = 3; SP =  4; BP = 5; SI = 6; DI = 7; (* 16 bit register *)
	AL = 0; CL = 1; DL = 2; BL = 3; AH = 4; CH = 5; DH = 6; BH = 7; (* 8 bit register *)
	ES = 20; CS = 21; SS = 22; DS = 23; FS = 24; GS = 25;  (* 6, 7 reserved *) (* Segment register *)
	CR = 0; DR = 8; TR = 16;

	(* special registers *)
	SRegTR = 0;
	SRegDR = 1;
	SRegCR = 2;
	SRegFP = 3;

	(* i386 Instructions *)
	opAAA = 1;
	opAAD = 2;
	opAAM = 3;
	opAAS = 4;
	opADC = 5;
	opADD = 6;
	opADDPD = 7;
	opADDPS = 8;
	opADDSD = 9;
	opADDSS = 10;
	opAND = 11;
	opANDPD = 12;
	opANDPS = 13;
	opANDNPD = 14;
	opANDNPS = 15;
	opARPL = 16;
	opBOUND = 17;
	opBSF = 18;
	opBSR = 19;
	opBSWAP = 20;
	opBT = 21;
	opBTC = 22;
	opBTR = 23;
	opBTS = 24;
	opCALL = 25;
	opCALLFAR = 26;
	opCBW = 27;
	opCDQ = 28;
	opCLC = 29;
	opCLD = 30;
	opCLFLUSH = 31;
	opCLI = 32;
	opCLTS = 33;
	opCMC = 34;
	opCMOVcc = 35;
	opCMOVO = 36;
	opCMOVNO = 37;
	opCMOVB = 38;
	opCMOVNB = 39;
	opCMOVZ = 40;
	opCMOVNZ = 41;
	opCMOVBE = 42;
	opCMOVNBE = 43;
	opCMOVS = 44;
	opCMOVNS = 45;
	opCMOVP = 46;
	opCMOVNP = 47;
	opCMOVL = 48;
	opCMOVNL = 49;
	opCMOVLE = 50;
	opCMOVNLE = 51;
	opCMP = 52;
	opCMPPD = 53;
	opCMPPS = 54;
	opCMPS = 55;
	opCMPSB = 56;
	opCMPSW = 57;
	opCMPSD = 58;
	opCMPSS = 59;
	opCMPXCHG = 60;
	opCMPXCHG8B = 61;
	opCOMISD = 62;
	opCOMISS = 63;
	opCPUID = 64;
	opCVTDQ2PD = 65;
	opCVTD12PS = 66;
	opCVTD2DQ = 67;
	opCVTPD2PI = 68;
	opCVTPD2PS = 69;
	opCVTPI2PD = 70;
	opCVTPI2PS = 71;
	opCVTPS2DQ = 72;
	opCVTPS2PD = 73;
	opCVTPS2PI = 74;
	opCVTSD2SI = 75;
	opCVTSD2SS = 76;
	opCVTSI2SD = 77;
	opCVTSI2SS = 78;
	opCVTSS2SD = 79;
	opCVTSS2SI = 80;
	opCVTTPD2PI = 81;
	opCVTTPD2DQ = 82;
	opCVTTPS2DQ = 83;
	opCVTTPS2PI = 84;
	opCVTTDS2SI = 85;
	opCVTTSS2SI = 86;
	opCWD = 87;
	opCWDE = 88;
	opDAA = 89;
	opDAS = 90;
	opDEC = 91;
	opDIV = 92;
	opDIVPD = 93;
	opDIVPS = 94;
	opDIVSD = 95;
	opDIVSS = 96;
	opEMMS = 97;
	opENTER = 98;
	opF2XM1 = 99;
	opFABS = 100;
	opFADD = 101;
	opFADDP = 102;
	opFIADD = 103;
	opFBLD = 104;
	opFBSTP = 105;
	opFCHS = 106;
	opFCLEX = 107;
	opFNCLEX = 108;
	opFCMOVcc = 109;
	opFCOM = 111;
	opFCOMP = 112;
	opFCOMPP = 113;
	opFCOMI = 114;
	opFCOMIP = 115;
	opFUCOMI = 116;
	opFUCOMIP = 117;
	opFCOS = 118;
	opFDECSTP = 119;
	opFDIV = 120;
	opFDIVP = 121;
	opFIDIV = 122;
	opFDIVR = 123;
	opFDIVRP = 124;
	opFIDIVR = 125;
	opFFREE = 126;
	opFICOM = 127;
	opFICOMP = 128;
	opFILD = 129;
	opFINCSTP = 130;
	opFINIT = 131;
	opFNINIT = 132;
	opFIST = 133;
	opFISTP = 134;
	opFLD = 135;
	opFLD1 = 136;
	opFLDL2T = 137;
	opFLDL2E = 138;
	opFLDPI = 139;
	opFLDLG2 = 140;
	opFLDLN2 = 141;
	opFLDZ = 142;
	opFLDCW = 143;
	opFLDENV = 144;
	opFMUL = 145;
	opFMULP = 146;
	opFIMUL = 147;
	opFNOP = 148;
	opFPATAN = 149;
	opFPREM = 150;
	opFPREM1 = 151;
	opFPTAN = 152;
	opFRNDINT = 153;
	opFRSTOR = 154;
	opFSAVE = 155;
	opFNSAVE = 156;
	opFSCALE = 157;
	opFSIN = 158;
	opFSINCOS = 159;
	opFSQRT = 160;
	opFST = 161;
	opFSTP = 162;
	opFSTCW = 163;
	opFNSTCW = 164;
	opFSTENV = 165;
	opFNSTENV = 166;
	opFSTSW = 167;
	opFNSTSW = 168;
	opFSUB = 169;
	opFSUBP = 170;
	opFISUB = 171;
	opFSUBR = 172;
	opFSUBRP = 173;
	opFISUBR = 174;
	opFTST = 175;
	opFUCOM = 176;
	opFUCOMP = 177;
	opFUCOMPP = 178;
	opFWAIT = 179;
	opFXAM = 180;
	opFXCH = 181;
	opFXRSTOR = 182;
	opFXSAVE = 183;
	opFXTRACT = 184;
	opFYL2X = 185;
	opFYL2XP1 = 186;
	opHLT = 187;
	opIDIV = 188;
	opIMUL = 189;
	opIN = 190;
	opINC = 191;
	opINS = 192;
	opINSB = 193;
	opINSW = 194;
	opINSD = 195;
	opINT = 196;
	opINTO = 197;
	opINVD = 198;
	opINVLPG = 199;
	opIRET = 200;
	opIRETD = 201;
	opJcc = 202;
	opJO = 203;
	opJNO = 204;
	opJB = 205;
	opJNB = 206;
	opJZ = 207;
	opJNZ = 208;
	opJBE = 209;
	opJNBE = 210;
	opJS = 211;
	opJNS = 212;
	opJP = 213;
	opJNP = 214;
	opJL = 215;
	opJNL = 216;
	opJLE = 217;
	opJNLE = 218;
	opJCXZ = 219;
	opJECXZ = 220;
	opJMP = 221;
	opJMPFAR = 222;
	opLAHF = 223;
	opLAR = 224;
	opLDMXCSR = 225;
	opLDS = 226;
	opLEA = 227;
	opLEAVE = 228;
	opLES = 229;
	opLFENCE = 230;
	opLFS = 231;
	opLGDT = 232;
	opLGS = 233;
	opLLDT = 234;
	opLIDT = 235;
	opLMSW = 236;
	opLOCK = 237;
	opLODS = 238;
	opLODSB = 239;
	opLODSW = 240;
	opLODSD = 241;
	opLOOP = 242;
	opLOOPE = 243;
	opLOOPNE = 244;
	opLOOPcc = 245;
	opLSL = 246;
	opLSS = 247;
	opLTR = 248;
	opMASKMOVDQU = 249;
	opMASKMOVQ = 250;
	opMAXPD = 251;
	opMAXPS = 252;
	opMAXSD = 253;
	opMAXSS = 254;
	opMFENCE = 255;
	opMINPD = 256;
	opMINPS = 257;
	opMINSD = 258;
	opMINSS = 259;
	opMOV = 260;
	opMOVAPD = 261;
	opMOVAPS = 262;
	opMOVD = 263;
	opMOVDQA = 264;
	opMOVDQU = 265;
	opMOVDQ2Q = 266;
	opMOVHLPS = 267;
	opMOVHPD = 268;
	opMOVHPS = 269;
	opMOVLHPS = 270;
	opMOVLPD = 271;
	opMOVLPS = 272;
	opMOVMSKPD = 273;
	opMOVMSKPS = 274;
	opMOVNTDQ = 275;
	opMOVNTI = 276;
	opMOVNTPD = 277;
	opMOVNTPS = 278;
	opMOVNTQ = 279;
	opMOVQ = 280;
	opMOVQ2DQ = 281;
	opMOVS = 282;
	opMOVSB = 283;
	opMOVSW = 284;
	opMOVSD = 285;
	opMOVSS = 286;
	opMOVSX = 287;
	opMOVUPD = 288;
	opMOVUPS = 289;
	opMOVZX = 290;
	opMUL = 292;
	opMULPD = 293;
	opMULPS = 294;
	opMULSD = 295;
	opMULSS = 296;
	opNEG = 297;
	opNOP = 298;
	opNOT = 299;
	opOR = 300;
	opORPD = 301;
	opORPS = 302;
	opOUT = 303;
	opOUTS = 304;
	opOUTSB = 305;
	opOUTSW = 306;
	opOUTSD = 307;
	opPACKSSWB = 308;
	opPACKSSDW = 309;
	opPACKUSWB = 310;
	opPADDB = 311;
	opPADDW = 312;
	opPADDD = 313;
	opPADDQ = 314;
	opPADDSB = 315;
	opPADDSW = 316;
	opPADDUSB = 317;
	opPADDUSW = 318;
	opPAND = 319;
	opPANDN = 320;
	opPAUSE = 321;
	opPAVGB = 322;
	opPAVGW = 323;
	opPCMPEQB = 324;
	opPCMPEQW = 325;
	opPCMPEQD = 326;
	opPCMPGTB = 327;
	opPCMPGTW = 328;
	opPCMPGTD = 329;
	opPEXTRW = 330;
	opPINSRW = 331;
	opPMADDWD = 332;
	opPMAXSW = 333;
	opPMINSW = 334;
	opPMINUB = 335;
	opPMOVMSKB = 336;
	opPMULHUW = 337;
	opPMULHW = 338;
	opPMULLW = 339;
	opPMULUDQ = 340;
	opPOP = 342;
	opPOPWPTR = 343;
	opPOPDWPTR = 344;
	opPOPA = 345;
	opPOPAD = 346;
	opPOPF = 347;
	opPOPFD = 348;
	opPOR = 349;
	opPREFETCHh = 350;
	opPSADBW = 351;
	opPSHUFD = 352;
	opPSHUFHW = 353;
	opPOSHUFLW = 354;
	opPSHUFW = 355;
	opPSLLDQ = 356;
	opPSLLW = 357;
	opPSLLD = 358;
	opPSLLQ = 359;
	opPSRAW = 360;
	opPSRAD = 361;
	opPSRLDQ = 362;
	opPSRLW = 363;
	opPSRLD = 364;
	opPSRLQ = 365;
	opPSUBB = 366;
	opPSUBW = 367;
	opPSUBD = 368;
	opPSUBQ = 369;
	opPSUBSB = 370;
	opPSUBSW = 371;
	opPSUBUSB = 372;
	opPSUBUSW = 373;
	opPUNPCKHBW = 374;
	opPUNPCKHWD = 375;
	opPUNPCKHDQ = 376;
	opPUNPCKHQDQ = 377;
	opPUNPCKLBW = 378;
	opPUNPCKLWD = 379;
	opPUNPCKLDQ = 380;
	opPUNPCKLQDQ = 381;
	opPUSH = 382;
	opPUSHA = 383;
	opPUSHAD = 384;
	opPUSHF = 385;
	opPUSHFD = 386;
	opPXOR = 387;
	opRCL = 388;
	opRCR = 389;
	opROL = 390;
	opROR = 391;
	opRCPPS = 392;
	opRCPSS = 393;
	opRDMSR = 394;
	opRDPMC = 395;
	opRDTSC = 396;
	opREP = 398;
	opREPE = 399;
	opREPZ = 400;
	opREPNE = 401;
	opREPNZ = 402;
	opRET = 403;
	opRETFAR = 404;
	opRSM = 405;
	opRSQRTPS = 406;
	opRSQRTSS = 407;
	opSAHF = 408;
	opSAL = 409;
	opSAR = 410;
	opSHL = 411;
	opSHR = 412;
	opSBB = 413;
	opSCAS = 414;
	opSCASB = 415;
	opSCASW = 416;
	opSCASD = 417;
	opSETcc = 418;
	opSETO = 419;
	opSETNO = 420;
	opSETB = 421;
	opSETNB = 422;
	opSETZ = 423;
	opSETNZ = 424;
	opSETBE = 425;
	opSETNBE = 426;
	opSETS = 427;
	opSETNS = 428;
	opSETP = 429;
	opSETNP = 430;
	opSETL = 431;
	opSETNL = 432;
	opSETLE = 433;
	opSETNLE = 434;
	opSFENCE = 435;
	opSGDT = 436;
	opSHLD = 437;
	opSHRD = 438;
	opSHUFPD = 439;
	opSHUFPS = 440;
	opSIDT = 441;
	opSLDT = 442;
	opSMSW = 443;
	opSQRTPD = 444;
	opSWRTSD = 445;
	opSQRTSS = 446;
	opSTC = 447;
	opSTD = 448;
	opSTI = 450;
	opSTMXCSR = 451;
	opSTOS = 452;
	opSTOSB = 453;
	opSTOSW = 454;
	opSTOSD = 455;
	opSTR = 456;
	opSUB = 457;
	opSUBPD = 458;
	opSUBPS = 459;
	opSUBSD = 460;
	opSUBSS = 461;
	opSYSENTER = 462;
	opSYSEXIT = 463;
	opTEST = 464;
	opUCOMISD = 465;
	opUCOMISS = 466;
	opUD2 = 467;
	opUNPCKHPD = 468;
	opUNPCKHPS = 469;
	opUNPCKLPD = 470;
	opUNPCKLPS = 471;
	opVERR = 472;
	opVERW = 473;
	opWAIT = 474;
	opWBINVD = 475;
	opWRMSR = 476;
	opXADD = 477;
	opXCHG = 478;
	opXLAT = 479;
	opXLATB = 480;
	opXOR = 481;
	opXORPD = 482;
	opXORPS= 483;

тип
	IA32Arg = окласс
	кон IA32Arg;

	IA32ImmArg = окласс (IA32Arg)
		перем
			imm : цел32;
			rep : цел32;
			width : цел32;

		проц &New*(imm: цел32; rep, width : цел32);
		нач
			сам.imm := imm;
			сам.rep:= rep;
			сам.width := width
		кон New;
	кон IA32ImmArg;

	IA32RegArg = окласс (IA32Arg)
		перем
			reg, width : цел32;

		проц &New*(reg: цел32);
		нач
			width := 4;
			сам.reg := reg
		кон New;
	кон IA32RegArg;

	IA32SpecialRegArg = окласс (IA32RegArg)
		перем
			specialKind : цел32;

		проц GetRepresentation (w : Потоки.Писарь);
		нач
			просей specialKind из
				SRegCR : w.пСтроку8("CR");
				| SRegDR : w.пСтроку8("DR");
				| SRegTR : w.пСтроку8("TR");
				| SRegFP : w.пСтроку8("ST(");
			иначе
			всё;
			w.пСимв8(симв8ИзКода(48+reg));
			если specialKind = SRegFP то w.пСимв8(')') всё
		кон GetRepresentation;
	кон IA32SpecialRegArg;

	IA32MemArg = окласс (IA32Arg)
		перем
			base, index, scale, disp, fpSize : цел32;
			bytePtr, wordPtr : булево;

		проц &New*(b, i, s, d: цел32);
		нач
			fpSize := 0;
			base := b; index := i; scale := s; disp := d;
			bytePtr := ложь; wordPtr := ложь
		кон New;
	кон IA32MemArg;

	IA32Opcode = окласс (Decoder.Opcode)
	перем
		op : цел32; (* first-byte-value of opcode *)
		prefixes : цел32; (* Number of prefixes *)
		prefix : массив 4 из симв8;
		adrPrefix, opPrefix : булево;
		opcodeBytes : цел32;
		opcodeByte : массив 3 из симв8;
		argStructure : цел32;
		width : цел32;
		arg1, arg2, arg3 : IA32Arg;

		проц &{перекрыта}New*(proc : Decoder.ProcedureInfo; stream : Потоки.Писарь);
		нач
			New^(proc, stream);
			prefixes := 0;
			opcodeBytes := 0;
			instr := -1;
			argStructure := none
		кон New;

		проц AddOpcodeByte(b : симв8);
		нач
			утв(opcodeBytes < 3);
			opcodeByte[opcodeBytes] := b;
			увел(opcodeBytes)
		кон AddOpcodeByte;

		проц AddPrefixByte(b : симв8);
		нач
			утв(prefixes < 4);
			prefix[prefixes] := b;
			увел(prefixes);
			если b = AdrSize то adrPrefix := истина
			аесли b = OpSize то opPrefix := истина всё
		кон AddPrefixByte;

		проц {перекрыта}PrintOpcodeBytes(w : Потоки.Писарь);
		перем
			string : массив 100 из симв8;
			hexStr : массив 3 из симв8;
			i : цел32;
		нач
			string := "";
			нцДля i := 0 до prefixes-1 делай
				IntToHex(кодСимв8(prefix[i]), 2, hexStr);
				w.пСтроку8(hexStr); w.пСтроку8(" | ")
			кц;
			нцДля i := prefixes до длинаМассива(code)-1 делай
				IntToHex(кодСимв8(code[i]), 2, hexStr);
				w.пСтроку8(hexStr); w.пСтроку8(" ");
			кц
		кон PrintOpcodeBytes;

		проц {перекрыта}PrintInstruction(w : Потоки.Писарь);
		перем
			i : цел32;
			opStr : массив 20 из симв8;
		нач
			(* print prefixes *)
			нцДля i := 0 до prefixes-1 делай
				просей prefix[i] из
					| pREP : w.пСтроку8("REP ");
				иначе
				всё
			кц;
			просей instr из
				opAAA: opStr := "AAA"
				| opAAD: opStr := "AAD"
				| opAAM: opStr := "AAM"
				| opAAS: opStr := "AAS"
				| opADC: opStr := "ADC"
				| opADD: opStr := "ADD"
				| opADDPD: opStr := "ADDPD"
				| opADDPS: opStr := "ADDPS"
				| opADDSD: opStr := "ADDSD"
				| opADDSS: opStr := "ADDSS"
				| opAND: opStr := "AND"
				| opANDPD: opStr := "ANDPD"
				| opANDPS: opStr := "ANDPS"
				| opANDNPD: opStr := "ANDNPD"
				| opANDNPS: opStr := "ANDNPS"
				| opARPL: opStr := "ARPL"
				| opBOUND: opStr := "BOUND"
				| opBSF: opStr := "BSF"
				| opBSR: opStr := "BSR"
				| opBSWAP: opStr := "BSWAP"
				| opBT: opStr := "BT"
				| opBTC: opStr := "BTC"
				| opBTR: opStr := "BTR"
				| opBTS: opStr := "BTS"
				| opCALL: opStr := "CALL"
				| opCALLFAR: opStr := "CALLFAR"
				| opCBW: opStr := "CBW"
				| opCDQ: opStr := "CDQ"
				| opCLC: opStr := "CLC"
				| opCLD: opStr := "CLD"
				| opCLFLUSH: opStr := "CLFLUSH"
				| opCLI: opStr := "CLI"
				| opCLTS: opStr := "CLTS"
				| opCMC: opStr := "CMC"
				| opCMOVcc: opStr := "CMOVcc"
				| opCMOVO: opStr := "CMOVO"
				| opCMOVNO: opStr := "CMOVNO"
				| opCMOVB: opStr := "CMOVB"
				| opCMOVNB: opStr := "CMOVNB"
				| opCMOVZ: opStr := "CMOVZ"
				| opCMOVNZ: opStr := "CMOVNZ"
				| opCMOVBE: opStr := "CMOVBE"
				| opCMOVNBE: opStr := "CMOVNBE"
				| opCMOVS: opStr := "CMOVS"
				| opCMOVNS: opStr := "CMOVNS"
				| opCMOVP: opStr := "CMOVP"
				| opCMOVNP: opStr := "CMOVNP"
				| opCMOVL: opStr := "CMOVL"
				| opCMOVNL: opStr := "CMOVNL"
				| opCMOVLE: opStr := "CMOVLE"
				| opCMOVNLE: opStr := "CMOVNLE"
				| opCMP: opStr := "CMP"
				| opCMPPD: opStr := "CMPPD"
				| opCMPPS: opStr := "CMPPS"
				| opCMPS: opStr := "CMPS"
				| opCMPSB: opStr := "CMPSB"
				| opCMPSW: opStr := "CMPSW"
				| opCMPSD: opStr := "CMPSD"
				| opCMPSS: opStr := "CMPSS"
				| opCMPXCHG: opStr := "CMPXCHG"
				| opCMPXCHG8B: opStr := "CMPXCHG8B"
				| opCOMISD: opStr := "COMISD"
				| opCOMISS: opStr := "COMISS"
				| opCPUID: opStr := "CPUID"
				| opCVTDQ2PD: opStr := "CVTDQ2PD"
				| opCVTD12PS: opStr := "CVTD12PS"
				| opCVTD2DQ: opStr := "CVTD2DQ"
				| opCVTPD2PI: opStr := "CVTPD2PI"
				| opCVTPD2PS: opStr := "CVTPD2PS"
				| opCVTPI2PD: opStr := "CVTPI2PD"
				| opCVTPI2PS: opStr := "CVTPI2PS"
				| opCVTPS2DQ: opStr := "CVTPS2DQ"
				| opCVTPS2PD: opStr := "CVTPS2PD"
				| opCVTPS2PI: opStr := "CVTPS2PI"
				| opCVTSD2SI: opStr := "CVTSD2SI"
				| opCVTSD2SS: opStr := "CVTSD2SS"
				| opCVTSI2SD: opStr := "CVTSI2SD"
				| opCVTSI2SS: opStr := "CVTSI2SS"
				| opCVTSS2SD: opStr := "CVTSS2SD"
				| opCVTSS2SI: opStr := "CVTSS2SI"
				| opCVTTPD2PI: opStr := "CVTTPD2PI"
				| opCVTTPD2DQ: opStr := "CVTTPD2DQ"
				| opCVTTPS2DQ: opStr := "CVTTPS2DQ"
				| opCVTTPS2PI: opStr := "CVTTPS2PI"
				| opCVTTDS2SI: opStr := "CVTTDS2SI"
				| opCVTTSS2SI: opStr := "CVTTSS2SI"
				| opCWD: opStr := "CWD"
				| opCWDE: opStr := "CWDE"
				| opDAA: opStr := "DAA"
				| opDAS: opStr := "DAS"
				| opDEC: opStr := "DEC"
				| opDIV: opStr := "DIV"
				| opDIVPD: opStr := "DIVPD"
				| opDIVPS: opStr := "DIVPS"
				| opDIVSD: opStr := "DIVSD"
				| opDIVSS: opStr := "DIVSS"
				| opEMMS: opStr := "EMMS"
				| opENTER: opStr := "ENTER"
				| opF2XM1: opStr := "F2XM1"
				| opFABS: opStr := "FABS"
				| opFADD: opStr := "FADD"
				| opFADDP: opStr := "FADDP"
				| opFIADD: opStr := "FIADD"
				| opFBLD: opStr := "FBLD"
				| opFBSTP: opStr := "FBSTP"
				| opFCHS: opStr := "FCHS"
				| opFCLEX: opStr := "FCLEX"
				| opFNCLEX: opStr := "FNCLEX"
				| opFCMOVcc: opStr := "FCMOVcc"
				| opFCOM: opStr := "FCOM"
				| opFCOMP: opStr := "FCOMP"
				| opFCOMPP: opStr := "FCOMPP"
				| opFCOMI: opStr := "FCOMI"
				| opFCOMIP: opStr := "FCOMIP"
				| opFUCOMI: opStr := "FUCOMI"
				| opFUCOMIP: opStr := "FUCOMIP"
				| opFCOS: opStr := "FCOS"
				| opFDECSTP: opStr := "FDECSTP"
				| opFDIV: opStr := "FDIV"
				| opFDIVP: opStr := "FDIVP"
				| opFIDIV: opStr := "FIDIV"
				| opFDIVR: opStr := "FDIVR"
				| opFDIVRP: opStr := "FDIVRP"
				| opFIDIVR: opStr := "FIDIVR"
				| opFFREE: opStr := "FFREE"
				| opFICOM: opStr := "FICOM"
				| opFICOMP: opStr := "FICOMP"
				| opFILD: opStr := "FILD"
				| opFINCSTP: opStr := "FINCSTP"
				| opFINIT: opStr := "FINIT"
				| opFNINIT: opStr := "FNINIT"
				| opFIST: opStr := "FIST"
				| opFISTP: opStr := "FISTP"
				| opFLD: opStr := "FLD"
				| opFLD1: opStr := "FLD1"
				| opFLDL2T: opStr := "FLDL2T"
				| opFLDL2E: opStr := "FLDL2E"
				| opFLDPI: opStr := "FLDPI"
				| opFLDLG2: opStr := "FLDLG2"
				| opFLDLN2: opStr := "FLDLN2"
				| opFLDZ: opStr := "FLDZ"
				| opFLDCW: opStr := "FLDCW"
				| opFLDENV: opStr := "FLDENV"
				| opFMUL: opStr := "FMUL"
				| opFMULP: opStr := "FMULP"
				| opFIMUL: opStr := "FIMUL"
				| opFNOP: opStr := "FNOP"
				| opFPATAN: opStr := "FPATAN"
				| opFPREM: opStr := "FPREM"
				| opFPREM1: opStr := "FPREM1"
				| opFPTAN: opStr := "FPTAN"
				| opFRNDINT: opStr := "FRNDINT"
				| opFRSTOR: opStr := "FRSTOR"
				| opFSAVE: opStr := "FSAVE"
				| opFNSAVE: opStr := "FNSAVE"
				| opFSCALE: opStr := "FSCALE"
				| opFSIN: opStr := "FSIN"
				| opFSINCOS: opStr := "FSINCOS"
				| opFSQRT: opStr := "FSQRT"
				| opFST: opStr := "FST"
				| opFSTP: opStr := "FSTP"
				| opFSTCW: opStr := "FSTCW"
				| opFNSTCW: opStr := "FNSTCW"
				| opFSTENV: opStr := "FSTENV"
				| opFNSTENV: opStr := "FNSTENV"
				| opFSTSW: opStr := "FSTSW"
				| opFNSTSW: opStr := "FNSTSW"
				| opFSUB: opStr := "FSUB"
				| opFSUBP: opStr := "FSUBP"
				| opFISUB: opStr := "FISUB"
				| opFSUBR: opStr := "FSUBR"
				| opFSUBRP: opStr := "FSUBRP"
				| opFISUBR: opStr := "FISUBR"
				| opFTST: opStr := "FTST"
				| opFUCOM: opStr := "FUCOM"
				| opFUCOMP: opStr := "FUCOMP"
				| opFUCOMPP: opStr := "FUCOMPP"
				| opFWAIT: opStr := "FWAIT"
				| opFXAM: opStr := "FXAM"
				| opFXCH: opStr := "FXCH"
				| opFXRSTOR: opStr := "FXRSTOR"
				| opFXSAVE: opStr := "FXSAVE"
				| opFXTRACT: opStr := "FXTRACT"
				| opFYL2X: opStr := "FYL2X"
				| opFYL2XP1: opStr := "FYL2XP1"
				| opHLT: opStr := "HLT"
				| opIDIV: opStr := "IDIV"
				| opIMUL: opStr := "IMUL"
				| opIN: opStr := "IN"
				| opINC: opStr := "INC"
				| opINS: opStr := "INS"
				| opINSB: opStr := "INSB"
				| opINSW: opStr := "INSW"
				| opINSD: opStr := "INSD"
				| opINT: opStr := "INT"
				| opINTO: opStr := "INTO"
				| opINVD: opStr := "INVD"
				| opINVLPG: opStr := "INVLPG"
				| opIRET: opStr := "IRET"
				| opIRETD: opStr := "IRETD"
				| opJcc: opStr := "Jcc"
				| opJO: opStr := "JO"
				| opJNO: opStr := "JNO"
				| opJB: opStr := "JB"
				| opJNB: opStr := "JNB"
				| opJZ: opStr := "JZ"
				| opJNZ: opStr := "JNZ"
				| opJBE: opStr := "JBE"
				| opJNBE: opStr := "JNBE"
				| opJS: opStr := "JS"
				| opJNS: opStr := "JNS"
				| opJP: opStr := "JP"
				| opJNP: opStr := "JNP"
				| opJL: opStr := "JL"
				| opJNL: opStr := "JNL"
				| opJLE: opStr := "JLE"
				| opJNLE: opStr := "JNLE"
				| opJCXZ: opStr := "JCXZ"
				| opJECXZ: opStr := "JECXZ"
				| opJMP: opStr := "JMP"
				| opJMPFAR: opStr := "JMPFAR"
				| opLAHF: opStr := "LAHF"
				| opLAR: opStr := "LAR"
				| opLDMXCSR: opStr := "LDMXCSR"
				| opLDS: opStr := "LDS"
				| opLEA: opStr := "LEA"
				| opLEAVE: opStr := "LEAVE"
				| opLES: opStr := "LES"
				| opLFENCE: opStr := "LFENCE"
				| opLFS: opStr := "LFS"
				| opLGDT: opStr := "LGDT"
				| opLGS: opStr := "LGS"
				| opLLDT: opStr := "LLDT"
				| opLIDT: opStr := "LIDT"
				| opLMSW: opStr := "LMSW"
				| opLOCK: opStr := "LOCK"
				| opLODS: opStr := "LODS"
				| opLODSB: opStr := "LODSB"
				| opLODSW: opStr := "LODSW"
				| opLODSD: opStr := "LODSD"
				| opLOOP: opStr := "LOOP"
				| opLOOPE: opStr := "LOOPE"
				| opLOOPNE: opStr := "LOOPNE"
				| opLOOPcc: opStr := "LOOPcc"
				| opLSL: opStr := "LSL"
				| opLSS: opStr := "LSS"
				| opLTR: opStr := "LTR"
				| opMASKMOVDQU: opStr := "MASKMOVDQU"
				| opMASKMOVQ: opStr := "MASKMOVQ"
				| opMAXPD: opStr := "MAXPD"
				| opMAXPS: opStr := "MAXPS"
				| opMAXSD: opStr := "MAXSD"
				| opMAXSS: opStr := "MAXSS"
				| opMFENCE: opStr := "MFENCE"
				| opMINPD: opStr := "MINPD"
				| opMINPS: opStr := "MINPS"
				| opMINSD: opStr := "MINSD"
				| opMINSS: opStr := "MINSS"
				| opMOV: opStr := "MOV"
				| opMOVAPD: opStr := "MOVAPD"
				| opMOVAPS: opStr := "MOVAPS"
				| opMOVD: opStr := "MOVD"
				| opMOVDQA: opStr := "MOVDQA"
				| opMOVDQU: opStr := "MOVDQU"
				| opMOVDQ2Q: opStr := "MOVDQ2Q"
				| opMOVHLPS: opStr := "MOVHLPS"
				| opMOVHPD: opStr := "MOVHPD"
				| opMOVHPS: opStr := "MOVHPS"
				| opMOVLHPS: opStr := "MOVLHPS"
				| opMOVLPD: opStr := "MOVLPD"
				| opMOVLPS: opStr := "MOVLPS"
				| opMOVMSKPD: opStr := "MOVMSKPD"
				| opMOVMSKPS: opStr := "MOVMSKPS"
				| opMOVNTDQ: opStr := "MOVNTDQ"
				| opMOVNTI: opStr := "MOVNTI"
				| opMOVNTPD: opStr := "MOVNTPD"
				| opMOVNTPS: opStr := "MOVNTPS"
				| opMOVNTQ: opStr := "MOVNTQ"
				| opMOVQ: opStr := "MOVQ"
				| opMOVQ2DQ: opStr := "MOVQ2DQ"
				| opMOVS: opStr := "MOVS"
				| opMOVSB: opStr := "MOVSB"
				| opMOVSW: opStr := "MOVSW"
				| opMOVSD: opStr := "MOVSD"
				| opMOVSS: opStr := "MOVSS"
				| opMOVSX: opStr := "MOVSX"
				| opMOVUPD: opStr := "MOVUPD"
				| opMOVUPS: opStr := "MOVUPS"
				| opMOVZX: opStr := "MOVZX"
				| opMUL: opStr := "MUL"
				| opMULPD: opStr := "MULPD"
				| opMULPS: opStr := "MULPS"
				| opMULSD: opStr := "MULSD"
				| opMULSS: opStr := "MULSS"
				| opNEG: opStr := "NEG"
				| opNOP: opStr := "NOP"
				| opNOT: opStr := "NOT"
				| opOR: opStr := "OR"
				| opORPD: opStr := "ORPD"
				| opORPS: opStr := "ORPS"
				| opOUT: opStr := "OUT"
				| opOUTS: opStr := "OUTS"
				| opOUTSB: opStr := "OUTSB"
				| opOUTSW: opStr := "OUTSW"
				| opOUTSD: opStr := "OUTSD"
				| opPACKSSWB: opStr := "PACKSSWB"
				| opPACKSSDW: opStr := "PACKSSDW"
				| opPACKUSWB: opStr := "PACKUSWB"
				| opPADDB: opStr := "PADDB"
				| opPADDW: opStr := "PADDW"
				| opPADDD: opStr := "PADDD"
				| opPADDQ: opStr := "PADDQ"
				| opPADDSB: opStr := "PADDSB"
				| opPADDSW: opStr := "PADDSW"
				| opPADDUSB: opStr := "PADDUSB"
				| opPADDUSW: opStr := "PADDUSW"
				| opPAND: opStr := "PAND"
				| opPANDN: opStr := "PANDN"
				| opPAUSE: opStr := "PAUSE"
				| opPAVGB: opStr := "PAVGB"
				| opPAVGW: opStr := "PAVGW"
				| opPCMPEQB: opStr := "PCMPEQB"
				| opPCMPEQW: opStr := "PCMPEQW"
				| opPCMPEQD: opStr := "PCMPEQD"
				| opPCMPGTB: opStr := "PCMPGTB"
				| opPCMPGTW: opStr := "PCMPGTW"
				| opPCMPGTD: opStr := "PCMPGTD"
				| opPEXTRW: opStr := "PEXTRW"
				| opPINSRW: opStr := "PINSRW"
				| opPMADDWD: opStr := "PMADDWD"
				| opPMAXSW: opStr := "PMAXSW"
				| opPMINSW: opStr := "PMINSW"
				| opPMINUB: opStr := "PMINUB"
				| opPMOVMSKB: opStr := "PMOVMSKB"
				| opPMULHUW: opStr := "PMULHUW"
				| opPMULHW: opStr := "PMULHW"
				| opPMULLW: opStr := "PMULLW"
				| opPMULUDQ: opStr := "PMULUDQ"
				| opPOP: opStr := "POP"
				| opPOPWPTR: opStr := "POPWPTR"
				| opPOPDWPTR: opStr := "POPDWPTR"
				| opPOPA: opStr := "POPA"
				| opPOPAD: opStr := "POPAD"
				| opPOPF: opStr := "POPF"
				| opPOPFD: opStr := "POPFD"
				| opPOR: opStr := "POR"
				| opPREFETCHh: opStr := "PREFETCHh"
				| opPSADBW: opStr := "PSADBW"
				| opPSHUFD: opStr := "PSHUFD"
				| opPSHUFHW: opStr := "PSHUFHW"
				| opPOSHUFLW: opStr := "POSHUFLW"
				| opPSHUFW: opStr := "PSHUFW"
				| opPSLLDQ: opStr := "PSLLDQ"
				| opPSLLW: opStr := "PSLLW"
				| opPSLLD: opStr := "PSLLD"
				| opPSLLQ: opStr := "PSLLQ"
				| opPSRAW: opStr := "PSRAW"
				| opPSRAD: opStr := "PSRAD"
				| opPSRLDQ: opStr := "PSRLDQ"
				| opPSRLW: opStr := "PSRLW"
				| opPSRLD: opStr := "PSRLD"
				| opPSRLQ: opStr := "PSRLQ"
				| opPSUBB: opStr := "PSUBB"
				| opPSUBW: opStr := "PSUBW"
				| opPSUBD: opStr := "PSUBD"
				| opPSUBQ: opStr := "PSUBQ"
				| opPSUBSB: opStr := "PSUBSB"
				| opPSUBSW: opStr := "PSUBSW"
				| opPSUBUSB: opStr := "PSUBUSB"
				| opPSUBUSW: opStr := "PSUBUSW"
				| opPUNPCKHBW: opStr := "PUNPCKHBW"
				| opPUNPCKHWD: opStr := "PUNPCKHWD"
				| opPUNPCKHDQ: opStr := "PUNPCKHDQ"
				| opPUNPCKHQDQ: opStr := "PUNPCKHQDQ"
				| opPUNPCKLBW: opStr := "PUNPCKLBW"
				| opPUNPCKLWD: opStr := "PUNPCKLWD"
				| opPUNPCKLDQ: opStr := "PUNPCKLDQ"
				| opPUNPCKLQDQ: opStr := "PUNPCKLQDQ"
				| opPUSH: opStr := "PUSH"
				| opPUSHA: opStr := "PUSHA"
				| opPUSHAD: opStr := "PUSHAD"
				| opPUSHF: opStr := "PUSHF"
				| opPUSHFD: opStr := "PUSHFD"
				| opPXOR: opStr := "PXOR"
				| opRCL: opStr := "RCL"
				| opRCR: opStr := "RCR"
				| opROL: opStr := "ROL"
				| opROR: opStr := "ROR"
				| opRCPPS: opStr := "RCPPS"
				| opRCPSS: opStr := "RCPSS"
				| opRDMSR: opStr := "RDMSR"
				| opRDPMC: opStr := "RDPMC"
				| opRDTSC: opStr := "RDTSC"
				| opREP: opStr := "REP"
				| opREPE: opStr := "REPE"
				| opREPZ: opStr := "REPZ"
				| opREPNE: opStr := "REPNE"
				| opREPNZ: opStr := "REPNZ"
				| opRET: opStr := "RET"
				| opRETFAR: opStr := "RETFAR"
				| opRSM: opStr := "RSM"
				| opRSQRTPS: opStr := "RSQRTPS"
				| opRSQRTSS: opStr := "RSQRTSS"
				| opSAHF: opStr := "SAHF"
				| opSAL: opStr := "SAL"
				| opSAR: opStr := "SAR"
				| opSHL: opStr := "SHL"
				| opSHR: opStr := "SHR"
				| opSBB: opStr := "SBB"
				| opSCAS: opStr := "SCAS"
				| opSCASB: opStr := "SCASB"
				| opSCASW: opStr := "SCASW"
				| opSCASD: opStr := "SCASD"
				| opSETcc: opStr := "SETcc"
				| opSETO: opStr := "SETO"
				| opSETNO: opStr := "SETNO"
				| opSETB: opStr := "SETB"
				| opSETNB: opStr := "SETNB"
				| opSETZ: opStr := "SETZ"
				| opSETNZ: opStr := "SETNZ"
				| opSETBE: opStr := "SETBE"
				| opSETNBE: opStr := "SETNBE"
				| opSETS: opStr := "SETS"
				| opSETNS: opStr := "SETNS"
				| opSETP: opStr := "SETP"
				| opSETNP: opStr := "SETNP"
				| opSETL: opStr := "SETL"
				| opSETNL: opStr := "SETNL"
				| opSETLE: opStr := "SETLE"
				| opSETNLE: opStr := "SETNLE"
				| opSFENCE: opStr := "SFENCE"
				| opSGDT: opStr := "SGDT"
				| opSHLD: opStr := "SHLD"
				| opSHRD: opStr := "SHRD"
				| opSHUFPD: opStr := "SHUFPD"
				| opSHUFPS: opStr := "SHUFPS"
				| opSIDT: opStr := "SIDT"
				| opSLDT: opStr := "SLDT"
				| opSMSW: opStr := "SMSW"
				| opSQRTPD: opStr := "SQRTPD"
				| opSWRTSD: opStr := "SWRTSD"
				| opSQRTSS: opStr := "SQRTSS"
				| opSTC: opStr := "STC"
				| opSTD: opStr := "STD"
				| opSTI: opStr := "STI"
				| opSTMXCSR: opStr := "STMXCSR"
				| opSTOS: opStr := "STOS"
				| opSTOSB: opStr := "STOSB"
				| opSTOSW: opStr := "STOSW"
				| opSTOSD: opStr := "STOSD"
				| opSTR: opStr := "STR"
				| opSUB: opStr := "SUB"
				| opSUBPD: opStr := "SUBPD"
				| opSUBPS: opStr := "SUBPS"
				| opSUBSD: opStr := "SUBSD"
				| opSUBSS: opStr := "SUBSS"
				| opSYSENTER: opStr := "SYSENTER"
				| opSYSEXIT: opStr := "SYSEXIT"
				| opTEST: opStr := "TEST"
				| opUCOMISD: opStr := "UCOMISD"
				| opUCOMISS: opStr := "UCOMISS"
				| opUD2: opStr := "UD2"
				| opUNPCKHPD: opStr := "UNPCKHPD"
				| opUNPCKHPS: opStr := "UNPCKHPS"
				| opUNPCKLPD: opStr := "UNPCKLPD"
				| opUNPCKLPS: opStr := "UNPCKLPS"
				| opVERR: opStr := "VERR"
				| opVERW: opStr := "VERW"
				| opWAIT: opStr := "FWAIT"
				| opWBINVD: opStr := "WBINVD"
				| opWRMSR: opStr := "WRMSR"
				| opXADD: opStr := "XADD"
				| opXCHG: opStr := "XCHG"
				| opXLAT: opStr := "XLAT"
				| opXLATB: opStr := "XLATB"
				| opXOR: opStr := "XOR"
				| opXORPD: opStr := "XORPD"
				| opXORPS: opStr := "XORPS"
			иначе
				ЛогЯдра.пСтроку8("Unknown instr = "); ЛогЯдра.пЦел64(instr, 0); ЛогЯдра.пСтроку8(", op = "); ЛогЯдра.п16ричное(op, -1); ЛогЯдра.пВК_ПС;
				opStr := "[unknown]"
			всё;
			w.пСтроку8(opStr)
		кон PrintInstruction;

		проц {перекрыта}PrintArguments(w : Потоки.Писарь);
		нач
			если (argStructure >=0) и (arg1 = НУЛЬ) то w.пСтроку8("{too little arguments}");возврат
			аесли (argStructure >= ArgRegReg) и (arg2=НУЛЬ) то w.пСтроку8("{too little arguments}");возврат
			всё;
			утв((argStructure < 0) или (arg1 # НУЛЬ)); (* if instr has arguments, arg1 must not be NIL *)
			утв((argStructure < ArgRegReg) или (arg2 # НУЛЬ)); (* if there are 2 args, the second one must not be NIL *)
			(*
			KernelLog.String("Decode opcode: "); KernelLog.String("op = "); KernelLog.Hex(op, 0);
			KernelLog.String(", argStructure = "); KernelLog.Int(argStructure, 0); KernelLog.Ln;
			*)
			просей argStructure из
				ArgReg : WriteReg(arg1(IA32RegArg), w)
				| ArgImm : WriteImm(arg1(IA32ImmArg), w)
				| ArgMem : WriteMem(arg1(IA32MemArg), w)
				| ArgRegMem : WriteReg(arg1(IA32RegArg), w); w.пСтроку8(", "); WriteMem(arg2(IA32MemArg), w)
				| ArgMemReg : WriteMem(arg1(IA32MemArg), w); w.пСтроку8(", "); WriteReg(arg2(IA32RegArg), w)
				| ArgRegReg: WriteReg(arg1(IA32RegArg), w); w.пСтроку8(", "); WriteReg(arg2(IA32RegArg), w)
				| ArgRegImm: WriteReg(arg1(IA32RegArg), w); w.пСтроку8(", "); WriteImm(arg2(IA32ImmArg), w)
				| ArgMemImm: WriteMem(arg1(IA32MemArg), w); w.пСтроку8(", "); WriteImm(arg2(IA32ImmArg), w)
				| ArgImmReg: WriteImm(arg1(IA32ImmArg), w); w.пСтроку8(", "); WriteReg(arg2(IA32RegArg), w)
				| ArgImmImm: WriteImm(arg1(IA32ImmArg), w); w.пСтроку8(", "); WriteImm(arg2(IA32ImmArg), w)
				| ArgRegRegImm: WriteReg(arg1(IA32RegArg), w); w.пСтроку8(", "); WriteReg(arg2(IA32RegArg), w); w.пСтроку8(", "); WriteImm(arg3(IA32ImmArg), w)
				| ArgRegMemImm: WriteReg(arg1(IA32RegArg), w); w.пСтроку8(", "); WriteMem(arg2(IA32MemArg), w); w.пСтроку8(", "); WriteImm(arg3(IA32ImmArg), w)
				| ArgMemRegImm: WriteMem(arg1(IA32MemArg), w); w.пСтроку8(", "); WriteReg(arg2(IA32RegArg), w); w.пСтроку8(", "); WriteImm(arg3(IA32ImmArg), w)
				| ArgRegRegReg: WriteReg(arg1(IA32RegArg), w); w.пСтроку8(", "); WriteReg(arg2(IA32RegArg), w); w.пСтроку8(", "); WriteReg(arg3(IA32RegArg), w)
				| ArgMemRegReg: WriteMem(arg1(IA32MemArg), w); w.пСтроку8(", "); WriteReg(arg2(IA32RegArg), w); w.пСтроку8(", "); WriteReg(arg3(IA32RegArg), w)
				| ArgNone:
			иначе
				w.пСтроку8("{argStructure not specified!}")
			всё
		кон PrintArguments;

		проц {перекрыта}PrintVariables(w : Потоки.Писарь);
		перем
			numPrints : цел32;

			проц DetectVar (memArg : IA32MemArg);
			перем
				field : Decoder.FieldInfo;
			нач
				если memArg.base = EBP то
					field := proc.GetFieldAtOffset(memArg.disp);
					если field # НУЛЬ то
(*!TODO						field.AddMarkerPosition(w.Pos());*)
						если numPrints > 0 то
							w.пСтроку8(", ")
						всё;
						w.пСтроку8(field.name);
						w.пСтроку8(": ");
						WriteMem(memArg, w);
						увел(numPrints)
					всё
				всё
			кон DetectVar;

		нач
			numPrints := 0;
			если arg1 # НУЛЬ то
				если arg1 суть IA32MemArg то
					DetectVar(arg1(IA32MemArg))
				всё;
				если arg2 # НУЛЬ то
					если arg2 суть IA32MemArg то
						DetectVar(arg2(IA32MemArg))
					всё;
					если arg3 # НУЛЬ то
						если arg3 суть IA32MemArg то
							DetectVar(arg3(IA32MemArg))
						всё
					всё
				всё
			всё
		кон PrintVariables;

		проц {перекрыта}ToString () : Strings.String;
		перем
			str : массив 255 из симв8;
			temp : массив 10 из симв8;
		нач
			Strings.IntToHexStr(op, 0, temp);
			Strings.Append(str, "Opcode: op = "); Strings.Append(str, temp);
			Strings.IntToStr(instr, temp);
			Strings.Append(str, ", instr = "); Strings.Append(str, temp);
			Strings.IntToHexStr(offset, 0, temp);
			Strings.Append(str, ", offset = "); Strings.Append(str, temp);
			возврат Strings.NewString(str)
		кон ToString;

		проц WriteImm(immArg : IA32ImmArg; w : Потоки.Писарь);
		перем

			проц WriteHex;
			перем absImm : цел32;
			нач
				absImm := immArg.imm;
				если immArg.rep = RepRelJmp то
					(* add opcode position and length of full opcode to immediate argument value *)
					увел(absImm, offset + length)
				всё;
				WriteHex32(absImm, w)
			кон WriteHex;

		нач
			если immArg.rep = RepInt то
				w.пЦел64(immArg.imm, 0)
			аесли immArg.rep = RepHex то
				WriteHex;
				w.пСимв8('H')
			иначе
				w.пЦел64(immArg.imm, 0);
				w.пСтроку8(" (");
				WriteHex;
				w.пСтроку8("H)")
			всё
		кон WriteImm;

		проц WriteAdrReg(regNr : цел32; w : Потоки.Писарь);
		нач
			если adrPrefix то
				если regNr = 0 то w.пСтроку8("AX")
				аесли regNr = 1 то w.пСтроку8("CX")
				аесли regNr = 2 то w.пСтроку8("DX")
				аесли regNr = 3 то w.пСтроку8("BX")
				аесли regNr = 4 то w.пСтроку8("SP")
				аесли regNr = 5 то w.пСтроку8("BP")
				аесли regNr = 6 то w.пСтроку8("SI")
				аесли regNr = 7 то w.пСтроку8("DI")
				иначе СТОП(99)
				всё
			иначе
				если regNr = 0 то w.пСтроку8("EAX")
				аесли regNr = 1 то w.пСтроку8("ECX")
				аесли regNr = 2 то w.пСтроку8("EDX")
				аесли regNr = 3 то w.пСтроку8("EBX")
				аесли regNr = 4 то w.пСтроку8("ESP")
				аесли regNr = 5 то w.пСтроку8("EBP")
				аесли regNr = 6 то w.пСтроку8("ESI")
				аесли regNr = 7 то w.пСтроку8("EDI")
				иначе СТОП(99)
				всё
			всё
		кон WriteAdrReg;

		проц WriteReg (regArg : IA32RegArg; writer : Потоки.Писарь);
		перем
			reg, w : цел32;
			oP : булево;
		нач
			если regArg суть IA32SpecialRegArg то
				regArg(IA32SpecialRegArg).GetRepresentation(writer); возврат
			всё;
			w := width;
			oP := opPrefix;
			если ((instr = opIN) и (regArg = arg2)) или ((instr = opOUT) и (regArg = arg1)) то
				(* port in/out uses 16-bit register for port address only *)
				w := 1; oP := истина
			всё;
			reg := regArg.reg;
			если reg >= ES (*DS*) то 					(*  <<<< MH 15.3.1994 *)
				если reg = CS то writer.пСтроку8("CS")
				аесли reg = DS то writer.пСтроку8("DS")
				аесли reg = ES то writer.пСтроку8("ES")
				аесли reg = SS то writer.пСтроку8("SS")
				аесли reg = FS то writer.пСтроку8("FS")
				аесли reg = GS то writer.пСтроку8("GS")
				иначе СТОП(99)
				всё
			аесли (w = 0) или (regArg.width = 1) то
				если reg = 0 то writer.пСтроку8("AL")
				аесли reg = 1 то writer.пСтроку8("CL")
				аесли reg = 2 то writer.пСтроку8("DL")
				аесли reg = 3 то writer.пСтроку8("BL")
				аесли reg = 4 то writer.пСтроку8("AH")
				аесли reg = 5 то writer.пСтроку8("CH")
				аесли reg = 6 то writer.пСтроку8("DH")
				аесли reg = 7 то writer.пСтроку8("BH")
				иначе СТОП(99)
				всё
			аесли oP или (regArg.width = 2) то
				если reg = 0 то writer.пСтроку8("AX")
				аесли reg = 1 то writer.пСтроку8("CX")
				аесли reg = 2 то writer.пСтроку8("DX")
				аесли reg = 3 то writer.пСтроку8("BX")
				аесли reg = 4 то writer.пСтроку8("SP")
				аесли reg = 5 то writer.пСтроку8("BP")
				аесли reg = 6 то writer.пСтроку8("SI")
				аесли reg = 7 то writer.пСтроку8("DI")
				иначе СТОП(99)
				всё
			иначе
				если reg = 0 то writer.пСтроку8("EAX")
				аесли reg = 1 то writer.пСтроку8("ECX")
				аесли reg = 2 то writer.пСтроку8("EDX")
				аесли reg = 3 то writer.пСтроку8("EBX")
				аесли reg = 4 то writer.пСтроку8("ESP")
				аесли reg = 5 то writer.пСтроку8("EBP")
				аесли reg = 6 то writer.пСтроку8("ESI")
				аесли reg = 7 то writer.пСтроку8("EDI")
				иначе СТОП(99)
				всё
			всё
		кон WriteReg;

		проц WriteMem(memArg : IA32MemArg; w : Потоки.Писарь);
		перем
			intStr : массив 20 из симв8;
			i : цел32;
		нач
			просей memArg.fpSize из
				FPSizeSingle : w.пСтроку8("SINGLE ")
				| FPSizeDouble : w.пСтроку8("DOUBLE ")
				| FPSizeExtended : w.пСтроку8("EXTENDED ")
				| FPSizeWord : w.пСтроку8("INTEGER ")
				| FPSizeShort : w.пСтроку8("SHORT ")
				| FPSizeLong : w.пСтроку8("LONG ")
				| FPSizeSmall : w.пСтроку8("SMALL ")
				| FPSizeBig : w.пСтроку8("BIG ")
				| FPSizeBCD : w.пСтроку8("BCD ")
			иначе
			всё;
			если memArg.bytePtr то
				w.пСтроку8("BYTE PTR ")
			аесли memArg.wordPtr то
				w.пСтроку8("INTEGER PTR ")
			всё;
			(* write segment prefixes *)
			нцДля i := 0 до prefixes-1 делай
				просей prefix[i] из
					pCS : w.пСтроку8("CS:")
					| pDS : w.пСтроку8("DS:")
					| pES : w.пСтроку8("ES:")
					| pFS : w.пСтроку8("FS:")
					| pGS : w.пСтроку8("GS:")
					| pSS : w.пСтроку8("SS:")
				иначе
				всё
			кц;
			если memArg.base # none то (* register relative *)
				Strings.IntToStr(memArg.disp, intStr);
				w.пСтроку8(intStr);
				w.пСтроку8("[");
				WriteAdrReg(memArg.base, w)
			иначе (* absolute *)
				w.пСтроку8("[");
				w.пЦел64(memArg.disp, 0)
			всё;
			если (memArg.index # none) и ~((memArg.index = ESP) и (memArg.base = ESP)) (* !! 15.4.93 Bug? & (base # ESP) *) то (* indexed *)
				w.пСтроку8(" + ");
				WriteAdrReg(memArg.index, w);
				если memArg.scale = 0 то w.пСтроку8(" * 1")
				аесли memArg.scale = 1 то w.пСтроку8(" * 2")
				аесли memArg.scale = 2 то w.пСтроку8(" * 4")
				иначе w.пСтроку8(" *  8")
				всё;
			всё;
			w.пСтроку8("]")
		кон WriteMem;
	кон IA32Opcode;

	IA32Decoder = окласс (Decoder.Decoder)
		перем
			(* hack to recognize a WAIT in the previous opcode *)
			previousOpcode, opcodeBeforeWait : IA32Opcode;

		проц DoPrefixes (перем opcode : IA32Opcode);
		перем
			op : симв8;
			inPrefixSequence : булево;

			(* reads all prefixes, store them in the prefix array and store the first real opcode in the opcode array *)
		нач
			inPrefixSequence := истина;
			нцПока inPrefixSequence делай
				op := ReadChar();
				если (op = pCS) или (op = pDS) или (op = pES) или (op = pFS) или (op = pGS) или (op = pSS)
						или (op = AdrSize) или (op = OpSize) или (op = pREP) то
					opcode.AddPrefixByte(op);
				иначе
					inPrefixSequence := ложь;
					opcode.AddOpcodeByte(op)
				всё
			кц
		кон DoPrefixes;

		проц GetImm (bytes: цел32) : цел32;
			перем ch: симв8; byte: цел16;
		нач
			если bytes = 1 то (* 8 bit *)
				ch := ReadChar();
				если  кодСимв8(ch) >= 128 то byte := кодСимв8(ch) - 256 иначе byte := кодСимв8(ch) всё;
				возврат byte
			аесли bytes = 2 то (* 16 bit *)
				возврат ReadInt()
			иначе (* 32 bit *)
				возврат ReadLInt()
			всё
		кон GetImm;

		проц ModRm (перем regArg: IA32RegArg; перем memOrRegArg: IA32Arg);
		перем
			byte, mod, base, index, scale, disp : цел32;
			newRegArg : IA32RegArg; newMemArg : IA32MemArg;
		нач
			byte := кодСимв8(ReadChar());
			mod := byte DIV 40H;
			нов(regArg, (byte DIV 8) остОтДеленияНа 8);
			base := byte остОтДеленияНа 8;
			если mod = 3 то (* reg *)
				нов(newRegArg, base); memOrRegArg := newRegArg
			иначе
				если base = 4 то (* escape to two bytes *)
					byte := кодСимв8(ReadChar());
					base := byte остОтДеленияНа 8;
					index := (byte DIV 8) остОтДеленияНа 8;
					scale := byte DIV 40H;
				иначе (* one byte addressing mode *)
					index := none
				всё;
				если mod = 0 то (* no displ, or 32 bit address *)
					если base = 5 то (* disp32 *)
						base := none;
						disp := ReadLInt();
					иначе disp:= 0
					всё
				аесли mod = 1 то (* 8 bit displ *)
					disp := GetImm(1)
				иначе (* 32 bit displacement *)
					disp := ReadLInt()
				всё;
				нов(newMemArg, base, index, scale, disp); memOrRegArg := newMemArg
			всё
		кон ModRm;

		проц Type1 (opcode: IA32Opcode; baseOp : цел32);
		(* type 1: add, or, adc, sbb, and, sub, xor, cmp *)
			перем
				kind, immWidth : цел32;
				regArg : IA32RegArg;
				immArg : IA32ImmArg;
				secondArg : IA32Arg;
		нач
			kind := кодСимв8(opcode.opcodeByte[0]) - baseOp;
			если kind = 4 то
				opcode.argStructure := ArgRegImm; opcode.width:= 0;
				нов(regArg, AL); opcode.arg1 := regArg;
				нов(immArg, GetImm(1), RepHex, 1); opcode.arg2 := immArg
			аесли kind = 5 то
				opcode.argStructure := ArgRegImm; opcode.width := 1;
				нов(regArg, AX); opcode.arg1 := regArg;
				если opcode.opPrefix то immWidth := 2 иначе immWidth := 4 всё;
				нов(immArg, GetImm(immWidth), RepHex, immWidth); opcode.arg2 := immArg
			иначе
				ModRm(regArg, secondArg);
				просей kind из
					0: opcode.width := 0; opcode.argStructure := ArgMemReg; opcode.arg1 := secondArg; opcode.arg2 := regArg
				  | 1: opcode.width := 1; opcode.argStructure := ArgMemReg; opcode.arg1 := secondArg; opcode.arg2 := regArg
				  | 2: opcode.width := 0; opcode.argStructure := ArgRegMem; opcode.arg1 := regArg; opcode.arg2 := secondArg
				  | 3: opcode.width := 1; opcode.argStructure := ArgRegMem; opcode.arg1 := regArg; opcode.arg2 := secondArg
				иначе СТОП(99)
				всё;
				если secondArg суть IA32RegArg то opcode.argStructure := ArgRegReg всё
			всё
		кон Type1;

(*		PROCEDURE Add(opcode : IA32Opcode);
			VAR reg, base, inx, d: SIGNED16; scale, mode: SIGNED8; disp, imm: SIGNED32;
		BEGIN
			Type1(opcode,  mode, d, reg, base, inx, scale, disp, imm);
			opcode.instr := opADD
		END Add;
*)
		проц Push (opcode: IA32Opcode);
			перем immArg : IA32ImmArg; regArg : IA32RegArg;
		нач
			opcode.width:= 1;
			если opcode.op = 60H то
				если opcode.opPrefix то opcode.instr := opPUSHA иначе opcode.instr := opPUSHAD всё;
			аесли opcode.op = 68H то
				opcode.instr := opPUSH;
				opcode.argStructure := ArgImm;
				если opcode.opPrefix то
					нов(immArg, ReadInt(), RepInt, 2); СТОП(99)
					иначе
				нов(immArg, ReadLInt(), RepInt, 4)
			всё;
				opcode.arg1 := immArg
			аесли opcode.op = 6AH то
				opcode.instr := opPUSH;
				opcode.argStructure := ArgImm;
				нов(immArg, GetImm(1), RepInt, 1);
				opcode.arg1 := immArg
			аесли opcode.op = 9CH то
				opcode.argStructure := ArgNone;
				если opcode.opPrefix то opcode.instr := opPUSHF иначе opcode.instr := opPUSHFD всё;
			иначе
				opcode.instr := opPUSH;
				opcode.argStructure := ArgReg;
				просей opcode.op из
					6: нов(regArg, ES)
				  | 0EH: нов(regArg, CS)
				  | 16H: нов(regArg, SS)
				  | 1EH: нов(regArg, DS)
				  | 50H..57H: нов(regArg, opcode.op - 50H)
				иначе Bug(opcode.op, 0)
				всё;
				opcode.arg1 := regArg
			всё
		кон Push;

		проц Mov (opcode: IA32Opcode);
			перем
				op, disp, immWidth : цел32;
				regArg : IA32RegArg;
				immArg : IA32ImmArg;
				memArg : IA32MemArg;
				secondArg : IA32Arg;

			проц CalcImmWidth;
			нач
				если opcode.width = 0 то immWidth := 1
				аесли opcode.opPrefix то immWidth := 2
				иначе immWidth := 4
				всё
			кон CalcImmWidth;

		нач
			op := opcode.op;
			если (op >= 88H) и (op <= 8BH) то
				Type1(opcode, 88H)
			аесли (op >= 0B0H) и (op <= 0B7H) то
				opcode.argStructure := ArgRegImm; opcode.width := 0;
				нов(regArg, op - 0B0H); opcode.arg1 := regArg;
				CalcImmWidth;
				нов(immArg, GetImm(immWidth), RepInt, immWidth); opcode.arg2 := immArg
			аесли (op >= 0B8H) и (op <= 0BFH) то
				opcode.argStructure := ArgRegImm; opcode.width := 1;
				нов(regArg, op - 0B8H); opcode.arg1 := regArg;
				CalcImmWidth;
				нов(immArg, GetImm(immWidth), RepInt, immWidth); opcode.arg2 := immArg
			аесли (op >= 0A0H) и (op <= 0A3H) то
				если opcode.adrPrefix то
					disp := ReadInt()
				иначе
					disp := ReadLInt()
				всё;
				нов(memArg, none, none, 1, disp);
				просей op из
					0A0H: opcode.width := 0; opcode.argStructure := ArgRegMem; нов(regArg, AL); opcode.arg1 := regArg; opcode.arg2 := memArg
				  | 0A1H: opcode.width := 1; opcode.argStructure := ArgRegMem; нов(regArg, AX); opcode.arg1 := regArg; opcode.arg2 := memArg
				  | 0A2H: opcode.width := 0; opcode.argStructure := ArgMemReg; нов(regArg, AL); opcode.arg1 := memArg; opcode.arg2 := regArg
				  | 0A3H: opcode.width := 1; opcode.argStructure := ArgMemReg; нов(regArg, AX); opcode.arg1 := memArg; opcode.arg2 := regArg
				всё;
			аесли op = 8CH то (* mov mem, seg *)
				opcode.width := 1;
				opcode.opPrefix:= истина;
				ModRm(regArg, secondArg);
				(* change order according to ModRm output *)
				opcode.arg2 := regArg;
				opcode.arg1 := secondArg;
				если secondArg суть IA32RegArg то
					opcode.argStructure := ArgRegReg
				иначе
					opcode.argStructure := ArgMemReg
				всё;
				увел(opcode.arg2(IA32RegArg).reg, ES) (* reg is a segment register *)
			аесли op = 8EH то (* mov seg, mem *)
				opcode.width := 1;
				opcode.opPrefix:= истина;
				ModRm(regArg, secondArg);
				opcode.arg1 := regArg;
				opcode.arg2 := secondArg;
				если secondArg суть IA32RegArg то
					opcode.argStructure := ArgRegReg
				иначе
					opcode.argStructure := ArgRegMem
				всё;
				увел(opcode.arg1(IA32RegArg).reg, ES) (* reg is segment register *)
			аесли (op = 0C6H) или (op = 0C7H) то
				если op = 0C6H то opcode.width := 0; immWidth := 1;
				иначе
					opcode.width := 1;
					если opcode.opPrefix то immWidth := 2; иначе immWidth := 4 всё
				всё;
				ModRm(regArg, secondArg);
				если secondArg = НУЛЬ то
					opcode.argStructure := ArgRegImm;
					opcode.arg1 := regArg;
				иначе
					opcode.argStructure := ArgMemImm;
					opcode.arg1 := secondArg;
				всё;
				нов(immArg, GetImm(immWidth), RepInt, immWidth); opcode.arg2 := immArg
			всё;
			opcode.instr := opMOV
		кон Mov;

		проц Mov2 (opcode : IA32Opcode);
		перем
			regArg : IA32RegArg;
			secondArg : IA32Arg;
			specialRegArg : IA32SpecialRegArg;
		нач (* Mov2 op codes contains special registers (debug/test/controll) *)
			opcode.instr := opMOV;
			ModRm(regArg, secondArg);
			нов(specialRegArg, regArg.reg);
			opcode.width := 1;
			просей opcode.op из
			 	20H: opcode.argStructure := ArgRegReg; specialRegArg.specialKind := SRegCR; opcode.arg1 := secondArg; opcode.arg2 := specialRegArg
			  | 21H: opcode.argStructure := ArgRegReg; specialRegArg.specialKind := SRegDR; opcode.arg1 := secondArg; opcode.arg2 := specialRegArg
			  | 22H: opcode.argStructure := ArgRegReg; specialRegArg.specialKind := SRegCR; opcode.arg1 := specialRegArg; opcode.arg2 := secondArg
			  | 23H: opcode.argStructure := ArgRegReg; specialRegArg.specialKind := SRegDR; opcode.arg1 := specialRegArg; opcode.arg2 := secondArg
			  | 24H: opcode.argStructure := ArgRegReg; specialRegArg.specialKind := SRegTR; opcode.arg1 := secondArg; opcode.arg2 := specialRegArg
			  | 26H: opcode.argStructure := ArgRegReg; specialRegArg.specialKind := SRegTR; opcode.arg1 := specialRegArg; opcode.arg2 := secondArg
			иначе Bug(opcode.op, 24)
			всё
		кон Mov2;

		проц Call (opcode : IA32Opcode);
			перем immArg : IA32ImmArg;
		нач
			если opcode.op = 0E8H то
				opcode.argStructure := ArgImm;
				если opcode.adrPrefix то
					нов(immArg, GetImm(2), RepRelJmp, 2); opcode.arg1 := immArg
				иначе
					нов(immArg, GetImm(4), RepRelJmp, 4); opcode.arg1 := immArg
				всё
			всё;
			если opcode.op = 09AH то
				СТОП(99)
			всё;
			opcode.instr := opCALL
		кон Call;

		проц Pop(opcode : IA32Opcode);
			перем
				regArg : IA32RegArg;
				secondArg : IA32Arg;
		нач
			если opcode.op = 61H то
				opcode.argStructure := ArgNone;
				если opcode.opPrefix то opcode.instr := opPOPA иначе opcode.instr := opPOPAD всё
			аесли opcode.op = 8FH то
				если opcode.opPrefix то
					opcode.instr := opPOPWPTR
				иначе
					opcode.instr := opPOPDWPTR
				всё;
				ModRm(regArg, secondArg); opcode.arg1 := regArg; opcode.arg2 := secondArg;
				если secondArg = НУЛЬ то opcode.argStructure := ArgReg
				иначе
					(* ASSERT(secondArg IS IA32MemArg);*)
					если secondArg суть IA32MemArg то
						opcode.argStructure := ArgRegMem
					аесли secondArg суть IA32RegArg то
						opcode.argStructure := ArgReg
					всё;
				всё
			аесли opcode.op = 9DH то
				если opcode.opPrefix то opcode.instr := opPOPF иначе opcode.instr := opPOPFD всё;
				opcode.argStructure := ArgNone
			иначе
				opcode.instr := opPOP;
				opcode.argStructure := ArgReg;
				opcode.width := 1; (* pop takes only 16 or 32 bit ops *)
				просей opcode.op из
					7: нов(regArg, ES)
				  | 17H: нов(regArg, SS)
				  | 1FH: нов(regArg, DS)
				  | 58H..5FH: нов(regArg, opcode.op-58H)
				 иначе Bug(opcode.op, 1)
				 всё;
				 opcode.arg1 := regArg
			всё
		кон Pop;

		проц Ret (opcode : IA32Opcode);
			перем
				immArg : IA32ImmArg;
		нач
			если (opcode.op = 0C2H) или (opcode.op = 0CAH) то
				нов(immArg, GetImm(2), RepInt, 2);
				opcode.argStructure := ArgImm; opcode.arg1 := immArg; opcode.instr := opRET
			аесли (opcode.op = 0CAH) или (opcode.op = 0CBH) то
				opcode.argStructure := ArgNone; opcode.instr := opRETFAR
			иначе
				opcode.argStructure := ArgNone; opcode.instr := opRET
			всё;
		кон Ret;

		проц Bound (opcode : IA32Opcode);
		перем
			regArg : IA32RegArg;
			secondArg : IA32Arg;
		нач
			opcode.width := 1;
			ModRm(regArg, secondArg);
			утв(secondArg суть IA32MemArg);
			opcode.instr := opBOUND;
			opcode.argStructure := ArgRegMem;
			opcode.arg1 := regArg;
			opcode.arg2 := secondArg
		кон Bound;

		проц Add (opcode : IA32Opcode);
		нач
			Type1(opcode, 0H);
			opcode.instr := opADD
		кон Add;

		проц Adc (opcode: IA32Opcode);
		нач
			Type1(opcode, 10H);
			opcode.instr := opADC
		кон Adc;

		проц Sbb (opcode: IA32Opcode);
		нач
			Type1(opcode, 18H);
			opcode.instr := opSBB
		кон Sbb;

		проц  And (opcode: IA32Opcode);
		нач
			Type1(opcode, 20H);
			opcode.instr := opAND
		кон And;

		проц Or (opcode: IA32Opcode);
		нач
			Type1(opcode, 8H);
			opcode.instr := opOR
		кон Or;

		проц Sub (opcode: IA32Opcode);
		нач
			Type1(opcode, 28H);
			opcode.instr := opSUB
		кон Sub;

		проц Xor (opcode: IA32Opcode);
		нач
			Type1(opcode, 30H);
			opcode.instr := opXOR
		кон Xor;

		проц Cmp (opcode: IA32Opcode);
		нач
			Type1(opcode, 38H);
			opcode.instr := opCMP
		кон Cmp ;

		проц Inc (opcode: IA32Opcode);
		перем
			regArg : IA32RegArg;
		нач
			opcode.argStructure := ArgReg;
			нов(regArg, opcode.op-40H);
			opcode.arg1 := regArg;
			opcode.instr := opINC;
			opcode.width := 1		(* set width to 16/32 bits, bug2 *)
		кон Inc;

		проц Dec (opcode: IA32Opcode);
		перем
			regArg : IA32RegArg;
		нач
			opcode.argStructure := ArgReg;
			нов(regArg, opcode.op-48H);
			opcode.arg1 := regArg;
			opcode.instr := opDEC;
			opcode.width := 1;
		кон Dec;

		проц Test (opcode : IA32Opcode);
		перем
			regArg : IA32RegArg;
			secondArg : IA32Arg;
			immArg : IA32ImmArg;
		нач
			если (opcode.op = 0A8H) или (opcode.op = 0A9H) то
				opcode.argStructure := ArgRegImm;
				если opcode.op = 0A8H то
					opcode.width := 0;
					нов(regArg, AL)
				иначе
					opcode.width := 1;
					нов(regArg, AX)
				всё;
				opcode.arg1 := regArg;
				если opcode.width = 0 то нов(immArg, GetImm(1), RepInt, 1)
				иначе
					если opcode.opPrefix то нов(immArg, GetImm(2), RepInt, 2)
					иначе нов(immArg, GetImm(4), RepInt, 4)
					всё
				всё;
				opcode.arg2 := immArg
			иначе
				ModRm(regArg, secondArg);
				если secondArg суть IA32MemArg то
					opcode.argStructure := ArgMemReg;
					opcode.arg1 := secondArg;
					opcode.arg2 := regArg
				иначе
					opcode.argStructure := ArgRegReg;
					opcode.arg1 := secondArg;
					opcode.arg2 := regArg
				всё;
				если opcode.op = 84H то opcode.width := 0
				иначе opcode.width := 1
				всё
			всё;
			opcode.instr := opTEST
		кон Test;

		проц Lea (opcode: IA32Opcode);
		перем
			regArg : IA32RegArg;
			secondArg : IA32Arg;
		нач
			opcode.width := 1;
			opcode.instr := opLEA;
			ModRm(regArg, secondArg);
			утв(secondArg суть IA32MemArg);
			opcode.argStructure := ArgRegMem;
			opcode.arg1 := regArg;
			opcode.arg2 := secondArg;
		кон Lea;

		проц Les (opcode : IA32Opcode);
		перем
			regArg : IA32RegArg;
			secondArg : IA32Arg;
		нач
			opcode.width := 1;
			opcode.instr := opLES;
			ModRm(regArg, secondArg);
			утв(secondArg суть IA32MemArg);
			opcode.argStructure := ArgRegMem;
			opcode.arg1 := regArg;
			opcode.arg2 := secondArg;
		кон Les;

		проц Lds (opcode : IA32Opcode);
		перем
			regArg : IA32RegArg;
			secondArg : IA32Arg;
		нач
			opcode.width := 1;
			opcode.instr := opLDS;
			ModRm(regArg, secondArg);
			утв(secondArg суть IA32MemArg);
			opcode.argStructure := ArgRegMem;
			opcode.arg1 := regArg;
			opcode.arg2 := secondArg;
		кон Lds;

		проц Bit (opcode: IA32Opcode);
		перем
			regArg : IA32RegArg;
			secondArg : IA32Arg;
			isReg : булево;
		нач
			opcode.width := 1;
			ModRm(regArg, secondArg);
			если secondArg суть IA32RegArg то isReg := истина иначе isReg := ложь всё;
			просей opcode.op из
				0A3H: opcode.instr := opBT
				| 0ABH: opcode.instr := opBTS
				| 0B3H: opcode.instr := opBTR
				| 0BBH: opcode.instr := opBTC
				| 0BCH: opcode.instr := opBSF
				| 0BDH: opcode.instr := opBSR
			всё;
			если (opcode.op = 0BCH) или (opcode.op = 0BDH) то
				(* change direction *)
				opcode.arg2 := secondArg;
				opcode.arg1 := regArg;
				если isReg то opcode.argStructure := ArgRegReg
				иначе opcode.argStructure := ArgRegMem
				всё
			иначе
				opcode.arg2 := regArg;
				opcode.arg1 := secondArg;
				если isReg то opcode.argStructure := ArgRegReg
				иначе opcode.argStructure := ArgMemReg
				всё
			всё
		кон Bit;

		проц Shift (opcode: IA32Opcode);
		перем
			regArg : IA32RegArg;
			secondArg : IA32Arg;
			immArg : IA32ImmArg;
		нач
			ModRm(regArg, secondArg);
			opcode.arg1 := secondArg;
			opcode.arg2 := regArg;
			если (opcode.op = 0A4H) или (opcode.op = 0ACH) то (* immediate byte *)
				нов(immArg, GetImm(1), RepInt, 1);
				opcode.arg3 := immArg;
				если secondArg суть IA32RegArg то opcode.argStructure := ArgRegRegImm
				иначе opcode.argStructure := ArgMemRegImm
				всё
			иначе
				нов(regArg, CL);
				regArg.width := 1;
				opcode.arg3 := regArg;
				если secondArg суть IA32RegArg то opcode.argStructure := ArgRegRegReg
				иначе opcode.argStructure := ArgMemRegReg
				всё
			всё;
			если (opcode.op = 0A4H) или (opcode.op = 0A5H) то opcode.instr := opSHLD
			аесли (opcode.op = 0ACH) или (opcode.op = 0ADH) то opcode.instr := opSHRD
			иначе Bug(opcode.op, 20)
			всё;
			opcode.width := 1
		кон Shift;

		проц Enter (opcode : IA32Opcode);
		перем
			immArg : IA32ImmArg;
		нач
			opcode.instr := opENTER;
			opcode.argStructure := ArgImmImm;
			нов(immArg, GetImm(2), RepInt, 2);
			opcode.arg1 := immArg;
			нов(immArg, GetImm(1), RepInt, 1);
			opcode.arg2 := immArg
		кон Enter;

		проц Jmp (opcode : IA32Opcode);
		перем
			immArg : IA32ImmArg;
		нач
			если (opcode.op = 0E9H) или (opcode.op = 0EAH) то
				нов(immArg, GetImm(4), RepRelJmp, 4)
			иначе
				нов(immArg, GetImm(1), RepRelJmp, 1)
			всё;
			если opcode.op = 0EAH то opcode.instr := opJMPFAR иначе opcode.instr := opJMP всё;
			opcode.argStructure := ArgImm;
			opcode.arg1 := immArg
		кон Jmp;

		проц InOut (opcode : IA32Opcode);
			перем
				port: цел32;
				in, dx: булево;
				dataRegArg, portRegArg : IA32RegArg;
				portImmArg : IA32ImmArg;
		нач
			in := opcode.op остОтДеленияНа 4 < 2;
			dx := opcode.op остОтДеленияНа 16 >= 8;
			нов(dataRegArg, EAX);
			если ~dx то
				port := кодСимв8(ReadChar());
				нов(portImmArg, port, RepInt, 1)
			иначе
				нов(portRegArg, DX)
			всё;
			если in то opcode.instr := opIN
			иначе opcode.instr := opOUT
			всё;
			если нечётноеЛи¿(opcode.op) то opcode.width := 1 иначе opcode.width := 0 всё;
			если in то
				opcode.arg1 := dataRegArg;
				если dx то
					opcode.argStructure := ArgRegReg;
					opcode.arg2 := portRegArg
				иначе
					opcode.argStructure := ArgRegImm;
					opcode.arg2 := portImmArg
				всё
			иначе
				opcode.arg2 := dataRegArg;
				если dx то
					opcode.argStructure := ArgRegReg;
					opcode.arg1 := portRegArg
				иначе
					opcode.argStructure := ArgImmReg;
					opcode.arg1 := portImmArg
				всё
			всё
		кон InOut;

		проц Jcc (opcode : IA32Opcode);
		перем
			immArg : IA32ImmArg;
		нач
			нов(immArg, GetImm(1), RepRelJmp, 1);
			если immArg.imm >= 128 то immArg.imm := immArg.imm - 256 всё;
			opcode.argStructure := ArgImm;
			opcode.arg1 := immArg;
			просей opcode.op из
				70H: opcode.instr := opJO
			  | 71H: opcode.instr := opJNO
			  | 72H: opcode.instr := opJB
			  | 73H: opcode.instr := opJNB
			  | 74H: opcode.instr := opJZ
			  | 75H: opcode.instr := opJNZ
			  | 76H: opcode.instr := opJBE
			  | 77H: opcode.instr := opJNBE
			  | 78H: opcode.instr := opJS
			  | 79H: opcode.instr := opJNS
			  | 7AH: opcode.instr := opJP
			  | 7BH: opcode.instr := opJNP
			  | 7CH: opcode.instr := opJL
			  | 7DH: opcode.instr := opJNL
			  | 7EH: opcode.instr := opJLE
			  | 7FH: opcode.instr := opJNLE
			иначе Bug(opcode.op, 2)
			всё
		кон Jcc;

		проц Jcc2 (opcode : IA32Opcode);
		перем
			immArg : IA32ImmArg;
		нач
			если opcode.adrPrefix то
				нов(immArg, GetImm(2), RepRelJmp, 2);
			иначе
				нов(immArg, GetImm(4), RepRelJmp, 4);
			всё;
			opcode.argStructure := ArgImm;
			opcode.arg1 := immArg;
			просей opcode.op из
				80H: opcode.instr := opJO
			  | 81H: opcode.instr := opJNO
			  | 82H: opcode.instr := opJB
			  | 83H: opcode.instr := opJNB
			  | 84H: opcode.instr := opJZ
			  | 85H: opcode.instr := opJNZ
			  | 86H: opcode.instr := opJBE
			  | 87H: opcode.instr := opJNBE
			  | 88H: opcode.instr := opJS
			  | 89H: opcode.instr := opJNS
			  | 8AH: opcode.instr := opJP
			  | 8BH: opcode.instr := opJNP
			  | 8CH: opcode.instr := opJL
			  | 8DH: opcode.instr := opJNL
			  | 8EH: opcode.instr := opJLE
			  | 8FH: opcode.instr := opJNLE
			иначе Bug(opcode.op, 3)
			всё
		кон Jcc2;

		проц Loop (opcode : IA32Opcode);
			перем immArg: IA32ImmArg;
		нач
			нов(immArg, GetImm(1), RepInt, 1);
			opcode.argStructure := ArgImm;
			opcode.arg1 := immArg;
			просей opcode.op из
				0E0H: opcode.instr := opLOOPNE
			  | 0E1H: opcode.instr := opLOOPE
			  | 0E2H: opcode.instr := opLOOP
			  | 0E3H: если opcode.adrPrefix то opcode.instr := opJCXZ иначе opcode.instr := opJECXZ всё
			иначе Bug(opcode.op, 4)
			всё
		кон Loop;

		проц Lar (opcode : IA32Opcode);
		перем
			regArg : IA32RegArg;
			secondArg : IA32Arg;
		нач
			ModRm(regArg, secondArg); opcode.arg1 := secondArg;
			утв(secondArg суть IA32MemArg);
			opcode.instr := opLAR
		кон Lar;

		проц Lsl (opcode : IA32Opcode);
		перем
			regArg : IA32RegArg;
			secondArg : IA32Arg;
		нач
			ModRm(regArg, secondArg); opcode.arg1 := secondArg;
			утв(secondArg суть IA32MemArg);
			opcode.instr := opLSL
		кон Lsl;

		проц Setcc (opcode : IA32Opcode);
		перем
			regArg : IA32RegArg;
			secondArg : IA32Arg;
		нач
			opcode.width := 0; (* always 8 bit wide *)
			ModRm(regArg, secondArg);
			opcode.arg1 := secondArg;
			просей opcode.op из
				90H: opcode.instr := opSETO
				| 91H: opcode.instr := opSETNO
				| 92H: opcode.instr := opSETB
				| 93H: opcode.instr := opSETNB
				| 94H: opcode.instr := opSETZ
				| 95H: opcode.instr := opSETNZ
				| 96H: opcode.instr := opSETBE
				| 97H: opcode.instr := opSETNBE
				| 98H: opcode.instr := opSETS
				| 99H: opcode.instr := opSETNS
				| 9AH: opcode.instr := opSETP
				| 9BH: opcode.instr := opSETNP
				| 9CH: opcode.instr := opSETL
				| 9DH: opcode.instr := opSETNL
				| 9EH: opcode.instr := opSETLE
				| 9FH: opcode.instr := opSETNLE
			иначе Bug(opcode.op, 5)
			всё;
			если secondArg суть IA32RegArg то
				opcode.argStructure := ArgReg
			иначе
				opcode.argStructure := ArgReg
			всё
		кон Setcc;

		проц Int (opcode : IA32Opcode);
			перем immArg : IA32ImmArg;
		нач
			если opcode.op = 0CDH то
				нов(immArg, GetImm(1), RepInt, 1)
			иначе нов(immArg, 3, RepInt, 1)
			всё;
			opcode.argStructure := ArgImm;
			opcode.arg1 := immArg;
			opcode.instr := opINT
		кон Int;

		проц Movs (opcode : IA32Opcode);
		нач
			opcode.argStructure := ArgNone;
			если opcode.op = 0A4H то opcode.instr := opMOVSB
			аесли (opcode.op = 0A5H) и opcode.opPrefix то opcode.instr := opMOVSW
			аесли opcode.op  = 0A5H то opcode.instr := opMOVSD
			иначе Bug(opcode.op, 6)
			всё
		кон Movs;

		проц Movx(opcode: IA32Opcode);
		перем
			regArg : IA32RegArg;
			secondArg : IA32Arg;
			byteArg : булево;
		нач
			byteArg := (opcode.op = 0B6H) или (opcode.op = 0BEH);
			ModRm(regArg, secondArg);
			opcode.arg1 := regArg; opcode.arg2 := secondArg;
			если (opcode.op = 0B6H) или (opcode.op = 0B7H) то opcode.instr := opMOVZX;
			иначе opcode.instr := opMOVSX;
			всё;
			opcode.width := 1;
			если secondArg суть IA32RegArg то
				opcode.argStructure := ArgRegReg;
				если byteArg то
					opcode.width := 0
				иначе
					secondArg(IA32RegArg).width := 2
				всё
			иначе
				opcode.argStructure := ArgRegMem;
				утв(secondArg суть IA32MemArg);
				если byteArg то secondArg(IA32MemArg).bytePtr := истина
				иначе secondArg(IA32MemArg).wordPtr := истина
				всё
			всё
		кон Movx;

		проц Cmps (opcode : IA32Opcode);
		нач
			opcode.argStructure := ArgNone;
			если opcode.op = 0A6H то opcode.instr := opCMPSB
			аесли (opcode.op = 0A7H) и opcode.opPrefix то opcode.instr := opCMPSB
			аесли opcode.op = 0A7H то opcode.instr := opCMPSW
			иначе Bug(opcode.op, 7)
			всё
		кон Cmps;

		проц Stos (opcode : IA32Opcode);
		нач
			opcode.argStructure := ArgNone;
			если opcode.op = 0AAH то opcode.instr := opSTOSB;
			аесли (opcode.op = 0ABH) и opcode.opPrefix то opcode.instr := opSTOSW
			аесли opcode.op = 0ABH то opcode.instr := opSTOSD
			иначе Bug(opcode.op, 8)
			всё
		кон Stos;

		проц Lods (opcode : IA32Opcode);
		нач
			opcode.argStructure := ArgNone;
			если opcode.op = 0ACH то opcode.instr := opLODSB
			аесли opcode.op = 0ADH то
				если opcode.opPrefix то opcode.instr := opLODSW иначе opcode.instr := opLODSD всё
			иначе Bug(opcode.op, 9)
			всё
		кон Lods;

		проц Scas (opcode : IA32Opcode);
		нач
			opcode.argStructure := ArgNone;
			если opcode.op = 0AEH то opcode.instr := opSCASB
			аесли (opcode.op = 0AFH) и opcode.opPrefix то opcode.instr := opSCASW
			аесли opcode.op = 0AFH то opcode.instr := opSCASD
			иначе Bug(opcode.op, 10)
			всё
		кон Scas;

		проц Imul (opcode : IA32Opcode);
		перем
			regArg : IA32RegArg;
			secondArg : IA32Arg;
			immArg : IA32ImmArg;
		нач
			opcode.width := 1;
			ModRm(regArg, secondArg);
			opcode.instr := opIMUL;
			opcode.arg1 := regArg;
			opcode.arg2 := secondArg;
			если opcode.op = 69H то
				нов(immArg, GetImm(4), RepInt, 4);
			аесли opcode.op = 6BH то нов(immArg, GetImm(1), RepInt, 2) (* sign extended *)
			всё;
			если opcode.op = 0AFH то
				если secondArg суть IA32RegArg то
					opcode.argStructure := ArgRegReg
				аесли secondArg суть IA32MemArg то
					opcode.argStructure := ArgRegMem
				всё
			иначе
				если secondArg суть IA32RegArg то
					opcode.argStructure := ArgRegRegImm
				иначе
					утв(secondArg суть IA32MemArg);
					opcode.argStructure := ArgRegMemImm
				всё;
				opcode.arg3 := immArg
			всё
		кон Imul;

		проц Ins (opcode : IA32Opcode);
		нач
			opcode.argStructure := ArgNone;
			если opcode.op =  6CH то opcode.instr := opINSB
			аесли opcode.opPrefix то opcode.instr := opINSW
			иначе opcode.instr := opINSD
			всё
		кон Ins;

		проц Outs (opcode : IA32Opcode);
		нач
			opcode.argStructure := ArgNone;
			если opcode.op = 6EH то opcode.instr := opOUTSB
			аесли opcode.opPrefix то opcode.instr := opOUTSW
			иначе opcode.instr := opOUTSD
			всё
		кон Outs;

		проц Xchg (opcode : IA32Opcode);
		перем
			regArg : IA32RegArg;
			secondArg : IA32Arg;
		нач
			opcode.instr := opXCHG;
			если (opcode.op >= 91H) и (opcode.op <= 97H) то (* xchg .ax, reg *)
				opcode.width := 1;
				opcode.argStructure := ArgRegReg;
				нов(regArg, EAX);
				opcode.arg1 := regArg;
				нов(regArg, opcode.op остОтДеленияНа 8);
				opcode.arg2 := regArg;
			иначе
				ModRm(regArg, secondArg);
				если opcode.op = 86H то opcode.width := 0
				иначе opcode.width := 1
				всё;
				opcode.arg1 := regArg;
				opcode.arg2 := secondArg;
				если secondArg суть IA32RegArg то
					opcode.argStructure := ArgRegReg
				иначе
					opcode.argStructure := ArgRegMem
				всё
			всё
		кон Xchg;

		проц MP (opcode : IA32Opcode);
		перем
			regArg : IA32RegArg;
			arg : IA32Arg;
		нач
			ModRm(regArg, arg);
			просей regArg.reg из
				0 : opcode.instr := opFXSAVE
				| 1 : opcode.instr := opFXRSTOR
				| 2 : opcode.instr := opLDMXCSR
				| 3 : opcode.instr := opSTMXCSR
				| 5 : opcode.instr := opLFENCE
				| 6 : opcode.instr := opMFENCE
				| 7 : opcode.instr := opSFENCE
			всё;
			если arg суть IA32RegArg то
				opcode.argStructure := ArgNone
			иначе
				opcode.argStructure := ArgMem;
				opcode.arg1 := arg;
				если regArg.reg = 7 то opcode.instr := opCLFLUSH всё
			всё
		кон MP;

		проц Grp1 (opcode : IA32Opcode);
		перем
			regArg : IA32RegArg;
			secondArg : IA32Arg;
			immArg : IA32ImmArg;
		нач
			ModRm(regArg, secondArg);
			если opcode.op = 80H то
				opcode.width := 0;
				нов(immArg, GetImm(1), RepInt, 1);
			аесли opcode.op = 81H то
				opcode.width := 1;
				если opcode.opPrefix то нов(immArg, GetImm(2), RepInt, 2) иначе нов(immArg, GetImm(4), RepInt, 4) всё
			иначе (* opcode.op = 83H, signed extends *)
				opcode.width := 1;
				нов(immArg, GetImm(1), RepInt, 1);
			всё;
			просей regArg.reg из
				0: opcode.instr := opADD
			  | 1: opcode.instr := opOR
			  | 2: opcode.instr := opADC
			  | 3: opcode.instr := opSBB
			  | 4: opcode.instr := opAND
			  | 5: opcode.instr := opSUB
			  | 6: opcode.instr := opXOR
			  | 7: opcode.instr := opCMP
			иначе Bug(opcode.op, 11)
			всё;
			если secondArg суть IA32RegArg то
				opcode.argStructure := ArgRegImm
			аесли secondArg суть IA32MemArg то
				opcode.argStructure := ArgMemImm
			всё;
			opcode.arg1 := secondArg;
			opcode.arg2 := immArg;
			если (regArg.reg = 1) или (regArg.reg = 4) или (regArg.reg = 6) то immArg.rep := RepHex всё
		кон Grp1;

		проц Grp2 (opcode : IA32Opcode);
		перем
			regArg, newRegArg : IA32RegArg;
			arg: IA32Arg;
			immArg : IA32ImmArg;
		нач
			ModRm(regArg, arg); opcode.arg1 := arg;
			просей opcode.op из
				0D0H : opcode.width := 0
				| 0D1H : opcode.width := 1
				| 0D2H : opcode.width := 0
				| 0D3H : opcode.width := 1
				| 0C0H : opcode.width := 0
				| 0C1H : opcode.width := 1
			всё;
			если (opcode.op = 0C0H) или (opcode.op = 0C1H) то
				 нов(immArg, GetImm(1), RepInt, 1); (* only 8 bit possible *)
				 если arg суть IA32RegArg то opcode.argStructure := ArgRegImm
				 иначе opcode.argStructure := ArgMemImm
				 всё;
				 opcode.arg2 := immArg
			иначе
				если (opcode.op = 0D0H) или (opcode.op = 0D1H) то
					 если arg суть IA32RegArg то opcode.argStructure := ArgRegImm
					 иначе opcode.argStructure := ArgMemImm всё;
					нов(immArg, 1, RepInt, 1);
					opcode.arg2 := immArg;
				аесли (opcode.op = 0D2H) или (opcode.op = 0D3H) то
					 если arg суть IA32RegArg то opcode.argStructure := ArgRegReg
					 иначе opcode.argStructure := ArgMemReg всё;
					нов(newRegArg, CL);
					newRegArg.width := 1;
					opcode.arg2 := newRegArg
				всё
			всё;
			просей regArg.reg из
				0: opcode.instr := opROL
			  | 1: opcode.instr := opROR
			  | 2: opcode.instr := opRCL
			  | 3: opcode.instr := opRCR
			  | 4: opcode.instr := opSHL
			  | 5: opcode.instr := opSHR
			  | 7: opcode.instr := opSAR
			иначе Bug(opcode.op, 12)
			всё
		кон Grp2;

		проц Grp3 (opcode : IA32Opcode);
		перем
			regArg : IA32RegArg;
			secondArg : IA32Arg;
			immArg : IA32ImmArg;
		нач
			ModRm(regArg, secondArg); opcode.arg1 := secondArg;
			если opcode.op = 0F6H то opcode.width := 0
			иначе opcode.width := 1
			всё;
			если regArg.reg = 0 (* test *) то
				если opcode.width = 0 то нов(immArg, GetImm(1), RepInt, 1)
				иначе
					если opcode.opPrefix то нов(immArg, GetImm(2), RepInt, 2)
					иначе нов(immArg, GetImm(4), RepInt, 4)
					всё
				всё;
				opcode.arg2 := immArg;
				если secondArg суть IA32RegArg то opcode.argStructure := ArgRegImm
				иначе opcode.argStructure := ArgMemImm
				всё
			иначе
				если secondArg суть IA32RegArg то opcode.argStructure := ArgReg
				иначе opcode.argStructure := ArgMem
				всё
			всё;
			просей regArg.reg из
				0: opcode.instr := opTEST
			  | 2: opcode.instr := opNOT
			  | 3: opcode.instr := opNEG
			  | 4: opcode.instr := opMUL
			  | 5: opcode.instr := opIMUL
			  | 6: opcode.instr := opDIV
			  | 7: opcode.instr := opIDIV
			иначе Bug(opcode.op, 13)
			всё;
		кон Grp3;

		проц Grp4 (opcode : IA32Opcode);
		перем
			regArg : IA32RegArg;
			secondArg : IA32Arg;
		нач
			opcode.width := 0;
			ModRm(regArg, secondArg); opcode.arg1 := secondArg;
			если regArg.reg = 0 то opcode.instr := opINC
			иначе opcode.instr := opDEC
			всё;
			если secondArg суть IA32MemArg то
				opcode.argStructure := ArgMem;
				secondArg(IA32MemArg).bytePtr := истина
			иначе
				opcode.argStructure := ArgReg
			всё
		кон Grp4;

		проц Grp5 (opcode: IA32Opcode);
		перем
			regArg : IA32RegArg;
			arg : IA32Arg;
		нач
			opcode.width := 1;
			ModRm(regArg, arg); opcode.arg1 := arg;
			если regArg.reg = 0 то opcode.instr := opINC
			аесли regArg.reg = 1 то opcode.instr := opDEC
			аесли regArg.reg = 2 то opcode.instr := opCALL
			аесли regArg.reg = 3 то opcode.instr := opCALLFAR
			аесли regArg.reg = 4 то opcode.instr := opJMP
			аесли regArg.reg = 5 то opcode.instr := opJMPFAR
			аесли regArg.reg = 6 то opcode.instr := opPUSH
			иначе Bug(regArg.reg, 14)
			всё;
			если arg суть IA32MemArg то
				opcode.argStructure := ArgMem
			иначе
				opcode.argStructure := ArgReg
			всё
		кон Grp5;

		проц Grp6 (opcode: IA32Opcode);
		перем
			regArg : IA32RegArg;
			secondArg : IA32Arg;
		нач
			opcode.width := 1;
			ModRm(regArg, secondArg); opcode.arg1 := secondArg;
			просей regArg.reg из
			|  0: opcode.instr := opSLDT
			|  1: opcode.instr := opSTR
			|  2: opcode.instr := opLLDT
			|  3: opcode.instr := opLTR
			|  4: opcode.instr := opVERR
			|  6: opcode.instr := opVERW
			иначе Bug(opcode.op, 15)
			всё;
			если secondArg суть IA32RegArg то opcode.argStructure := ArgReg
			иначе opcode.argStructure := ArgMem
			всё
		кон Grp6;

		проц Grp7 (opcode: IA32Opcode);
		перем
			regArg : IA32RegArg;
			secondArg : IA32Arg;
		нач
			opcode.width := 1;
			ModRm(regArg, secondArg); opcode.arg1 := secondArg;
			просей regArg.reg из
			|  0: opcode.instr := opSGDT
			|  1: opcode.instr := opSIDT
			|  2: opcode.instr := opLGDT
			|  3: opcode.instr := opLIDT
			|  4: opcode.instr := opSMSW
			|  6: opcode.instr := opLMSW
			|  7: opcode.instr := opINVLPG
			иначе Bug(opcode.op, 16)
			всё;
			если secondArg суть IA32RegArg то opcode.argStructure := ArgReg
			иначе opcode.argStructure := ArgMem
			всё
		кон Grp7;

		проц Grp8 (opcode: IA32Opcode);
		перем
			regArg : IA32RegArg;
			secondArg : IA32Arg;
			immArg : IA32ImmArg;
		нач
			opcode.width := 1;
			ModRm(regArg, secondArg); opcode.arg1 := secondArg;
			нов(immArg, GetImm(1), RepInt, 1); opcode.arg2 := immArg;
			просей regArg.reg из
				4: opcode.instr := opBT
			  | 5: opcode.instr := opBTS
			  | 6: opcode.instr := opBTR
			  | 7: opcode.instr := opBTC
			иначе Bug(opcode.op, 17)
			всё;
			если secondArg суть IA32RegArg то opcode.argStructure := ArgRegImm
			иначе opcode.argStructure := ArgMemImm
			всё
		кон Grp8;

		проц Grp9 (opcode: IA32Opcode);
		перем
			regArg : IA32RegArg;
			secondArg : IA32Arg;
		нач
			opcode.width := 1;
			ModRm(regArg, secondArg); opcode.arg1 := secondArg;
			утв(secondArg суть IA32MemArg);
			просей regArg.reg из
				1: opcode.instr := opCMPXCHG8B
			иначе Bug(opcode.op, 18)
			всё;
			opcode.argStructure := ArgMem
		кон Grp9;

		проц Float0 (opcode: IA32Opcode); (* op is 0D8H *)
		перем
			statArg : IA32RegArg;
			secondArg : IA32Arg;
			fpReg : IA32SpecialRegArg;
		нач
			ModRm(statArg, secondArg);
			если secondArg суть IA32MemArg то (* memory *)
				opcode.argStructure := ArgMem;
				opcode.arg1 := secondArg;
				secondArg(IA32MemArg).fpSize := FPSizeSingle;
				просей statArg.reg из
					0: opcode.instr := opFADD
				  | 1: opcode.instr := opFMUL
				  | 2: opcode.instr := opFCOM
				  | 3: opcode.instr := opFCOMP
				  | 4: opcode.instr := opFSUB
				  | 5: opcode.instr := opFSUBR
				  | 6: opcode.instr := opFDIV
				  | 7: opcode.instr := opFDIVR
				иначе Bug(statArg.reg, 25)
				всё
			иначе
				opcode.argStructure := ArgReg;
				нов(fpReg, secondArg(IA32RegArg).reg);
				fpReg.specialKind := SRegFP;
				просей statArg.reg из
					0: opcode.instr := opFADD
				  | 1: opcode.instr := opFMUL
				  | 2: opcode.instr := opFCOM
				  | 3: opcode.instr := opFCOMP
				  | 4: opcode.instr := opFSUB
				  | 5: opcode.instr := opFSUBR
				  | 6: opcode.instr := opFDIV
				  | 7: opcode.instr := opFDIVR
				иначе Bug(statArg.reg, 26)
				всё
			всё
		кон Float0;

		проц Float1 (opcode : IA32Opcode); (* op is 0D9H *)
		перем
			statArg : IA32RegArg;
			secondArg : IA32Arg;
			stat : цел32;
		нач
			ModRm(statArg, secondArg);
			если secondArg суть IA32MemArg то
				opcode.argStructure := ArgMem;
				opcode.arg1 := secondArg;
				просей statArg.reg из
					0: opcode.instr := opFLD
				  | 2: opcode.instr := opFST
				  | 3: opcode.instr := opFSTP
				  | 4: opcode.instr := opFLDENV
				  | 5: opcode.instr := opFLDCW
				  | 6: opcode.instr := opFNSTENV
				  | 7: opcode.instr := opFNSTCW
				иначе Bug(statArg.reg, 23)
				всё
			аесли statArg.reg = 0 то
				opcode.argStructure := ArgReg;
				opcode.arg1 := secondArg;
				opcode.instr := opFLD
			аесли statArg.reg = 1 то
				opcode.argStructure := ArgReg;
				opcode.arg1 := secondArg;
				opcode.instr := opFXCH
			иначе
				stat:= statArg.reg * 8 + secondArg(IA32RegArg).reg;
				если stat = 10H то opcode.instr := opFNOP
				иначе
					просей stat из
						20H: opcode.instr := opFCHS
					  | 21H: opcode.instr := opFABS
					  | 24H: opcode.instr := opFTST
					  | 25H: opcode.instr := opFXAM
					  | 28H: opcode.instr := opFLD1
					  | 29H: opcode.instr := opFLDL2T
					  | 2AH: opcode.instr := opFLDL2E
					  | 2BH: opcode.instr := opFLDPI
					  | 2CH: opcode.instr := opFLDLG2
					  | 2DH: opcode.instr := opFLDLN2
					  | 2EH: opcode.instr := opFLDZ
					  | 30H: opcode.instr := opF2XM1
					  | 31H: opcode.instr := opFYL2X
					  | 32H: opcode.instr := opFPTAN
					  | 33H: opcode.instr := opFPATAN
					  | 34H: opcode.instr := opFXTRACT
					  | 35H: opcode.instr := opFPREM1
					  | 36H: opcode.instr := opFDECSTP
					  | 37H: opcode.instr := opFINCSTP
					  | 38H: opcode.instr := opFPREM
					  | 39H: opcode.instr := opFYL2XP1
					  | 3AH: opcode.instr := opFSQRT
					  | 3BH: opcode.instr := opFSINCOS
					  | 3CH: opcode.instr := opFRNDINT
					  | 3DH: opcode.instr := opFSCALE
					  | 3EH: opcode.instr := opFSIN
					  | 3FH: opcode.instr := opFCOS
					иначе Bug(stat, 23)
					всё
				всё
			всё
		кон Float1;

		проц Float2 (opcode : IA32Opcode); (* op is 0DAH *)
			перем setting : IA32RegArg;
			arg : IA32Arg;
		нач
			ModRm(setting, arg);
			если arg суть IA32MemArg то
				opcode.argStructure := ArgMem;
				opcode.arg1 := arg;
				просей setting.reg из
					0: opcode.instr := opFIADD
				  | 1: opcode.instr := opFIMUL
				  | 2: opcode.instr := opFICOM
				  | 3: opcode.instr := opFICOMP
				  | 4: opcode.instr := opFISUB
				  | 5: opcode.instr := opFISUBR
				  | 6: opcode.instr := opFIDIV
				  | 7: opcode.instr := opFIDIVR
				иначе Bug(setting.reg, 27)
				всё
			аесли setting.reg = 5 то
				opcode.argStructure := ArgNone;
				opcode.instr := opFUCOMPP
			иначе Bug(setting.reg, 27)
			всё
		кон Float2;

		проц Float3 (opcode : IA32Opcode); (* op is 0DBH *)
		перем
			setting : IA32RegArg;
			arg : IA32Arg;
		нач
			ModRm(setting, arg);
			если arg суть IA32MemArg то
				opcode.argStructure := ArgMem;
				opcode.arg1 := arg;
				просей setting.reg из
					0: opcode.instr := opFILD
				  | 2: opcode.instr := opFIST
				  | 3: opcode.instr := opFISTP
				  | 5: opcode.instr := opFLD
				  | 7: opcode.instr := opFSTP
				иначе Bug(setting.reg, 21)
				всё
			иначе
				opcode.argStructure := ArgNone;
				если arg(IA32RegArg).reg = 2 то opcode.instr := opFNCLEX
				аесли arg(IA32RegArg).reg = 3 то opcode.instr := opFNINIT
				иначе Bug(arg(IA32RegArg).reg, 22)
				всё
			всё
		кон Float3;

		проц Float4 (opcode : IA32Opcode); (* op is 0DCH *)
		перем
			setting : IA32RegArg;
			arg : IA32Arg;
		нач
			ModRm(setting, arg);
			opcode.arg1 := arg;
			если arg суть IA32MemArg то
				opcode.argStructure := ArgMem;
				просей setting.reg из
					0: opcode.instr := opFADD
				  | 1: opcode.instr := opFMUL
				  | 2: opcode.instr := opFCOM
				  | 3: opcode.instr := opFCOMP
				  | 4: opcode.instr := opFSUB
				  | 5: opcode.instr := opFSUBR
				  | 6: opcode.instr := opFDIV
				  | 7: opcode.instr := opFDIVR
				иначе Bug(setting.reg, 34)
				всё
			иначе
				opcode.argStructure := ArgReg;
				просей setting.reg из
					0: opcode.instr := opFADD
				  | 1: opcode.instr := opFMUL
				  | 4: opcode.instr := opFSUBR
				  | 5: opcode.instr := opFSUB
				  | 6: opcode.instr := opFDIVR
				  | 7: opcode.instr := opFDIV
				иначе Bug(setting.reg, 35)
				всё
			всё
		кон Float4;

		проц Float5 (opcode : IA32Opcode);	(* op is 0DDH *)
		перем
			setting : IA32RegArg;
			arg : IA32Arg;
		нач
			ModRm(setting, arg);
			opcode.arg1:= arg;
			если arg суть IA32MemArg то
				opcode.argStructure := ArgMem;
				просей setting.reg из
					0: opcode.instr := opFLD
				  | 2: opcode.instr := opFST
				  | 3: opcode.instr := opFSTP
				  | 4: opcode.instr := opFRSTOR
				  | 6: opcode.instr := opFNSAVE
				  | 7: opcode.instr := opFNSTSW
				иначе Bug(setting.reg, 29)
				всё
			иначе
				opcode.argStructure := ArgReg;
				просей setting.reg из
					0: opcode.instr := opFFREE
				  | 2: opcode.instr := opFST
				  | 3: opcode.instr := opFSTP
				  | 4: opcode.instr := opFUCOM
				  | 5: opcode.instr := opFUCOMP
				иначе Bug(setting.reg, 30)
				всё
			всё
		кон Float5;

		проц Float6(opcode : IA32Opcode); (* op is 0DEH *)
		перем
			setting : IA32RegArg;
			arg : IA32Arg;
		нач
			ModRm(setting, arg);
			opcode.arg1 := arg;
			если arg суть IA32MemArg то
				opcode.argStructure := ArgMem;
				просей setting.reg из
					0: opcode.instr := opFIADD
				  | 1: opcode.instr := opFIMUL
				  | 2: opcode.instr := opFICOM
				  | 3: opcode.instr := opFICOMP
				  | 4: opcode.instr := opFISUB
				  | 5: opcode.instr := opFISUBR
				  | 6: opcode.instr := opFIDIV
				  | 7: opcode.instr := opFIDIVR
				иначе Bug(setting.reg, 31)
				всё
			иначе
				opcode.argStructure := ArgReg;
				просей setting.reg из
					0: opcode.instr := opFADDP
				  | 1: opcode.instr := opFMULP
				  | 3: opcode.instr := opFCOMPP
				  | 4: opcode.instr := opFSUBRP
				  | 5: opcode.instr := opFSUBP
				  | 6: opcode.instr := opFDIVRP
				  | 7: opcode.instr := opFDIVP
				иначе Bug(setting.reg, 32)
				всё;
			всё
		кон Float6;

		проц Float7(opcode : IA32Opcode); (* op is 0DFH *)
		перем
			setting : IA32RegArg;
			arg : IA32Arg;
		нач
			ModRm(setting, arg);
			opcode.arg1 := arg;
			если arg суть IA32MemArg то
				opcode.argStructure := ArgMem;
				просей setting.reg из
					0, 5: opcode.instr := opFILD
				  | 2: opcode.instr := opFIST
				  | 3, 7: opcode.instr := opFISTP
				  | 4: opcode.instr := opFBLD
				  | 6: opcode.instr := opFBSTP
				иначе Bug(setting.reg, 33)
				всё
			аесли setting.reg = 4 то
				opcode.argStructure := ArgReg;
				opcode.arg1(IA32RegArg).reg := AX;
				opcode.arg1(IA32RegArg).width := 2;
				opcode.instr := opFNSTSW
			иначе Bug(setting.reg, 33)
			всё
		кон Float7;


		проц Cmov (opcode : IA32Opcode);
		перем
			regArg : IA32RegArg;
			secondArg : IA32Arg;
		нач
			ModRm(regArg, secondArg);
			opcode.arg1 := regArg;
			opcode.arg2 := secondArg;
			opcode.width := 1;
			если secondArg суть IA32RegArg то opcode.argStructure := ArgRegReg
			иначе opcode.argStructure := ArgRegMem
			всё;
			просей opcode.op из
				40H: opcode.instr := opCMOVO
			  | 41H: opcode.instr := opCMOVNO
			  | 42H: opcode.instr := opCMOVB
			  | 43H: opcode.instr := opCMOVNB
			  | 44H: opcode.instr := opCMOVZ
			  | 45H: opcode.instr := opCMOVNZ
			  | 46H: opcode.instr := opCMOVBE
			  | 47H: opcode.instr := opCMOVNBE
			  | 48H: opcode.instr := opCMOVS
			  | 49H: opcode.instr := opCMOVNS
			  | 4AH: opcode.instr := opCMOVP
			  | 4BH: opcode.instr := opCMOVNP
			  | 4CH: opcode.instr := opCMOVL
			  | 4DH: opcode.instr := opCMOVNL
			  | 4EH: opcode.instr := opCMOVLE
			  | 4FH: opcode.instr := opCMOVNLE
			иначе Bug(opcode.op, 28)
			всё
		кон Cmov;

		проц PushPop2 (opcode : IA32Opcode);
		перем regArg : IA32RegArg; reg : цел32;
		нач
			просей opcode.op из
				0A0H: opcode.instr := opPUSH; reg := FS
				| 0A1H: opcode.instr := opPOP; reg := FS
				| 0A8H: opcode.instr := opPUSH; reg := GS
				| 0A9H: opcode.instr := opPOP; reg := GS
			иначе Bug(opcode.op, 35)
			всё;
			нов(regArg, reg);
			opcode.argStructure := ArgReg;
			opcode.arg1 := regArg
		кон PushPop2;

		проц Cmpxchg (opcode : IA32Opcode);
		перем
			regArg : IA32RegArg;
			arg : IA32Arg;
		нач
			opcode.instr := opCMPXCHG;
			ModRm(regArg, arg);
			opcode.arg1 := arg;
			opcode.arg2 := regArg;
			если opcode.op = 0B1H то opcode.width := 1
			иначе opcode.width := 0
			всё;
			если arg суть IA32RegArg то
				opcode.argStructure := ArgRegReg
			иначе
				opcode.argStructure := ArgMemReg
			всё
		кон Cmpxchg;

		проц Ldseg (opcode : IA32Opcode);
		перем
			regArg : IA32RegArg;
			arg2 : IA32Arg;
		нач
			ModRm(regArg, arg2);
			если opcode.op = 0B2H то opcode.instr := opLSS
			аесли opcode.op = 0B4H то opcode.instr := opLFS
			иначе opcode.instr := opLGS
			всё;
			opcode.argStructure := ArgRegMem;
			opcode.arg1 := regArg;
			opcode.arg2 := arg2;
		кон Ldseg;

		проц Xadd (opcode : IA32Opcode);
		перем
			regArg : IA32RegArg;
			arg : IA32Arg;
		нач
			ModRm(regArg, arg);
			opcode.instr := opXADD;
			opcode.arg1 := arg;
			opcode.arg2 := regArg;
			если opcode.op = 0C1H то opcode.width := 1
			иначе opcode.width := 0
			всё;
			если arg суть IA32RegArg то
				opcode.argStructure := ArgRegReg
			иначе
				opcode.argStructure := ArgMemReg
			всё
		кон Xadd;

		проц Bswap (opcode : IA32Opcode);
		перем regArg : IA32RegArg;
		нач
			opcode.instr := opBSWAP;
			нов(regArg, opcode.op-0C8H);
			opcode.argStructure := ArgReg;
			opcode.arg1 := regArg
		кон Bswap;

		проц Escape (opcode : IA32Opcode);
		нач
			opcode.op := кодСимв8(ReadChar());
			просей opcode.op из
				0:
					Grp6(opcode)
			  | 1:
					Grp7(opcode)
			  | 2:
					Lar(opcode)
			  | 3:
					Lsl(opcode)
			  | 6:
			  		opcode.argStructure := ArgNone;
					opcode.instr := opCLTS
			  | 8:
			  		opcode.argStructure := ArgNone;
					opcode.instr := opINVD
			  | 9:
					opcode.instr := opWBINVD
			  | 20H..24H, 26H:
					Mov2(opcode)
			  | 30H:
					opcode.argStructure := ArgNone;
					opcode.instr := opWRMSR
			  | 31H:
			  		opcode.argStructure := ArgNone;
					opcode.instr := opRDTSC
			  | 32H:
			  		opcode.argStructure := ArgNone;
					opcode.instr := opRDMSR
			  | 33H:
			  		opcode.argStructure := ArgNone;
					opcode.instr := opRDPMC
			  | 40H..4FH:
					Cmov(opcode)
			  | 80H..8FH:
					Jcc2(opcode)
			  | 90H..9FH:
					Setcc(opcode)
			  | 0A0H, 0A1H, 0A8H, 0A9H:
					PushPop2(opcode)
			  | 0A2H:
					opcode.argStructure := ArgNone;
					opcode.instr := opCPUID
			  | 0A3H, 0ABH, 0B3H, 0BBH..0BDH:
					Bit(opcode)
			  | 0A4H, 0A5H, 0ACH, 0ADH:
					Shift(opcode)
			  | 0AEH:
			  		MP(opcode)
			  | 0AFH:
					Imul(opcode)
			  | 0B0H,0B1H:
					Cmpxchg(opcode)
			  | 0B2H, 0B4H, 0B5H:
					Ldseg(opcode)
			  | 0B6H, 0B7H, 0BEH, 0BFH:
					Movx(opcode)
			  | 0BAH:
					Grp8(opcode)
			  | 0C0H,0C1H:
					Xadd(opcode)
			  | 0C7H:
					Grp9(opcode)
			  | 0C8H..0CFH:
					Bswap(opcode)
			иначе Bug(opcode.op, 19)
			всё
		кон Escape;

		проц {перекрыта}DecodeThis(opcode : Decoder.Opcode);
		перем
			op : IA32Opcode;
		нач
			op := opcode(IA32Opcode);
			DoPrefixes(op);
			op.op := кодСимв8(op.opcodeByte[0]);
			(*
			KernelLog.String("op.op = "); KernelLog.Hex(op.op, 0); KernelLog.Ln;
			*)
			просей op.op из
				0..5:
						Add(op);
				  | 6, 0EH, 16H, 1EH:
						Push(op)
				  | 7, 17H, 1FH:
				 		Pop(op)
				  | 8..0DH:
						Or(op)
				  | 0FH:
						Escape(op)
				  | 10H..15H:
						Adc(op)
				  | 18H..1DH:
						Sbb(op)
				  | 20H..25H:
						And(op)
				  | 27H:
						op.argStructure := ArgNone;
						op.instr := opDAA;
				  | 28H..2DH:
						Sub(op)
				  | 2FH:
						op.argStructure := ArgNone;
						op.instr := opDAS;
				  | 30H..35H:
						Xor(op)
				  | 37H:
						op.argStructure := ArgNone;
						op.instr := opAAA;
				  | 38H..3DH:
						Cmp(op)
				  | 3FH:
						op.argStructure := ArgNone;
						op.instr := opAAS;
				  | 40H..47H:
						Inc(op)
				  | 48H..4FH:
						Dec(op)
				  | 50H..57H, 60H, 68H, 6AH:
						Push(op)
				  | 58H..5FH, 61H:
						Pop(op)
				  | 62H:
						Bound(op)
				  | 69H, 6BH:
						Imul(op)
				  | 6CH, 6DH:
						Ins(op)
				  | 6EH, 06FH:
						Outs(op)
				  | 70H..7FH:
						Jcc(op)
				  | 80H..81H, 83H:
						Grp1(op)
				  | 84H..85H:
						Test(op)
				  | 86H..87H, 91H..97H:
						Xchg(op)
				  | 88H..8CH, 8EH, 0A0H..0A3H, 0B0H..0BFH:
						Mov(op)
				  | 8DH:
						Lea(op)
				  | 8FH, 9DH:
						Pop(op)
				  | 90H:
						op.argStructure := ArgNone;
						op.instr := opNOP;
				  | 98H:
						op.argStructure := ArgNone;
						если op.opPrefix то op.instr := opCBW иначе op.instr := opCWDE всё
				  | 99H:
				  		op.argStructure := ArgNone;
						если op.opPrefix то op.instr := opCWD иначе op.instr := opCDQ всё
				  | 9AH:
						Call(op)
				  | 9BH:
				  		op.argStructure := ArgNone;
						op.instr := opWAIT;
						opcodeBeforeWait := previousOpcode (* WAIT hack *)
				  | 9CH:
						Push(op)
				  | 9EH:
						op.argStructure := ArgNone;
						op.instr := opSAHF;
				  | 9FH:
						op.argStructure := ArgNone;
						op.instr := opLAHF;
				  | 0A4H..0A5H:
						Movs(op)
				  | 0A6H..0A7H:
						Cmps(op)
				  | 0A8H..0A9H:
						Test(op)
				  | 0AAH..0ABH:
						Stos(op)
				  | 0ACH..0ADH:
						Lods(op)
				  | 0AEH..0AFH:
						Scas(op)
				  | 0C0H..0C1H:
						Grp2(op)
				  | 0C2H..0C3H, 0CAH, 0CBH:
						Ret(op)
				  | 0C4H:
						Les(op)
				  | 0C5H:
						Lds(op)
				  | 0C6H..0C7H:
						Mov(op)
				  | 0C8H:
						Enter(op)
				  | 0C9H:
						op.argStructure := ArgNone;
						op.instr := opLEAVE;
				  | 0CCH..0CDH:
						Int(op)
				  | 0CEH:
						op.argStructure := ArgNone;
						op.instr := opINTO;
				  | 0CFH:
						op.argStructure := ArgNone;
						op.instr := opIRET;
				  | 0D0H..0D3H:
						Grp2(op)
				  | 0D4H:
						op.argStructure := ArgNone;
						opcode.instr := opAAM;
				  | 0D5H:
						op.argStructure := ArgNone;
						opcode.instr := opAAD;
				  | 0D7H:
						op.argStructure := ArgNone;
						op.instr := opXLAT;
				  | 0D8H:
						Float0(op)
				  | 0D9H, 0D6H:
						Float1(op)
				  | 0DAH:
						Float2(op)
				  | 0DBH:
						Float3(op)
				  | 0DCH:
						Float4(op)
				  | 0DDH:
						Float5(op)
				  | 0DEH:
						Float6(op)
				  | 0DFH:
						Float7(op)
				  | 0E0H..0E3H:
						Loop(op) (* and jcxz *)
				  | 0E4H..0E7H, 0ECH..0EFH:
						InOut(op)
				  | 0E8H:
						Call(op)
				  | 0E9H..0EBH:
						Jmp(op)
				  | 0F0H:
						op.argStructure := ArgNone;
						op.instr := opLOCK
				  | 0F2H:
						op.argStructure := ArgNone;
						op.instr := opREPNE
				  | 0F4H:
						op.argStructure := ArgNone;
						op.instr := opHLT
				  | 0F5H:
						op.argStructure := ArgNone;
						op.instr := opCMC
				  | 0F6H..0F7H:
						Grp3(op)
				  | 0F8H:
						op.argStructure := ArgNone;
						op.instr := opCLC
				  | 0F9H:
						op.argStructure := ArgNone;
						op.instr := opSTC
				  | 0FAH:
						op.argStructure := ArgNone;
						op.instr := opCLI
				  | 0FBH:
						op.argStructure := ArgNone;
						op.instr := opSTI
				  | 0FCH:
						op.argStructure := ArgNone;
						op.instr := opCLD
				  | 0FDH:
						op.argStructure := ArgNone;
						op.instr := opSTD
				  | 0FEH:
						Grp4(op)
				  | 0FFH:
						Grp5(op)
				иначе
					ЛогЯдра.пСтроку8("Opcode not recognized: "); ЛогЯдра.п16ричное(кодСимв8(op.opcodeByte[0]), -1); ЛогЯдра.пВК_ПС;
					Bug (op.op, 37);
				всё;
				(* WAIT hack *)
				если (op.instr # opWAIT) и (opcodeBeforeWait # НУЛЬ) то
					если (op.instr = opFNCLEX) или (op.instr = opFNSTSW) или (op.instr = opFNSTENV) или
							(op.instr = opFNSTCW) или (op.instr = opFNSAVE) или (op.instr = opFNINIT) то
						opcodeBeforeWait.next := op; (* remove WAIT opcode *)
						InsertBytesAtBufferHead(previousOpcode.code); (* insert WAIT opcode bytes into this opcode *)
						умень(op.instr) (* set opFxxx to opFNxxx instead *)
					всё;
					opcodeBeforeWait := НУЛЬ
				всё;
				previousOpcode := op
				(* end of WAIT hack *)
		кон DecodeThis;

		проц {перекрыта}NewOpcode() :Decoder. Opcode;
		перем
			opcode : IA32Opcode;
		нач
			нов(opcode, currentProc, outputStreamWriter);
			opcode.decoder := сам;
			возврат opcode
		кон NewOpcode;
	кон IA32Decoder;

перем

	проц IntToHex(h, width: цел32; перем s: массив из симв8);
	перем c: симв8;
	нач
		если (width <= 0) то width := 8 всё;
		утв(длинаМассива(s) > width);
		s[width] := 0X;
		умень(width);
		нцПока (width >= 0) делай
			c := симв8ИзКода(h остОтДеленияНа 10H + кодСимв8("0"));
			если (c > "9") то c := симв8ИзКода((h остОтДеленияНа 10H - 10) + кодСимв8("A")) всё;
			s[width] := c; h := h DIV 10H; умень(width)
		кц
	кон IntToHex;

	проц IA32DecoderFactory (reader : Потоки.Чтец) : Decoder.Decoder;
	перем
		ia32Decoder : IA32Decoder;
	нач
		ЛогЯдра.пСтроку8("IA32DecoderFactory"); ЛогЯдра.пВК_ПС;
		нов(ia32Decoder, reader);
		возврат ia32Decoder
	кон IA32DecoderFactory;

	проц Init*;
	нач
		Decoder.RegisterDecoder(objFileSuffix, IA32DecoderFactory, НУЛЬ);
		Decoder.RegisterDecoder("Obw", IA32DecoderFactory, НУЛЬ);
		Decoder.RegisterDecoder("Obj", IA32DecoderFactory, НУЛЬ);	(* fld for UnixAos *)
	кон Init;

кон I386Decoder2.

I386Decoder.Open TV.Obx~
System.Free I386Decoder ~
