модуль LisCompiler;   (**  AUTHOR "fof & fn"; PURPOSE "Oberon Compiler Command Interface";  **)
(* (c) fof ETH Zürich, 2008 *)

использует
	Basic := FoxBasic, Scanner := LisScanner, Parser := LisParser,
	SemanticChecker := LisSemanticChecker, SyntaxTree := LisSyntaxTree, Formats := LisFormats,
	Потоки, Commands,Diagnostics, Options, Kernel, Переводчик := LisПереводчик, ПереводыЭлементовКода, 
	ГенЗагСлов := LisГенЗагСлов, Printout := LisPrintout, Backend := LisBackend, Strings, Global := LisGlobal,
	Frontend := LisFrontend, Files, Machine, ObjectFile, UCS32, StringsUCS32, ПрецедентыПереводов, УтилитыДляПереводаКода := LisУтилитыДляПереводаКода;

конст
	FSToolsMaxNameLen* = 512; (* должно совпадать с FSTools.MaxNameLen *)
	(* flags *)
	Print* = 0;
	Silent* = 1;
	Check* = 2;
	TraceError* = 3;
	Info* = 4;
	FindPC* = 5;
	Warnings*=7;
	ForceModuleBodies*=8;
	SingleModule*=9;
	Oberon07*=10;
	Cooperative*=12;
	CellsAreObjects*=13;
	TranslateKeywordsToRussian*=15;
	TranslateKeywordsToEnglish*=16;
	NoXym*=17;
	генерируйЗаготовкуСловаря*=18;
	мультиПеревод*=19;
	лексемыВВидеИсх*=20;
	переименуйИдентификаторыПоИменам*=21;
	переименуйИдентификаторыПоПутям*=22;
	генерируйПереименованияДляРастенения*=23;
	английскиеИмена*=24;
	расширьМакросы*=Frontend.расширьМакросы;

	DefaultBackend = "LisAMDBackend";
	(* в отличие от FoxFrontend, в Лисе названием фронтенда является имя модуля, в к-ром он определён, 
	   так мы избегаем склейки имени модуля из кусочков, к-рая мешает искабельности *)
	DefaultFrontend = "LisOberonFrontend";

тип

	SectionName = массив 256 из симв8; (*! move *)

	CompilerOptions*= запись
		flags*: мнвоНаБитахМЗ;
		frontend*: Frontend.Frontend;
		backend*: Backend.Backend;
		symbolFile*: Formats.SymbolFileFormat;
		objectFile*: Formats.ObjectFileFormat;
		findPC*: SectionName;
		documentation*: Backend.Backend;
		srcPath, destPath, кластьПереводыВ: Files.FileName;
		replacements: SemanticChecker.Replacement;
		platformCallingConvention: SyntaxTree.КодСоглашенияОВызове;
		definitions-: Options.Parameter;
	кон;

	проц ParseReplacements(конст filename: массив из симв8; перем replacement: SemanticChecker.Replacement; diagnostics: Diagnostics.Diagnostics): булево;
	перем reader: Потоки.Чтец; r: SemanticChecker.Replacement;
		identifier: SyntaxTree.СоставнойИдентификаторВ_исходнике;
		scanner: Scanner.Лексер; parser: Parser.Parser; expression: SyntaxTree.Выражениеˉзначение;
	нач
		replacement := НУЛЬ;
		reader := Basic.GetFileReader(filename);
		если reader = НУЛЬ то
			diagnostics.Error (filename, Потоки.НевернаяПозицияВПотоке, "не открылся файл подмены констант");
		иначе

			scanner := Scanner.NewScanner(filename, reader, 0, diagnostics);
			нов(parser, scanner, diagnostics, "");

			нцДо (* WHILE parser.Peek(Scanner.Identifier) DO*)
				identifier := parser.QualifiedIdentifier();
				если parser.Mandatory(Scanner.Equal) то
					expression := parser.Expression();
					нов(r); identifier.ДайИмя(r.name);  r.expression := expression; r.used := ложь;
					r.next := replacement; replacement := r;
				всё;
				нцПока parser.Optional(Scanner.ТочкаСЗапятой) делай кц;
			кцПри ~parser.Peek(Scanner.Идентификатор); (*END;*)

		всё;
		(*done := FALSE;
		WHILE reader.GetString(name) & ~done DO
			IF reader.GetChar(equal) & (equal = "=") & reader.GetString(value) THEN
				NEW(r); r.name := name; r.string := Strings.NewString(value); r.used := FALSE;
				r.next := replacement; replacement := r;
			ELSE done := TRUE;
			END;
		END;
		*)
		возврат (replacement # НУЛЬ)
	кон ParseReplacements;


проц ДайФайлДляЗаписиПеревода(m : SyntaxTree.ДеревоМодуля; конст кластьПереводыВ: массив из симв8; дляСловаряПереводовСУчётомПереименованийЛи : булево): Files.File;
перем
	f : Files.File;
	fn : массив FSToolsMaxNameLen из UCS32.CharJQ;
	(* толькоИмяФайла : UCS32.PStringJQ;
	новоеРасширениеФайла : UCS32.PStringJQ; *)
	имяМодуляКакРядЛитер : SyntaxTree.СтрокаИдентификатора;
нач
	UCS32.COPYJQvJQ(UCS32.U8vNovJQ(кластьПереводыВ)^, fn);
	StringsUCS32.Append(fn, UCS32.U8vNovJQ("/")^);
	(* толькоИмяФайла :=  UCS32.U8vNovJQ(m.name.л.identifierString);
	StringsUCS32.Append(fn, толькоИмяФайла^); *)
	(* IF ПереводыЭлементовКода.НеАнглийскийИдентификатор(m.name.л.identifierString) THEN
		новоеРасширениеФайла := UCS32.Lit(".ярм")
	ELSE
		новоеРасширениеФайла := UCS32.Lit(".Mod") END;
	StringsUCS32.Append(fn, новоеРасширениеФайла^); 
	 *)
	если дляСловаряПереводовСУчётомПереименованийЛи то 
		m.ДайИмяВВидеСтроки(имяМодуляКакРядЛитер);
		StringsUCS32.Append(fn, UCS32.U8vNovJQ(имяМодуляКакРядЛитер)^);
		StringsUCS32.Append(fn, UCS32.Lit(".перев.XML")^);
	иначе
		StringsUCS32.Append(fn, UCS32.U8vNovJQ(m.имяФайлаИсходника)^) всё;
	f := Files.New(UCS32.JQvNovU8(fn)^);
	возврат f;
кон ДайФайлДляЗаписиПеревода;


проц ДайФайлДляЗаписиПереименованийИдентификаторов(): Files.File;
перем
	f : Files.File;
	fn : массив FSToolsMaxNameLen из UCS32.CharJQ;
нач
	UCS32.COPYJQvJQ(UCS32.Lit("ПереименованияИдентификаторов.XML")^, fn);
	f := Files.New(UCS32.JQvNovU8(fn)^);
	возврат f;
кон ДайФайлДляЗаписиПереименованийИдентификаторов;



	(* Modules - точка входа в компилятор для компиляции одного файла. 
		Вызывается из LisCompiler.Compile, а также из команд модуля СборщикВыпускаЯОС, в этом случае для
		каждого файла может быть отдельный вызов Modules *)
	проц Modules*(конст source: массив из симв8; (* source file name, for debugging and better error reports *)
			reader: Потоки.Чтец; (* reader to read from *)
			position: цел32; (* starting position in reader *)
			diagnostics: Diagnostics.Diagnostics; (* error output and status report *)
			log: Потоки.Писарь;
			конст options: CompilerOptions;
			перем importCache: SyntaxTree.ВнутренняяОбластьВидимостиМодуля): булево;
	перем
		module: SyntaxTree.ДеревоМодуля;
		checker: SemanticChecker.Checker;
		warnings: SemanticChecker.Warnings;
		system: Global.System;
		generatedModule: Formats.GeneratedModule;
		split: Strings.StringArray;
		sectionOffset: цел32;
		flags: мнвоНаБитахМЗ;
		backendName: массив 32 из симв8;

		проц FinalMessage(error: булево; конст msg: массив из симв8);
		перем message: массив 256 из симв8;
		нач
			message := "";
			если module # НУЛЬ то
				Global.GetModuleName(module, message);
			всё;
			Strings.Append (message, msg);
			если error то
				если diagnostics # НУЛЬ то
					diagnostics.Error (source, Потоки.НевернаяПозицияВПотоке, message);
				всё;
			иначе
				если (log # НУЛЬ) и ~(Silent в options.flags) и ~(FindPC в options.flags) то
					log.пСтроку8("компилирую ");
					если source # "" то 	log.пСтроку8(source); log.пСтроку8(" => ");	всё;
					log.пСтроку8(message); log.пВК_ПС;
					log.ПротолкниБуферВПоток;
				всё;
			всё;
		кон FinalMessage;

		(** См. также СгенерируйПереименованияДляРастенения *)
		проц СгенерируйЗаготовкуСловаряДляМодуля();
		перем printer: ГенЗагСлов.Printer; 
			print: Потоки.Писарь;
		нач
			(* ПрецедентыПереводов.Заполни(); *)
			(* кусок скопирован с PrintModule *)
			print := Basic.GetWriter(Basic.GetDebugWriter("Сохрани это в БудущееИмяМодуля.перев.XML"));
			printer := ГенЗагСлов.NewPrinter(print,ГенЗагСлов.СловарьПереводов,Info в options.flags,Scanner.ВариантыПеревода.Uppercase);
			printer.Module(module); 
			print.ПротолкниБуферВПоток;
		кон СгенерируйЗаготовкуСловаряДляМодуля;


		(** См. также СгенерируйЗаготовкуСловаряДляМодуля *)
		проц СгенерируйПереименованияДляРастенения();
		перем printer: ГенЗагСлов.Printer; 
			print: Files.Writer; файл: Files.File; 
		нач
			файл := ДайФайлДляЗаписиПереименованийИдентификаторов(); 
			утв(файл # НУЛЬ); (* тут нужно обрабатывать ошибку нормально *)
			Files.OpenWriter(print, файл, 0);
			если log # НУЛЬ то
				log.пСтроку8("Собираюсь записать ПереименованияИдентификаторов.XML для растенения");
				log.пВК_ПС; log.ПротолкниБуферВПоток всё; 
			printer := ГенЗагСлов.NewPrinter(print,ГенЗагСлов.ПереименованияДубликатов,Info в options.flags,Scanner.ВариантыПеревода.Uppercase);
			printer.Module(module); 
			print.ПротолкниБуферВПоток;
			
			Files.Register(файл); файл.Close; 			
		кон СгенерируйПереименованияДляРастенения;


		проц ПереведиМодуль(printCase : Scanner.ВариантыПеревода);
		перем printer: Переводчик.Printer; мп : булево; режимПеревода: УтилитыДляПереводаКода.РежимПеревода;
		нач
			(* ASSERT(~ (Info IN options.flags)); *)
			(* IF options. *)
			мп := мультиПеревод в options.flags;
			если переименуйИдентификаторыПоПутям в options.flags то 
				режимПеревода := УтилитыДляПереводаКода.РежимПеревода.ПереименованиеИдентификаторовПоПутям
			аесли переименуйИдентификаторыПоИменам в options.flags то 
				режимПеревода := УтилитыДляПереводаКода.РежимПеревода.ПереименованиеИдентификаторовПоИменам
			иначе
				режимПеревода := УтилитыДляПереводаКода.РежимПеревода.Перевод всё;
			если мп и Переводчик.файлБезУсловнойКомпиляцииИЕгоУжеПеревелиЛи(module.имяФайлаИсходника) то
				возврат всё;
				
			(* это перевод, а не печать! *)
			printer := Переводчик.NewPrinter(режимПеревода, ложь, Info в options.flags,printCase);
			printer.Module(module); 
		кон ПереведиМодуль;
		


		проц ПишиСловарьПереводовСУчётомПереименованийЕслиНадо(пишемВФайл, печататьВВидеИсх: булево; printMode: цел32;
printCase : Scanner.ВариантыПеревода);
		перем
			М : ПереводыЭлементовКода.Модуль;
			имяМодуляКакСтрока: Strings.String;
			файл: Files.File;
			писательВФайл: Files.Writer;
			print: Потоки.Писарь;
			режимПеревода: Переводчик.РежимПеревода;
		нач
			нов(имяМодуляКакСтрока,ПереводыЭлементовКода.МаксБуквВИдентификаторе + 1);
			module.ДайИмяВВидеСтроки(имяМодуляКакСтрока^);
		

			если переименуйИдентификаторыПоПутям в options.flags то 
				режимПеревода := УтилитыДляПереводаКода.РежимПеревода.ПереименованиеИдентификаторовПоПутям
			аесли переименуйИдентификаторыПоИменам в options.flags то 
				режимПеревода := УтилитыДляПереводаКода.РежимПеревода.ПереименованиеИдентификаторовПоИменам
			иначе
				СТОП(880); всё;

			М := Переводчик.МеняетЛиПереименованиеСловарьПереводов(имяМодуляКакСтрока, режимПеревода);
			если М = НУЛЬ то возврат всё;
			
			
			если пишемВФайл то
				файл := ДайФайлДляЗаписиПеревода(module, options.кластьПереводыВ, истина); 
				утв(файл # НУЛЬ); (* тут нужно обрабатывать ошибку нормально *)
				Files.OpenWriter(писательВФайл, файл, 0);
				если log # НУЛЬ то
					log.пСтроку8("Собираюсь записать исправленный с переименованием словарь перевода в файл");
					log.пВК_ПС; log.ПротолкниБуферВПоток всё; 
				print := писательВФайл;
			иначе
				print := Basic.GetWriter(Basic.GetDebugWriter("*.перев.XML с учётом переименования")) всё;
			Переводчик.ПишиСловарьСПрименённымиПереименованиями(М, режимПеревода, printCase, print);
			print.ПротолкниБуферВПоток;
			если пишемВФайл то
				Files.Register(файл); файл.Close; всё кон ПишиСловарьПереводовСУчётомПереименованийЕслиНадо;

			проц ПишиМодульВнутр(пишемВФайл, печататьВВидеИсх: булево; printMode: цел32;
				printCase : Scanner.ВариантыПеревода);
			перем 
				файл: Files.File;
				писательВФайл: Files.Writer;
				print: Потоки.Писарь;
				printer: Printout.Printer;
			нач			
				если пишемВФайл то
					файл := ДайФайлДляЗаписиПеревода(module, options.кластьПереводыВ, ложь); 
					утв(файл # НУЛЬ); (* тут нужно обрабатывать ошибку нормально *)
					Files.OpenWriter(писательВФайл, файл, 0);
					print := писательВФайл;
					если log # НУЛЬ то
						log.пСтроку8("Собираюсь записать перевод в файл");
						log.пВК_ПС; log.ПротолкниБуферВПоток всё 
				иначе
					print := Basic.GetWriter(Basic.GetDebugWriter("Вывод PrintModule"))
				всё;
				printer := Printout.NewPrinter(print,printMode,печататьВВидеИсх,Info в options.flags,printCase);
				(* print.Ln; *) printer.Module(module); (* print.Ln; *)
				print.ПротолкниБуферВПоток;
				если пишемВФайл то
					Files.Register(файл); файл.Close; всё кон ПишиМодульВнутр;



		проц PrintModule;
		перем printCase : Scanner.ВариантыПеревода;
			printMode: цел32;
			пишемВФайл: булево;
			мп, пропуститьЭтотФайлВМультиПереводе : булево;
			печататьВВидеИсх : булево;
		нач
			printCase := module.вариантПеревода;
			если генерируйЗаготовкуСловаря в flags то
				(* это нужно для перевода используемых модулей *)
				утв(~ (генерируйПереименованияДляРастенения в flags));
				ПереведиМодуль(Scanner.ВариантыПеревода.Русский);
				СгенерируйЗаготовкуСловаряДляМодуля();
				возврат
			аесли генерируйПереименованияДляРастенения в flags то
				СгенерируйПереименованияДляРастенения();
				возврат всё;
			если TranslateKeywordsToRussian в flags то 
				printCase := Scanner.ВариантыПеревода.Русский;
				ПереведиМодуль(printCase);
				printMode := Printout.ЦепочкаЛексем;
				печататьВВидеИсх := ~ module.естьДирективыПрепроцессораЛи
			аесли TranslateKeywordsToEnglish в flags то 
				printCase := Scanner.ВариантыПеревода.Uppercase;
				ПереведиМодуль(printCase);
				printMode := Printout.ЦепочкаЛексем;
				печататьВВидеИсх := ~ module.естьДирективыПрепроцессораЛи
			аесли (переименуйИдентификаторыПоИменам в flags) или (переименуйИдентификаторыПоПутям в flags) то
				(* скорее всего, printCase важен, поскольку мы ещё пишем модифицированный словарь переводов и там закладывается
				на то, что имена находятся в русском режиме *)
				(* printCase := Scanner.ВариантыПеревода.Русский; *)
				ПереведиМодуль(printCase);
				printMode := Printout.ЦепочкаЛексем;
				печататьВВидеИсх := ~ module.естьДирективыПрепроцессораЛи
			аесли Info в flags то
				утв(Print в flags);
				printMode := Printout.All
			аесли лексемыВВидеИсх в flags то
				printMode := Printout.ЦепочкаЛексем;
				печататьВВидеИсх := истина
			иначе
				утв(Print в flags);
				printMode := Printout.SourceCode всё;
			пишемВФайл := (options.кластьПереводыВ # "") и (printMode = Printout.ЦепочкаЛексем);
			мп := мультиПеревод в options.flags;
			пропуститьЭтотФайлВМультиПереводе := 
				мп и Переводчик.файлБезУсловнойКомпиляцииИЕгоУжеПеревелиЛи(module.имяФайлаИсходника);

			если пропуститьЭтотФайлВМультиПереводе то
				если log # НУЛЬ то
					log.пСтроку8("Пропускаю файл «"); log.пСтроку8(module.имяФайлаИсходника); 
					log.пСтроку8("», т.к. задана опция --мультиПеревод, в файле нет условной компиляции и он уже переводился");
					log.пВК_ПС; log.ПротолкниБуферВПоток всё;
				возврат всё;

			(* ПРАВЬМЯ - проверить ошибку *)
			ПишиМодульВнутр(пишемВФайл, печататьВВидеИсх, printMode, printCase);
			если (переименуйИдентификаторыПоИменам в flags) или (переименуйИдентификаторыПоПутям в flags) то
				ПишиСловарьПереводовСУчётомПереименованийЕслиНадо(пишемВФайл, печататьВВидеИсх,
					printMode, printCase) всё;
			если мп и ~ module.естьДирективыПрепроцессораЛи то
				Переводчик.запомниЧтоПеревелиФайлБезУсловнойКомпиляции(module.имяФайлаИсходника) всё;
			кон PrintModule;
			
	проц Тело():булево;		
	нач
		если log # НУЛЬ то
			log.пСтроку8("LisCompiler.Modules: вход"); log.пВК_ПС всё;
		
		flags := options.flags;
		если options.findPC # "" то исключиИзМнваНаБитах(flags, Warnings) всё;
		если TraceError в options.flags то
			diagnostics := Basic.GetTracingDiagnostics(diagnostics)
		всё;

		если options.backend = НУЛЬ то
			system := Global.DefaultSystem()
		иначе
			если Oberon07 в options.flags то options.backend.SetOberon07 всё; (* inform the backend about that the Oberon07 mode, it will return the corresponding Sytem object *)
			system := options.backend.GetSystem();
		всё;

		system.SetCellsAreObjects(CellsAreObjects в flags);
		system.SetPlatformCallingConvention(options.platformCallingConvention);

		если (options.objectFile # НУЛЬ) и (options.objectFile.ForceModuleBodies()) то включиВоМнвоНаБитах(flags, ForceModuleBodies) всё;

		options.frontend.Initialize(diagnostics, flags, reader, source, options.definitions, position);
		нцДо
			(** first phase: scan and parse **)
			module := options.frontend.Parse();
			SyntaxTree.последнийРазобранныйМодуль := module;
			если options.frontend.Error() то
				FinalMessage(истина," не скомпилировался (ошибки парсера).");
				возврат ложь;
			всё;
			утв(module # НУЛЬ);
			если log # НУЛЬ то
				log.пСтроку8("Лексер отработал"); log.пВК_ПС; log.ПротолкниБуферВПоток всё;

			если Check в flags то
				(** second phase: check and resolve symbols **)
				если (options.symbolFile # НУЛЬ) то
					options.symbolFile.Initialize(diagnostics,system,options.destPath);
				всё;
				если options.backend # НУЛЬ то
					копируйСтрокуДо0(options.backend.name, backendName);
				иначе
					backendName := "";
				всё;
				
				если (module.параметрыШаблона = НУЛЬ) (* & ~ (Print IN flags)*) то
					checker := SemanticChecker.NewChecker(diagnostics,Info в flags,Cooperative в flags,английскиеИмена в flags,system,options.symbolFile,importCache,backendName);
					checker.replacements := options.replacements;
					checker.Module(module);
					если checker.error то
						FinalMessage(истина," не скомпилировался (ошибки смысла).");
						возврат ложь
					аесли Warnings в flags то
						warnings := SemanticChecker.NewWarnings(diagnostics);
						warnings.Module(module);
					всё;

					если log # НУЛЬ то
						log.пСтроку8("Смыслоуловитель отработал"); log.пВК_ПС; log.ПротолкниБуферВПоток всё;

				всё; 
				
				если {Print,TranslateKeywordsToEnglish,TranslateKeywordsToRussian,генерируйЗаготовкуСловаря,
						генерируйПереименованияДляРастенения, переименуйИдентификаторыПоИменам, 
						переименуйИдентификаторыПоПутям} * flags # {} то
					PrintModule();			
					FinalMessage(ложь," выхожу после печати");
					возврат истина всё;

				(** third phase: generate code, can consist of sub-phases (such as intermediate backend / hardware backend) **)
				если (options.backend # НУЛЬ) и (module.параметрыШаблона = НУЛЬ) то
					options.backend.Initialize(diagnostics, log, flags, checker, system);
					если options.findPC # "" то
						split := Strings.Split(options.findPC,":");
						если длинаМассива(split)>1 то
							Strings.StrToInt(split[1]^,sectionOffset);
							options.backend.FindPC(module, split[0]^,sectionOffset);
							если options.backend.error то
								FinalMessage(истина," не скомпилировался (ошибки хвоста).");
								возврат ложь
							иначе
								возврат истина
							всё;
						всё;
					всё;
					generatedModule := options.backend.ProcessSyntaxTreeModule(module);
					если options.backend.error то
						FinalMessage(истина, " не скомпилировался (ошибки хвоста).");
						возврат ложь
					всё;
				всё;
				если log # НУЛЬ то
					log.пСтроку8("Хвост отработал"); log.пВК_ПС; log.ПротолкниБуферВПоток всё;


				(** generate symbol file **)
				если (options.symbolFile # НУЛЬ) и ~options.symbolFile.Export(module, importCache, английскиеИмена в flags) то
					FinalMessage(истина, " не скомпилировался (ошибки символьного файла).");
					возврат ложь
				всё;
				если log # НУЛЬ то
					log.пСтроку8("Создан символьный файл"); log.пВК_ПС; log.ПротолкниБуферВПоток всё;

				(** generate object file **)
				если (options.objectFile # НУЛЬ) и (module.параметрыШаблона = НУЛЬ) то
					options.objectFile.Initialize(diagnostics);
					options.objectFile.SetPath(options.destPath);

					если options.findPC # "" то
						Strings.StrToInt(options.findPC, sectionOffset);
						generatedModule.SetFindPC(sectionOffset);
					всё;

					если generatedModule = НУЛЬ то
						FinalMessage(истина, " не смог записать объектный файл (ничего не порождено).");
						возврат ложь
					аесли ~options.objectFile.Export(generatedModule,options.symbolFile) то
						FinalMessage(истина, " не скомпилировался (ошибки объектного файла).");
						возврат ложь
					всё;
				если log # НУЛЬ то
					log.пСтроку8("Создан объектный файл"); log.пВК_ПС; log.ПротолкниБуферВПоток всё;
				всё;



				если options.documentation # НУЛЬ то
					options.documentation.Initialize(diagnostics,log, flags,checker,system);
					generatedModule := options.documentation.ProcessSyntaxTreeModule(module);
				всё;

				FinalMessage(ложь, " готово.");
			аесли {Print,TranslateKeywordsToEnglish,TranslateKeywordsToRussian} * flags # {} то
				PrintModule;
				FinalMessage(ложь, " готово.")
			иначе
				FinalMessage(ложь, " готово.");
			всё;
			если (options.findPC = "") и ~(NoXym в options.flags) то
			 ModestlyCreateATFSymbolFile(source, log, options.definitions) всё;
		кцПри (SingleModule в flags) или options.frontend.Done();

		возврат истина кон Тело;
		
	нач
		возврат Тело()
	кон Modules;

	проц ModestlyCreateATFSymbolFile(source: массив из симв8; log: Потоки.Писарь; конст definitions : массив из симв8);
	перем res: цел32; cmd, msg: массив 1024 из симв8; нач 
			(* если log # НУЛЬ то
				log.String("Entering ModestlyCreateATFSymbolFile «"); 
				log.String(source); 
				log.String("»"); log.Ln кн; *)
			копируйСтрокуДо0("TFAOParserUCS32.MakeSymbolFile ", cmd);		Strings.Append(cmd, source); Strings.Append(cmd, " "); Strings.Append(cmd, definitions);
			Commands.Call(cmd,{},res,msg); 
			если (log # НУЛЬ) то
				log.пСтроку8("TFAOParserUCS32.MakeSymbolFile код возврата:"); log.пСтроку8(msg); log.пВК_ПС всё
	кон ModestlyCreateATFSymbolFile;


	
	проц GetOptions*(input: Потоки.Чтец; error:Потоки.Писарь; diagnostics: Diagnostics.Diagnostics;
		перем compilerOptions: CompilerOptions): булево;
	перем options: Options.Options;  name: массив 256 из симв8; result: булево; position: Потоки.ТипМестоВПотоке;
	defaults: Потоки.Чтец;
		parsed: булево;

		проц Error(конст вн_error: массив из симв8);
		нач
			если diagnostics # НУЛЬ то
				diagnostics.Error("",Потоки.НевернаяПозицияВПотоке,вн_error);
			всё;
		кон Error;

		проц Информация(конст сообщ: массив из симв8);
		нач
			если diagnostics # НУЛЬ то
				diagnostics.Error("GetOptions: информация:",Потоки.НевернаяПозицияВПотоке,сообщ);
			всё;
		кон Информация;


	нач
		result := истина;
		нов(options);

		(* Часть опций не видна компилятору, а используется его составными частями. См. Fox.Tool *)
		options.Новая(UCS32.CHARvCharJQ("p"), UCS32.Lit("platform")^,UCS32.Lit("платформа")^,Options.String);
		options.Новая(UCS32.CHARvCharJQ(0X), UCS32.Lit("showOptions")^,UCS32.Lit("показываяИтоговыеОпции")^,Options.Flag);

		options.Новая(UCS32.CHARvCharJQ(0X), UCS32.Lit("print")^,UCS32.Lit("печатайИсх")^,Options.Flag);
		options.Новая(UCS32.CHARvCharJQ(0X), UCS32.Lit("")^,UCS32.Lit("лексемыВВидеИсх")^,Options.Flag);
		options.Новая(UCS32.CHARvCharJQ(0X), UCS32.Lit("perevediNaRusskijj")^,UCS32.Lit("переведиНаРусский")^,Options.Flag);
		options.Новая(UCS32.CHARvCharJQ(0X), UCS32.Lit("translateToEnglish")^,UCS32.Lit("переведиНаАнглийский")^,Options.Flag);
		options.Новая(UCS32.CHARvCharJQ(0X), UCS32.Lit("")^,UCS32.Lit("переименуйИдентификаторыПоИменам")^,Options.Flag);
		options.Новая(UCS32.CHARvCharJQ(0X), UCS32.Lit("")^,UCS32.Lit("переименуйИдентификаторыПоПутям")^,Options.Flag);
		(** опция multiPerevod - это когда мы собираем несколько конфигураций подряд, 
			и при этом файлы, не имеющие внутри себя директив препроцессора, переводятся не
			более одного раза (при этом мы надеемся, что вид словаря не зависит от конфигурации, 
			но не умеем это проверить) *)
		options.Новая(UCS32.CHARvCharJQ(0X), UCS32.Lit("multiPerevod")^,UCS32.Lit("мультиПеревод")^,Options.Flag);
		(** меньшеБолтовни отключает сообщение о начале, исходе и продолжительности компиляции *)
		options.Новая(UCS32.CHARvCharJQ(0X), UCS32.Lit("silent")^,UCS32.Lit("меньшеБолтовни")^,Options.Flag);
		(* Опция запустивСмыслоуловитель нужна только в случае, если отсутствует хвост. 
			В этом случае она указывает компилятору, что нужно запустить смыслоуловитель. 
			Если хвост присутствует, то смыслоуловитель запускается автоматически и опция 
			ничего не делает *)
		options.Новая(UCS32.CHARvCharJQ("c"), UCS32.Lit("check")^,UCS32.Lit("запустивСмыслоуловитель")^,Options.Flag);
		options.Новая(UCS32.CHARvCharJQ("e"), UCS32.Lit("traceError")^,UCS32.Lit("печатаяСтекПриОшибкахКомпиляции")^,Options.Flag);
		(* опция печатаяОтладочныеСообщенияКомпилятора используется, как правило, 
			совместно с режимом печати исходного текста, но также как-то используется 
			в LisIntermediateBackend.Mod *)
		options.Новая(UCS32.CHARvCharJQ("i"), UCS32.Lit("info")^,UCS32.Lit("печатаяОтладочныеСообщенияКомпилятора")^,Options.Flag);
		options.Новая(UCS32.CHARvCharJQ(0X), UCS32.Lit("oberon07")^,UCS32.Lit("")^,Options.Flag);
		options.Новая(UCS32.CHARvCharJQ("b"), UCS32.Lit("backend")^,UCS32.Lit("хвост")^,Options.String);
		options.Новая(UCS32.CHARvCharJQ("F"), UCS32.Lit("frontEnd")^,UCS32.Lit("голова")^,Options.String);
		options.Новая(UCS32.CHARvCharJQ("f"), UCS32.Lit("findPC")^,UCS32.Lit("найдиИсхПоСчётчикуКоманд")^,Options.String);
		options.Новая(UCS32.CHARvCharJQ(0X), UCS32.Lit("singleModule")^,UCS32.Lit("толькоПервыйМодульВФайле")^,Options.Flag);
		options.Новая(UCS32.CHARvCharJQ(0X), UCS32.Lit("symbolFile")^,UCS32.Lit("имяФорматаСимвФайла")^,Options.String);
		options.Новая(UCS32.CHARvCharJQ(0X), UCS32.Lit("objectFile")^,UCS32.Lit("имяФорматаОбъФайла")^,Options.String);
		options.Новая(UCS32.CHARvCharJQ("w"), UCS32.Lit("warnings")^,UCS32.Lit("сПредупреждениями")^,Options.Flag);
		options.Новая(UCS32.CHARvCharJQ(0X), UCS32.Lit("documentation")^,UCS32.Lit("генерируяДокументацию")^,Options.String);
		(** путьКИсхФайлам - путь, к-рый приписывается к имени исходника, подлежащего компиляции *)
		options.Новая(UCS32.CHARvCharJQ("S"), UCS32.Lit("srcPath")^,UCS32.Lit("путьКИсхФайлам")^,Options.String);
		(** путьКОбъИСимвФайлам *)
		options.Новая(UCS32.CHARvCharJQ("D"), UCS32.Lit("destPath")^,UCS32.Lit("путьКОбъИСимвФайлам")^,Options.String);
		options.Новая(UCS32.CHARvCharJQ(0X), UCS32.Lit("klastqPerevodyV")^,UCS32.Lit("кластьПереводыВ")^,Options.String);
		options.Новая(UCS32.CHARvCharJQ(0X), UCS32.Lit("replacements")^,UCS32.Lit("файлПодменыКонстант")^,Options.String);
		options.Новая(UCS32.CHARvCharJQ(0X), UCS32.Lit("cooperative")^,UCS32.Lit("кооперативныйКод")^,Options.Flag);
		options.Новая(UCS32.CHARvCharJQ(0X), UCS32.Lit("platformCC")^,UCS32.Lit("соглашениеОВызове")^,Options.String);
		options.Новая(UCS32.CHARvCharJQ("d"), UCS32.Lit("define")^,UCS32.Lit("условныеПеременные")^,Options.String);
		options.Новая(UCS32.CHARvCharJQ(0X), UCS32.Lit("noXym")^,UCS32.Lit("безФайлаXym")^,Options.Flag); (* Отключает создание Xym-файлов, нужных для перехода к определению в ИСР.Mod. Флаг --noXym необходимо для компиляции в консольном приложении. Причина - в том, что TFAOParserUCS32.Mod завивит от TextUtilities, к-рые, в свою очередь, требуют какой-то инфраструктуры обработки событий, которой в консольной версии не хватает. От этого компиляция зависает на этапе создания xym-файла. Данный флаг - это костыль. Нужно либо выпилить зависимость от служб событий, либо (ещё лучше) научиться запускать службы событий в консольном приложении *)
		options.Новая(UCS32.CHARvCharJQ(0X), UCS32.Lit("")^,UCS32.Lit("генерируйЗаготовкуСловаря")^,Options.Flag);
		options.Новая(UCS32.CHARvCharJQ(0X), UCS32.Lit("")^,UCS32.Lit("генерируйПереименованияДляРастенения")^,Options.Flag);
		options.Новая(UCS32.CHARvCharJQ(0X), UCS32.Lit("")^,UCS32.Lit("английскиеИмена")^,Options.Flag);
		options.Новая(UCS32.CHARvCharJQ(0X), UCS32.Lit("")^,UCS32.Lit("расширьМакросы")^,Options.Flag);
		
		position := input.МестоВПотоке();
		parsed := options.ParseStaged(input, error);
		если options.GetString("платформа", name) или GetDefaultPlatform(name) то
			defaults := platforms.Get(name);
			если defaults = НУЛЬ то
				error.пСтроку8("Не найдена заданная платформа"); error.пВК_ПС; result := ложь;
			иначе
				parsed := options.ParseStaged(defaults, error) и parsed;
				input.ПерейдиКМестуВПотоке(position);
				parsed := options.ParseStaged(input, error) и parsed; (* reparse overwrites *)
			всё;
		иначе
			defaults := НУЛЬ;
		всё;

		если options.GetString("хвост", name) то
			если name = "" то compilerOptions.backend := НУЛЬ
			иначе
				compilerOptions.backend := Backend.GetBackendByName(name);
				если (compilerOptions.backend = НУЛЬ)  то
					Информация(name);
					Error("не удалось подключить хвост (кодогенератор) А"); 
					result := ложь;
				всё;
			всё;
		иначе compilerOptions.backend := Backend.GetBackendByName(DefaultBackend);
			если compilerOptions.backend = НУЛЬ то Error("не удалось подключить хвост по умолчанию"); result := ложь всё;
		всё;

		если options.GetString("голова", name) то
			если name = "" то compilerOptions.frontend := НУЛЬ
			иначе
				compilerOptions.frontend := Frontend.GetFrontendByName(name);
				если (compilerOptions.frontend = НУЛЬ)  то
					Error("не удалось подключить голову"); result := ложь;
				всё;
			всё;
		иначе compilerOptions.frontend := Frontend.GetFrontendByName(DefaultFrontend);
			если compilerOptions.frontend = НУЛЬ то Error("не удалось подключить голову по умолчанию"); result := ложь всё;
		всё;

		если options.GetString("имяФорматаОбъФайла",name) то
			если name = "" то compilerOptions.objectFile := НУЛЬ
			иначе
				compilerOptions.objectFile := Formats.GetObjectFileFormat(name);
				если compilerOptions.objectFile = НУЛЬ то Error("не удалось подключить заданный формат объектного файла"); result := ложь всё;
			всё;
		аесли compilerOptions.backend # НУЛЬ то
			compilerOptions.objectFile := compilerOptions.backend.DefaultObjectFileFormat();
		всё;

		если options.GetString("имяФорматаСимвФайла",name) то
			если name = "" то compilerOptions.symbolFile := НУЛЬ
			иначе
				compilerOptions.symbolFile := Formats.GetSymbolFileFormat(name);
				если compilerOptions.symbolFile = НУЛЬ то Error("не удалось подключить заданный формат символьного файла"); result := ложь всё;
			всё;
		аесли compilerOptions.backend # НУЛЬ то
			compilerOptions.symbolFile := compilerOptions.backend.DefaultSymbolFileFormat();
			если (compilerOptions.symbolFile = НУЛЬ) и (compilerOptions.objectFile # НУЛЬ) то
				compilerOptions.symbolFile := compilerOptions.objectFile.DefaultSymbolFileFormat();
			всё;
		аесли compilerOptions.objectFile # НУЛЬ то
			compilerOptions.symbolFile := compilerOptions.objectFile.DefaultSymbolFileFormat();
		всё;


		если options.GetString("генерируяДокументацию", name) то
			compilerOptions.documentation := Backend.GetBackendByName("Documentation");
			если (compilerOptions.documentation = НУЛЬ)  то
				Error("не удалось подключить движок документации"); result := ложь;
			всё;
		иначе
			compilerOptions.documentation := НУЛЬ
		всё;

		если options.GetString("файлПодменыКонстант", name) то
			если ~ParseReplacements(name, compilerOptions.replacements, diagnostics) то
				Error("ошибка разбора файла подмены констант"); result := ложь;
			всё;
		иначе compilerOptions.replacements := НУЛЬ
		всё;


		если compilerOptions.backend # НУЛЬ то compilerOptions.backend.DefineOptions (options); включиВоМнвоНаБитах(compilerOptions.flags,Check); всё;
		если compilerOptions.symbolFile # НУЛЬ то compilerOptions.symbolFile.DefineOptions(options); включиВоМнвоНаБитах(compilerOptions.flags,Check) всё;
		если compilerOptions.objectFile # НУЛЬ то compilerOptions.objectFile.DefineOptions(options); включиВоМнвоНаБитах(compilerOptions.flags,Check) всё;
		если compilerOptions.documentation # НУЛЬ то compilerOptions.documentation.DefineOptions(options) всё;

		если result и ~parsed то
			options.Clear;
			если defaults # НУЛЬ то
				defaults.ПерейдиКМестуВПотоке(0);
				parsed := options.Parse(defaults, error);
			всё;
			input.ПерейдиКМестуВПотоке(position);
			result := options.Parse(input,error)
		всё;

		если result то
			если options.GetFlag("печатайИсх") то включиВоМнвоНаБитах(compilerOptions.flags, Print) всё;
			если options.GetFlag("лексемыВВидеИсх") то включиВоМнвоНаБитах(compilerOptions.flags,лексемыВВидеИсх) всё;
			если options.GetFlag("переведиНаАнглийский") то 
				утв(~options.GetFlag("печатайИсх"));
				утв(~options.GetFlag("переведиНаРусский"));  
				утв(~options.GetFlag("переименуйИдентификаторыПоИменам"));
				утв(~options.GetFlag("переименуйИдентификаторыПоПутям"));
				включиВоМнвоНаБитах(compilerOptions.flags, TranslateKeywordsToEnglish) всё;
			если options.GetFlag("переведиНаРусский") то 
				утв(~options.GetFlag("печатайИсх")); 
				утв(~options.GetFlag("переведиНаАнглийский"));
				утв(~options.GetFlag("переименуйИдентификаторыПоИменам"));
				утв(~options.GetFlag("переименуйИдентификаторыПоПутям"));
				включиВоМнвоНаБитах(compilerOptions.flags, TranslateKeywordsToRussian) всё;
			если options.GetFlag("переименуйИдентификаторыПоИменам") то
				утв(~options.GetFlag("печатайИсх")); 
				утв(~options.GetFlag("переведиНаАнглийский"));
				утв(~options.GetFlag("переведиНаРусский"));  
				утв(~options.GetFlag("переименуйИдентификаторыПоПутям"));
				включиВоМнвоНаБитах(compilerOptions.flags, переименуйИдентификаторыПоИменам) всё;
			если options.GetFlag("переименуйИдентификаторыПоПутям") то
				утв(~options.GetFlag("печатайИсх")); 
				утв(~options.GetFlag("переведиНаАнглийский"));
				утв(~options.GetFlag("переведиНаРусский"));  
				утв(~options.GetFlag("переименуйИдентификаторыПоИменам"));
				включиВоМнвоНаБитах(compilerOptions.flags, переименуйИдентификаторыПоПутям) всё;
			если options.GetFlag("мультиПеревод") то 
				утв(~options.GetFlag("переименуйИдентификаторыПоИменам"));
				утв(~options.GetFlag("переименуйИдентификаторыПоПутям"));
				включиВоМнвоНаБитах(compilerOptions.flags, мультиПеревод) всё;
			если options.GetFlag("меньшеБолтовни") то включиВоМнвоНаБитах(compilerOptions.flags, Silent) всё;
			если options.GetFlag("запустивСмыслоуловитель") то включиВоМнвоНаБитах(compilerOptions.flags, Check) всё;
			если options.GetFlag("печатаяСтекПриОшибкахКомпиляции") то включиВоМнвоНаБитах(compilerOptions.flags, TraceError) всё;
			если options.GetFlag("печатаяОтладочныеСообщенияКомпилятора") то включиВоМнвоНаБитах(compilerOptions.flags,Info) всё;
			если options.GetString("найдиИсхПоСчётчикуКоманд",compilerOptions.findPC) то включиВоМнвоНаБитах(compilerOptions.flags,FindPC) всё;
			если options.GetFlag("сПредупреждениями") то включиВоМнвоНаБитах(compilerOptions.flags, Warnings) всё;
			если options.GetFlag("толькоПервыйМодульВФайле") то включиВоМнвоНаБитах(compilerOptions.flags,SingleModule) всё;
			если options.GetFlag("oberon07") то включиВоМнвоНаБитах(compilerOptions.flags, Oberon07) всё;
			если options.GetFlag("кооперативныйКод") то включиВоМнвоНаБитах(compilerOptions.flags, Cooperative) всё;
			если options.GetFlag("безФайлаXym") то включиВоМнвоНаБитах(compilerOptions.flags, NoXym) всё;
			если options.GetFlag("генерируйЗаготовкуСловаря") то включиВоМнвоНаБитах(compilerOptions.flags, генерируйЗаготовкуСловаря) всё;
			если options.GetFlag("генерируйПереименованияДляРастенения") то включиВоМнвоНаБитах(compilerOptions.flags, генерируйПереименованияДляРастенения) всё;
			(* Опции cellsAreObjects в списке опций нет. Странно, куда делась? *)
			если options.GetFlag("cellsAreObjects") то включиВоМнвоНаБитах(compilerOptions.flags, CellsAreObjects) всё;
			если ~options.GetString("путьКИсхФайлам", compilerOptions.srcPath) то compilerOptions.srcPath := "" всё;
			если ~options.GetString("путьКОбъИСимвФайлам", compilerOptions.destPath) то compilerOptions.destPath := "" всё;
			если ~options.GetString("кластьПереводыВ", compilerOptions.кластьПереводыВ) то 
				compilerOptions.кластьПереводыВ := "" всё;
			если compilerOptions.backend # НУЛЬ то compilerOptions.backend.GetOptions (options) всё;
			если compilerOptions.symbolFile # НУЛЬ то compilerOptions.symbolFile.GetOptions(options) всё;
			если compilerOptions.objectFile # НУЛЬ то compilerOptions.objectFile.GetOptions(options) всё;
			если compilerOptions.documentation # НУЛЬ то compilerOptions.documentation.GetOptions(options) всё;
			если ~options.GetString("условныеПеременные", compilerOptions.definitions) то compilerOptions.definitions := "" всё;
			если options.GetString("соглашениеОВызове", name) то
				если name = Global.StringC то compilerOptions.platformCallingConvention := SyntaxTree.СоглашениеОВызовахСи
				аесли name = Global.StringWinAPI то compilerOptions.platformCallingConvention := SyntaxTree.СоглашениеОВызовахWinAPI
				иначе
					compilerOptions.platformCallingConvention := SyntaxTree.СоглашениеОВызовахНеОпределённое
				всё;
			иначе
				compilerOptions.platformCallingConvention := SyntaxTree.СоглашениеОВызовахНеОпределённое
			всё;
			если options.GetFlag("английскиеИмена") то включиВоМнвоНаБитах(compilerOptions.flags, английскиеИмена) всё;
			если options.GetFlag("расширьМакросы") то включиВоМнвоНаБитах(compilerOptions.flags, расширьМакросы) всё;
		всё;

		если options.GetFlag("показываяИтоговыеОпции") то options.Show(error) всё;
		возврат result
	кон GetOptions;


	проц Compile*(context : Commands.Context);
	перем
		filename, path, file: Files.FileName;
		error: булево;
		(* пример перевода этих переменных см. в ГПИ_поискИ_заменаВ_файлах.ярм *)
		diagnostics: Diagnostics.Diagnostics;
		time: цел32; reader: Потоки.Чтец;
		importCache: SyntaxTree.ВнутренняяОбластьВидимостиМодуля;
		options: CompilerOptions;
		replacement: SemanticChecker.Replacement;
		name: массив ObjectFile.SegmentedNameLen из симв8;
	нач
		context.out.пСтроку8("Компилятор ЛИС"); context.out.пВК_ПС; 
		context.out.ПротолкниБуферВПоток;
		error := ложь;

		diagnostics := Basic.GetDiagnostics(context.error);
		если GetOptions(context.arg,context.error,diagnostics,options) то

			time := Kernel.GetTicks();
			нцПока Basic.GetStringParameter(context.arg,filename) и ~error делай
				если options.srcPath # "" то
					Files.SplitPath(filename, path, file);
					если path = "" то Files.JoinPath(options.srcPath, file, filename) всё;
				всё;
				reader := Basic.GetFileReader(filename);

				если reader = НУЛЬ то
					diagnostics.Error (filename, Потоки.НевернаяПозицияВПотоке, "не удалось открыть файл"); error := истина;
				иначе
					error := ~Modules(filename, reader, 0, diagnostics,context.out, options,  importCache);
				всё;
				context.out.ПротолкниБуферВПоток;
				context.error.ПротолкниБуферВПоток;
			кц;
			если ~(Silent в options.flags) то
				time := Kernel.GetTicks()-time;
				context.out.пВК_ПС; context.out.пСтроку8("на компиляцию ушло, мс: "); context.out.пЦел64(time,10);
			всё;
			если ~error то
				replacement := options.replacements;
				нцПока replacement # НУЛЬ делай
					если ~replacement.used то
						name := replacement.name;
						diagnostics.Warning(name,  Потоки.НевернаяПозицияВПотоке, " неиспользованная подмена константы.");
					всё;
					replacement := replacement.next;
				кц;
			всё;
		иначе
			context.result := Commands.CommandParseError;
		всё;
		если error то context.result := Commands.CommandError иначе context.result := Commands.Ok всё;

	кон Compile;

	проц CompileReader*(context: Commands.Context; reader: Потоки.Чтец);
	перем
		filename: массив 256 из симв8;
		error: булево;
		diagnostics: Diagnostics.Diagnostics;
		importCache: SyntaxTree.ВнутренняяОбластьВидимостиМодуля;
		options: CompilerOptions;
	нач
		error := ложь;
		diagnostics := Basic.GetDiagnostics(context.error);
		если GetOptions(context.arg,context.error,diagnostics,options) то

			если reader = НУЛЬ то
				diagnostics.Error (filename, Потоки.НевернаяПозицияВПотоке, "не удалось открыть файл"); error := истина;
			иначе
				error := ~Modules(filename, reader, 0, diagnostics, context.out, options, importCache);
			всё;
			context.out.ПротолкниБуферВПоток;
		иначе
			context.result := Commands.CommandParseError;
		всё;
	кон CompileReader;
	
	перем
		platforms: Options.Defaults;
		defaultPlatform: массив 32 из симв8;

	проц DoAddPlatform(конст name: массив из симв8; конст defaults: массив из симв8);
	нач
		platforms.Add(name, defaults);
	кон DoAddPlatform;

	проц ShowDefaults*(context: Commands.Context);
	нач
		platforms.Show(context.out)
	кон ShowDefaults;

	проц AddPlatform*(context: Commands.Context);
	перем name: массив 32 из симв8; defaults: массив 1024 из симв8;
	нач
		если context.arg.ПропустиБелоеПолеИЧитайЦепочкуСимволов8ДоБелогоПоляИлиВКавычках(name) и context.arg.ПропустиБелоеПолеИЧитайЦепочкуСимволов8ДоБелогоПоляИлиВКавычках(defaults) то
			DoAddPlatform(name, defaults);
		иначе
			context.result := Commands.CommandParseError;
		всё;
	кон AddPlatform;

	проц SetDefaultPlatform*(context: Commands.Context);
	перем name: массив 32 из симв8;
	нач
		если context.arg.ПропустиБелоеПолеИЧитайЦепочкуСимволов8ДоБелогоПоляИлиВКавычках(name) то
			копируйСтрокуДо0(name, defaultPlatform);
		всё;
	кон SetDefaultPlatform;

	проц GetDefaultPlatform(перем name: массив из симв8): булево;
	нач
		если defaultPlatform # "" то
			копируйСтрокуДо0(defaultPlatform, name);
			возврат истина
		иначе
			возврат ложь
		всё
	кон GetDefaultPlatform;

	проц SetupDefaults;
	перем extension: Files.FileName;
	нач
		Machine.GetConfig("ObjectFileExtension", extension);
		если extension = "" то
			копируйСтрокуДо0(Machine.DefaultObjectFileExtension, extension)
		всё;
		(* infer platform from default object file extension *)
		platforms.Find("objectFileExtension", extension, defaultPlatform);
	кон SetupDefaults;



нач
	нов(platforms);

	(* platform definitions hard coded for the common cases -- maybe (parts of it) should be outsourced to a file ?*)
	DoAddPlatform("Bios32","--хвост=LisAMDBackend --bits=32 --mergeSections --objectFileExtension=.Gof --symbolFileExtension=.Sym --условныеПеременные=BIOS,NATIVE,I386");
	DoAddPlatform("Bios64","--хвост=LisAMDBackend --bits=64 --mergeSections --objectFileExtension=.Goff --symbolFileExtension=.Symm --условныеПеременные=BIOS,NATIVE,AMD64");
	DoAddPlatform("Win32","--хвост=LisAMDBackend --bits=32 --mergeSections --objectFileExtension=.GofW --symbolFileExtension=.SymW --preciseGC --writeBarriers --trackLeave --cellsAreObjects --соглашениеОВызове=WINAPI --условныеПеременные=WIN,I386");
	DoAddPlatform("Win64","--хвост=LisAMDBackend --bits=64 --mergeSections --objectFileExtension=.GofWw --symbolFileExtension=.SymWw --preciseGC --writeBarriers --trackLeave --cellsAreObjects --соглашениеОВызове=WINAPI --условныеПеременные=WIN,AMD64");
	(* Хвоста LisTRMBackend нет, его нужно клонировать из соответствующего Fox* *)
	DoAddPlatform("ARM","--хвост=LisARMBackend --metaData=simple --objectFileExtension=.Goa --symbolFileExtension=.Sya --условныеПеременные=ARM");
	DoAddPlatform("Minos","--хвост=LisARMBackend --objectFile=Minos --условныеПеременные=ARM");
	DoAddPlatform("TRM","--хвост=LisTRMBackend --objectFile=Generic --metaData=simple --objectFileExtension=.GofT --symbolFileExtension=.SymT --условныеПеременные=TRM");
	DoAddPlatform("TRMI","--хвост=LisTRMBackend --objectFile=Intermediate --metaData=simple --objectFileExtension=.IroT --symbolFileExtension=.IrsT --условныеПеременные=TRM");
	DoAddPlatform("ARMA2","--хвост=LisARMBackend --mergeSections --условныеПеременные=ARM --objectFileExtension=.Gof --symbolFileExtension=.Sym");
	DoAddPlatform("Unix32","--хвост=LisAMDBackend --bits=32 --mergeSections --traceModule=Trace --objectFileExtension=.GofU --symbolFileExtension=.SymU --trackLeave --preciseGC --writeBarriers --cellsAreObjects --соглашениеОВызове=C --условныеПеременные=UNIX,I386");
	DoAddPlatform("Unix64","--хвост=LisAMDBackend --bits=64 --mergeSections --traceModule=Trace --objectFileExtension=.GofUu --symbolFileExtension=.SymUu --trackLeave --preciseGC --writeBarriers --cellsAreObjects --соглашениеОВызове=C --условныеПеременные=UNIX,AMD64");

	SetupDefaults;
кон LisCompiler.
