модуль MediaPlayer; (** AUTHOR "PL/staubesv"; PURPOSE "Media Player"; *)
(**
 *
 * History:
 *
 *	15.02.2006	Set UpdateInterval to 500ms, optionally open player window in current view,
 *				added SetEofAction & EofHandler for testing purposes, improved closing behaviour (staubesv)
 *
 * TODOs:
 *	- 	reuse filler threads
 *	-	optimize filler threads seek procedure (first look at already decoded pictures before flushing them - maybe we can use them)
 *	-	Does the player need to be able to play standalone at all? (Remove GUI related code from module?)
 *	-	implement/finish drop frame mechanism
 *	- 	improve SetPos
 *	-	Don't change volume of audio play channels
 *	- 	USE same position info for both audio and video!!! (milliseconds)
 *)

использует
	SoundDevices, Codecs, ЛогЯдра, Потоки, Commands, Kernel, Modules, WMTransitions,
	WMRectangles, WMGraphics, WMWindowManager, Raster, Strings;

конст
	(* Result codes *)
	Ok* = 0;
	CouldNotOpenStream* = 1;	(* Could not open the specified ressource as stream *)
	AudioNotCompatible* = 2;	(* Audio decoder found but not compatible *)
	VideoNotCompatible* = 3;	(* Video decoder found but not compatible *)
	DemuxNotCompatible* = 4; 	(* Demultiplexer found but not compatible *)
	NoVideoDecoder* = 5;
	NoAudioDecoder* = 6;
	NoDecoders* = 7;
	WrongParameters* = 8;

	(**	Player States 											*)
	NotReady* = 1;		(* No files opened, not playing anything 	*)
	Ready* = 2;	 		(* Player is ready to play 				*)
	Playing* = 3;	 	(* Player is playing a video 				*)
	Paused* = 4;		(* Player is paused 						*)
	Stopped* = 5;		(* Player is stopped 					 	*)
	InTransition* = 7;	(* Transition between two videos 		*)
	Finished* = 9;		(* Finished video/audio					*)
	Closed* = 10;		(* Player has been closed 				*)
	Error* = 99;			(* Player is in error state 				*)

	(* Next state field *)
	NoRequest = 0;

	(* Audio buffers *)
	AudioBufferSize = 288;
	AudioBuffers = 160;
	AudioConstantDelay = 100; (* Guessed time from playchannel.Start until audio is played *)

	(* How many video frames may filler thread decode ahead? *)
	VBUFFERS = 10;

	(* Interval in millisecond when update is called (it is, however, always called when the state of the player changes *)
	UpdateInterval = 500;

	(* Should the player window be forced to be always fullscreen? *)
	ForceFullscreen = ложь;

	(* Should the player window be forced to open in the default view? (Makes sense when operating over VNC) *)
	ForceDefaultView = ложь;

	(* Time in milliseconds when pointer should disappear. 0 = Cursor always hidden *)
	PointerInvisibleAfter = 2000;

	(* Gather performance data. Will be displayed on kernel log each time a filler is closed (loaded other video / quit) *)
	PerformanceStats = ложь;

	TraceNone = {};
	TracePlayer = {1};
	TraceOpen = {2};		(* Get new context 			*)
	TraceFiller = {3};			(* Video filler thread 		*)
	TraceTransitions = {4};	(* Video transitions 			*)
	TraceStates = {5}; 		(* Player states 				*)
	TraceRendering = {6}; 	(* Per frame rendering stats 	*)
	TraceEof = {7};			(* Trace calls to end of file handlers *)

	Trace = TraceNone;

	Debug = истина;

тип
	(* video buffer *)
	VideoBuffer = WMGraphics.Image;

	(* buffer pool for the video frames *)
	VideoBufferPool = окласс
	перем
		head, num: размерМЗ;
		buffer: укль на массив из VideoBuffer;

		проц &Init*(n: размерМЗ);
		нач
			head := 0; num := 0; нов(buffer, n)
		кон Init;

		проц Add(x: VideoBuffer);
		нач {единолично}
			дождись(num # длинаМассива(buffer));
			buffer[(head+num) остОтДеленияНа длинаМассива(buffer)] := x;
			увел(num)
		кон Add;

		проц Remove(): VideoBuffer;
		перем x: VideoBuffer;
		нач {единолично}
			дождись(num # 0);
			x := buffer[head];
			head := (head+1) остОтДеленияНа длинаМассива(buffer);
			умень(num);
			возврат x
		кон Remove;

		проц NofBuffers(): размерМЗ;
		нач {единолично}
			возврат num
		кон NofBuffers;

	кон VideoBufferPool;

тип

	KeyEventHandler* = проц {делегат} (ucs : размерМЗ; flags : мнвоНаБитахМЗ; keysym : размерМЗ);

	PointerDownHandler* = проц {делегат} (x, y : размерМЗ; keys : мнвоНаБитахМЗ);

	(** default Player Window where the video is played *)
	PlayerWindow* =  окласс(WMWindowManager.DoubleBufferWindow)
	перем
		player : Player;
		rect : WMRectangles.Rectangle;
		videoWidth, videoHeight : размерМЗ;

		(* Fullscreen functionality related *)
		fullscreen- : булево;
		lastFrame : WMGraphics.Image;
		posX, posY : размерМЗ; (* Last window position in windowed-mode *)

		(* Pointer invisible functionality related *)
		timer : Kernel.Timer;
		lastTimestamp, timestamp : цел32; (* Timemark when mouse pointer was moved last time *)

		(* External handlers for key/pointer events. CURRENTLY ACCESS IS NOT SYNCHRONIZED! *)
		extPointerDownHandler* : PointerDownHandler;
		extKeyEventHandler* : KeyEventHandler;

		(* Active object control *)
		alive, dead : булево;

		проц &New*(w, h : цел32; alpha : булево; player : Player; autoHideCursor : булево);
		нач
			сам.player := player; videoWidth := w; videoHeight := h; posX := 100; posY := 100;
			rect := WMRectangles.MakeRect(0, 0, w, h);
			Init(w, h, alpha);
			manager := WMWindowManager.GetDefaultManager ();
			если ForceDefaultView то
				manager.Add(posX, posY, сам, {WMWindowManager.FlagFrame});
			иначе
				WMWindowManager.AddWindow(сам, posX, posY);
			всё;
			manager.SetFocus(сам);
			SetTitle(WMWindowManager.NewString("Video Panel"));
			SetIcon(WMGraphics.LoadImage("WMIcons.tar://MediaPlayer.png", истина));
			если autoHideCursor и (PointerInvisibleAfter > 0) то
				нов(timer);
				alive := истина; dead := ложь;
				SetPointerVisible(истина);
			иначе
				alive := ложь; dead := истина;
				SetPointerVisible(ложь);
			всё;
			fullscreen := ложь;
		кон New;

		(** Toggle between fullscreen and window mode *)
		проц ToggleFullscreen*;
		перем view : WMWindowManager.ViewPort; width, height : размерМЗ;
		нач
			если fullscreen то
				ReInit(videoWidth, videoHeight);
				manager.SetWindowSize(сам, videoWidth, videoHeight);
				rect := WMRectangles.MakeRect(0, 0, videoWidth, videoHeight);
				manager.SetWindowPos(сам, posX, posY);
				если lastFrame # НУЛЬ то ShowFrame(lastFrame); всё;
				fullscreen := ложь;
			иначе
				posX := bounds.l; posY := bounds.t;
				view := WMWindowManager.GetDefaultView();
				width := округлиВниз(view.range.r - view.range.l);
				height := округлиВниз(view.range.b - view.range.t);
				ReInit(width, height);
				manager.SetWindowSize(сам, width, height);
				manager.SetWindowPos(сам, округлиВниз(view.range.l), округлиВниз(view.range.t));
				rect := WMRectangles.MakeRect(0, 0, width, height);
				если lastFrame # НУЛЬ то ShowFrame(lastFrame); всё;
				fullscreen := истина;
			всё;
		кон ToggleFullscreen;

		(* Overwrite draw procedure because we do not want any interpolation *)
		проц {перекрыта}Draw*(canvas : WMGraphics.Canvas; w, h : размерМЗ; q : цел32);
		нач
			Draw^(canvas, w, h, 0);
		кон Draw;

		проц {перекрыта}Close*;
		нач
			player.Close;
			alive := ложь; если timer # НУЛЬ то timer.Wakeup; всё;
			нач {единолично} дождись(dead); кон;
			Close^;
		кон Close;

		(* Key Handler *)
		проц {перекрыта}KeyEvent*(ucs : размерМЗ; flags : мнвоНаБитахМЗ; keysym : размерМЗ);
		нач
			если extKeyEventHandler # НУЛЬ то extKeyEventHandler(ucs, flags, keysym); всё;
			если keysym = 0FF50H то (* Cursor Home *)
				player.ToggleFullScreen(НУЛЬ, НУЛЬ)
			всё;
		кон KeyEvent;

		проц ShowBlack*;
		перем rect : WMRectangles.Rectangle;
		нач
			Raster.Clear(img);
			Invalidate(rect);
		кон ShowBlack;

		проц ShowFrame*(frame : WMGraphics.Image);
		перем s, d : WMRectangles.Rectangle; h, w : цел32;
		нач
			нач {единолично} (* Don't execute the same time as SELF.ReInit does *)
				lastFrame := frame;
				если (img.width = frame.width) и (img.height = frame.height) то
					canvas.DrawImage(0, 0, frame, WMGraphics.ModeCopy);
					d := WMRectangles.MakeRect(0, 0, img.width, img.height)
				иначе
					s := WMRectangles.MakeRect(0, 0, frame.width, frame.height);
					если (img.width/frame.width) < (img.height/frame.height) то
						h := округлиВниз(frame.height/frame.width*img.width);
						d := WMRectangles.MakeRect(0, (img.height- h) DIV 2, img.width, img.height - (img.height - h) DIV 2)
					иначе
						w := округлиВниз(frame.width/frame.height*img.height);
						d := WMRectangles.MakeRect((img.width - w) DIV 2, 0, img.width - (img.width - w) DIV 2, img.height)
					всё;
					canvas.ScaleImage(frame, s, d, WMGraphics.ModeCopy, 0)
				всё;
			кон;
			Swap;
			Invalidate(d);
		кон ShowFrame;

		(* Make pointer visible when it is moved *)
		проц {перекрыта}PointerMove*(x, y : размерМЗ; keys : мнвоНаБитахМЗ);
		нач
			если PointerInvisibleAfter > 0 то
				lastTimestamp := Kernel.GetTicks();
				SetPointerVisible(истина);
			всё;
		кон PointerMove;

		проц {перекрыта}PointerDown*(x, y : размерМЗ; keys : мнвоНаБитахМЗ);
		нач
			если PointerInvisibleAfter > 0 то
				lastTimestamp := Kernel.GetTicks();
				SetPointerVisible(истина);
				если keys # {2} то ToggleFullscreen; всё;
				если extPointerDownHandler # НУЛЬ то extPointerDownHandler(x, y, keys); всё;
			всё;
		кон PointerDown;

		проц SetPointerVisible(visible : булево);
		нач (* Since pointer move messages are not just sent once, we don't need to synchronize access to the pointerVisible field *)
			если visible то
				SetPointerInfo(manager.pointerStandard);
			иначе
				SetPointerInfo(manager.pointerNull);
			всё;
		кон SetPointerVisible;

	нач {активное}
		если PointerInvisibleAfter < 1 то alive := ложь; всё;
		нцПока alive делай (* Make pointer invisible when it is not moved for a certain amount of time *)
			timer.Sleep(PointerInvisibleAfter + 10);
			timestamp := Kernel.GetTicks();
			если (timestamp - lastTimestamp >= PointerInvisibleAfter) то
				 SetPointerVisible(ложь);
			всё;
		кц;
		нач {единолично} dead := истина; кон;
	кон PlayerWindow;

тип

	(* buffer filler thread *)
	Filler = окласс
	перем
		videoDecoder : Codecs.VideoDecoder;
		vBufferPool : VideoBufferPool;
		readyBufferPool : VideoBufferPool;
		vBuffer : VideoBuffer;
		blackBuffer : VideoBuffer;
		drop : цел32;
		frame : VideoBuffer;

		alive, positionChanged : булево;

		(* Performance statistics *)
		framesDecoded : цел32;
		min, max, tot : цел32;
		perf : цел32;
		dropped : цел32;

		проц &New*(videoWidth, videoHeight : размерМЗ; videoDecoder : Codecs.VideoDecoder);
		перем i : цел32;
		нач
			(* empty buffers *)
			нов(vBufferPool, VBUFFERS);
			нцДля i := 0 до VBUFFERS-1 делай
				нов(vBuffer);
				Raster.Create(vBuffer, videoWidth, videoHeight, Raster.BGR565);
				vBufferPool.Add(vBuffer)
			кц;
			(* full buffers *)
			нов(readyBufferPool, VBUFFERS);
			(* temp buffer *)
			нов(blackBuffer); нов(frame);
			Raster.Create(blackBuffer, videoWidth, videoHeight, Raster.BGR565);
			Raster.Create(frame, videoWidth, videoHeight, Raster.BGR565);
			сам.videoDecoder := videoDecoder;
			alive := истина; positionChanged := ложь;
			если PerformanceStats то
				min := матМаксимум(цел32);
			всё;
		кон New;

		(* Returns the next Buffer ready to be played *)
		проц GetNextBuffer(): VideoBuffer;
		нач
			если readyBufferPool.NofBuffers() > 0 то
				возврат readyBufferPool.Remove()
			иначе
				увел(dropped);
				возврат blackBuffer;
			всё;
		кон GetNextBuffer;

		(* Puts the buffer back into the empty BufferPool *)
		проц ReturnBuffer(buf : VideoBuffer);
		нач
			если buf # blackBuffer то
				vBufferPool.Add(buf)
			всё
		кон ReturnBuffer;

		проц DropFrames(n : цел32);
		нач
			drop := n
		кон DropFrames;

		проц GetPos(): цел32;
		нач {единолично}
			 возврат videoDecoder.GetCurrentFrame()
		кон GetPos;

		проц SeekAndGetFrame(pos: цел32; перем f : WMGraphics.Image; перем res : цел32);
		нач  {единолично}
			утв(frame # НУЛЬ);
			нцПока readyBufferPool.NofBuffers() > 0 делай (* flush Buffer *)
				vBufferPool.Add(readyBufferPool.Remove())
			кц;
			videoDecoder.SeekFrame(pos, истина, res);
			videoDecoder.Next; videoDecoder.Next;
			videoDecoder.Render(frame);
			f := frame;
			videoDecoder.SeekFrame(pos, истина, res);
			videoDecoder.Next;
			если videoDecoder.HasMoreData() то positionChanged := истина; всё;
		кон SeekAndGetFrame;

		проц SeekFrame(pos : цел32; isKeyFrame : булево; перем res : цел32);
		нач {единолично}
			нцПока readyBufferPool.NofBuffers() > 0 делай (* flush Buffer *)
				vBufferPool.Add(readyBufferPool.Remove())
			кц;
			videoDecoder.SeekFrame(pos, истина, res);
			videoDecoder.Next;
			если videoDecoder.HasMoreData() то positionChanged := истина; всё;
		кон SeekFrame;

		(* Returns the number of decoded frames available *)
		проц NofFullBuffers() : размерМЗ;
		нач
			возврат readyBufferPool.NofBuffers()
		кон NofFullBuffers;

		(* Terminate the filler process, but still grant access to already decoded frames *)
		проц Stop;
		нач {единолично}
			если Trace * TraceFiller # {} то ЛогЯдра.пСтроку8("MediaPlayer: Filler stopped."); ЛогЯдра.пВК_ПС; всё;
			alive := ложь;
		кон Stop;

		(* Terminate the filler process *)
		проц Close;
		нач {единолично}
			если Trace * TraceFiller # {} то ЛогЯдра.пСтроку8("MediaPlayer: Closing filler..."); ЛогЯдра.пВК_ПС; всё;
			alive := ложь;
			(* To establish await conditions required to exit the active objects body *)
			если readyBufferPool.NofBuffers() > 0 то vBufferPool.Add(readyBufferPool.Remove()); всё;
		кон Close;

	нач {активное}
		нцПока alive делай
			если videoDecoder.HasMoreData() то
				vBuffer := vBufferPool.Remove(); (* Will block of no buffers available *)
				нач {единолично}
					если alive и videoDecoder.HasMoreData() то
						если PerformanceStats то
							perf := Kernel.GetTicks();
						всё;
						videoDecoder.Next;
						videoDecoder.Render(vBuffer);
						если PerformanceStats то
							perf := Kernel.GetTicks() - perf;
							если perf < min то min := perf;
							аесли perf > max то max := perf;
							всё;
							увел(tot, perf);
							увел(framesDecoded);
						всё;
					всё;
				кон;
				readyBufferPool.Add(vBuffer);
			иначе
				нач {единолично} дождись(positionChanged или ~alive); positionChanged := ложь; кон;
			всё;
		кц;
		если Trace * TraceFiller # {} то ЛогЯдра.пСтроку8("MediaPlayer: Filler closed."); ЛогЯдра.пВК_ПС; всё;
		если PerformanceStats то
			если framesDecoded > 0 то
				ЛогЯдра.пСтроку8("MediaPlayer: Decoded "); ЛогЯдра.пЦел64(framesDecoded, 0); ЛогЯдра.пСтроку8(" frames in "); ЛогЯдра.пЦел64(tot, 0);
				ЛогЯдра.пСтроку8("ms (min: "); ЛогЯдра.пЦел64(min, 0);
				ЛогЯдра.пСтроку8(", avg: "); ЛогЯдра.пЦел64(tot DIV framesDecoded, 0); ЛогЯдра.пСтроку8(", max: "); ЛогЯдра.пЦел64(max, 0); ЛогЯдра.пСтроку8(")");
				ЛогЯдра.пСтроку8(", "); ЛогЯдра.пЦел64(dropped, 0); ЛогЯдра.пСтроку8(" frames not decoded in time"); ЛогЯдра.пВК_ПС;
			всё;
		всё;
	кон Filler;

тип

	Setup* = укль на запись
		uri- : массив 256 из симв8;

		hasAudio-, hasVideo- : булево;	(* Does the opened ressource contain audio and video? *)
		canSeek- : булево;				(* Is seeking supported? *)

		maxTime- : цел32;				(* Duration of Video/Audio in 1/10 sec *)

		(* If hasVideo *)
		width-, height- : цел32;			(* width and height of video frames if applicable *)
		mspf- : цел32;					(* milliseconds per frame *)
		maxFrames- : цел32;

		(* If hasAudio *)
		channels-, bits-, rate-: цел32; 	(* Number of audio channels, resolution and rate *)
	кон;

	(* The context record stores all information needed to play the associated ressource *)
	Context = укль на запись
		uri : массив 256 из симв8;					(* Ressource to be played *)
		hasVideo, hasAudio : булево;	 			(* Does the ressource contain video and/or audio? *)
		canSeek : булево;						(* Do the video and the audio stream support seeking? *)

		pos, oldPos : цел32;						(* Current/last position in stream *)

		(* Only accessible if hasVideo = TRUE *)
		video : Codecs.VideoDecoder;
		maxFrames, maxTime : цел32;
		width, height, mspf : цел32;				(* width, heigth & milliseconds per frame of video *)
		filler : Filler;									(* Video Filler Thread *)
		vBuffer : VideoBuffer;						(* Video Buffer Object *)

		(* Only accessible if hasAudio = TRUE *)
		audio : Codecs.AudioDecoder;
		channels, bits, rate : цел32;				(* Number of audio channels, their resolution (bits) and sampling rate (rate) (reported by GetAudioInfo() *)
		posRate : цел32;							(* StreamInfo reports other rate than GetAudioInfo(). Use this value for calculating audio positions  *)
		aBuffer : SoundDevices.Buffer;
		channel : SoundDevices.Channel;
		bufferpool : SoundDevices.BufferPool;
		delay : цел32;							(* Delay in milliseconds induced by using audio buffers *)

		(* Transition related *)
		transition : WMTransitions.TransitionFade;	(* Transition Object*)
		transitionFrame : цел32;					(* Current frame in Transition *)
		transitionDuration : цел32;				(* Number of frames the transition endures *)
		transitionImg : VideoBuffer;					(* Transition target video buffer *)
		black : VideoBuffer; 							(* Black frame *)
	кон;

тип

	EofProc = проц {делегат} (sender, data: динамическиТипизированныйУкль);

	(* Decouples end-of-file handlers from media player main loop. This enables eof handlers to call methods
	 * of the media player *)
	EofHandler = окласс
	перем
		proc : EofProc;
		player : Player;
		alive, dead, called : булево;

		проц Call;
		нач {единолично}
			called := истина;
		кон Call;

		проц Terminate;
		нач
			если Trace * TraceEof # {} то ЛогЯдра.пСтроку8("MediaPlayer: Terminating EOF handler."); ЛогЯдра.пВК_ПС; всё;
			нач {единолично} alive := ложь; кон;
			(* Release obj lock to force condition evaluation *)
			нач {единолично} дождись(dead); кон;
		кон Terminate;

		проц &New*(player : Player);
		нач
			сам.player := player; alive := истина; dead := ложь;
		кон New;

	нач {активное}
		нцПока alive делай
			нач {единолично} дождись(~alive или called); called := ложь; кон;
			если alive и (proc # НУЛЬ) то
				если Trace * TraceEof # {} то ЛогЯдра.пСтроку8("MediaPlayer: Call EOF procedure."); ЛогЯдра.пВК_ПС; всё;
				proc(player, НУЛЬ);
			всё;
		кц;
		нач {единолично} dead := истина; кон;
	кон EofHandler;

	(**
	 * Player Object
	 * The body of the active object manages the state of the player. If a client wants to change the player state, it
	 * issues a state change request using (indirectly) RequestState.
	 *)
	Player*= окласс
	перем
		(* Access the fields 'state', 'current' and 'next' only from within exclusive regions! *)
		state : цел32;												(* Current state of player *)
		current, next : Context;

		(* State change request fields. Access via RequestState and GetRequestedState. *)
		nextState : цел32;
		nextContext : Context;
		requestProcessed : булево;

		lock : булево;

		console* : булево; (* Should error messages be displayed on console? *)

		(* Audio *)
		soundDevice : SoundDevices.Driver;									(* Audio Device *)
		mixerChannel, pcmChannel, mChannel : SoundDevices.MixerChannel;	(* Audio Mixer Channel *)
		channelName : массив 128 из симв8;							(* Audio Mixer Channel Name *)

		(* player window *)
		pw : PlayerWindow;												(* Video Window *)

		(* Timing *)
		timer : Kernel.Timer;
		tickStart : цел32;												(* TimeMark Start of Playing *)
		tickDelay : цел32;											(* Number of milliseconds the decoding was too slow *)
		lastUpdate : цел32;											(* Last time the update procedure was called *)
		videoFramesPlayed : цел32;									(* Video Frames played since TimeMarkStart *)
		(* Milliseconds per frame; used for time synchronisation. TODO: Currently, the mspf value of the 'current' context is used.
		what if 'next' context has another mspf value and is concurrently played (transition)? *)
		mspf : цел32;

		(* Delegates *)
		setup* : проц {делегат} (data : Setup);											(* init for GUI *)
		update* : проц {делегат} (state, pos, maxpos, displayTime: цел32);			(* update for GUI *)
		eof : EofHandler;																		(* fired on End of File *)

		(** -- Player Controls ----------------------------------------------- *)

		(* Open the given uri *)
		проц Open*(конст uri : массив из симв8; перем msg : массив из симв8; перем res : целМЗ);
		перем  context : Context;
		нач
			context := GetContext(uri, msg, res);
			если (res # Ok) или (context = НУЛЬ) то
				если Debug или console то
					ЛогЯдра.пСтроку8("MediaPlayer: Could not open file "); ЛогЯдра.пСтроку8(uri);
					ЛогЯдра.пСтроку8("(res: "); ЛогЯдра.пЦел64(res, 0); ЛогЯдра.пСтроку8(", "); ЛогЯдра.пСтроку8(msg); ЛогЯдра.пСтроку8(")");
					ЛогЯдра.пВК_ПС;
				всё;
				возврат;
			всё;
			RequestState(Ready, context);
			если Trace * TraceOpen # {} то ЛогЯдра.пСтроку8("MediaPlayer: Opened "); ЛогЯдра.пСтроку8(uri); ЛогЯдра.пВК_ПС; всё;
		кон Open;

		проц Play*;
		нач
			RequestState(Playing, НУЛЬ);
		кон Play;

		(* pos & duration set in number of video frames *)
		проц DoTransition*(конст uri: массив из симв8; pos, duration : цел32; перем msg : массив из симв8; перем res : целМЗ);
		перем context : Context; audioPos : цел32;
		нач
			если Trace * TraceTransitions # {} то
				ЛогЯдра.пСтроку8("MediaPlayer: Doing a Transition to "); ЛогЯдра.пСтроку8(uri); ЛогЯдра.пСтроку8(" (Duration: ");
				ЛогЯдра.пЦел64(duration, 0); ЛогЯдра.пСтроку8(" frames)"); ЛогЯдра.пВК_ПС;
			всё;
			если (duration < 1) или (pos < 0) то
				если Debug или console то ЛогЯдра.пСтроку8("MediaPlayer: Warning: DoTransition: Pos or duration value adjusted."); ЛогЯдра.пВК_ПС; всё;
				если pos < 0 то pos := 0; всё;
				если duration < 1 то duration := 1; всё;
			всё;

			context := GetContext(uri, msg, res);
			если context = НУЛЬ то
				если Debug или console то ЛогЯдра.пСтроку8("MediaPlayer: Could not get context for transition: "); ЛогЯдра.пСтроку8(msg); ЛогЯдра.пВК_ПС; всё;
				возврат;
			всё;

			если context.hasVideo и (pos > context.maxFrames) то
				если Debug или console то
					ЛогЯдра.пСтроку8("MediaPlayer: Warning: DoTransition: Pos value clipped to maxFrames: ");
					ЛогЯдра.пЦел64(context.maxFrames, 0); ЛогЯдра.пВК_ПС;
				всё;
				pos := context.maxFrames;
				(* Continue *)
			всё;

			если context.hasVideo то
				context.filler.SeekFrame(pos, истина, res);
				context.pos := res; context.oldPos := res-1;
				если context.hasAudio то (* search the according Audio *)
					(* The value 12 corresponds to cdSize in the AVI - WaveFormatStructure - should be given via Codecs *)
					audioPos := округлиВниз(context.maxTime/10*context.posRate*(res/context.maxFrames) -
						округлиВниз(context.maxTime/10*context.posRate*(res/context.maxFrames)) остОтДеленияНа 12);
					если audioPos  < 0 то audioPos := 0 всё;
				всё;

				(* Init Transition *)
				нов(context.transition); context.transition.Init(context.width, context.height);
				нов(context.transitionImg); Raster.Create(context.transitionImg, context.width, context.height, Raster.BGR565);
				нов(context.black); Raster.Create(context.black, context.width, context.height, Raster.BGR565);
				context.transitionFrame := 0;
				context.transitionDuration := duration;
			всё;

			если context.hasAudio и (soundDevice # НУЛЬ) то
				context.audio.SeekSample(audioPos, ложь, res);
				context.channel.SetVolume(0);
				context.channel.Start;
			всё;

			если Trace * TraceTransitions # {} то
				ЛогЯдра.пСтроку8("MediaPlayer: Transition to pos (next keyframe): "); ЛогЯдра.пЦел64(context.pos, 0);
				ЛогЯдра.пСтроку8(" (wanted: "); ЛогЯдра.пЦел64(pos, 0); ЛогЯдра.пСтроку8(")"); ЛогЯдра.пВК_ПС;
			всё;
			RequestState(InTransition, context);
		кон DoTransition;

		проц Stop*;
		нач
			RequestState(Stopped, НУЛЬ);
		кон Stop;

		проц Pause*;
		нач
			RequestState(Paused, НУЛЬ);
		кон Pause;

		(* Get in  1/10 sec. Returns -1 if information is not available. *)
		проц GetPos*(): цел32;
		перем context : Context; res : целМЗ;
		нач {единолично}
			res := -1;
			context := current;
			если context # НУЛЬ то
				если context.hasVideo то res := 10*current.filler.GetPos() DIV (1000 DIV current.mspf);
				аесли current.hasAudio то res := current.audio.GetCurrentTime();
				всё;
			всё;
			возврат res;
		кон GetPos;

		(* Set position *)
		проц SetPos*(pos: цел32);
		перем current : Context;  audioPos, res : цел32; img : WMGraphics.Image;
		нач {единолично}
			если pos < 0 то
				если Debug то ЛогЯдра.пСтроку8("MediaPlayer: Warning: Setpos to "); ЛогЯдра.пЦел64(pos, 0); ЛогЯдра.пСтроку8("!?!"); ЛогЯдра.пВК_ПС; всё;
				pos := 0;
			всё;
			current := сам.current;
			если (current # НУЛЬ) и current.canSeek то
				если current.hasVideo то
					если pos > current.maxFrames то
						если Debug то ЛогЯдра.пСтроку8("MediaPlayer: Warning: Setpos to "); ЛогЯдра.пЦел64(pos, 0); ЛогЯдра.пСтроку8(" (>MaxFrames)!?! "); ЛогЯдра.пВК_ПС; всё;
						pos := current.maxFrames;
					всё;
					current.filler.SeekAndGetFrame(pos, img, res);
					если img # НУЛЬ то
						если pw # НУЛЬ то pw.ShowFrame(img); всё;
					всё;
					current.pos := res;
					current.oldPos := current.pos-1;
					если current.hasAudio то (* search the according Audio *)
						(* The value 12 corresponds to cdSize in the AVI - WaveFormatStructure - should be given via Codecs *)
						audioPos := округлиВниз(current.maxTime/10*current.posRate*(res/current.maxFrames) -
							округлиВниз(current.maxTime/10*current.posRate*(res/current.maxFrames)) остОтДеленияНа 12);
						если audioPos  < 0 то audioPos := 0 всё;
						current.audio.SeekSample(audioPos, ложь, res);
					всё;
				аесли current.hasAudio то	(* search audio only *)
					pos := округлиВниз(pos / 10 * current.posRate);
					current.audio.SeekSample(pos, ложь, res);
					pos := current.audio.GetCurrentTime();
					current.pos := pos;
					current.oldPos := current.pos-1;
				всё;
				(* IF update # NIL THEN update(state, pos, current.maxFrames, pos) END *)
			всё;
		кон SetPos;

		проц SetEofAction(proc : EofProc);
		нач {единолично}
			если eof = НУЛЬ то нов(eof, сам); всё;
			eof.proc := proc;
		кон SetEofAction;

		(* Creates a new Player Instance *)
		проц &New*;
		перем i : цел32;
		нач
			нов(timer);
			если (SoundDevices.devices.Get("") # НУЛЬ) то
			 	soundDevice := SoundDevices.GetDefaultDevice();
				(* set mixerchannel to max output *)
				soundDevice.GetMixerChannel(0, mixerChannel); (* global mixer channel *)
				mixerChannel.SetVolume(255);
				(* find PCM MixerChannel *)
				нцДля i := 0 до soundDevice.GetNofMixerChannels() - 1 делай
					soundDevice.GetMixerChannel(i, mChannel);
					mChannel.GetName(channelName);
					если channelName = "PCMOut" то pcmChannel := mChannel; pcmChannel.SetVolume(255) всё
				кц;
			всё;
			eof := НУЛЬ;
			SetState(NotReady);
		кон New;

		проц Acquire;
		нач {единолично}
			дождись(lock = ложь);
			lock := истина;
		кон Acquire;

		проц Release;
		нач {единолично}
			lock := ложь;
		кон Release;

		(* Request to media player to go into the specified state *)
		проц RequestState(state : цел32; context : Context);
		нач
			Acquire;
			нач {единолично}
				requestProcessed := ложь;
				если nextState # NoRequest то (* Skip the already scheduled state change *)
					если nextContext # НУЛЬ то FreeContext(nextContext); всё;
				всё;
				nextState := state;
				nextContext := context;
			кон;
			(* Release the lock to evaluate the 'nextState' await condition which in turn will
			lead to requestProcessed to be set. *)
			нач {единолично}
				дождись(requestProcessed или (state >= Closed));
			кон;
			Release;
		кон RequestState;

		проц GetRequestedState(перем state : цел32; перем context : Context);
		нач {единолично}
			state := nextState; nextState := NoRequest;
			context := nextContext; nextContext := НУЛЬ;
			requestProcessed := истина;
		кон GetRequestedState;

		проц SetState(state : цел32);
		нач {единолично}
			если Trace * TraceStates # {} то ЛогЯдра.пСтроку8("MediaPlayer: Set state to "); ЛогЯдра.пЦел64(state, 0); ЛогЯдра.пВК_ПС; всё;
			сам.state := state;
		кон SetState;

		проц GetState() : цел32;
		нач {единолично}
			возврат state;
		кон GetState;

		проц ToggleFullScreen*(sender, data : динамическиТипизированныйУкль);
		нач {единолично}
			если (pw # НУЛЬ) и (~ForceFullscreen) то pw.ToggleFullscreen; всё;
		кон ToggleFullScreen;

		проц CheckWindow(context : Context);
		перем oldPw : PlayerWindow;
		нач
			если context.hasVideo то
				если (pw # НУЛЬ) и pw.fullscreen то
					(* do nothing *)
				аесли (pw = НУЛЬ) или (pw.GetWidth() # context.width) или (pw.GetHeight() # context.height) то
					oldPw := pw;
					нов(pw, context.width, context.height, ложь, сам, истина);
					если ForceFullscreen то pw.ToggleFullscreen; всё;
					если oldPw # НУЛЬ то oldPw.Close; всё;
				всё;
			аесли pw # НУЛЬ то
				pw.Close;
			всё;
		кон CheckWindow;

		(* reset the tickTimer *)
		проц InitTime;
		нач
			 tickStart := Kernel.GetTicks(); tickDelay := 0;
			videoFramesPlayed := 0;
		кон InitTime;

		(* Allocate ressources required for playing the audio/video stream *)
		проц GetContext(конст uri : массив из симв8; перем msg : массив из симв8; перем res : целМЗ) : Context;
		перем
			in, audioStream, videoStream : Потоки.Чтец;
			demux : Codecs.AVDemultiplexer;
			audioDecoder : Codecs.AudioDecoder; videoDecoder : Codecs.VideoDecoder;
			streamInfo : Codecs.AVStreamInfo;
			nofStreams, type, maxFrames, maxTime, width, height, mspf : цел32;
			channels, rate, bits: цел32;
			buffer : SoundDevices.Buffer;
			hasAudio, hasVideo : булево;
			audioCanSeek, videoCanSeek : булево;
			name, ext : массив 256 из симв8;
			context : Context;
			i : цел32;
		нач
			если Trace * TraceOpen # {} то ЛогЯдра.пСтроку8("MediaPlayer: Get decoders for: "); ЛогЯдра.пСтроку8(uri); ЛогЯдра.пВК_ПС; всё;
			in := Codecs.OpenInputStream(uri);
			если (in = НУЛЬ) то
				res := CouldNotOpenStream; копируйСтрокуДо0("Can't open stream: ", msg); Strings.Append(msg, uri);
				если Debug или console то ЛогЯдра.пСтроку8("MediaPlayer: "); ЛогЯдра.пСтроку8(msg); ЛогЯдра.пВК_ПС; всё;
				возврат НУЛЬ;
			всё;

			Strings.GetExtension(uri, name, ext);	(* split uri into name & extension *)
			Strings.UpperCase(ext);					(* convert extension to UpperCase for Codecs *)

			(* find Demultiplexer *)
			demux := Codecs.GetDemultiplexer(ext);
			если demux = НУЛЬ то
				если Trace * TraceOpen # {} то ЛогЯдра.пСтроку8("MediaPlayer: No Demux found: "); ЛогЯдра.пСтроку8(ext); ЛогЯдра.пВК_ПС; всё;
				(* no demuxable file / no suitable demux *)
				audioDecoder := Codecs.GetAudioDecoder(ext);
				если (audioDecoder # НУЛЬ) то
					audioDecoder.Open(in, res);
					если (res # Codecs.ResOk) то
						res := AudioNotCompatible; копируйСтрокуДо0("Audio stream not compatible: ", msg); Strings.Append(msg, uri);
						если Debug или console то ЛогЯдра.пСтроку8("MediaPlayer: "); ЛогЯдра.пСтроку8(msg); ЛогЯдра.пВК_ПС; всё;
						возврат НУЛЬ;
					всё;
					hasAudio := истина;
					audioCanSeek := audioDecoder.CanSeek();
					если in суть Codecs.FileInputStream то (* Set the Stream Length in Bytes, needed for some Functions in some Decoders *)
						audioDecoder.SetStreamLength(in(Codecs.FileInputStream).f.Length()(цел32));
					всё;
				иначе
					videoDecoder := Codecs.GetVideoDecoder(ext);
					если (videoDecoder # НУЛЬ) то
						videoDecoder.Open(in, res);
						если (res # Codecs.ResOk) то
							res := VideoNotCompatible; копируйСтрокуДо0("Video stream not compatible: ", msg); Strings.Append(msg, uri);
							если Debug или console то ЛогЯдра.пСтроку8("MediaPlayer: "); ЛогЯдра.пСтроку8(msg); ЛогЯдра.пВК_ПС; всё;
							возврат НУЛЬ;
						всё;
						hasVideo := истина;
						videoCanSeek := videoDecoder.CanSeek();
					иначе
						res := NoDecoders; копируйСтрокуДо0("No decoder available for: ", msg); Strings.Append(msg, uri);
						если Debug или console то ЛогЯдра.пСтроку8("MediaPlayer: "); ЛогЯдра.пСтроку8(msg); ЛогЯдра.пВК_ПС; всё;
						возврат НУЛЬ;
					всё;
				всё;
			иначе
				если Trace * TraceOpen # {} то ЛогЯдра.пСтроку8("MediaPlayer: Demux found: "); ЛогЯдра.пСтроку8(ext); ЛогЯдра.пВК_ПС; всё;
				demux.Open(in, res);
				если (res # Codecs.ResOk) то
					res := DemuxNotCompatible; копируйСтрокуДо0("Demux stream not compatible: ", msg); Strings.Append(msg, uri);
					если Debug или console то ЛогЯдра.пСтроку8("MediaPlayer: "); ЛогЯдра.пСтроку8(msg); ЛогЯдра.пВК_ПС; всё;
					возврат НУЛЬ;
				всё;
				nofStreams := demux.GetNumberOfStreams();
				если Trace * TraceOpen # {} то ЛогЯдра.пСтроку8("MediaPlayer: Number of Streams: "); ЛогЯдра.пЦел64(nofStreams, 0); ЛогЯдра.пВК_ПС; всё;
				нцДля i := 0 до nofStreams-1 делай
					если Trace * TraceOpen # {} то ЛогЯдра.пСтроку8("MediaPlayer: Processing Stream: "); ЛогЯдра.пЦел64(i, 0); всё;
					type := demux.GetStreamType(i);
					если Trace * TraceOpen # {}  то ЛогЯдра.пСтроку8(" with Type: "); ЛогЯдра.пЦел64(type, 0); ЛогЯдра.пВК_ПС; всё;
					если (type = Codecs.STVideo) то (* Video Stream *)
						videoStream := demux.GetStream(i);
						videoStream(Codecs.DemuxStream).Open(demux, i);
						streamInfo := demux.GetStreamInfo(i);
						videoDecoder := Codecs.GetVideoDecoder(streamInfo.contentType);
						если (videoDecoder = НУЛЬ) то
							res := NoVideoDecoder; копируйСтрокуДо0("No Decoder for video format: ", msg); Strings.Append(msg, streamInfo.contentType);
							если Debug или console то ЛогЯдра.пСтроку8("MediaPlayer: "); ЛогЯдра.пСтроку8(msg); ЛогЯдра.пВК_ПС; всё;
							hasVideo := ложь;
						иначе
							videoDecoder.Open(videoStream, res);
							если (res # Codecs.ResOk) то
								res := VideoNotCompatible; копируйСтрокуДо0("Video stream not compatible: ", msg); Strings.Append(msg, uri);
								если Debug или console то ЛогЯдра.пСтроку8("MediaPlayer: "); ЛогЯдра.пСтроку8(msg); ЛогЯдра.пВК_ПС; всё;
								hasVideo := ложь;
							иначе
								videoCanSeek := videoDecoder.CanSeek();
								maxFrames := streamInfo.frames;
								если streamInfo.rate # 0 то maxTime := 10 * streamInfo.frames DIV streamInfo.rate; (* 1/10 sec *)
								иначе videoCanSeek := ложь;
								всё;
								hasVideo := истина;
							всё;
						всё;
					аесли (type = Codecs.STAudio) то (* Audio Stream *)
						audioStream := demux.GetStream(i);
						audioStream(Codecs.DemuxStream).Open(demux, i);
						streamInfo := demux.GetStreamInfo(i);
						audioDecoder := Codecs.GetAudioDecoder(streamInfo.contentType);
						если (audioDecoder = НУЛЬ) то
							res := NoAudioDecoder; копируйСтрокуДо0("No Decoder for audio format: ", msg); Strings.Append(msg, streamInfo.contentType);
							если Debug или console то ЛогЯдра.пСтроку8("MediaPlayer: "); ЛогЯдра.пСтроку8(msg); ЛогЯдра.пВК_ПС; всё;
							hasAudio := ложь;
						иначе
							audioDecoder.Open(audioStream, res);
							если (res # Codecs.ResOk) то
								res := AudioNotCompatible; копируйСтрокуДо0("Audio stream not compatible: ", msg); Strings.Append(msg, uri);
								если Debug или console то ЛогЯдра.пСтроку8("MediaPlayer: "); ЛогЯдра.пСтроку8(msg); ЛогЯдра.пВК_ПС; всё;
								hasAudio := ложь;
							иначе
								audioCanSeek := audioDecoder.CanSeek();
								hasAudio := истина;
							всё;
						всё;
					иначе
						если Trace * TraceOpen # {} то ЛогЯдра.пСтроку8("MediaPlayer: Unknown Stream Type: "); ЛогЯдра.пЦел64(type, 0); ЛогЯдра.пВК_ПС; всё;
					всё;
				кц;
			всё;

			если hasVideo или hasAudio то
				нов(context);
				копируйСтрокуДо0(uri, context.uri);
				если hasVideo то
					context.hasVideo := истина;
					context.video := videoDecoder;
					context.maxFrames := maxFrames; context.maxTime := maxTime;
					videoDecoder.GetVideoInfo(width, height, mspf);
					context.width := width; context.height := height; context.mspf := mspf;
					нов(context.filler, width, height, videoDecoder);
				всё;
				если hasAudio и (soundDevice # НУЛЬ)то
					context.hasAudio := истина;
					context.audio := audioDecoder;

					(* Calculate delay induced by audio buffering *)
					если (channels # 0) и (bits # 0) и (rate # 0) то
						context.delay := округлиВниз(AudioBuffers * AudioBufferSize * 8 (* Buffersize in bits *) / (channels * bits * rate) (* bit rate of audio stream *)) + 1 ;
					иначе
						context.delay := 50; (* guess *)
					всё;
					context.delay := context.delay + AudioConstantDelay;
					если Trace * TraceOpen # {} то ЛогЯдра.пСтроку8("Audio delay: "); ЛогЯдра.пЦел64(context.delay, 0); ЛогЯдра.пСтроку8("ms"); ЛогЯдра.пВК_ПС; всё;

					нов(context.bufferpool, AudioBuffers);
					нцДля i := 0 до AudioBuffers-1 делай
						нов(buffer); buffer.len := AudioBufferSize; нов(buffer.data, AudioBufferSize);
						context.bufferpool.Add(buffer);
					кц;
					audioDecoder.GetAudioInfo(channels, rate, bits);
					context.channels := channels; context.rate := rate; context.bits := bits;

					(* UGLY: AVStreamInfo reports different rate as GetAudioInfo does. *)
					если (audioStream # НУЛЬ) и (audioStream суть Codecs.DemuxStream) то
						context.posRate := audioStream(Codecs.DemuxStream).streamInfo.rate;
					всё;

					если ~hasVideo то
						context.maxTime := audioDecoder.GetTotalSamples() DIV rate * 10;
						context.maxFrames := maxTime;
					всё;
					audioDecoder.SeekSample(0, ложь, res);(* what if stream not seekable? *)
					soundDevice.OpenPlayChannel(context.channel, rate, bits, channels, SoundDevices.FormatPCM, res);
					если context.channel = НУЛЬ то
						если Debug или console то ЛогЯдра.пСтроку8("MediaPlayer: Could not open audio play channel."); ЛогЯдра.пВК_ПС; всё;
					иначе
						context.channel.RegisterBufferListener(context.bufferpool.Add);
						context.channel.SetVolume(255);
					всё;
				всё;
				context.canSeek := (~hasVideo или videoCanSeek) и (~hasAudio или audioCanSeek);
			иначе
				res := NoDecoders; копируйСтрокуДо0("No demux/decoder found for ", msg); Strings.Append(msg, uri);
				если Debug или console то ЛогЯдра.пСтроку8("MediaPlayer: "); ЛогЯдра.пСтроку8(msg); ЛогЯдра.пВК_ПС; всё;
			всё;
			если Trace * TraceOpen # {} то
				ЛогЯдра.пСтроку8("Context opened: Maxtime: "); ЛогЯдра.пЦел64(context.maxTime, 0);
				ЛогЯдра.пСтроку8(", maxFrames: "); ЛогЯдра.пЦел64(context.maxFrames, 0); ЛогЯдра.пВК_ПС;
			всё;
			возврат context;
		кон GetContext;

		проц FreeContext(context : Context);
		нач
			если context # НУЛЬ то
				если context.filler # НУЛЬ то context.filler.Close; context.filler := НУЛЬ; всё;
				если context.channel # НУЛЬ то context.channel.Close; context.channel := НУЛЬ; всё;
			всё;
		кон FreeContext;

		проц Loop(sender, data: динамическиТипизированныйУкль);
		нач
			если Trace * TraceEof # {} то ЛогЯдра.пСтроку8("MediaPlayer: EOF Loop."); ЛогЯдра.пВК_ПС; всё;
			Stop; Play;
		кон Loop;

		проц Quit(sender, data: динамическиТипизированныйУкль);
		нач
			если Trace * TraceEof # {} то ЛогЯдра.пСтроку8("MediaPlayer: EOF Quit."); ЛогЯдра.пВК_ПС; всё;
			Close;
		кон Quit;

		проц RenderAudio(c :  Context);
		нач (* no concurrency allowed *)
			утв(c # НУЛЬ);
			нцПока c.hasAudio и c.audio.HasMoreData() и (c.bufferpool.NofBuffers() > 0) делай
				c.aBuffer := c.bufferpool.Remove();
				c.audio.FillBuffer(c.aBuffer);
				c.channel.QueueBuffer(c.aBuffer);
				если ~c.hasVideo то
					c.pos := c.audio.GetCurrentTime();
				всё
			кц;
		кон RenderAudio;

		(* Render the next video frame of the specified context *)
		проц RenderVideo(c : Context);
		нач
			утв((c # НУЛЬ) и (c.hasVideo));
			c.vBuffer := c.filler.GetNextBuffer();
			если pw # НУЛЬ то pw.ShowFrame(c.vBuffer) всё;
			c.filler.ReturnBuffer(c.vBuffer);
			увел(videoFramesPlayed); c.oldPos := c.pos; увел(c.pos);
		кон RenderVideo;

		(* Render transition from context 'from' to context 'to' *)
		проц RenderVideoTransition(from, to : Context);
		перем temp : VideoBuffer;
		нач
			утв((to # НУЛЬ) и (to.transition # НУЛЬ) и (to.transitionImg # НУЛЬ) и (to.black # НУЛЬ));
			увел(to.transitionFrame);
			если Trace * TraceTransitions # {} то
				ЛогЯдра.пСтроку8("MediaPlayer: Transition Frame ");
				ЛогЯдра.пЦел64(to.transitionFrame, 0); ЛогЯдра.пСтроку8(" of "); ЛогЯдра.пЦел64(to.transitionDuration, 0);
				ЛогЯдра.пВК_ПС;
			всё;
			(* stop filler if enough frames already precalced in buffer *)
			если (from # НУЛЬ) то
				если from.filler.NofFullBuffers() >= (to.transitionDuration - to.transitionFrame) то from.filler.Stop; всё;
				from.vBuffer := from.filler.GetNextBuffer();
				temp := from.vBuffer;
			иначе
				temp := to.black;
			всё;
			(* display frame *)
			to.vBuffer := to.filler.GetNextBuffer();
			to.transition.CalcImage(temp, to.vBuffer, to.transitionImg, to.transitionFrame*255 DIV to.transitionDuration);
			если pw # НУЛЬ то pw.ShowFrame(to.transitionImg) всё;

			to.filler.ReturnBuffer(to.vBuffer);
			to.oldPos := to.pos; увел(to.pos);
			если from # НУЛЬ то
				from.filler.ReturnBuffer(from.vBuffer);
				from.oldPos := from.pos; увел(from.pos);
			всё;
			увел(videoFramesPlayed);
			если to.transitionFrame >= to.transitionDuration то
				если (from # НУЛЬ) то FreeContext(from); from := НУЛЬ; всё;
				если Trace * TraceTransitions # {} то ЛогЯдра.пСтроку8("MediaPlayer: Transition Finished."); ЛогЯдра.пВК_ПС; всё;
			 всё;
		кон RenderVideoTransition;

		(* Render video and/or audio *)
		проц Render(c1, c2 : Context);
		перем
			tickIs: цел32;
			tickShould : цел32;
		нач
			если c1 # НУЛЬ то
				если GetState() = InTransition то (* Render transition from c2 to c1 *)
					если c2 # НУЛЬ то
						если c2.hasAudio то
							RenderAudio(c2);
							c2.channel.SetVolume(256 - c1.transitionFrame*(256 DIV c1.transitionDuration));
						иначе
							timer.Sleep(40);
						всё;
					всё;
					если c1.hasAudio то
						RenderAudio(c1);
						c1.channel.SetVolume(256*c1.transitionFrame DIV c1.transitionDuration);
					всё;
					если c1.hasVideo то RenderVideoTransition(c2, c1); всё;
				иначе
					если c1.hasAudio то
						RenderAudio(c1);
					всё;
					если c1.hasVideo то
						RenderVideo(c1);
					всё;
				всё;
			всё;
			(* Check time and sleep or drop frames *)
			tickIs := Kernel.GetTicks() - tickStart;
			tickShould := videoFramesPlayed * mspf;
			если tickIs < tickShould то (* We were too fast *)
				timer.Sleep(tickShould-tickIs);
			всё;

			если Trace * TraceRendering # {} то
				ЛогЯдра.пСтроку8("Frame: "); ЛогЯдра.пЦел64(videoFramesPlayed, 0);
				ЛогЯдра.пСтроку8(" [Is: "); ЛогЯдра.пЦел64(tickIs, 0); ЛогЯдра.пСтроку8(", Should="); ЛогЯдра.пЦел64(tickShould, 0);
				ЛогЯдра.пСтроку8(",Sleep: ");
				если (tickIs < tickShould) то
					если tickDelay < (tickShould-tickIs) то
						ЛогЯдра.пЦел64(tickShould - tickIs - tickDelay, 0);
					иначе
						ЛогЯдра.пЦел64(8, 0);
					всё;
				иначе ЛогЯдра.пЦел64(0, 0);
				всё;
				ЛогЯдра.пСтроку8(", Delay: "); ЛогЯдра.пЦел64(tickDelay, 0);
				ЛогЯдра.пСтроку8("]"); ЛогЯдра.пВК_ПС;
			всё;
		кон Render;

		проц Close*;
		нач
			RequestState(Closed, НУЛЬ);
			нач {единолично} дождись(state = Closed); кон;
			mplayer := НУЛЬ;
			если Trace * TracePlayer # {} то ЛогЯдра.пСтроку8("MediaPlayer closed."); ЛогЯдра.пВК_ПС; всё;
		кон Close;

		проц StopIntern;
		перем img : WMGraphics.Image; res : целМЗ;
		нач
			FreeContext(next); next := НУЛЬ;
			если current # НУЛЬ то
				если current.hasVideo то current.filler.SeekAndGetFrame(0, img, res); всё;
				если current.hasAudio то current.channel.Stop; current.audio.SeekSample(0, ложь, res); всё;
				current.pos := 0; current.oldPos := -1;
			всё;
			если pw # НУЛЬ то
				если img # НУЛЬ то pw.ShowFrame(img); иначе pw.ShowBlack; всё;
			всё;
		кон StopIntern;

		проц StartPlayIntern;
		перем res : целМЗ;
		нач
			если current # НУЛЬ то
				если state = Finished то
					current.pos := 0; current.oldPos := -1;
					если current.hasVideo то current.filler.SeekFrame(0, истина, res); всё;
					если current.hasAudio то current.channel.Stop; current.audio.SeekSample(0, ложь, res); всё;
				всё;
				если current.hasAudio то current.channel.SetVolume(255); current.channel.Start; всё;
				InitTime;
			всё;
		кон StartPlayIntern;

		(* Pause the current and next context if applicable *)
		проц PauseIntern;
		нач
			если (current # НУЛЬ) и current.hasAudio то current.channel.Pause; всё;
			если (next # НУЛЬ) и next.hasAudio то next.channel.Pause; всё;
		кон PauseIntern;

		(* Resume playing the curent and next context that are paused *)
		проц ResumeIntern;
		перем audioPos, res : цел32;
		нач
			если (current # НУЛЬ) то
				если current.hasVideo то
					res := (current.video.GetCurrentFrame()-current.filler.NofFullBuffers()(цел32));
					если current.hasAudio то
						audioPos := округлиВниз(current.maxTime/10*current.posRate*(res/current.maxFrames) -
							округлиВниз(current.maxTime/10*current.posRate*(res/current.maxFrames)) остОтДеленияНа 12);
						если audioPos  < 0 то audioPos := 0 всё;
						current.audio.SeekSample(audioPos, ложь, res);
					всё;
				всё;
				если current.hasAudio то current.channel.Start; всё;
			всё;
			если (next # НУЛЬ) то
				если next.hasVideo то
					res := (next.video.GetCurrentFrame()-next.filler.NofFullBuffers()(цел32));
					если next.hasAudio то
						audioPos := округлиВниз(next.maxTime/10*next.posRate*(res/next.maxFrames) -
							округлиВниз(next.maxTime/10*next.posRate*(res/next.maxFrames)) остОтДеленияНа 12);
						если audioPos  < 0 то audioPos := 0 всё;
						next.audio.SeekSample(audioPos, ложь, res);
					всё;
				всё;
				если next.hasAudio то next.channel.Start; всё;
			всё;
			если (current # НУЛЬ) или (next # НУЛЬ) то
				InitTime;
			всё;
		кон ResumeIntern;

		проц OpenIntern(nextContext : Context);
		перем img : WMGraphics.Image; data : Setup; res : целМЗ;
		нач
			FreeContext(next); next := НУЛЬ;
			FreeContext(current); current := nextContext;
			mspf := current.mspf; current.pos := 0; current.oldPos := -1;
			CheckWindow(current);
			если current.hasVideo то
				current.filler.SeekAndGetFrame(0, img, res);
			всё;
			если pw # НУЛЬ то
				если img # НУЛЬ то pw.ShowFrame(img); иначе pw.ShowBlack; всё;
			всё;
			если setup # НУЛЬ то
				нов(data);
				data.hasVideo := current.hasVideo;
				data.hasAudio := current.hasAudio;
				data.canSeek := current.canSeek;
				копируйСтрокуДо0(nextContext.uri, data.uri);
				data.mspf := current.mspf;
				data.maxFrames := current.maxFrames;
				data.maxTime := current.maxTime;
				если current.hasVideo то
					data.width := current.width; data.height := current.height;
				всё;
				если current.hasAudio то
					data.channels := current.channels; data.bits := current.bits; data.rate := current.rate;
				всё;
				setup(data);
			всё;
		кон OpenIntern;

		проц IsValidStateTransition(from, to : цел32) : булево;
		перем res : булево;
		нач
			res := ложь;
			просей from из
				|NotReady:		если (to = Ready) или (to = InTransition) то res := истина; всё;
				|Ready:			если (to = Ready) или (to = Playing) или (to = InTransition) то res := истина; всё;
				|Playing:		если (to = Ready) или (to = Paused) или (to = Stopped) или (to = InTransition) то res := истина; всё;
				|Paused:		если (to = Ready) или (to = Playing) или (to = Stopped) или (to = Paused) или (to = InTransition) то res := истина; всё;
				|Stopped:		если (to = Ready) или (to = Playing) или (to = InTransition) то res := истина; всё;
				|Finished:		если (to = Ready) или (to = Playing) или (to = Stopped) или (to = InTransition) то res := истина; всё;
				|InTransition:	если (to = Ready) или (to = Paused) или (to = Stopped) или (to = InTransition) то res := истина; всё;
				|Error: 			(* Do not execute commands anymore *)
				|Closed:  		(* Do not execute commands anymore *)
			иначе
				если Debug то ЛогЯдра.пСтроку8("MediaPlayer: Start state of state transition not known."); ЛогЯдра.пВК_ПС; всё;
			всё;
			если (to = Error) или (to = Closed)  то res := истина; всё;
			возврат res;
		кон IsValidStateTransition;

		(* Pre-Condition: (state = Playing) OR (state = InTransition) OR (nextState # NoRequest) *)
		проц EvaluateState;
		перем
			oldState : цел32;
			isValid : булево; nextState : цел32; nextContext : Context;
			audioFinished, videoFinished : булево;
			currentTime : цел32; callUpdate : булево;
			temp : цел32;
		нач
			GetRequestedState(nextState, nextContext); oldState := state;
			если (nextState # NoRequest) то
				isValid :=  IsValidStateTransition(state, nextState);
				если isValid то
					просей nextState из
						NoRequest: (* Rest in current state *)
						|Ready: (* Abort whatever the player is doing and go to 'Ready' state *)
							OpenIntern(nextContext);
							SetState(Ready);
						|Playing:
							StartPlayIntern; SetState(Playing);
						|Paused:
							если state = Paused то
								ResumeIntern; SetState(Playing);
							иначе
								PauseIntern; SetState(Paused);
							всё;
						|Stopped:
							StopIntern; SetState(Stopped);
						|InTransition:
							FreeContext(next); next := current;
							current := nextContext;
							mspf := current.mspf;
							CheckWindow(current);
							InitTime;
							SetState(InTransition);
						|Closed:
							FreeContext(current); current := НУЛЬ;
							FreeContext(next); next := НУЛЬ;
							FreeContext(nextContext); nextContext := НУЛЬ;
							SetState(Closed);
					иначе
						если Debug то ЛогЯдра.пСтроку8("MediaPlayer: Warning: Ignore request to set state to: "); ЛогЯдра.пЦел64(nextState, 0); ЛогЯдра.пВК_ПС; всё;
					всё;
				всё;
				если Trace * TraceStates # {} то
					ЛогЯдра.пСтроку8("MediaPlayer: Request state transition from '");
					ЛогЯдра.пЦел64(oldState, 0); ЛогЯдра.пСтроку8("' to '"); ЛогЯдра.пЦел64(nextState, 0);	ЛогЯдра.пСтроку8("': ");
					если isValid то ЛогЯдра.пСтроку8("Valid (New state: "); ЛогЯдра.пЦел64(state, 0); ЛогЯдра.пСтроку8(")");
					иначе ЛогЯдра.пСтроку8("Invalid (Rejected)");
					всё;
					ЛогЯдра.пВК_ПС;
				всё;
			всё;

			если nextState = NoRequest то (* Check whether current video is still playing *)
				если (state = InTransition) и (current.transitionFrame >= current.transitionDuration) то (* Transition Finished *)
					SetState(Playing);
				всё;
				audioFinished := ложь; videoFinished := ложь;
				если current = НУЛЬ то
					audioFinished := истина; videoFinished := истина;
				иначе
					если ~current.hasVideo или (current.hasVideo и ~current.video.HasMoreData() и (current.filler.NofFullBuffers() <= 0)) то videoFinished := истина; всё;
					если ~current.hasAudio или (current.hasAudio и ~current.audio.HasMoreData()) то audioFinished := истина; всё;
					если Debug то
					(*	IF (current.hasVideo = current.hasAudio) & (videoFinished # audioFinished) THEN
							KernelLog.String("MediaPlayer: Audio & Video not finished at the same time."); KernelLog.Ln;
						END; *)
					всё;
				всё;
				если (current = НУЛЬ) или ((current # НУЛЬ) и current.hasVideo и videoFinished) или ((current # НУЛЬ) и (~current.hasVideo) и audioFinished) то
					если state # Finished то
						если Trace * TracePlayer # {} то
							ЛогЯдра.пСтроку8("MediaPlayer: Finished playing: ");
							если (current = НУЛЬ) то ЛогЯдра.пСтроку8("No context.");
							иначе
								если videoFinished то ЛогЯдра.пСтроку8("[Video finished]"); всё;
								если audioFinished то ЛогЯдра.пСтроку8("[Audio finished]"); всё;
							всё;
							ЛогЯдра.пВК_ПС;
						всё;
						если eof # НУЛЬ то eof.Call; всё;
					всё;
					SetState(Finished);
				всё
			всё;
			если current # НУЛЬ то
				если current.hasVideo то
					currentTime := 10*current.pos DIV (1000 DIV current.mspf);
				иначе
					currentTime := current.audio.GetCurrentTime();
				всё;
				temp := Kernel.GetTicks();
				callUpdate := (update # НУЛЬ) и ((state = Finished) или (nextState # NoRequest) или (temp - lastUpdate >= UpdateInterval));
				если callUpdate то lastUpdate := temp; update(state, current.pos, current.maxFrames, currentTime); всё;
			иначе
				если update # НУЛЬ то update(state, 0, 0, 0); всё;
			всё;
		кон EvaluateState;

	нач {активное}
		нцПока state < Closed делай
			(* Synchronization to player commands *)
			нач {единолично} дождись((state = Playing) или (state = InTransition) или (state >= Closed) или (nextState # NoRequest)); кон;
			если state < Closed то
				(* Within this IF statement we have exlusive access to all Context objects *)
				(* Render next video/audio frame *)
				если nextState = NoRequest то Render(current, next); всё;
				(* State management (process state change requests and current state *)
				EvaluateState;
			всё;
		кц;
	выходя
		FreeContext(current); current := НУЛЬ;
		FreeContext(next); next := НУЛЬ;
		FreeContext(nextContext); nextContext := НУЛЬ;
		если eof # НУЛЬ то eof.Terminate; всё;
		если pw # НУЛЬ то pw.Close; pw := НУЛЬ; всё;
		SetState(Closed);
	кон Player;

перем mplayer : Player;

(** Command line user interface *)

(** Play the specified video/audio file *)
проц Open*(context : Commands.Context); (** <filename> ~ *)
перем filename, msg : массив 256 из симв8; res : целМЗ;
нач {единолично}
	context.arg.чЦепочкуСимволов8ДоБелогоПоляИлиВКавычках(filename);
	если mplayer = НУЛЬ то нов(mplayer); всё;
	mplayer.Open(filename, msg, res);
	если res = Потоки.Успех то
		mplayer.Play;
	иначе
		context.error.пСтроку8("MediaPlayer: Could not open file: "); context.error.пСтроку8(filename);
		context.error.пСтроку8(" (res: "); context.error.пЦел64(res, 0); context.error.пСтроку8(", ");
		context.error.пСтроку8(msg); context.error.пСтроку8(")"); context.error.пВК_ПС;
	всё;
кон Open;

(** Do a transition to the specified video/audio file (of the specified duration) *)
проц TransitionTo*(context : Commands.Context); (** <filename> [transitionDuration] ~ *)
перем filename, msg : массив 256 из симв8; duration : цел32; res : целМЗ;
нач {единолично}
	context.arg.ПропустиБелоеПоле; context.arg.чЦепочкуСимволов8ДоБелогоПоляИлиВКавычках(filename);
	context.arg.ПропустиБелоеПоле; context.arg.чЦел32(duration, ложь);
	если (context.arg.кодВозвратаПоследнейОперации # Потоки.Успех) или (duration < 1) то duration := 25; всё;
	если mplayer # НУЛЬ то
		mplayer.DoTransition(filename, 0, duration, msg, res);
		если res # Ok то
			context.error.пСтроку8("MediaPlayer.DoTransition Error (res: "); context.error.пЦел64(res, 0);
			context.error.пСтроку8(", "); context.error.пСтроку8(msg); context.error.пСтроку8(")"); context.error.пВК_ПС;
		всё;
	иначе
		нов(mplayer); mplayer.DoTransition(filename, 0, duration, msg, res);
		если res # Ok то
			context.error.пСтроку8("MediaPlayer.DoTransition Error (res: "); context.error.пЦел64(res, 0);
			context.error.пСтроку8(", "); context.error.пСтроку8(msg); context.error.пСтроку8(")"); context.error.пВК_ПС;
		всё;
	всё;
кон TransitionTo;

(** Close the media player and its window *)
проц Close*; (** ~ *)
нач
	Cleanup;
кон Close;

(** Set a EOF (end of file) handler, i.e. action to be taken when playing of a ressource finished. *)
проц SetEofAction*(context : Commands.Context); (* [none | loop | quit] ~ *)
перем command : массив 32 из симв8;
нач
	если mplayer # НУЛЬ то
		context.arg.ПропустиБелоеПоле; context.arg.чЦепочкуСимволов8ДоБелогоПоляИлиВКавычках(command);
		если Strings.Match("none", command) то
			mplayer.eof := НУЛЬ;
			context.out.пСтроку8("MediaPlayer: Set EOF to NIL.");
		аесли Strings.Match("loop", command) то
			mplayer.SetEofAction(mplayer.Loop);
			context.out.пСтроку8("MediaPlayer: Set EOF to Loop.");
		аесли Strings.Match("quit", command) то
			mplayer.SetEofAction(mplayer.Quit);
			context.out.пСтроку8("MediaPlayer: Set EOF to Quit.");
		иначе
			context.out.пСтроку8("MediaPlayer: Command not recognized.");
		всё;
	иначе
		context.error.пСтроку8("MediaPlayer: Cannot set EOF - player not running."); context.error.пВК_ПС;
	всё;
	context.out.пВК_ПС;
кон SetEofAction;

проц Cleanup;
нач {единолично}
	если mplayer # НУЛЬ то mplayer.Close; mplayer := НУЛЬ; всё;
кон Cleanup;

нач
	Modules.InstallTermHandler(Cleanup);
кон MediaPlayer.

------------------------------------------------------------
i810Sound.Install ~
System.Free MediaPlayer ~
System.Free WMPlayer MediaPlayer DivXDecoder DivXHelper DivXTypes AVI~
PC.Compile AVI.Mod DivXTypes.Mod DivXHelper.Mod DivXDecoder.Mod MediaPlayer.Mod WMPlayer.Mod~

System.Free WMPlayer MediaPlayer ~

WMPlayer.Open flags.avi~

MediaPlayer.Open flags.avi~

MediaPlayer.TransitionTo flags.avi 25 ~

MediaPlayer.TransitionTo flags.avi 300 ~

MediaPlayer.Close ~

MediaPlayer.SetEofAction none ~
MediaPlayer.SetEofAction loop ~
MediaPlayer.SetEofAction quit ~

