модуль PCGAMD64;	(** AUTHOR "negelef"; PURPOSE "AMD64 code generator"; *)

использует
		НИЗКОУР, PCLIR, PCM, PCBT, PCB, PCA := PCAAMD64, ASM := ASMAMD64;

конст

	AlignParameters = истина;

	rAX = 0;
	rCX = 1;
	rDX = 2;
	rBX = 3;
	rSP = 4;
	rBP = 5;
	rSI = 6;
	rDI = 7;
	r8 = 8;
	r9 = 9;
	r10 = 10;
	r11 = 11;
	r12 = 12;
	r13 = 13;
	r14 = 14;
	r15 = 15;

	(* standard predefined register *)
	predefinedGppRegisters = {rAX, rCX, rDX, rSP, rBP, rDI, rSI};
	predefinedXmmRegisters = {};

	LegacyIntegers = {PCLIR.Int8, PCLIR.Int16, PCLIR.Int32};

тип

	XMM32 = окласс (PCA.XMMReg)
	кон XMM32;

	XMM64 = окласс (PCA.XMMReg)
	кон XMM64;

	Fixup = окласс (PCLIR.InstructionAttribute)
	перем
		pc: цел32;
		next: Fixup;
	кон Fixup;

	CaseLine = окласс (PCLIR.InstructionAttribute)
	перем
		first, last: булево;
		from, to: цел32;
	кон CaseLine;

	Case = окласс (PCLIR.InstructionAttribute)
	перем
		reg: PCA.Reg;
		prevCase, nextCase: Fixup;
		curCasePC: цел32;
		curCaseLine: CaseLine;
	кон Case;

	(* one set per register size *)
	RegisterSet = запись gpp, xmm: мнвоНаБитахМЗ кон;

перем
	assembly: PCA.Assembly;

	currentRegisters: RegisterSet;
	savedRegisters: массив 10 из RegisterSet;
	saveLevel : цел16;

проц IsFloat (size: PCLIR.Size): булево;
нач возврат (size = PCLIR.Float32) или (size = PCLIR.Float64)
кон IsFloat;

проц NewXMM32 (index: цел32): XMM32;
перем xmm32: XMM32;
нач нов (xmm32, index); возврат xmm32;
кон NewXMM32;

проц NewXMM64 (index: цел32): XMM64;
перем xmm64: XMM64;
нач нов (xmm64, index); возврат xmm64;
кон NewXMM64;

(* create a new register with the given size *)
проц NewReg (size: PCLIR.Size; index: цел32): PCA.Reg;
нач просей size из
	| PCLIR.Int8: возврат PCA.NewReg8 (index);
	| PCLIR.Int16: возврат PCA.NewReg16 (index);
	| PCLIR.Int32: возврат PCA.NewReg32 (index);
	| PCLIR.Int64: возврат PCA.NewReg64 (index);
	| PCLIR.Float32: возврат NewXMM32 (index);
	| PCLIR.Float64: возврат NewXMM64 (index);
	всё;
кон NewReg;

проц AllocReg (size: PCLIR.Size; index: цел32);
нач если size в PCLIR.FloatSize то
		включиВоМнвоНаБитах (currentRegisters.xmm, index);
	иначе
		включиВоМнвоНаБитах (currentRegisters.gpp, index);
	всё;
кон AllocReg;

проц FreeReg (size: PCLIR.Size; index: цел32);
нач если size в PCLIR.FloatSize то
		исключиИзМнваНаБитах (currentRegisters.xmm, index);
	иначе
		исключиИзМнваНаБитах (currentRegisters.gpp, index);
	всё;
кон FreeReg;

проц GetNextFreeReg (registerSet: мнвоНаБитахМЗ): цел32;
перем  index: цел32;
нач index := 0;
	нцПока index в registerSet делай увел (index) кц;
	утв (index <= r15);
	возврат index;
кон GetNextFreeReg;

(* look within the current register set for a free register with the given size *)
проц AcquireReg (перем instr: PCLIR.Instruction);
перем index: цел32; reg: PCA.Reg;
нач
	если instr.info = НУЛЬ то

		если instr.dstSize в PCLIR.FloatSize то
			index := GetNextFreeReg (currentRegisters.xmm + predefinedXmmRegisters) ;
		иначе
			index := GetNextFreeReg (currentRegisters.gpp + predefinedGppRegisters) ;
		всё;

		AllocReg (instr.dstSize, index);

		instr.info := NewReg (instr.dstSize, index);
	всё;

	reg := instr.info(PCA.Reg);
	AllocReg (GetSize (reg), reg.index);
кон AcquireReg;

(* return the given source register if this is its only access otherwise aquire a free register*)
проц AcquireSourceReg (перем instr: PCLIR.Instruction; перем source: PCLIR.Register; piece: PCLIR.Piece);
перем reg: PCA.Reg;
нач
	если (instr.info = НУЛЬ) и (source >= 0) и (piece.instr[source].dstCount = 1) то
		instr.info := NewReg (instr.dstSize, piece.instr[source].info(PCA.Reg).index);
		source := PCLIR.none;
	иначе
		AcquireReg (instr);
		reg := GetReg (source, piece);
		если instr.info(PCA.Reg).index = reg.index то
			умень (piece.instr[source].dstCount);
			source := PCLIR.none;
		иначе
			assembly.Emit (ASM.opMOV, instr.info(PCA.Reg), reg, НУЛЬ);
			ReleaseSourceReg (source, piece);
		всё;
	всё;
кон AcquireSourceReg;

(* return a source register *)
проц GetReg (source: PCLIR.Register; piece: PCLIR.Piece): PCA.Reg;
конст HwReg = PCLIR.HwReg + 8;
нач
	если source >= 0 то
		возврат piece.instr[source].info(PCA.Reg);
	иначе
		просей source из
		| PCLIR.FP:
			возврат PCA.NewReg64 (rBP);
		| PCLIR.SP:
			возврат PCA.NewReg64 (rSP);
		| PCLIR.Absolute:
			возврат НУЛЬ;

		| HwReg - PCB.regRDI .. HwReg - PCB.regRAX:
			возврат PCA.NewReg64 (HwReg - PCB.regRAX - source);
		| HwReg - PCB.regR15, HwReg - PCB.regR8:
			возврат PCA.NewReg64 (HwReg - PCB.regR8 + 8 - source);

		| HwReg - PCB.regEDI .. HwReg - PCB.regEAX:
			возврат PCA.NewReg32 (HwReg - PCB.regEAX - source);
		| HwReg - PCB.regR15D, HwReg - PCB.regR8D:
			возврат PCA.NewReg32 (HwReg - PCB.regR8D + 8 - source);

		| HwReg - PCB.regBX .. HwReg - PCB.regAX:
			возврат PCA.NewReg16 (HwReg - PCB.regAX - source);
		| HwReg - PCB.regR15W, HwReg - PCB.regR8W:
			возврат PCA.NewReg16 (HwReg - PCB.regR8W + 8 - source);

		| HwReg - PCB.regBL, HwReg - PCB.regAL:
			возврат PCA.NewReg8 (HwReg - PCB.regAL - source);
		| HwReg - PCB.regR15B, HwReg - PCB.regR8B:
			возврат PCA.NewReg8 (HwReg - PCB.regR8B + 8 - source);

		всё;
	всё;
кон GetReg;

проц GetSize (reg: PCA.Reg): PCLIR.Size;
нач
	если reg суть PCA.Reg8 то
		возврат PCLIR.Int8;
	аесли reg суть PCA.Reg16 то
		возврат PCLIR.Int16;
	аесли reg суть PCA.Reg32 то
		возврат PCLIR.Int32;
	аесли reg суть PCA.Reg64 то
		возврат PCLIR.Int64;
	аесли reg суть PCA.Reg64 то
		возврат PCLIR.Int64;
	аесли reg суть XMM32 то
		возврат PCLIR.Float32;
	аесли reg суть XMM64 то
		возврат PCLIR.Float64;
	всё;
кон GetSize;

(* release a register and return it to the register pool if there are no more accesses to it *)
проц ReleaseReg (перем instr: PCLIR.Instruction);
нач
	умень (instr.dstCount);

	если instr.dstCount = 0 то
		FreeReg (instr.dstSize, instr.info(PCA.Reg).index);
	всё;
кон ReleaseReg;

(* release a source register and return it to the register pool if there are no more accesses to it *)
проц ReleaseSourceReg (source: PCLIR.Register; piece: PCLIR.Piece);
нач
	если source >= 0 то
		ReleaseReg (piece.instr[source]);
	всё;
кон ReleaseSourceReg;

проц NewImm (size: PCLIR.Size; val: цел32): PCA.Imm;
нач
	просей size из
	| PCLIR.Int8: возврат PCA.NewImm8 (val);
	| PCLIR.Int16: возврат PCA.NewImm16 (val);
	| PCLIR.Int32: возврат PCA.NewImm32 (val);
	| PCLIR.Int64: возврат PCA.NewImm64 (val);
	всё;
кон NewImm;

проц NewMem (size: PCLIR.Size; reg: PCA.Reg; displacement: цел32): PCA.Mem;
нач
	просей size из
	| PCLIR.Int8: возврат PCA.NewMem8 (reg, displacement);
	| PCLIR.Int16: возврат PCA.NewMem16 (reg, displacement);
	| PCLIR.Int32: возврат PCA.NewMem32 (reg, displacement);
	| PCLIR.Int64: возврат PCA.NewMem64 (reg, displacement);
	| PCLIR.Float32: возврат PCA.NewMem32 (reg, displacement);
	| PCLIR.Float64: возврат PCA.NewMem64 (reg, displacement);
	всё;
кон NewMem;

(*
PROCEDURE Dump (code: PCLIR.Code;  VAR instr: PCLIR.Instruction;  pc: SIGNED32);
BEGIN
	PCM.log.CharLn;
	PCM.log.CharStr(PCLIR.InstructionSet[instr.op].name); PCM.log.CharLn;
	PCM.log.CharStr("  code.barrier: "); PCM.log.CharNum (code.barrier); PCM.log.CharLn;
	PCM.log.CharStr("  instr.src1: "); PCM.log.CharNum (instr.src1); PCM.log.CharLn;
	PCM.log.CharStr("  instr.src2: "); PCM.log.CharNum (instr.src2); PCM.log.CharLn;
	PCM.log.CharStr("  instr.src3: "); PCM.log.CharNum (instr.src3); PCM.log.CharLn;
	PCM.log.CharStr("  instr.val: "); PCM.log.CharNum (instr.val); PCM.log.CharLn;
	PCM.log.CharStr("  instr.adr: "); PCM.log.CharBool (instr.adr # NIL); PCM.log.CharLn;
	IF (instr.adr # NIL) & (instr.adr IS PCBT.Procedure) THEN
		PCM.log.CharStr("    procedure ");  PCM.log.CharLn;
	END;
	IF (instr.adr # NIL) & (instr.adr IS PCBT.Variable) THEN
		PCM.log.CharStr("   Variable:");  PCM.log.CharLn;
		PCM.log.CharStr("    offset"); PCM.log.CharNum (instr.adr(PCBT.Variable).offset); PCM.log.CharLn;
	END;
	PCM.log.CharStr("  instr.suppress: "); PCM.log.CharBool (instr.suppress); PCM.log.CharLn;
	PCM.log.CharStr("  instr.dstCount: "); PCM.log.CharNum (instr.dstCount); PCM.log.CharLn;
	PCM.log.CharStr("  instr.dstSize: "); PCM.log.CharNum (instr.dstSize); PCM.log.CharLn;
	PCM.log.CharStr("  instr.dstSigned: "); PCM.log.CharBool (instr.dstSigned); PCM.log.CharLn;
	PCM.log.CharStr("  instr.info: "); PCM.log.CharBool (instr.info # NIL); PCM.log.CharLn;
	PCM.log.CharStr("  pc: "); PCM.log.CharNum (pc); PCM.log.CharLn;
END Dump;
*)

проц InstructionInit(перем instr: PCLIR.Instruction);
кон InstructionInit;

проц IsAbsolute (adr: PCM.Attribute): булево;
нач
	если adr # НУЛЬ то
		если adr суть PCBT.GlobalVariable то
			возврат истина;
		аесли adr суть PCBT.Procedure то
			возврат истина
		всё;
	всё;
	возврат ложь;
кон IsAbsolute;

проц FixAbsolute (adr: PCM.Attribute; pc: цел32);
нач
	если adr # НУЛЬ то
		если adr суть PCBT.GlobalVariable то
			PCBT.context.UseVariable (adr(PCBT.GlobalVariable), pc)
		аесли adr суть PCBT.Procedure то
			PCBT.context.UseProcedure (adr(PCBT.Procedure), pc)
		всё;
	всё;
кон FixAbsolute;

проц FixFixups (перем fixup: Fixup);
перем prevPC: цел32;
нач
	если fixup # НУЛЬ то
		prevPC := assembly.pc;
		нцДо
			assembly.SetPC (fixup.pc - 4);
			assembly.PutDWord (prevPC - fixup.pc);
			fixup := fixup.next;
		кцПри fixup = НУЛЬ;
		assembly.SetPC (prevPC);
		fixup := НУЛЬ;
	всё
кон FixFixups;

(* Code Generation Procedures *)

проц EmitPush (reg: PCA.Reg);
перем RSP: PCA.Reg;
нач
	если AlignParameters то
		assembly.Emit (ASM.opPUSH, PCA.NewReg64 (reg.index), НУЛЬ, НУЛЬ);
	иначе
		просей GetSize (reg) из
		PCLIR.Int16, PCLIR.Int64:
			assembly.Emit (ASM.opPUSH, reg, НУЛЬ, НУЛЬ);
		| PCLIR.Int32:
			RSP := PCA.NewReg64 (rSP);
			assembly.Emit (ASM.opSUB, RSP, PCA.NewImm8 (4), НУЛЬ);
			assembly.Emit (ASM.opMOV, PCA.NewMem32 (RSP, 0), reg, НУЛЬ);
		всё;
	всё;
кон EmitPush;

проц EmitPop (reg: PCA.Reg);
перем RSP: PCA.Reg;
нач
	если AlignParameters то
		assembly.Emit (ASM.opPOP, PCA.NewReg64 (reg.index), НУЛЬ, НУЛЬ);
	иначе
		просей GetSize (reg) из
		PCLIR.Int16, PCLIR.Int64:
			assembly.Emit (ASM.opPOP, reg, НУЛЬ, НУЛЬ);
		| PCLIR.Int32:
			RSP := PCA.NewReg64 (rSP);
			assembly.Emit (ASM.opMOV, reg, PCA.NewMem32 (RSP, 0), НУЛЬ);
			assembly.Emit (ASM.opADD, RSP, PCA.NewImm8 (4), НУЛЬ);
		всё;
	всё;
кон EmitPop;

проц EmitResult (перем instr: PCLIR.Instruction; srcReg: цел32);
перем op: цел32; source: PCA.Reg;
нач
	AcquireReg (instr);

	просей instr.dstSize из
	PCLIR.Int8 .. PCLIR.Int64:
		op := ASM.opMOV;
		source := NewReg (instr.dstSize, srcReg);
	| PCLIR.Float32:
		op := ASM.opMOVD;
		source := PCA.NewReg32 (srcReg);
	| PCLIR.Float64:
		op := ASM.opMOVD;
		source := PCA.NewReg64 (srcReg);
	всё;

	assembly.Emit (op, instr.info(PCA.Reg), source, НУЛЬ);
	FreeReg (PCLIR.Int64, srcReg);
кон EmitResult;

проц EmitReturn (code: PCLIR.Code; перем instr: PCLIR.Instruction; destReg: цел32);
перем
	piece1: PCLIR.Piece;
	reg1, dest: PCA.Reg;
	sourceSize: PCLIR.Size;
	op: цел32;

нач
	code.GetPiece (instr.src1, piece1);
	reg1 := GetReg (instr.src1, piece1);

	sourceSize := GetSize (reg1);

	просей sourceSize из
	PCLIR.Int8 .. PCLIR.Int64:
		op := ASM.opMOV;
		dest := NewReg (sourceSize, destReg);
	| PCLIR.Float32:
		op := ASM.opMOVD;
		dest := PCA.NewReg32 (destReg);
	| PCLIR.Float64:
		op := ASM.opMOVD;
		dest := PCA.NewReg64 (destReg);
	всё;

	assembly.Emit (op, dest, reg1, НУЛЬ);
	AllocReg (sourceSize, destReg);

	ReleaseSourceReg (instr.src1, piece1);

кон EmitReturn;

проц EmitJmp (opCode: цел32; code: PCLIR.Code;  перем instr: PCLIR.Instruction);
перем piece1: PCLIR.Piece; offset: цел32; fixup: Fixup;
нач
	code.GetPiece (instr.val, piece1);

	если piece1.instr[instr.val].val = 0 то
		assembly.Emit (opCode, PCA.NewImm32 (0), НУЛЬ, НУЛЬ);
		нов (fixup); fixup.pc := assembly.pc;
		если piece1.instr[instr.val].info # НУЛЬ то
			fixup.next := piece1.instr[instr.val].info(Fixup);
		всё;
		piece1.instr[instr.val].info := fixup;
	иначе
		assembly.Emit (opCode, PCA.NewOffset32 (piece1.instr[instr.val].val), НУЛЬ, НУЛЬ);
	всё;

кон EmitJmp;

проц EmitType1 (op: цел32; code: PCLIR.Code;  перем instr: PCLIR.Instruction; operand: PCA.Operand);
перем piece1: PCLIR.Piece;
нач
	code.GetPiece (instr.src1, piece1);
	AcquireSourceReg (instr, instr.src1, piece1);

	(* minor optimizations *)
	если (instr.src1 = PCLIR.none) и (operand # НУЛЬ) и (operand суть PCA.Imm) то
		если (op = ASM.opADD) и (operand(PCA.Imm).val = 1) то op := ASM.opINC; operand := НУЛЬ всё;
		если (op = ASM.opADD) и (operand(PCA.Imm).val = -1) то op := ASM.opDEC; operand := НУЛЬ всё;
		если (op = ASM.opSUB) и (operand(PCA.Imm).val = 1) то op := ASM.opDEC; operand := НУЛЬ всё;
		если (op = ASM.opSUB) и (operand(PCA.Imm).val = -1) то op := ASM.opINC; operand := НУЛЬ всё;
	всё;

	если (op = ASM.opIMUL) и (GetSize (operand(PCA.Reg)) = PCLIR.Int8) то
		assembly.Emit (ASM.opMOV, PCA.NewReg8 (rAX), operand, НУЛЬ);
		assembly.Emit (op, instr.info(PCA.Reg), НУЛЬ, НУЛЬ);
	аесли op # ASM.opNOP то
		assembly.Emit (op, instr.info(PCA.Reg), operand, НУЛЬ);
	всё;
кон EmitType1;

проц EmitType2 (op: цел32; code: PCLIR.Code;  перем instr: PCLIR.Instruction);
перем piece2: PCLIR.Piece;
нач
	если instr.src2 = PCLIR.none то
		EmitType1 (op, code, instr, PCA.NewImm (PCA.default, instr.val));
	иначе
		code.GetPiece (instr.src2, piece2);
		EmitType1 (op, code, instr, GetReg (instr.src2, piece2));
		ReleaseSourceReg (instr.src2, piece2);
	всё;
кон EmitType2;

проц EmitSSEBitOp (code: PCLIR.Code;  перем instr: PCLIR.Instruction;  op, bit: цел32; invert: булево);
перем RAX, tmp: PCA.Reg;
нач
	RAX := PCA.NewReg64 (rAX);
	assembly.Emit (ASM.opXOR, RAX, RAX, НУЛЬ);
	assembly.Emit (ASM.opBTS, RAX, PCA.NewImm8 (bit), НУЛЬ);
	если invert то
		assembly.Emit (ASM.opNOT, RAX, НУЛЬ, НУЛЬ);
	всё;
	tmp := PCA.NewXMMReg (GetNextFreeReg (currentRegisters.xmm + predefinedXmmRegisters));
	assembly.Emit (ASM.opMOVD, tmp, RAX, НУЛЬ);
	EmitType1 (op, code, instr, tmp);
кон EmitSSEBitOp;

проц EmitMove(code: PCLIR.Code;  перем instr: PCLIR.Instruction;  op: цел32);
перем
	piece1, piece2, piece3: PCLIR.Piece;
	from, to, size: PCA.Reg;
	RSI, RDI, RCX: PCA.Reg;
нач

	code.GetPiece (instr.src1, piece1);
	code.GetPiece (instr.src2, piece2);
	code.GetPiece (instr.src3, piece3);

	from := GetReg (instr.src1, piece1);
	to := GetReg (instr.src2, piece2);
	size := GetReg (instr.src3, piece3);

	RSI := NewReg (GetSize (from), rSI);
	RDI := NewReg (GetSize (to), rDI);
	RCX := NewReg (GetSize (size), rCX);

	assembly.Emit (ASM.opMOV,  RSI, from, НУЛЬ);
	assembly.Emit (ASM.opMOV,  RDI, to, НУЛЬ);
	assembly.Emit (ASM.opMOV,  RCX, size, НУЛЬ);

	assembly.Emit (op, НУЛЬ, НУЛЬ, НУЛЬ);

	assembly.EmitPrefix (ASM.prfREP);
	assembly.Emit (ASM.opMOVSB, НУЛЬ, НУЛЬ, НУЛЬ);

	ReleaseSourceReg (instr.src1, piece1);
	ReleaseSourceReg (instr.src2, piece2);
	ReleaseSourceReg (instr.src3, piece3);

кон EmitMove;

проц EmitCmpJmp (reg: PCA.Reg; val: цел32; op: цел32; перем fixup: Fixup);
перем fix: Fixup;
нач
	assembly.Emit (ASM.opCMP, reg, PCA.NewImm (PCA.default, val), НУЛЬ);
	assembly.Emit (op, PCA.NewImm32 (0), НУЛЬ, НУЛЬ);
	нов (fix); fix.pc := assembly.pc; fix.next := fixup; fixup := fix
кон EmitCmpJmp;

(* GenEnter - Create Procedure activation frame of given size and clear the stack *)
проц GenEnter (code: PCLIR.Code;  перем instr: PCLIR.Instruction;  pc: цел32);
конст PushLoopUnrollSize = 4;
перем stackSize, i: цел32;  adr: PCBT.Procedure;

	проц FixAddress;
	перем prevPC, nextPC: цел32;
	нач
		prevPC := assembly.pc;
		нцПока adr.fixlist # PCBT.FixupSentinel делай
			assembly.SetPC (adr.fixlist);
			nextPC := assembly.GetDWord ();
			assembly.SetPC (adr.fixlist);
			assembly.PutDWord (prevPC - 4 - adr.fixlist);
			adr.fixlist := nextPC;
		кц;
		assembly.SetPC (prevPC);
	кон FixAddress;

нач
	если (instr.adr # НУЛЬ) и (instr.adr суть PCBT.Procedure) то
		adr := instr.adr(PCBT.Procedure);
		PCBT.context.AddOwnProc (adr, assembly.pc);
		FixAddress;
		stackSize := adr.locsize
	иначе
		stackSize := 0
	всё;

	(* check calling convention *)
	если instr.val = PCBT.OberonPassivateCC то

		(* push the current stack frame on the stack *)
		assembly.Emit (ASM.opPUSH, PCA.NewReg64 (rBP), НУЛЬ, НУЛЬ);
		(* assign the first argument to the stack frame (16 = 8 for RIP pushed by caller + 8 for preceding push) *)
		assembly.Emit (ASM.opMOV, PCA.NewReg64 (rBP), PCA.NewMem64 (PCA.NewReg64 (rSP), 16), НУЛЬ);

	аесли PCM.FullStackInit в PCM.codeOptions то

		(* ENTER instruction instead of PUSH RBP, MOV RBP, RSP; both versions need 4 byte in 64-bit mode *)
		assembly.Emit (ASM.opENTER, PCA.NewImm16 (0), PCA.NewImm8 (0), НУЛЬ);

		(* clear the stack and choose smallest encoding for given stack size (needs some performance heuristic ?) *)

		утв (stackSize остОтДеленияНа 8 = 0);

		если stackSize > 120 то
			assembly.Emit (ASM.opXOR, PCA.NewReg32 (rAX), PCA.NewReg32 (rAX), НУЛЬ);

			assembly.Emit (ASM.opMOV, PCA.NewReg32 (rCX), PCA.NewImm (PCA.default, stackSize DIV (8 * PushLoopUnrollSize)), НУЛЬ);

			stackSize := stackSize остОтДеленияНа (8 * PushLoopUnrollSize);

			нцПока stackSize # 0 делай
				assembly.Emit (ASM.opPUSH, PCA.NewReg64 (rAX), НУЛЬ, НУЛЬ);
				умень (stackSize, 8);
			кц;

			stackSize := assembly.pc;

			assembly.Emit (ASM.opDEC, PCA.NewReg32 (rCX), НУЛЬ, НУЛЬ);

			нцДля i := 0 до PushLoopUnrollSize - 1 делай
				assembly.Emit (ASM.opPUSH, PCA.NewReg64 (rAX), НУЛЬ, НУЛЬ);
			кц;

			assembly.Emit (ASM.opJNZ, PCA.NewOffset8 (stackSize), НУЛЬ, НУЛЬ);

		аесли stackSize > 16 то
			assembly.Emit (ASM.opXOR, PCA.NewReg32 (rAX), PCA.NewReg32 (rAX), НУЛЬ);
			нцПока stackSize # 0 делай
				assembly.Emit (ASM.opPUSH, PCA.NewReg64 (rAX), НУЛЬ, НУЛЬ);
				умень (stackSize, 8);
			кц;
		иначе
			нцПока stackSize # 0 делай
				assembly.Emit (ASM.opPUSH, PCA.NewImm8 (0), НУЛЬ, НУЛЬ);
				умень (stackSize, 8);
			кц;
		всё;
	иначе
		(* performs PUSH RBP; MOV RBP, RSP; SUB RSP, stackSize *)
		assembly.Emit (ASM.opENTER, PCA.NewImm16 (stackSize), PCA.NewImm8 (0), НУЛЬ);
	всё;

	currentRegisters.gpp := {};
	currentRegisters.xmm := {};
	saveLevel := 0;

кон GenEnter;

(* GenExit - Remove procedure activation frame, remove the give size of parameters and return to the caller *)
проц GenExit (code: PCLIR.Code;  перем instr: PCLIR.Instruction;  pc: цел32);
нач
	если instr.val = PCBT.OberonPassivateCC то
		(* pop the stack frame from the stack *)
		assembly.Emit (ASM.opPOP, PCA.NewReg64 (rBP), НУЛЬ, НУЛЬ);
		(* return to caller popping the first argument *)
		assembly.Emit (ASM.opRET, PCA.NewImm16 (8), НУЛЬ, НУЛЬ);
	иначе
		assembly.Emit (ASM.opLEAVE, НУЛЬ, НУЛЬ, НУЛЬ);

		FreeReg (PCLIR.Int64, rAX); FreeReg (PCLIR.Int64, rDX);

		если instr.src1 = 0 то
			assembly.Emit (ASM.opRET, НУЛЬ, НУЛЬ, НУЛЬ);
		иначе
			assembly.Emit (ASM.opRET, PCA.NewImm16 (instr.src1), НУЛЬ, НУЛЬ);
		всё
	всё;
кон GenExit;

проц GenTrap (code: PCLIR.Code;  перем instr: PCLIR.Instruction;  pc: цел32);
нач
	(* prohibit pushing a 16-bit immediate which decrements the stack pointer by two not by 8 *)
	если instr.val < 80H то
		assembly.Emit (ASM.opPUSH, PCA.NewImm8 (instr.val), НУЛЬ, НУЛЬ);
	иначе
		assembly.Emit (ASM.opPUSH, PCA.NewImm32 (instr.val), НУЛЬ, НУЛЬ);
	всё;
	assembly.Emit (ASM.opINT3, НУЛЬ, НУЛЬ, НУЛЬ);
кон GenTrap;

проц GenTrapcc (code: PCLIR.Code;  перем instr: PCLIR.Instruction;  pc: цел32);
перем
	piece1, piece2: PCLIR.Piece;
	reg1, reg2: PCA.Reg;
	cmpop, jmpop: цел32;
нач
	code.GetPiece (instr.src1, piece1);
	code.GetPiece (instr.src2, piece2);

	reg1 := GetReg (instr.src1, piece1);
	reg2 := GetReg (instr.src2, piece2);

	просей instr.op из
	PCLIR.tae:
		cmpop := ASM.opCMP; jmpop := ASM.opJB;
	| PCLIR.tne:
		cmpop := ASM.opCMP; jmpop := ASM.opJE;
	всё;

	просей GetSize (reg1) из
	PCLIR.Int8 .. PCLIR.Int64:
	| PCLIR.Float32:
		cmpop := ASM.opCOMISS;
	| PCLIR.Float64:
		cmpop := ASM.opCOMISD;
	всё;

	assembly.Emit (cmpop, reg1, reg2, НУЛЬ);

	если instr.val < 80H то
		assembly.Emit (jmpop, PCA.NewImm8 (3), НУЛЬ, НУЛЬ); (* one byte push in trap *)
	иначе
		assembly.Emit (jmpop, PCA.NewImm8 (3), НУЛЬ, НУЛЬ); (* four byte push in trap *)
	всё;

	GenTrap (code, instr, pc);

	ReleaseSourceReg (instr.src1, piece1);
	ReleaseSourceReg (instr.src2, piece2);
кон GenTrapcc;

проц GenSaveRegisters (code: PCLIR.Code;  перем instr: PCLIR.Instruction;  pc: цел32);
перем index: цел32; RAX: PCA.Reg;
нач
	RAX := PCA.NewReg64 (rAX);
	нцДля index := rAX до r15 делай
		если index в currentRegisters.gpp то
			assembly.Emit (ASM.opPUSH, PCA.NewReg64 (index), НУЛЬ, НУЛЬ);
		всё;
		если index в currentRegisters.xmm то
			assembly.Emit (ASM.opMOVD, RAX, PCA.NewXMMReg (index), НУЛЬ);
			assembly.Emit (ASM.opPUSH, RAX, НУЛЬ, НУЛЬ);
		всё;
	кц;
	savedRegisters[saveLevel] := currentRegisters; увел (saveLevel);
кон GenSaveRegisters;

проц GenRestoreRegisters (code: PCLIR.Code;  перем instr: PCLIR.Instruction;  pc: цел32);
перем index: цел32; RAX: PCA.Reg;
нач
	умень (saveLevel);
	RAX := PCA.NewReg64 (rAX);
	нцДля index := r15 до rAX шаг -1 делай
		если index в savedRegisters[saveLevel].xmm то
			assembly.Emit (ASM.opPOP, RAX, НУЛЬ, НУЛЬ);
			assembly.Emit (ASM.opMOVD, PCA.NewXMMReg (index), RAX, НУЛЬ);
		всё;
		если index в savedRegisters[saveLevel].gpp то
			assembly.Emit (ASM.opPOP, PCA.NewReg64 (index), НУЛЬ, НУЛЬ);
		всё;
	кц;
	currentRegisters.gpp := currentRegisters.gpp + savedRegisters[saveLevel].gpp;
	currentRegisters.xmm := currentRegisters.xmm + savedRegisters[saveLevel].xmm;
кон GenRestoreRegisters;

проц GenPush (code: PCLIR.Code;  перем instr: PCLIR.Instruction;  pc: цел32);
перем
	piece1: PCLIR.Piece;
	reg1, tmp: PCA.Reg;

нач
	code.GetPiece (instr.src1, piece1);
	reg1 := GetReg (instr.src1, piece1);

	просей GetSize (reg1) из
	PCLIR.Int8 .. PCLIR.Int64:
		EmitPush (reg1);
	| PCLIR.Float32:
		tmp := PCA.NewReg32 (rAX);
		assembly.Emit (ASM.opMOVD, tmp, reg1, НУЛЬ);
		EmitPush (tmp);
	| PCLIR.Float64:
		tmp := PCA.NewReg64 (rAX);
		assembly.Emit (ASM.opMOVD, tmp, reg1, НУЛЬ);
		EmitPush (tmp);
	всё;

	ReleaseSourceReg (instr.src1, piece1);
кон GenPush;

проц GenPop (code: PCLIR.Code;  перем instr: PCLIR.Instruction;  pc: цел32);
перем tmp: PCA.Reg;
нач
	AcquireReg (instr);

	просей instr.dstSize из
	PCLIR.Int8 .. PCLIR.Int64:
		EmitPop (instr.info(PCA.Reg));
	| PCLIR.Float32:
		tmp := PCA.NewReg32 (rAX);
		EmitPop (tmp);
		assembly.Emit (ASM.opCVTSI2SS, instr.info(PCA.Reg), tmp, НУЛЬ);
	| PCLIR.Float64:
		tmp := PCA.NewReg64 (rAX);
		EmitPop (tmp);
		assembly.Emit (ASM.opCVTSI2SD, instr.info(PCA.Reg), tmp, НУЛЬ);
	всё;
кон GenPop;

(* GenResult - Allocate the registers for functions results (after a call) *)
проц GenResult (code: PCLIR.Code;  перем instr: PCLIR.Instruction;  pc: цел32);
нач EmitResult (instr, rAX);
кон GenResult;

проц GenResult2 (code: PCLIR.Code;  перем instr: PCLIR.Instruction;  pc: цел32);
нач EmitResult (instr, rDX);
кон GenResult2;

проц GenReturn (code: PCLIR.Code;  перем instr: PCLIR.Instruction;  pc: цел32);
нач EmitReturn (code, instr, rAX);
кон GenReturn;

проц GenReturn2 (code: PCLIR.Code;  перем instr: PCLIR.Instruction;  pc: цел32);
нач EmitReturn (code, instr, rDX);
кон GenReturn2;

проц GenLoad (code: PCLIR.Code;  перем instr: PCLIR.Instruction;  pc: цел32);
перем
	piece1: PCLIR.Piece;
	reg1, tmp: PCA.Reg;
	imm: PCA.Imm;
	op: цел32;
нач
	code.GetPiece (instr.src1, piece1);

	reg1 := GetReg (instr.src1, piece1);

	если instr.dstCount # 0 то

		AcquireReg (instr);

		просей instr.dstSize из
		PCLIR.Int8 .. PCLIR.Int64:
			op := ASM.opMOV;
		| PCLIR.Float32:
			op := ASM.opMOVSS;
		| PCLIR.Float64:
			op := ASM.opMOVSD;
		всё;

		если IsAbsolute (instr.adr) то
			tmp := PCA.NewReg64 (instr.info(PCA.Reg).index);
			imm := PCA.NewImm64 (instr.val);
			assembly.Emit (ASM.opMOV, tmp, imm, НУЛЬ);
			assembly.Emit (op, instr.info(PCA.Reg), NewMem (instr.dstSize, tmp, 0), НУЛЬ);
			FixAbsolute (instr.adr, imm.pc);
		иначе
			assembly.Emit (op, instr.info(PCA.Reg), NewMem (instr.dstSize, reg1, instr.val), НУЛЬ);
		всё;

	всё;

	ReleaseSourceReg (instr.src1, piece1);
кон GenLoad;

проц GenLoadC (code: PCLIR.Code;  перем instr: PCLIR.Instruction;  pc: цел32);
перем imm: PCA.Imm;
нач
	утв (instr.dstSize в PCLIR.IntSize);

	если instr.dstCount # 0 то

		AcquireReg (instr);

		если IsAbsolute (instr.adr) то
			imm := PCA.NewImm64 (instr.val);
			assembly.Emit (ASM.opMOV,  instr.info(PCA.Reg), imm, НУЛЬ);
			FixAbsolute (instr.adr, imm.pc);
		аесли (instr.val = 0) и (instr.adr = НУЛЬ) то
			assembly.Emit (ASM.opXOR, instr.info(PCA.Reg), instr.info(PCA.Reg), НУЛЬ);
		аесли (instr.dstSize = PCLIR.Int64) и (НИЗКОУР.подмениТипЗначения(цел32, instr.val) = instr.val) то
			(*	since the upper half of the 64bit wide target register is signed extended using
				this MOV instruction, one can save the leading bits of the 64bit wide immediate value	*)
			assembly.Emit (ASM.opMOV,  instr.info(PCA.Reg), PCA.NewImm32 (instr.val), НУЛЬ);
		иначе
			assembly.Emit (ASM.opMOV,  instr.info(PCA.Reg), NewImm (instr.dstSize, instr.val), НУЛЬ);
		всё;
	всё;
кон GenLoadC;

проц GenLoadSP(code: PCLIR.Code;  перем instr: PCLIR.Instruction;  pc: цел32);
перем piece1: PCLIR.Piece; reg1: PCA.Reg;
нач
	code.GetPiece (instr.src1, piece1);
	reg1 := GetReg (instr.src1, piece1);
	assembly.Emit (ASM.opMOV, PCA.NewReg64 (rSP), reg1, НУЛЬ);
	ReleaseSourceReg (instr.src1, piece1);
кон GenLoadSP;

проц GenLoadFP(code: PCLIR.Code;  перем instr: PCLIR.Instruction;  pc: цел32);
перем piece1: PCLIR.Piece; reg1: PCA.Reg;
нач
	code.GetPiece (instr.src1, piece1);
	reg1 := GetReg (instr.src1, piece1);
	assembly.Emit (ASM.opMOV, PCA.NewReg64 (rBP), reg1, НУЛЬ);
	ReleaseSourceReg (instr.src1, piece1);
кон GenLoadFP;

проц GenStore (code: PCLIR.Code;  перем instr: PCLIR.Instruction;  pc: цел32);
перем
	piece1, piece2: PCLIR.Piece;
	dest: PCA.Reg;
	source: PCA.Operand;
	dstSize: PCLIR.Size;
	op: цел32;
нач
	code.GetPiece (instr.src1, piece1);
	code.GetPiece (instr.src2, piece2);

	dest := GetReg (instr.src1, piece1);

	если (instr.src2 >= 0) и (piece2.instr[instr.src2].suppress) и (piece2.instr[instr.src2].op = PCLIR.loadc) то

		source := PCA.NewImm (PCA.default, piece2.instr[instr.src2].val);

		dstSize := piece2.instr[instr.src2].dstSize;

		если dstSize = PCLIR.Int64 то dstSize := PCLIR.Int32 всё;

		op := ASM.opMOV;

	иначе
		source := GetReg (instr.src2, piece2);

		dstSize := GetSize (source(PCA.Reg));

		просей dstSize из
		PCLIR.Int8 .. PCLIR.Int64:
			op := ASM.opMOV;
		| PCLIR.Float32:
			op := ASM.opMOVSS;
		| PCLIR.Float64:
			op := ASM.opMOVSD;
		всё;
	всё;

	если instr.src1 <= PCLIR.HwReg то
		утв (op = ASM.opMOV);
		assembly.Emit (op, dest, source, НУЛЬ);
	иначе
		assembly.Emit (op, NewMem (dstSize, dest, instr.val), source, НУЛЬ);
	всё;

	ReleaseSourceReg (instr.src1, piece1);
	ReleaseSourceReg (instr.src2, piece2);
кон GenStore;

проц GenOut (code: PCLIR.Code;  перем instr: PCLIR.Instruction;  pc: цел32);
перем
	piece1, piece2: PCLIR.Piece;
	reg1, reg2, port, source: PCA.Reg;
нач
	code.GetPiece (instr.src1, piece1);
	code.GetPiece (instr.src2, piece2);

	reg1 := GetReg (instr.src1, piece1);
	reg2 := GetReg (instr.src2, piece2);

	port := PCA.NewReg16 (rDX);
	source := NewReg (GetSize (reg2), rAX);

	если GetSize (reg1) = PCLIR.Int8 то
		assembly.Emit (ASM.opMOVSX, port, reg1, НУЛЬ);
	иначе
		assembly.Emit (ASM.opMOV, port, NewReg (PCLIR.Int16, reg1.index), НУЛЬ);
	всё;

	assembly.Emit (ASM.opMOV, source, reg2, НУЛЬ);
	assembly.Emit (ASM.opOUT, port, source, НУЛЬ);

	ReleaseSourceReg (instr.src1, piece1);
	ReleaseSourceReg (instr.src2, piece2);
кон GenOut;

проц GenIn (code: PCLIR.Code;  перем instr: PCLIR.Instruction;  pc: цел32);
перем
	piece1: PCLIR.Piece;
	reg1, port, dest: PCA.Reg;
нач
	утв (instr.dstSize в PCLIR.IntSize);

	code.GetPiece (instr.src1, piece1);

	reg1 := GetReg (instr.src1, piece1);

	port := PCA.NewReg16 (rDX);
	dest := NewReg (instr.dstSize, rAX);

	AcquireReg (instr);

	если GetSize (reg1) = PCLIR.Int8 то
		assembly.Emit (ASM.opMOVSX, port, reg1, НУЛЬ);
	иначе
		assembly.Emit (ASM.opMOV, port, PCA.NewReg16 (reg1.index), НУЛЬ);
	всё;

	assembly.Emit (ASM.opIN, dest, port, НУЛЬ);
	assembly.Emit (ASM.opMOV, instr.info(PCA.Reg), dest, НУЛЬ);

	ReleaseSourceReg (instr.src1, piece1);
кон GenIn;

проц GenNop (code: PCLIR.Code;  перем instr: PCLIR.Instruction;  pc: цел32);
нач assembly.Emit (ASM.opNOP, НУЛЬ, НУЛЬ, НУЛЬ);
кон GenNop;

проц GenLabel(code: PCLIR.Code;  перем instr: PCLIR.Instruction;  pc: цел32);
нач
	если instr.val = 0 то
		instr.val := assembly.pc;
	аесли assembly.pc >= PCM.breakpc то
		PCM.Error(400, instr.val, ""); PCM.breakpc := матМаксимум(цел32)
	всё;
	если  instr.info # НУЛЬ то
		FixFixups (instr.info (Fixup));
	всё;
кон GenLabel;

проц GenJcc(code: PCLIR.Code;  перем instr: PCLIR.Instruction;  pc: цел32);
перем
	piece1, piece2: PCLIR.Piece;
	reg1: PCA.Reg; op2: PCA.Operand;
	cmpop, jmpop: цел32;
нач
	code.GetPiece (instr.src1, piece1);
	code.GetPiece (instr.src2, piece2);

	reg1 := GetReg (instr.src1, piece1);

	если instr.src2 = PCLIR.none то
		op2 := PCA.NewImm (PCA.default, instr.val);
	иначе
		op2 := GetReg (instr.src2, piece2);
	всё;

	просей instr.op из
	PCLIR.je:
		cmpop := ASM.opCMP; jmpop := ASM.opJE;
	| PCLIR.jne:
		cmpop := ASM.opCMP; jmpop := ASM.opJNE;
	| PCLIR.jlt:
		cmpop := ASM.opCMP; если IsFloat (GetSize (reg1)) то jmpop := ASM.opJB иначе jmpop := ASM.opJL всё;
	| PCLIR.jle:
		cmpop := ASM.opCMP; если IsFloat (GetSize (reg1)) то jmpop := ASM.opJBE иначе jmpop := ASM.opJLE всё;
	| PCLIR.jgt:
		cmpop := ASM.opCMP; если IsFloat (GetSize (reg1)) то jmpop := ASM.opJA иначе jmpop := ASM.opJG всё;
	| PCLIR.jge:
		cmpop := ASM.opCMP; если IsFloat (GetSize (reg1)) то jmpop := ASM.opJAE иначе jmpop := ASM.opJGE всё;
	| PCLIR.jb:
		cmpop := ASM.opCMP; jmpop := ASM.opJB;
	| PCLIR.jbe:
		cmpop := ASM.opCMP; jmpop := ASM.opJBE;
	| PCLIR.ja:
		cmpop := ASM.opCMP; jmpop := ASM.opJA;
	| PCLIR.jae:
		cmpop := ASM.opCMP; jmpop := ASM.opJAE;
	| PCLIR.jf:
		cmpop := ASM.opBT; jmpop := ASM.opJC;
	| PCLIR.jnf:
		cmpop := ASM.opBT; jmpop := ASM.opJNC;
	всё;

	просей GetSize (reg1) из
	PCLIR.Int8 .. PCLIR.Int64:
	| PCLIR.Float32:
		утв (cmpop = ASM.opCMP);
		cmpop := ASM.opCOMISS;
	| PCLIR.Float64:
		утв (cmpop = ASM.opCMP);
		cmpop := ASM.opCOMISD;
	всё;

	assembly.Emit (cmpop, reg1, op2, НУЛЬ);
	EmitJmp (jmpop, code, instr);

	ReleaseSourceReg (instr.src1, piece1);
	ReleaseSourceReg (instr.src2, piece2);
кон GenJcc;

проц GenJmp (code: PCLIR.Code;  перем instr: PCLIR.Instruction;  pc: цел32);
нач
	EmitJmp (ASM.opJMP, code, instr);
кон GenJmp;

проц GenCall(code: PCLIR.Code;  перем instr: PCLIR.Instruction;  pc: цел32);
перем adr: PCBT.Procedure; imm: PCA.Imm; dest: PCA.Reg;
нач
	adr := instr.adr(PCBT.Procedure);
	если (adr.owner # PCBT.context) то
		imm := PCA.NewImm64 (0);
		dest := PCA.NewReg64 (rAX);
		assembly.Emit (ASM.opMOV, dest, imm, НУЛЬ);
		assembly.Emit (ASM.opCALL, dest, НУЛЬ, НУЛЬ);
		PCBT.context.UseProcedure (adr, imm.pc);
	аесли adr.codeoffset # 0 то
		assembly.Emit (ASM.opCALL, PCA.NewOffset32 (adr.codeoffset), НУЛЬ, НУЛЬ);
	иначе
		imm := PCA.NewImm32 (adr.fixlist);
		assembly.Emit (ASM.opCALL, imm, НУЛЬ, НУЛЬ);
		adr.fixlist := imm.pc
	всё
кон GenCall;

проц GenCallReg(code: PCLIR.Code;  перем instr: PCLIR.Instruction;  pc: цел32);
перем piece1: PCLIR.Piece; reg1: PCA.Reg;
нач
	code.GetPiece (instr.src1, piece1);
	reg1 := GetReg (instr.src1, piece1);

	assembly.Emit (ASM.opCALL, reg1, НУЛЬ, НУЛЬ);

	ReleaseSourceReg (instr.src1, piece1);
кон GenCallReg;

проц GenSysCall(code: PCLIR.Code;  перем instr: PCLIR.Instruction;  pc: цел32);
перем imm: PCA.Imm; dest: PCA.Reg;
нач
	imm := PCA.NewImm64 (0);
	dest := PCA.NewReg64 (rAX);
	assembly.Emit (ASM.opMOV, dest, imm, НУЛЬ);
	assembly.Emit (ASM.opCALL, dest, НУЛЬ, НУЛЬ);
	PCBT.context.UseSyscall (instr.val, imm.pc);
кон GenSysCall;

проц GenSetcc(code: PCLIR.Code;  перем instr: PCLIR.Instruction;  pc: цел32);
перем
	piece1, piece2: PCLIR.Piece;
	reg1: PCA.Reg; op2: PCA.Operand;
	cmpop, setop: цел32;
нач
	AcquireReg (instr);

	code.GetPiece (instr.src1, piece1);
	code.GetPiece (instr.src2, piece2);

	reg1 := GetReg (instr.src1, piece1);

	если instr.src2 = PCLIR.none то
		op2 := PCA.NewImm (PCA.default, instr.val);
	иначе
		op2 := GetReg (instr.src2, piece2);
	всё;

	просей instr.op из
	PCLIR.sete:
		cmpop := ASM.opCMP; setop := ASM.opSETE;
	| PCLIR.setne:
		cmpop := ASM.opCMP; setop := ASM.opSETNE;
	| PCLIR.setlt:
		cmpop := ASM.opCMP; если IsFloat (GetSize (reg1)) то setop := ASM.opSETB иначе setop := ASM.opSETL всё;
	| PCLIR.setle:
		cmpop := ASM.opCMP; если IsFloat (GetSize (reg1)) то setop := ASM.opSETBE иначе setop := ASM.opSETLE всё;
	| PCLIR.setgt:
		cmpop := ASM.opCMP; если IsFloat (GetSize (reg1)) то setop := ASM.opSETA иначе setop := ASM.opSETG всё;
	| PCLIR.setge:
		cmpop := ASM.opCMP; если IsFloat (GetSize (reg1)) то setop := ASM.opSETAE иначе setop := ASM.opSETGE всё;
	| PCLIR.setb:
		cmpop := ASM.opCMP; setop := ASM.opSETB;
	| PCLIR.setbe:
		cmpop := ASM.opCMP; setop := ASM.opSETBE;
	| PCLIR.seta:
		cmpop := ASM.opCMP; setop := ASM.opSETA;
	| PCLIR.setae:
		cmpop := ASM.opCMP; setop := ASM.opSETAE;
	| PCLIR.setf:
		cmpop := ASM.opBT; setop := ASM.opSETC;
	| PCLIR.setnf:
		cmpop := ASM.opBT; setop := ASM.opSETNC;
	всё;

	просей GetSize (reg1) из
	PCLIR.Int8 .. PCLIR.Int64:
	| PCLIR.Float32:
		утв (cmpop = ASM.opCMP);
		cmpop := ASM.opCOMISS;
	| PCLIR.Float64:
		утв (cmpop = ASM.opCMP);
		cmpop := ASM.opCOMISD;
	всё;

	assembly.Emit (cmpop, reg1, op2, НУЛЬ);

	если instr.dstSize # PCLIR.Int8 то
		assembly.Emit (ASM.opXOR, instr.info(PCA.Reg), instr.info(PCA.Reg), НУЛЬ);
	всё;

	assembly.Emit (setop, instr.info(PCA.Reg), НУЛЬ, НУЛЬ);

	ReleaseSourceReg (instr.src1, piece1);
	ReleaseSourceReg (instr.src2, piece2);
кон GenSetcc;

проц GenKill(code: PCLIR.Code;  перем instr: PCLIR.Instruction;  pc: цел32);
перем piece1: PCLIR.Piece; reg1: PCA.Reg;
нач
	code.GetPiece (instr.src1, piece1);
	ReleaseSourceReg (instr.src1, piece1);
кон GenKill;

проц GenPhi(code: PCLIR.Code;  перем instr: PCLIR.Instruction;  pc: цел32);
перем
	piece1, piece2: PCLIR.Piece;
	reg1, reg2: PCA.Reg;
нач
	утв (instr.dstSize в PCLIR.IntSize);
	утв (instr.info = НУЛЬ);

	если instr.src1 > instr.src2 то PCLIR.SwapSources (instr) всё;

	code.GetPiece (instr.src1, piece1);
	code.GetPiece (instr.src2, piece2);

	(* The first source register must be acquired
	before this phi instruction *)

	утв (piece1.instr[instr.src1].info # НУЛЬ);
	reg1 := GetReg (instr.src1, piece1);

	(* the second source register might not be acquired now *)

	если piece2.instr[instr.src2].info = НУЛЬ то
		reg2 := reg1;
		piece2.instr[instr.src2].info := reg2;
	иначе
		reg2 := GetReg (instr.src2, piece2);
	всё;

	(* only the same register is mergeable *)
	утв (reg1.index = reg2.index);
	утв (GetSize (reg1) = GetSize (reg2));

	instr.info := reg1;
	AllocReg (instr.dstSize, reg1.index);
кон GenPhi;

проц GenConv (code: PCLIR.Code;  перем instr: PCLIR.Instruction;  pc: цел32);
перем
	piece1: PCLIR.Piece;
	reg1, tmp: PCA.Reg;
	srcSize: PCLIR.Size;
	op: цел32;
нач
	утв (instr.info = НУЛЬ);

	code.GetPiece (instr.src1, piece1);

	reg1 := GetReg (instr.src1, piece1);

	srcSize := GetSize (reg1);

	если instr.dstSize = srcSize то

		AcquireSourceReg (instr, instr.src1, piece1);

	аесли instr.dstSize в PCLIR.FloatSize то

		AcquireReg (instr);

		просей srcSize из
		| PCLIR.Int8, PCLIR.Int16:
			если instr.dstSize = PCLIR.Float32 то
				tmp := PCA.NewReg32 (rAX);
				op := ASM.opCVTSI2SS;
			иначе
				op := ASM.opCVTSI2SD;
				tmp := PCA.NewReg64 (rAX);
			всё;
			assembly.Emit (ASM.opMOVSX, tmp, reg1, НУЛЬ);
			reg1 := tmp;
		| PCLIR.Int32, PCLIR.Int64:
			если instr.dstSize = PCLIR.Float32 то
				op := ASM.opCVTSI2SS;
			иначе
				op := ASM.opCVTSI2SD;
			всё;
		| PCLIR.Float32:
			op := ASM.opCVTSS2SD;
		| PCLIR.Float64:
			op := ASM.opCVTSD2SS;
		всё;

		assembly.Emit (op, instr.info(PCA.Reg), reg1, НУЛЬ);

		ReleaseSourceReg (instr.src1, piece1);

	иначе

		просей srcSize из
		PCLIR.Int8 .. PCLIR.Int64:

			если instr.dstSize < srcSize то
				AcquireSourceReg (instr, instr.src1, piece1);
			аесли instr.op = PCLIR.convs то
				AcquireReg (instr);

				если (instr.dstSize = PCLIR.Int64) и (srcSize = PCLIR.Int32) то
					assembly.Emit (ASM.opMOVSXD, instr.info(PCA.Reg), reg1, НУЛЬ);
				иначе
					assembly.Emit (ASM.opMOVSX, instr.info(PCA.Reg), reg1, НУЛЬ);
				всё;
				ReleaseSourceReg (instr.src1, piece1);
			иначе
				если (instr.dstSize = PCLIR.Int64) и (srcSize = PCLIR.Int32) то
					AcquireSourceReg (instr, instr.src1, piece1);
				иначе
					AcquireReg (instr);
					assembly.Emit (ASM.opMOVZX, instr.info(PCA.Reg), reg1, НУЛЬ);
					ReleaseSourceReg (instr.src1, piece1);
				всё;
			всё;

		| PCLIR.Float32:
			AcquireReg (instr);
			assembly.Emit (ASM.opCVTSS2SI, instr.info(PCA.Reg), reg1, НУЛЬ);
			ReleaseSourceReg (instr.src1, piece1);

		| PCLIR.Float64:
			AcquireReg (instr);
			assembly.Emit (ASM.opCVTSD2SI, instr.info(PCA.Reg), reg1, НУЛЬ);
			ReleaseSourceReg (instr.src1, piece1);
		всё;
	всё;
кон GenConv;

проц GenNegNot (code: PCLIR.Code;  перем instr: PCLIR.Instruction;  pc: цел32);
нач
	просей instr.dstSize из
	PCLIR.Int8 .. PCLIR.Int64:
		если (instr.op = PCLIR.neg) или (instr.dstSigned) то
			EmitType1 (ASM.opNEG, code, instr, НУЛЬ);
		иначе
			EmitType1 (ASM.opNOT, code, instr, НУЛЬ);
		всё;
	| PCLIR.Float32:
		EmitSSEBitOp (code, instr, ASM.opXORPS, 31, ложь);
	| PCLIR.Float64:
		EmitSSEBitOp (code, instr, ASM.opXORPD, 63, ложь);
	всё;
кон GenNegNot;

проц GenAbs(code: PCLIR.Code;  перем instr: PCLIR.Instruction;  pc: цел32);
перем
	piece1: PCLIR.Piece;
	reg1, dest, source: PCA.Reg;
	imm: PCA.Imm;
нач
	утв (instr.dstSigned);

	просей instr.dstSize из
	PCLIR.Int8 .. PCLIR.Int64:
		code.GetPiece (instr.src1, piece1);

		reg1 := GetReg (instr.src1, piece1);

		AcquireReg (instr);
		dest := instr.info(PCA.Reg);

		source := NewReg (instr.dstSize, rAX);
		assembly.Emit (ASM.opMOV, source, reg1, НУЛЬ);

		просей instr.dstSize из
		| PCLIR.Int8: imm := PCA.NewImm8 (7);
		| PCLIR.Int16: imm := PCA.NewImm8 (15);
		| PCLIR.Int32: imm := PCA.NewImm8 (31);
		| PCLIR.Int64: imm := PCA.NewImm8 (63);
		всё;

		assembly.Emit (ASM.opMOV, dest, source, НУЛЬ);
		assembly.Emit (ASM.opSAR, source, imm, НУЛЬ);
		assembly.Emit (ASM.opXOR, dest, source, НУЛЬ);
		assembly.Emit (ASM.opSUB, dest, source, НУЛЬ);

		ReleaseSourceReg (instr.src1, piece1);

	| PCLIR.Float32:
		EmitSSEBitOp (code, instr, ASM.opANDPS, 31, истина);
	| PCLIR.Float64:
		EmitSSEBitOp (code, instr, ASM.opANDPD, 63, истина);
	всё;
кон GenAbs;

проц GenBts (code: PCLIR.Code;  перем instr: PCLIR.Instruction;  pc: цел32);
нач
	утв (instr.dstSize в PCLIR.IntSize);
	EmitType2 (ASM.opBTS, code, instr);
кон GenBts;

проц GenBtc (code: PCLIR.Code;  перем instr: PCLIR.Instruction;  pc: цел32);
нач
	утв (instr.dstSize в PCLIR.IntSize);
	EmitType2 (ASM.opBTR, code, instr);
кон GenBtc;

проц GenMul(code: PCLIR.Code;  перем instr: PCLIR.Instruction;  pc: цел32);
нач
(*	ASSERT (instr.dstSigned); *)
	просей instr.dstSize из
	PCLIR.Int8 .. PCLIR.Int64:
		EmitType2 (ASM.opIMUL, code, instr);
	| PCLIR.Float32:
		EmitType2 (ASM.opMULSS, code, instr);
	| PCLIR.Float64:
		EmitType2 (ASM.opMULSD, code, instr);
	всё;
кон GenMul;

проц GenDivMod(code: PCLIR.Code;  перем instr: PCLIR.Instruction;  pc: цел32);
перем
	piece1, piece2: PCLIR.Piece;
	reg1, reg2, dividend, quotient, remainder: PCA.Reg;
	offset: PCA.Imm; prevPC: цел32;
нач
(*	ASSERT (instr.dstSigned); *)

	просей instr.dstSize из
	PCLIR.Int8 .. PCLIR.Int64:

		code.GetPiece (instr.src1, piece1);
		code.GetPiece (instr.src2, piece2);

		reg1 := GetReg (instr.src1, piece1);
		reg2 := GetReg (instr.src2, piece2);

		если instr.dstSize = PCLIR.Int8 то
			dividend := PCA.NewReg16 (rAX);
			quotient := PCA.NewReg8 (rAX);
			remainder := quotient; (* eventually AH *)
		иначе
			dividend := NewReg (instr.dstSize, rAX);
			quotient := dividend;
			remainder := NewReg (instr.dstSize, rDX);
		всё;

		assembly.Emit (ASM.opMOV, quotient, reg1, НУЛЬ);

		(* sign extend dividend (rDX or AX register) *)
		просей instr.dstSize из
		PCLIR.Int8:
			assembly.Emit (ASM.opCBW, НУЛЬ, НУЛЬ, НУЛЬ);
		| PCLIR.Int16:
			assembly.Emit (ASM.opCWD, НУЛЬ, НУЛЬ, НУЛЬ);
		| PCLIR.Int32:
			assembly.Emit (ASM.opCDQ, НУЛЬ, НУЛЬ, НУЛЬ);
		| PCLIR.Int64:
			assembly.Emit (ASM.opCQO, НУЛЬ, НУЛЬ, НУЛЬ);
		всё;

		assembly.Emit (ASM.opIDIV, reg2, НУЛЬ, НУЛЬ);

		если instr.dstSize = PCLIR.Int8 то
			assembly.Emit (ASM.opSAR, dividend, PCA.NewImm8 (8), НУЛЬ);
		всё;

		AcquireSourceReg (instr, instr.src1, piece1);

		если instr.op = PCLIR.mod то
			assembly.Emit (ASM.opCMP, remainder, PCA.NewImm8 (0), НУЛЬ);
			offset := PCA.NewImm8 (0);
			assembly.Emit (ASM.opJGE, offset, НУЛЬ, НУЛЬ);
			assembly.Emit (ASM.opADD, remainder, reg2, НУЛЬ);
			prevPC := assembly.pc;
			assembly.SetPC (offset.pc);
			assembly.PutByte (prevPC - offset.pc - 1);
			assembly.SetPC (prevPC);
			assembly.Emit (ASM.opMOV, instr.info(PCA.Reg), remainder, НУЛЬ);
		иначе
			assembly.Emit (ASM.opSHL, remainder, PCA.NewImm8 (1), НУЛЬ);
			assembly.Emit (ASM.opSBB, quotient, PCA.NewImm8 (0), НУЛЬ);
			assembly.Emit (ASM.opMOV, instr.info(PCA.Reg), quotient, НУЛЬ);
		всё;

		ReleaseSourceReg (instr.src2, piece2);

	| PCLIR.Float32:
		EmitType2 (ASM.opDIVSS, code, instr);
	| PCLIR.Float64:
		EmitType2 (ASM.opDIVSD, code, instr);
	всё;
кон GenDivMod;

проц GenAdd (code: PCLIR.Code;  перем instr: PCLIR.Instruction;  pc: цел32);
нач
	просей instr.dstSize из
	PCLIR.Int8 .. PCLIR.Int64:
		если (instr.src2 = PCLIR.none) и (instr.val = 0) то
			EmitType1 (ASM.opNOP, code, instr, НУЛЬ);
		иначе
			EmitType2 (ASM.opADD, code, instr);
		всё;
	| PCLIR.Float32:
		EmitType2 (ASM.opADDSS, code, instr);
	| PCLIR.Float64:
		EmitType2 (ASM.opADDSD, code, instr);
	всё;
кон GenAdd;

проц GenSub (code: PCLIR.Code;  перем instr: PCLIR.Instruction;  pc: цел32);
нач
	просей instr.dstSize из
	PCLIR.Int8 .. PCLIR.Int64:
		если (instr.src2 = PCLIR.none) и (instr.val = 0) то
			EmitType1 (ASM.opNOP, code, instr, НУЛЬ);
		иначе
			EmitType2 (ASM.opSUB, code, instr);
		всё;
	| PCLIR.Float32:
		EmitType2 (ASM.opSUBSS, code, instr);
	| PCLIR.Float64:
		EmitType2 (ASM.opSUBSD, code, instr);
	всё;
кон GenSub;

проц GenAnd (code: PCLIR.Code;  перем instr: PCLIR.Instruction;  pc: цел32);
нач
	утв (instr.dstSize в PCLIR.IntSize);
	EmitType2 (ASM.opAND, code, instr);
кон GenAnd;

проц GenOr (code: PCLIR.Code;  перем instr: PCLIR.Instruction;  pc: цел32);
нач
	утв (instr.dstSize в PCLIR.IntSize);
	EmitType2 (ASM.opOR, code, instr);
кон GenOr;

проц GenXor (code: PCLIR.Code;  перем instr: PCLIR.Instruction;  pc: цел32);
нач
	утв (instr.dstSize в PCLIR.IntSize);
	EmitType2 (ASM.opXOR, code, instr);
кон GenXor;

проц GenShift(code: PCLIR.Code;  перем instr: PCLIR.Instruction;  pc: цел32);
перем
	piece1, piece2: PCLIR.Piece;
	reg2, shift, CL: PCA.Reg;
	op: цел32;

	prevPC: цел32;
	thenOffset, elseOffset: PCA.Imm;

нач
	утв (instr.dstSize в PCLIR.IntSize);

	если instr.src2 = PCLIR.none то
		просей instr.op из
		PCLIR.bsh:
			если instr.val < 0 то op := ASM.opSHR иначе op := ASM.opSHL всё
		| PCLIR.ash:
			если instr.val < 0 то op := ASM.opSAR иначе op := ASM.opSAL всё
		| PCLIR.rot:
			если instr.val < 0 то op := ASM.opROR иначе op := ASM.opROL всё
		всё;

		EmitType1 (op, code, instr, PCA.NewImm8 (матМодуль (instr.val)));

	иначе

		code.GetPiece (instr.src1, piece1);
		code.GetPiece (instr.src2, piece2);

		AcquireSourceReg (instr, instr.src1, piece1);

		reg2 := GetReg (instr.src2, piece2);
		shift := PCA.NewReg8 (rCX);

		assembly.Emit (ASM.opMOV, shift, PCA.NewReg8 (reg2.index), НУЛЬ);

		assembly.Emit (ASM.opCMP, shift, PCA.NewImm (PCA.default, 0), НУЛЬ);

		thenOffset := PCA.NewImm8 (0);
		assembly.Emit (ASM.opJL, thenOffset, НУЛЬ, НУЛЬ);

		просей instr.op из
		PCLIR.bsh: op := ASM.opSHL;
		| PCLIR.ash: op := ASM.opSAL;
		| PCLIR.rot: op := ASM.opROL;
		всё;

		assembly.Emit (op, instr.info(PCA.Reg), shift, НУЛЬ);

		elseOffset := PCA.NewImm8 (0);
		assembly.Emit (ASM.opJMP, elseOffset, НУЛЬ, НУЛЬ);

		prevPC := assembly.pc;
		assembly.SetPC (thenOffset.pc); assembly.PutByte (prevPC - thenOffset.pc - 1);
		assembly.SetPC (prevPC);

		assembly.Emit (ASM.opNEG, shift, НУЛЬ, НУЛЬ);

		просей instr.op из
		PCLIR.bsh: op := ASM.opSHR;
		| PCLIR.ash: op := ASM.opSAR;
		| PCLIR.rot: op := ASM.opROR;
		всё;

		assembly.Emit (op, instr.info(PCA.Reg), shift, НУЛЬ);

		prevPC := assembly.pc;
		assembly.SetPC (elseOffset.pc); assembly.PutByte (prevPC - elseOffset.pc - 1);
		assembly.SetPC (prevPC);

		ReleaseSourceReg (instr.src2, piece2);
	всё;

кон GenShift;

проц GenMoveDown(code: PCLIR.Code;  перем instr: PCLIR.Instruction;  pc: цел32);
нач EmitMove (code, instr, ASM.opSTD);
кон GenMoveDown;

проц GenMove(code: PCLIR.Code;  перем instr: PCLIR.Instruction;  pc: цел32);
нач EmitMove (code, instr, ASM.opCLD);
кон GenMove;

проц GenInline(code: PCLIR.Code;  перем instr: PCLIR.Instruction;  pc: цел32);
перем
	inline: PCLIR.AsmInline;
	block: PCLIR.AsmBlock;
	fixup: PCLIR.AsmFixup;
	i: цел32;
нач
	inline := instr.adr(PCLIR.AsmInline);

	fixup := inline.fixup;
	нцПока fixup # НУЛЬ делай
		FixAbsolute (fixup.adr, assembly.pc + fixup.offset);
		fixup := fixup.next;
	кц;

	block := inline.code;
	нцПока block # НУЛЬ делай
		нцДля i := 0 до block.len - 1 делай assembly.PutByte(кодСимв8(block.code[i])) кц;
		block := block.next
	кц;
кон GenInline;

проц GenCase(code: PCLIR.Code;  перем instr: PCLIR.Instruction;  pc: цел32);
перем
	piece1: PCLIR.Piece;
	case: Case;
нач
	code.GetPiece (instr.src1, piece1);

	case := instr.info(Case);
	case.reg := GetReg (instr.src1, piece1);
	case.curCasePC := -2;

	ReleaseSourceReg (instr.src1, piece1);
кон GenCase;

проц GenCaseLine(code: PCLIR.Code;  перем instr: PCLIR.Instruction;  pc: цел32);
перем
	piece1, piece2: PCLIR.Piece;
	case: Case; caseLine: CaseLine;

нач
	code.GetPiece (instr.src1, piece1);
	case := piece1.instr[instr.src1].info(Case);

	FixFixups (case.prevCase);

	если instr.op = PCLIR.casel то
		caseLine := instr.info(CaseLine);
		если caseLine.last то
			если caseLine.from = caseLine.to то
				EmitCmpJmp (case.reg, caseLine.from, ASM.opJNE, case.prevCase);
			иначе
				EmitCmpJmp (case.reg, caseLine.from, ASM.opJL, case.prevCase);
				EmitCmpJmp (case.reg, caseLine.to, ASM.opJG, case.prevCase);
			всё;
			FixFixups (case.nextCase);
		аесли caseLine.from = caseLine.to то
			EmitCmpJmp (case.reg, instr.val, ASM.opJE, case.nextCase);
		иначе
			EmitCmpJmp (case.reg, caseLine.from, ASM.opJL, case.prevCase);
			EmitCmpJmp (case.reg, caseLine.to, ASM.opJLE, case.nextCase);
		всё;
		case.curCasePC := pc;
	всё;

(*

	IF instr.op = PCLIR.casel THEN

		IF instr.src2 = pc THEN
			assembly.Emit (ASM.opCMP, case.reg, PCA.NewImm (PCA.default, instr.val), NIL);
			assembly.Emit (ASM.opJNE, PCA.NewImm32 (0), NIL, NIL);
			NEW (case.fixup); case.fixup.pc := assembly.pc;
		ELSE
			code.GetPiece (instr.src2, piece2);

			assembly.Emit (ASM.opCMP, case.reg, PCA.NewImm (PCA.default, instr.val), NIL);
			assembly.Emit (ASM.opJL, PCA.NewImm32 (0), NIL, NIL);
			NEW (case.fixup); case.fixup.pc := assembly.pc;

			assembly.Emit (ASM.opCMP, case.reg, PCA.NewImm (PCA.default, piece2.instr[instr.src2].val), NIL);
			assembly.Emit (ASM.opJG, PCA.NewImm32 (0), NIL, NIL);
			NEW (case.fixup.next);
			case.fixup.next.pc := assembly.pc;
		END;
	END;
	case.prevCasePC := pc;
*)
кон GenCaseLine;

(* Debug Procedures *)
проц DumpCode (code: PCLIR.Code;  перем instr: PCLIR.Instruction;  pc: цел32;  context: динамическиТипизированныйУкль);
кон DumpCode;

проц Optimize (code: PCLIR.Code;  перем instr: PCLIR.Instruction;  pc: цел32;  context: динамическиТипизированныйУкль);
перем
	piece1, piece2: PCLIR.Piece;
	src1, src2: PCLIR.Register;
	case: Case; caseLine: CaseLine;

	проц UseResult (перем instr: PCLIR.Instruction);
	нач
		умень (instr.dstCount);
		если instr.dstCount = 0 то
			instr.suppress := истина;
		всё;
	кон UseResult;

	проц SetConstant (перем reg: PCLIR.Register);
	перем
		src: PCLIR.Register;
		piece: PCLIR.Piece;
	нач
		src := reg;

		если src >= 0 то
			code.GetPiece (src, piece);

			если (piece.instr[src].op = PCLIR.loadc) и (piece.instr[src].dstSize в PCLIR.IntSize) и (piece.instr[src].adr = НУЛЬ) то
				instr.val := piece.instr[src].val;
				UseResult (piece.instr[src]);
				reg := PCLIR.none;
			всё;
		всё;
	кон SetConstant;

	проц SetResult (перем reg: PCLIR.Register);
	перем
		src: PCLIR.Register;
		piece: PCLIR.Piece;
	нач
		src := reg;

		если src >= 0 то
			code.GetPiece (src, piece);

			если (piece.instr[src].dstSize в PCLIR.IntSize) и (piece.instr[src].dstCount = 1) то
				если piece.instr[src].op = PCLIR.result то
					piece.instr[src].info := NewReg (piece.instr[src].dstSize, rAX);
					UseResult (piece.instr[src]);
				аесли piece.instr[src].op = PCLIR.result2 то
					piece.instr[src].info := NewReg (piece.instr[src].dstSize, rDX);
					UseResult (piece.instr[src]);
				всё;
			всё;
		всё;
	кон SetResult;

нач

	src1 := instr.src1;
	src2 := instr.src2;

	если (src1 >= 0) и (src1 < code.pc) то code.GetPiece (src1, piece1) иначе piece1 := НУЛЬ всё;
	если (src2 >= 0) и (src2 < code.pc) то code.GetPiece (src2, piece2) иначе piece2 := НУЛЬ всё;

	просей instr.op из
	PCLIR.ash, PCLIR.bsh, PCLIR.rot:
		SetConstant (instr.src2);
	| PCLIR.add, PCLIR.sub, PCLIR.and, PCLIR.or, PCLIR.xor:
		SetConstant (instr.src2);
	| PCLIR.sete .. PCLIR.setnf:
		SetConstant (instr.src2);
	| PCLIR.store:
		если (src1 >= 0) и (piece1.instr[src1].op = PCLIR.add) то
			если (piece1.instr[src1].dstCount = 1) и (piece1.instr[src1].src2 = PCLIR.none) то
				увел (instr.val, piece1.instr[src1].val);
				instr.src1 := piece1.instr[src1].src1;
				UseResult (piece1.instr[src1]);
			всё;
		всё;
		если (src2 >= 0) и (piece2.instr[src2].op = PCLIR.loadc) то
			если (piece2.instr[src2].dstCount = 1) и (piece2.instr[src2].dstSize в LegacyIntegers) и (piece2.instr[src2].adr = НУЛЬ) то
				UseResult (piece2.instr[src2]);
			всё;
		всё;
(*		SetResult (instr.src2); *)
	| PCLIR.loadc:
		(* workaround for paco generating code that assigns too large values to bytes *)
		если instr.dstSize = PCLIR.Int8 то
			instr.val := цел8(instr.val);
		всё;
	| PCLIR.ret:
		если src1 >= 0 то
			просей piece1.instr[src1].op из
			PCLIR.loadc:
				piece1.instr[src1].info := NewReg (piece1.instr[src1].dstSize, rAX);
				instr.suppress := истина;
			| PCLIR.sete .. PCLIR.setnf:
				piece1.instr[src1].info := PCA.NewReg8 (rAX);
				instr.suppress := истина;
			иначе
			всё
		всё
	| PCLIR.case:

		нов (case);
		instr.info := case;
		case.curCasePC := -2;

	| PCLIR.casel:

		case := piece1.instr[src1].info(Case);

		если pc = case.curCasePC + 1 то
			src2 := case.curCasePC;
			code.GetPiece (src2, piece2);
			piece2.instr[src2].info(CaseLine).last := ложь;

			если instr.val = case.curCaseLine.to + 1 то
				caseLine := case.curCaseLine;
				instr.suppress := истина;
			иначе
				нов (caseLine);
				caseLine.first := ложь;
				caseLine.from := instr.val;
				case.curCaseLine := caseLine;
			всё;
		иначе
			нов (caseLine);
			caseLine.first := истина;
			caseLine.from := instr.val;
			case.curCaseLine := caseLine;
		всё;

		instr.info := caseLine;
		caseLine.to := instr.val;
		case.curCasePC := pc;
		caseLine.last := истина;

(*

		(* if the case value is one ahead the previous case ignore this instruction and adapt the first case instruction *)
		IF (case.firstCasePC # -1) & (pc = case.prevCasePC + 1) & (instr.val = case.prevCaseValue + 1) THEN
			src2 := case.firstCasePC;
			code.GetPiece (src2, piece2);
			piece2.instr[src2].src2 := pc;
			instr.suppress := TRUE;
		ELSE
			(* src2 stores the pc of the last case line defining the range down to this instruction *)
			instr.src2 := pc;
			case.firstCasePC := pc;
		END;
		case.prevCasePC := pc;
		case.prevCaseValue := instr.val;
*)
	иначе
	всё;

кон Optimize;

проц DoOptimize (code: PCLIR.Code);
нач code.Traverse (Optimize, ложь, НУЛЬ);
кон DoOptimize;

(* Init - Initialize code generator - Installed in PCBT.CG *)
проц Init (): булево;
нач
	нов (assembly, PCM.diagnostics, НУЛЬ);

	currentRegisters.gpp := {};
	currentRegisters.xmm := {};
	saveLevel := 0;

	возврат истина
кон Init;

(* Done - Code generator results - Installed in PCBT.CG *)
проц Done (перем result: целМЗ);
нач result := 0;
кон Done;

проц GetCode (перем codeArr: PCLIR.CodeArray; перем length, hdrlength, addressFactor: цел32);
перем i: цел32;
нач
	length := assembly.pc;
	hdrlength := length;
	addressFactor := 1;
	assembly.SetPC (0);
	нов (codeArr, length);
	нцДля i := 0 до length - 1 делай
		codeArr[i] := assembly.GetByte ();
	кц;

(*	SendFile.SendData ("code.bin", codeArr^, length);    *)

кон GetCode;

(* Module Initialization and Configuration *)
проц Install*;
перем  i: PCLIR.Opcode;
нач
	PCLIR.CG.Init := Init;
	PCLIR.CG.Done := Done;
	PCLIR.CG.GetCode := GetCode;
	PCLIR.CG.DumpCode := DumpCode;
	PCLIR.CG.Optimize := DoOptimize;
	PCLIR.CG.MaxCodeSize := 40000H; (* should depend also on object filegenerator *)

	если AlignParameters то
		PCLIR.CG.ParamAlign := 8;
	иначе
		PCLIR.CG.ParamAlign := 2;
	всё;

	PCBT.SetNumberOfSyscalls(PCBT.DefaultNofSysCalls);
	нов(PCLIR.CG.SysCallMap, PCBT.NofSysCalls);
	PCLIR.InitDefaultSyscalls;

	PCLIR.Address := PCLIR.Int64;
	PCLIR.Set := PCLIR.Int64;
	PCLIR.SizeType := PCLIR.Int64;

	PCLIR.InstructionInit := InstructionInit;
	PCLIR.SetMethods(PCLIR.enter, GenEnter);
	PCLIR.SetMethods(PCLIR.exit, GenExit);
	PCLIR.SetMethods(PCLIR.trap, GenTrap);
	нцДля i := PCLIR.tae до PCLIR.tne делай
		PCLIR.SetMethods(i, GenTrapcc)
	кц;
	PCLIR.SetMethods(PCLIR.saveregs, GenSaveRegisters);
	PCLIR.SetMethods(PCLIR.loadregs, GenRestoreRegisters);
	PCLIR.SetMethods(PCLIR.ret, GenReturn);
	PCLIR.SetMethods(PCLIR.ret2, GenReturn2);
	PCLIR.SetMethods(PCLIR.result, GenResult);
	PCLIR.SetMethods(PCLIR.result2, GenResult2);
	PCLIR.SetMethods(PCLIR.pop, GenPop);
	PCLIR.SetMethods(PCLIR.load, GenLoad);
	PCLIR.SetMethods(PCLIR.loadc, GenLoadC);
	PCLIR.SetMethods(PCLIR.store, GenStore);
	PCLIR.SetMethods(PCLIR.in, GenIn);
	PCLIR.SetMethods(PCLIR.out, GenOut);
	PCLIR.SetMethods(PCLIR.nop, GenNop);
	PCLIR.SetMethods(PCLIR.label, GenLabel);
	PCLIR.SetMethods(PCLIR.finallylabel, GenLabel);
	нцДля i := PCLIR.je до PCLIR.jnf делай
		PCLIR.SetMethods(i, GenJcc)
	кц;
	PCLIR.SetMethods(PCLIR.jmp, GenJmp);
	PCLIR.SetMethods(PCLIR.call, GenCall);
	PCLIR.SetMethods(PCLIR.callreg, GenCallReg);
	PCLIR.SetMethods(PCLIR.syscall, GenSysCall);
	нцДля i := PCLIR.sete до PCLIR.setnf делай
		PCLIR.SetMethods(i, GenSetcc)
	кц;
	PCLIR.SetMethods(PCLIR.kill, GenKill);
	PCLIR.SetMethods(PCLIR.phi, GenPhi);
	PCLIR.SetMethods(PCLIR.push, GenPush);
	PCLIR.SetMethods(PCLIR.loadsp, GenLoadSP);
	PCLIR.SetMethods(PCLIR.loadfp, GenLoadFP);

	PCLIR.SetMethods(PCLIR.convs, GenConv);
	PCLIR.SetMethods(PCLIR.convu, GenConv);
	PCLIR.SetMethods(PCLIR.copy, GenConv);

	PCLIR.SetMethods(PCLIR.not, GenNegNot);
	PCLIR.SetMethods(PCLIR.neg, GenNegNot);
	PCLIR.SetMethods(PCLIR.abs, GenAbs);
	PCLIR.SetMethods(PCLIR.bts, GenBts);
	PCLIR.SetMethods(PCLIR.btc, GenBtc);
	PCLIR.SetMethods(PCLIR.mul, GenMul);
	PCLIR.SetMethods(PCLIR.div, GenDivMod);
	PCLIR.SetMethods(PCLIR.mod, GenDivMod);
	PCLIR.SetMethods(PCLIR.sub, GenSub);
	PCLIR.SetMethods(PCLIR.add, GenAdd);
	PCLIR.SetMethods(PCLIR.and, GenAnd);
	PCLIR.SetMethods(PCLIR.or, GenOr);
	PCLIR.SetMethods(PCLIR.xor, GenXor);

	PCLIR.SetMethods(PCLIR.ash, GenShift);
	PCLIR.SetMethods(PCLIR.bsh, GenShift);
	PCLIR.SetMethods(PCLIR.rot, GenShift);
	PCLIR.SetMethods(PCLIR.move, GenMove);
	PCLIR.SetMethods(PCLIR.moveDown, GenMoveDown);
	PCLIR.SetMethods(PCLIR.inline, GenInline);
	PCLIR.SetMethods(PCLIR.case, GenCase);
	PCLIR.SetMethods(PCLIR.casel, GenCaseLine);
	PCLIR.SetMethods(PCLIR.casee, GenCaseLine);

	PCM.log.пСтроку8 ("AMD64 code generator installed"); PCM.log.пВК_ПС;
кон Install;

кон PCGAMD64.
