(* Aos Runtime: PE object file plug-in, Copyright 2004, Emil J. Zeller, ETH Zürich *)

(* Paco, Copyright 2000 - 2002, Patrik Reali, ETH Zurich *)

модуль PCOFPE; (** AUTHOR "ejz"; PURPOSE "Parallel Compiler: PE object file plug-in"; *)
	использует НИЗКОУР, ЛогЯдра, StringPool, PCDebug, PCBT, PCLIR, PCM, PCT, PCOM, Dates, Strings, Потоки, Files, Clock;

	конст
		Loader = "AosRuntime"; Heap = "AosRuntime"; Active = "Objects";

		ImageDosSignature = 05A4DH; (* MZ *)
		ImageNtSignature = 000004550H; (* PE00 *)
		EXEImageBase = 0400000H; DLLImageBase = 010000000H;

		ImageSubsystemUnknown = 0;
		ImageSubsystemNative = 1;
		ImageSubsystemWindowsGui = 2;
		ImageSubsystemWindowsCui = 3;

		ImageNumberOfDirectoryEntries = 16;

		ImageFileRelocsStripped = 0;
		ImageFileExecutableImage = 1;
		ImageFileLineNumsStripped = 2;
		ImageFileLocalSymsStripped = 3;
		ImageFile32BitMachine = 8;
		ImageFileDll = 13;
		ImageFileMachineI386 = 014CH;
		ImageOptionalMagic = 010BH;
		MajorLinkerVersion = 0X; MinorLinkerVersion = 0X;
		ImageSizeOfShortName = 8;
		ImageScnCntCode = 5;
		ImageScnCntInitializedData = 6;
		ImageScnMemDiscardable = 25;
		ImageScnMemExecute = 29;
		ImageScnMemRead = 30;
		ImageScnMemWrite = 31;

		PageSize = 01000H; SectorSize = 0200H;
		DefaultFileAlign = SectorSize; DefaultSectionAlign = PageSize;
		BaseRVA = DefaultSectionAlign;
		DefaultHeapSize = 64*1024; DefaultStackSize = 1024*1024;

		ImageDirectoryEntryExport = 0;
		ImageDirectoryEntryImport = 1;
		ImageDirectoryEntryBasereloc = 5;
		ImageDirectoryEntryIAT = 12;

		ImageRelBasedHighLow = 3;

		ModeDef = 0; ModeDLL = 1; ModeEXE = 2;

		EUEnd = 0X; EURecord = 1X; EUProcFlag = цел32(080000000H);

	тип
		ImageFileHeader = запись
			Machine: цел16;
			NumberOfSections: цел16;
			TimeDateStamp: цел32;
			PointerToSymbolTable: цел32;
			NumberOfSymbols: цел32;
			SizeOfOptionalHeader: цел16;
			Characteristics: цел16
		кон;

		ImageDataDirectory = запись
			VirtualAddress, Size: цел32
		кон;

		ImageOptionalHeader = запись
			Magic: цел16;
			MajorLinkerVersion, MinorLinkerVersion: симв8;
			SizeOfCode, SizeOfInitializedData, SizeOfUninitializedData,
			AddressOfEntryPoint,
			BaseOfCode, BaseOfData, ImageBase,
			SectionAlignment, FileAlignment: цел32;
			MajorOperatingSystemVersion, MinorOperatingSystemVersion,
			MajorImageVersion, MinorImageVersion,
			MajorSubsystemVersion, MinorSubsystemVersion: цел16;
			Win32VersionValue,
			SizeOfImage, SizeOfHeaders,
			CheckSum: цел32;
			Subsystem,
			DllCharacteristics: цел16;
			SizeOfStackReserve, SizeOfStackCommit,
			SizeOfHeapReserve, SizeOfHeapCommit,
			LoaderFlags, NumberOfRvaAndSizes: цел32;
			DataDirectory: массив ImageNumberOfDirectoryEntries из ImageDataDirectory
		кон;

		ImageSectionHeader = запись
			Name: массив ImageSizeOfShortName из симв8;
			VirtualSize: цел32;
			VirtualAddress: цел32;
			SizeOfRawData: цел32;
			PointerToRawData: цел32;
			PointerToRelocations: цел32;
			PointerToLinenumbers: цел32;
			NumberOfRelocations: цел16;
			NumberOfLinenumbers: цел16;
			Characteristics: мнвоНаБитахМЗ
		кон;

		ImageExportDirectory = запись
			Characteristics, TimeDateStamp: цел32;
			MajorVersion, MinorVersion: цел16;
			Name, Base, NumberOfFunctions, NumberOfNames,
			AddressOfFunctions, AddressOfNames, AddressOfNameOrdinals: цел32
		кон;

		ImageImportDescriptor = запись
			Characteristics, TimeDateStamp, ForwarderChain, Name, FirstThunk: цел32
		кон;

		Bytes = укль на массив из симв8;
		Name = массив 256 из симв8;

		ExportFPList = укль на массив из цел32;

		SectionReader = окласс (Потоки.Чтец)
			перем sect: Section; org, ofs: размерМЗ;

			проц Receive(перем buf: массив из симв8; ofs, size, min: размерМЗ; перем len: размерМЗ; перем res: целМЗ);
			нач
				len := sect.used - сам.ofs;
				если len > 0 то
					если len > size то len := size всё;
					НИЗКОУР.копируйПамять(адресОт(sect.data[сам.ofs]), адресОт(buf[ofs]), len);
					увел(сам.ofs, len)
				всё;
				если len < min то
					res := Потоки.КонецФайла
				иначе
					res := Потоки.Успех
				всё
			кон Receive;

			проц {перекрыта}МестоВПотоке*(): Потоки.ТипМестоВПотоке;
			нач
				возврат org + МестоВПотоке^()
			кон МестоВПотоке;

			проц {перекрыта}ПерейдиКМестуВПотоке*(ofs: Потоки.ТипМестоВПотоке);
			нач
				ОчистьСостояниеБуфера();
				сам.org := размерМЗ(ofs); сам.ofs := размерМЗ(ofs)
			кон ПерейдиКМестуВПотоке;

			проц &Open*(sect: Section; ofs: цел32);
			нач
				новЧтец(сам.Receive, 4); (* is only used for small fixups *)
				сам.sect := sect; сам.org := ofs; сам.ofs := ofs
			кон Open;
		кон SectionReader;

		SectionWriter = окласс (Потоки.Писарь)
			перем sect: Section; org, ofs: цел32;

			проц Send(конст buf: массив из симв8; ofs, len: размерМЗ; propagate: булево; перем res: целМЗ);
			нач
				res := Потоки.Успех; если len <= 0 то возврат всё;
				если (сам.ofs + len) > sect.len то sect.Resize(сам.ofs + len(цел32)) всё;
				НИЗКОУР.копируйПамять(адресОт(buf[ofs]), адресОт(sect.data[сам.ofs]), len);
				увел(сам.ofs, len(цел32));
				если сам.ofs > sect.used то sect.used := сам.ofs всё
			кон Send;

			проц {перекрыта}МестоВПотоке*(): Потоки.ТипМестоВПотоке;
			нач
				возврат org + МестоВПотоке^()
			кон МестоВПотоке;

			проц {перекрыта}ПерейдиКМестуВПотоке*(ofs: Потоки.ТипМестоВПотоке);
			нач
				ПротолкниБуферВПоток(); Сбрось();
				сам.org := ofs(цел32); сам.ofs := ofs(цел32);
			кон ПерейдиКМестуВПотоке;

			проц &Open*(sect: Section; ofs: цел32);
			нач
				новПисарь(сам.Send, PageSize);
				сам.sect := sect; сам.org := ofs; сам.ofs := ofs
			кон Open;
		кон SectionWriter;

		Section = окласс
			перем
				head: ImageSectionHeader;
				data: Bytes; len, used: цел32;
				imports: ImportReloc; relocs: BaseReloc;
				W: SectionWriter; R: SectionReader;
				next: Section;

			проц Resize(min: цел32);
				перем data: Bytes; i: цел32;
			нач
				утв(min > len);
				min := Align(min, PageSize); нов(data, min); i := len;
				если i > 0 то
					НИЗКОУР.копируйПамять(адресОт(сам.data[0]), адресОт(data[0]), i)
				всё;
				нцПока i < min делай data[i] := 0X; увел(i) кц;
				сам.data := data; len := min
			кон Resize;

			проц SetBase(перем base: цел32);
				перем s: мнвоНаБитахМЗ;
			нач
				сам.head.VirtualAddress := base;
				s := НИЗКОУР.подмениТипЗначения(мнвоНаБитахМЗ, сам.head.Characteristics);
				если (ImageScnCntCode в s) или (ImageScnCntInitializedData в s) то
					сам.head.VirtualSize := сам.used
				иначе
					утв(сам.head.VirtualSize > 0)
				всё;
				увел(base, Align(сам.head.VirtualSize, DefaultSectionAlign))
			кон SetBase;

			проц &New*(pe: PEModule; name: массив из симв8; chars: мнвоНаБитахМЗ);
				перем p, s: Section;
			нач
				сам.W := НУЛЬ; сам.R := НУЛЬ;
				сам.next := НУЛЬ;
				p := НУЛЬ; s := pe.sects;
				нцПока s # НУЛЬ делай
					p := s; s := s.next
				кц;
				если p # НУЛЬ то
					p.next := сам
				иначе
					pe.sects := сам
				всё;
				увел(pe.fileHdr.NumberOfSections);
				сам.data := НУЛЬ; сам.used := 0; сам.len := 0;
				копируйСтрокуДо0(name, сам.head.Name); сам.head.Characteristics := chars;
				сам.head.VirtualSize := 0; сам.head.VirtualAddress := 0;
				сам.head.SizeOfRawData := 0; сам.head.PointerToRawData := 0;
				сам.head.NumberOfRelocations := 0; сам.head.PointerToRelocations := 0;
				сам.head.NumberOfLinenumbers := 0; сам.head.PointerToLinenumbers := 0;
				сам.imports := НУЛЬ; сам.relocs := НУЛЬ;
				нов(W, сам, 0); нов(R, сам, 0)
			кон New;
		кон Section;

		BaseReloc = укль на запись
			ofs: Потоки.ТипМестоВПотоке;
			base: Section;
			next: BaseReloc
		кон;

		ImportMod = укль на запись
			desc: ImageImportDescriptor;
			name: Name; objs: ImportObj;
			next: ImportMod
		кон;

		ImportObj = укль на запись
			name: Name; next: ImportObj;
			iat: цел32
		кон;

		ImportReloc = укль на запись
			ofs: Потоки.ТипМестоВПотоке;
			obj: ImportObj;
			next: ImportReloc;
			iat, abs, uofs: булево
		кон;

		ExportObj = укль на запись
			name: Name;
			sect: Section; ofs: цел32;
			next: ExportObj
		кон;

		PEModule = окласс
			перем
				name: Files.FileName;
				mod: PCT.Module; adr: PCBT.Module;
				codearr: PCLIR.CodeArray; hdrCodeSize, addressFactor: цел32;
				fileHdr: ImageFileHeader; optHdr: ImageOptionalHeader;
				sects, type, var, const, code, idata, edata, reloc: Section;
				exports: ExportObj; imports: ImportMod;
				explist: ExportFPList; exppos, explen, nofstr, nofImp, count: цел32;
				desc: запись
					modules, commands, methods, pointers, exports, imports, types: цел32;
					iatfix: цел32
				кон;

			проц AddImportMod(name: массив из симв8): ImportMod;
				перем mod: ImportMod;
			нач
				mod := imports;
				нцПока (mod # НУЛЬ) и (mod.name # name) делай
					mod := mod.next
				кц;
				если mod = НУЛЬ то
					нов(mod); копируйСтрокуДо0(name, mod.name); mod.objs := НУЛЬ;
					mod.desc.Characteristics := 0; mod.desc.TimeDateStamp := fileHdr.TimeDateStamp;
					mod.desc.ForwarderChain := 0; mod.desc.Name := 0; mod.desc.FirstThunk := 0;
					mod.next := imports; imports := mod
				всё;
				возврат mod
			кон AddImportMod;

			проц FixupSysCall(l: PCBT.Fixup; entry: цел32);
				перем
					rt: ImportMod; name: Name; obj: ImportObj; W: SectionWriter; p: PCT.Proc; offset: цел32;
					idx: StringPool.Index;
			нач
				rt := НУЛЬ;
				просей entry из
					|246: name := "Unlock"
					|247: name := "Lock"
					|249: name := "Await"
					|250: name := "CreateProcess"
					|251: name := "NewArr"
					|252: name := "NewSys"
					|253: name := "NewRec"
				иначе
					СТОП(99)
				всё;
				если (entry >= 246) и (entry <= 250) и (сам.name # Active) то
					rt := AddImportMod(Active)
				всё;
				если (entry >= 251) и (entry <= 253) и (сам.name # Heap) то
					rt := AddImportMod(Heap)
				всё;
				если rt # НУЛЬ то
					obj := AddImportObj(rt, name); p := НУЛЬ
				иначе
					StringPool.GetIndex(name, idx);
					p := mod.scope.firstProc;
					нцПока (p # НУЛЬ) и (p.name # idx) делай
						p := p.nextProc
					кц;
					утв(p # НУЛЬ)
				всё;
				W := code.W;
				нцПока l # НУЛЬ делай
					offset := l.offset*addressFactor;
					W.ПерейдиКМестуВПотоке(offset);
					если rt # НУЛЬ то
						AddImportReloc(code, offset, obj, ложь, ложь, ложь);
						W.пЦел32_мз(0)
					иначе
						W.пЦел32_мз(p.adr(PCBT.Procedure).codeoffset-(offset+4))
					всё;
					l := l.next
				кц;
				W.ПротолкниБуферВПоток()
			кон FixupSysCall;

			проц FixupCase(l: PCBT.Fixup);
				перем offset: цел32;
			нач
				нцПока l # НУЛЬ делай
					offset := l.offset*addressFactor;
					AddOfsReloc(const, offset, code);
					l := l.next
				кц
			кон FixupCase;

			проц FixupLinks;
				перем entry, i: цел32;
			нач
				i := 0;
				нцПока i < PCBT.NofSysCalls делай
					если adr.syscalls[i] # НУЛЬ то
						entry := кодСимв8(PCLIR.CG.SysCallMap[i]);
						просей entry из
							246..253: FixupSysCall(adr.syscalls[i], entry)
							|255: FixupCase(adr.syscalls[i])
						иначе
							СТОП(99)	(* unknown entry *)
						всё
					всё;
					увел(i)
				кц
			кон FixupLinks;

			проц TypeAlign4;
				перем W: SectionWriter; n: цел32;
			нач
				n := type.used остОтДеленияНа 4;
				если n # 0 то
					W := type.W; W.ПерейдиКМестуВПотоке(type.used);
					n := 4-n;
					нцПока n > 0 делай W.пСимв8(0X); умень(n) кц;
					W.ПротолкниБуферВПоток()
				всё
			кон TypeAlign4;

			проц Commands;
				перем W: SectionWriter; proc: PCT.Proc; name: Name; ofs: цел32;
			нач
				TypeAlign4(); desc.commands := type.used;
(* possible improvment: store only export ordinal, name and address from edata export table *)
				W := type.W; W.ПерейдиКМестуВПотоке(type.used);
				proc := mod.scope.firstProc;
				нцПока (proc # НУЛЬ) делай
					если (proc.vis = PCT.Public) и ~(PCT.Inline в proc.flags) то
						ofs := proc.adr(PCBT.Procedure).codeoffset;
						если (proc.scope.firstPar = НУЛЬ) и (proc.type = PCT.NoType) то
							StringPool.GetString(proc.name, name);
							W.пБайты(name, 0, 32);
							AddOfsReloc(type, W.МестоВПотоке(), code);
							W.пЦел32_мз(ofs); W.пЦел32_мз(0)
						аесли (proc.scope.firstPar # НУЛЬ) и (proc.scope.firstPar.nextPar = НУЛЬ) и (proc.scope.firstPar.type = PCT.Ptr) и (proc.type = PCT.Ptr) то
							StringPool.GetString(proc.name, name);
							W.пБайты(name, 0, 32);
							AddOfsReloc(type, W.МестоВПотоке()+4, code);
							W.пЦел32_мз(0); W.пЦел32_мз(ofs)
						всё
					всё;
					proc := proc.nextProc
				кц;
				name := "";
				W.пБайты(name, 0, 32); (* sentinel *)
				W.пЦел32_мз(0); W.пЦел32_мз(0);
				W.ПротолкниБуферВПоток()
			кон Commands;

			проц UseModule(m: PCBT.Module);
			нач
				если m.nr = 0 то увел(nofImp); m.nr := -1 всё
			кон UseModule;

			проц UseModules;
				перем
					o: PCT.Symbol; p: PCBT.GlobalVariable; rec: PCT.Record; bsym: PCOM.Struct; i, j: цел32;
					m: PCT.Module; adr: PCBT.Module; name: Name; im: ImportMod; W: SectionWriter;
			нач
				TypeAlign4(); desc.modules := type.used;
				W := type.W; W.ПерейдиКМестуВПотоке(type.used);
				(* detect imported modules *)
				если mod.imports = НУЛЬ то W.пЦел32_мз(0); W.ПротолкниБуферВПоток(); возврат всё;
				i := 0;
				нцПока (i < длинаМассива(mod.imports)) и (mod.imports[i] # НУЛЬ) делай
					mod.imports[i].adr(PCBT.Module).nr := 0;
					увел(i)
				кц;
				nofImp := 0;
				o := mod.scope.sorted;
				нцПока o # НУЛЬ делай
					если (o суть PCT.Module) и (o.adr # PCT.System.adr) то UseModule(o.adr(PCBT.Module)) всё;
					o := o.sorted;
				кц;
				p := сам.adr.ExtVars;
				нцПока p # PCBT.sentinel делай
					если p.link # НУЛЬ то UseModule(p.owner) всё;
					p := p.next
				кц;
				rec := mod.scope.records;
				нцПока rec # НУЛЬ делай
					если (rec.brec # НУЛЬ) и (rec.brec.sym # НУЛЬ) то
						bsym := rec.brec.sym(PCOM.Struct);
						если bsym.mod # mod.scope.owner то UseModule(bsym.mod.adr(PCBT.Module)) всё
					всё;
					rec := rec.link
				кц;
				W.пЦел32_мз(nofImp);
				i := 0; j := 0;
				нцПока (i < длинаМассива(mod.imports)) и (mod.imports[i] # НУЛЬ) делай
					m := mod.imports[i];
					adr := m.adr(PCBT.Module);
					если adr.nr = -1 то
						увел(j); adr.nr := устарПреобразуйКБолееУзкомуЦел(j);
						StringPool.GetString(m.name, name);
						W.пСтроку8˛включаяСимв0(name);
						im := AddImportMod(name)
					всё;
					увел(i)
				кц;
				W.ПротолкниБуферВПоток()
			кон UseModules;

			проц FixupProc(p: PCBT.Procedure);
				перем W: SectionWriter; l: PCBT.Fixup; offset: цел32;
			нач
				W := code.W; l := p.link;
				нцПока l # НУЛЬ делай
					offset := l.offset*addressFactor;
утв(code.data[offset-1] # 0E8X);
					AddOfsReloc(code, offset, code);
					W.ПерейдиКМестуВПотоке(offset); W.пЦел32_мз(p.codeoffset);
					l := l.next
				кц;
				W.ПротолкниБуферВПоток()
			кон FixupProc;

			проц FixupOwnProcs;
				перем W: SectionWriter; p: PCBT.Procedure; nofMethods: цел32;
			нач
				TypeAlign4(); desc.methods := type.used;
				W := type.W; W.ПерейдиКМестуВПотоке(type.used);
				nofMethods := 0;
				p := adr.OwnProcs;
				нцПока p # PCBT.psentinel делай
					если (p.public) или (p.link # НУЛЬ) или (p суть PCBT.Method) то
						если p суть PCBT.Method то
							p.entryNr := nofMethods; увел(nofMethods);
							AddOfsReloc(type, W.МестоВПотоке(), code);
							W.пЦел32_мз(p.codeoffset)
						всё;
						если p.link # НУЛЬ то FixupProc(p) всё
					всё;
					p := p.next
				кц;
				W.пЦел32_мз(0); (* sentinel *)
				W.ПротолкниБуферВПоток()
			кон FixupOwnProcs;

			проц PtrAdr(W: SectionWriter; offset: цел32; type: PCT.Struct; fixadr: булево);
				перем i, n, off: цел32; f: PCT.Variable; scope: PCT.Scope; base: PCT.Struct; size: PCBT.Size;
			нач
				если ~type.size(PCBT.Size).containPtrs то возврат всё;
				если PCT.IsPointer(type) то
					если fixadr то AddOfsReloc(сам.type, W.МестоВПотоке(), var) всё;
					W.пЦел32_мз(offset)
				аесли (type суть PCT.Delegate) и ~(PCT.StaticMethodsOnly в type.flags) то
					если fixadr то AddOfsReloc(сам.type, W.МестоВПотоке(), var) всё;
					W.пЦел32_мз(offset+4)
				аесли type суть PCT.Record то
					просейТип type: PCT.Record делай
						если type.brec # НУЛЬ то PtrAdr(W, offset, type.brec, fixadr) всё;
						scope := type.scope;
					всё;
					f := scope.firstVar;
					нцПока f # НУЛЬ делай
						если ~(PCM.Untraced в f.flags) то
							утв(scope.state >= PCT.structallocated);
							type := f.type; off := f.adr(PCBT.Variable).offset;
							PtrAdr(W, offset+off, type, fixadr)
						всё;
						f := f.nextVar
					кц
				аесли type суть PCT.Array то
					просейТип type: PCT.Array делай
						если type.mode = PCT.static то
							n := type.len;
							base := type.base;
							нцПока (base суть PCT.Array) делай
								type := base(PCT.Array); base := type.base;
								утв(type.mode = PCT.static);
								n := n * type.len
							кц;
							size := base.size(PCBT.Size);
							если size.containPtrs то
								нцДля i := 0 до n-1 делай PtrAdr(W, offset+i*size.size, base, fixadr) кц
							всё
						иначе
							PCDebug.ToDo(PCDebug.NotImplemented);	(*find pointers in the array, call NewPtr for each one*)
						всё
					всё
				всё
			кон PtrAdr;

			проц Pointers;
				перем W: SectionWriter; p: PCT.Variable;
			нач
				TypeAlign4(); desc.pointers := type.used;
				W := type.W; W.ПерейдиКМестуВПотоке(type.used);
				p := mod.scope.firstVar;
				нцПока p # НУЛЬ делай
					если ~(PCM.Untraced в p.flags) то
						PtrAdr(W, var.head.VirtualSize + p.adr(PCBT.GlobalVariable).offset, p.type, истина)
					всё;
					p := p.nextVar
				кц;
				W.пЦел32_мз(0); (* sentinel *)
				W.ПротолкниБуферВПоток()
			кон Pointers;

			проц FixupVar(p: PCBT.GlobalVariable);
				перем W: SectionWriter; R: SectionReader; l: PCBT.Fixup; offset, x: цел32;
			нач
				W := code.W; R := code.R; l := p.link;
				нцПока l # НУЛЬ делай
					offset := l.offset*addressFactor;
					R.ПерейдиКМестуВПотоке(offset); R.чЦел32_мз(x);
					W.ПерейдиКМестуВПотоке(offset);
					если p.offset < 0 то (* var *)
						AddOfsReloc(code, offset, var);
						W.пЦел32_мз(var.head.VirtualSize + x)
					иначе (* const *)
						AddOfsReloc(code, offset, const);
						W.пЦел32_мз(x)
					всё;
					l := l.next
				кц;
				W.ПротолкниБуферВПоток()
			кон FixupVar;

			проц FixupOwnVars;
				перем p: PCBT.GlobalVariable;
			нач
				p := adr.OwnVars;
				нцПока p # PCBT.sentinel делай
					если p.link # НУЛЬ то FixupVar(p) всё;
					утв(p.entryNo = PCBT.UndefEntryNo);
					p := p.next
				кц
			кон FixupOwnVars;

			проц AddExport(sect: Section; ofs: цел32; name: массив из симв8);
				перем p, n, e: ExportObj;
			нач
				p := НУЛЬ; n := exports;
				нцПока (n # НУЛЬ) и (n.name < name) делай
					p := n; n := n.next
				кц;
				если (n = НУЛЬ) или (n.name > name) то
					нов(e); копируйСтрокуДо0(name, e.name);
					e.sect := sect; e.ofs := ofs;
					e.next := n;
					если p # НУЛЬ то
						p.next := e
					иначе
						exports := e
					всё
				иначе
					СТОП(99)
				всё
			кон AddExport;

			проц ExportType(W: SectionWriter; t: PCT.Struct);
				перем sym: PCOM.Struct; p: PCT.Proc; v: PCT.Variable; count: цел32; pos, bak: Потоки.ТипМестоВПотоке;
			нач
				нцПока (t суть PCT.Pointer) или (t суть PCT.Array) делай
					если t суть PCT.Pointer то t := t(PCT.Pointer).base иначе t := t(PCT.Array).base всё
				кц;
				sym := t.sym(PCOM.Struct);
				если (t суть PCT.Record) и ((sym.mod = НУЛЬ) или (sym.mod = mod)) то
					просейТип t: PCT.Record делай
						W.пСимв8(EURecord);
						если sym.uref # 0 то
							W.пЦел64_7б(-sym.uref)
						иначе
							count := 0;
							увел(nofstr); sym.uref := nofstr;	(*remember it's exported*)
							W.пЦел64_7б(t.size(PCBT.RecSize).td.offset);	(* link address in the constant section*)
							pos := W.МестоВПотоке(); W.пЦел16_мз(2);	(* number of entries *)
							ExportType(W, t.btyp);
							W.пЦел64_7б(sym.pbfp); W.пЦел64_7б(sym.pvfp);
							v := t.scope.firstVar;
							нцПока p # НУЛЬ делай
								если v.vis # PCT.Internal то
									W.пЦел64_7б(v.sym(PCOM.Symbol).fp); ExportType(W, v.type); увел(count)
								всё;
								v := v.nextVar
							кц;
							p := t.scope.firstProc;
							нцПока p # НУЛЬ делай
								если (p.vis # PCT.Internal) и (p # t.scope.body) то
									W.пЦел64_7б(p.sym(PCOM.Symbol).fp); увел(count)
								всё;
								p := p.nextProc
							кц;
							если count # 0 то
								bak := W.МестоВПотоке(); W.ПерейдиКМестуВПотоке(pos);
								W.пЦел16_мз(устарПреобразуйКБолееУзкомуЦел(count+2));
								W.ПерейдиКМестуВПотоке(bak)
							всё;
							W.пСимв8(EUEnd)
						всё
					всё
				всё
			кон ExportType;

			проц ExportSymbol(W: SectionWriter; p: PCT.Symbol; sect: Section; ofs: цел32);
				перем i, fp: цел32; name: Name; explist2: ExportFPList;
			нач
				StringPool.GetString(p.name, name);
				fp := p.sym(PCOM.Symbol).fp;
				нцДля i := 0 до exppos-1 делай
					если fp = explist[i] то PCM.ErrorN(280, PCM.InvalidPosition, p.name) всё
				кц;
				если exppos >= explen то
					нов(explist2, 2*explen);
					НИЗКОУР.копируйПамять(адресОт(explist[0]), адресОт(explist2[0]), 4*explen);
					explist := explist2; explen := 2*explen
				всё;
				explist[exppos] := fp; увел(exppos);
				если sect # НУЛЬ то AddExport(sect, ofs, name) всё;
				W.пЦел64_7б(fp); W.пЦел64_7б(ofs);
				увел(count)
			кон ExportSymbol;

			проц ExportConsts(W: SectionWriter);
				перем c: PCT.Value;
			нач
				c := mod.scope.firstValue;
				нцПока c # НУЛЬ делай
					если c.vis # PCT.Internal то
						если (c.adr # НУЛЬ) и (c.adr суть PCBT.GlobalVariable) то
							ExportSymbol(W, c, const, c.adr(PCBT.GlobalVariable).offset)
						иначе
							ExportSymbol(W, c, НУЛЬ, 0)
						всё
					всё;
					c := c.nextVal
				кц
			кон ExportConsts;

			проц ExportVars(W: SectionWriter);
				перем v: PCT.Variable;
			нач
				v := mod.scope.firstVar;
				нцПока v # НУЛЬ делай
					если v.vis # PCT.Internal то
						ExportSymbol(W, v, var, var.head.VirtualSize + v.adr(PCBT.GlobalVariable).offset);
						ExportType(W, v.type)
					всё;
					v := v.nextVar
				кц
			кон ExportVars;

			проц ExportTypes(W: SectionWriter);
				перем t: PCT.Type;
			нач
				t := mod.scope.firstType;
				нцПока t # НУЛЬ делай
					если t.vis # PCT.Internal то
						ExportSymbol(W, t, НУЛЬ, 0);
						ExportType(W, t.type)
					всё;
					t := t.nextType
				кц
			кон ExportTypes;

			проц ExportProcs(W: SectionWriter);
				перем p: PCT.Proc;
			нач
				p := mod.scope.firstProc;
				нцПока p # НУЛЬ делай
					если p.vis # PCT.Internal то
						ExportSymbol(W, p, code, p.adr(PCBT.Procedure).codeoffset);
					всё;
					p := p.nextProc
				кц
			кон ExportProcs;

			проц CheckExport(name: массив из симв8);
				перем e: ExportObj; idx: StringPool.Index; p: PCT.Proc;
			нач
				e := exports;
				нцПока (e # НУЛЬ) и (e.name < name) делай
					e := e.next
				кц;
				если (e # НУЛЬ) и (e.name = name) то возврат всё;
				StringPool.GetIndex(name, idx);
				p := mod.scope.firstProc;
				нцПока (p # НУЛЬ) и (p.name # idx) делай
					p := p.nextProc
				кц;
				утв(p # НУЛЬ);
				AddExport(code, p.adr(PCBT.Procedure).codeoffset, name)
			кон CheckExport;

			проц Exports;
				перем W: SectionWriter; i: Потоки.ТипМестоВПотоке; pos: цел32;
			нач
				TypeAlign4(); desc.exports := type.used;
				нов(explist, 256); exppos := 0; explen := 256;
				nofstr := 0; count := 0; pos := type.used;
				W := type.W; W.ПерейдиКМестуВПотоке(pos); W.пЦел16_мз(0);
				ExportConsts(W);
				ExportVars(W);
				ExportTypes(W);
				ExportProcs(W);
				если count # 0 то
					i := W.МестоВПотоке(); W.ПерейдиКМестуВПотоке(pos);
					W.пЦел16_мз(устарПреобразуйКБолееУзкомуЦел(count));
					W.ПерейдиКМестуВПотоке(i)
				всё;
				W.пСимв8(EUEnd);
				W.ПротолкниБуферВПоток();
				если name = Loader то
					CheckExport("DllMain"); CheckExport("WinMain")
				всё;
				если name = Heap то
					CheckExport("NewArr"); CheckExport("NewSys"); CheckExport("NewRec")
				всё;
				если name = Active то
					CheckExport("Unlock"); CheckExport("Lock"); CheckExport("Await"); CheckExport("CreateProcess")
				всё
			кон Exports;

			проц UseEntry(W: SectionWriter; m: PCT.Module; p: PCT.Symbol; offset: цел32; imp: ImportMod): ImportObj;
				перем name: Name;
			нач
				StringPool.GetString(p.name, name);
				PCOM.FPrintObj(p, m);
				W.пЦел64_7б(p.sym(PCOM.Symbol).fp);
				W.пСтроку8˛включаяСимв0(name);
				W.пЦел64_7б(offset);
				если imp # НУЛЬ то
					возврат AddImportObj(imp, name)
				всё;
				возврат НУЛЬ
			кон UseEntry;

			проц UseType(W: SectionWriter; m: PCT.Module; i: цел32; t: PCT.Struct);
				перем size: PCBT.RecSize; sym: PCOM.Struct; j: цел32;
			нач
				нц
					если t суть PCT.Pointer то t := t(PCT.Pointer).base
					аесли t суть PCT.Array то t := t(PCT.Array).base
					иначе прервиЦикл
					всё
				кц;
				если ~(t суть PCT.Record) то возврат всё;
				просейТип t: PCT.Record делай
					size := t.size(PCBT.RecSize);
					если (size.td # НУЛЬ) то
						если (t.scope.module = m) то
							sym := t.sym(PCOM.Struct);
							если (t.owner # НУЛЬ) и (t.owner.sym = НУЛЬ) то PCOM.FPrintObj(t.owner, m) всё;
							W.пСимв8(EURecord);
							W.пЦел64_7б(-size.td.offset);
							если t.pvused то
								W.пЦел64_7б(sym.pvfp);
								W.пСтроку8˛включаяСимв0("@");
							аесли t.pbused то
								W.пЦел64_7б(sym.pbfp);
								W.пСтроку8˛включаяСимв0("@")
							всё;
							W.пСимв8(EUEnd);
							size.td := НУЛЬ	(*avoid double tracing*)
						иначе
								(* aliasing of imported type: schedule module for emission in use list *)
							j := i+1;
							нц
								если j = длинаМассива(mod.imports) то
									PCT.ExtendModArray(mod.imports);
									mod.imports[j] := t.scope.module;
									прервиЦикл
								аесли mod.imports[j] = НУЛЬ то
									mod.imports[j] := t.scope.module;
									прервиЦикл
								аесли mod.imports[j] = t.scope.module то
									прервиЦикл
								всё;
								увел(j)
							кц
						всё
					всё
				всё
			кон UseType;

			проц ImportConsts(W: SectionWriter; m: PCT.Module);
				перем c: PCT.Value; obj: ImportObj;
			нач
				c := m.scope.firstValue;
				нцПока c # НУЛЬ делай
					если (PCT.used в c.flags) и (c.vis # PCT.Internal) то obj := UseEntry(W, m, c, 0, НУЛЬ) всё;
					исключиИзМнваНаБитах(c.flags, PCT.used);
					c := c.nextVal
				кц
			кон ImportConsts;

			проц ImportVars(W: SectionWriter; m: PCT.Module; i: цел32; imp: ImportMod);
				перем
					p: PCBT.GlobalVariable; v: PCT.Variable; e: цел32; obj: ImportObj; nofVarCons: цел16;
					l: PCBT.Fixup; offset: цел32; F: SectionWriter;
			нач
				nofVarCons := 1;
				p := adr.ExtVars;
				нцПока p # PCBT.sentinel делай
					если p.link # НУЛЬ то
						p.entryNo := nofVarCons; увел(nofVarCons)
					всё;
					p := p.next
				кц;
				v := m.scope.firstVar;
				нцПока v # НУЛЬ делай
					e := v.adr(PCBT.GlobalVariable).entryNo;
					если (e # PCBT.UndefEntryNo) то
						obj := UseEntry(W, m, v, e, imp); UseType(W, m, i, v.type);
						F := code.W;
						l := v.adr(PCBT.GlobalVariable).link;
						нцПока l # НУЛЬ делай
							offset := l.offset*addressFactor;
							F.ПерейдиКМестуВПотоке(offset);
							AddImportReloc(code, offset, obj, ложь, истина, НИЗКОУР.прочти32битаПоАдресу(адресОт(code.data[offset])) # 0);
							l := l.next
						кц;
						F.ПротолкниБуферВПоток()
					всё;
					v := v.nextVar
				кц
			кон ImportVars;

			проц ImportTypes(W: SectionWriter; m: PCT.Module; i: цел32);
				перем t: PCT.Type; obj: ImportObj;
			нач
				t := m.scope.firstType;
				нцПока t # НУЛЬ делай
					если (PCT.used в t.flags) и (t.vis # PCT.Internal) то
						obj := UseEntry(W, m, t, 0, НУЛЬ); UseType(W, m, i, t.type)
					всё;
					исключиИзМнваНаБитах(t.flags, PCT.used);
					t := t.nextType
				кц
			кон ImportTypes;

			проц ImportProcs(W: SectionWriter; m: PCT.Module; imp: ImportMod);
				перем p: PCT.Proc; obj: ImportObj; l: PCBT.Fixup; offset: цел32; F: SectionWriter;
			нач
				p := m.scope.firstProc;
				нцПока p # НУЛЬ делай
					если (p.adr # НУЛЬ) и (p.adr(PCBT.Procedure).link # НУЛЬ) то
						obj := UseEntry(W, m, p, p.adr(PCBT.Procedure).link.offset + EUProcFlag, imp);
						F := code.W;
						l := p.adr(PCBT.Procedure).link;
						нцПока l # НУЛЬ делай
							offset := l.offset*addressFactor;
							F.ПерейдиКМестуВПотоке(offset);
							если code.data[offset-1] = 0E8X то	(* call instruction relative *)
								AddImportReloc(code, offset, obj, ложь, ложь, ложь)
							иначе
								AddImportReloc(code, offset, obj, ложь, истина, ложь)
							всё;
							l := l.next
						кц;
						F.ПротолкниБуферВПоток()
					аесли (p.flags * {PCT.used, PCT.Inline} = {PCT.used, PCT.Inline}) и (p.vis # PCT.Internal) то
						obj := UseEntry(W, m, p, 0, НУЛЬ)
					всё;
					p := p.nextProc
				кц
			кон ImportProcs;

			проц Imports;
				перем W: SectionWriter; m: PCT.Module; name: Name; i: цел32; imp: ImportMod;
			нач
				TypeAlign4(); desc.imports := type.used;
				W := type.W; W.ПерейдиКМестуВПотоке(type.used);
				если mod.imports = НУЛЬ то W.пСимв8(0X); W.ПротолкниБуферВПоток(); возврат всё;
				i := 0;
				нцПока (i < длинаМассива(mod.imports)) и (mod.imports[i] # НУЛЬ) делай
					m := mod.imports[i];
					утв(m = m.scope.owner);
					StringPool.GetString(m.name, name);
					imp := AddImportMod(name);
					W.пСтроку8˛включаяСимв0(name);
					ImportConsts(W, m);
					ImportVars(W, m, i, imp);
					ImportTypes(W, m, i);
					ImportProcs(W, m, imp);
					W.пСимв8(0X);
					увел(i)
				кц;
				W.пСимв8(0X);
				W.ПротолкниБуферВПоток()
			кон Imports;

			проц WriteType(W: SectionWriter; rec: PCT.Record);
				перем
					size: PCBT.RecSize; pos, i: Потоки.ТипМестоВПотоке; oldmth: цел32; base: PCT.Record; m: PCT.Method;
					adr: PCBT.Method; bsym: PCOM.Struct; name, name2: Name;
					basenr: цел16; baseid, nofptrs: цел32;
			нач
				PCT.GetTypeName(rec, name);
				size := rec.size(PCBT.RecSize);
				W.пЦел32_мз(size.size);
				W.пЦел16_мз(устарПреобразуйКБолееУзкомуЦел(size.td.offset));
				если rec.brec = НУЛЬ то
					oldmth := 0;
					basenr := -1;
					baseid := -1
				иначе
					base := rec.brec;
					basenr := 0;
					если (base.sym # НУЛЬ) то
						bsym := base.sym(PCOM.Struct);
						утв(bsym.mod # НУЛЬ);
						если bsym.mod # mod.scope.owner то basenr := устарПреобразуйКБолееУзкомуЦел(bsym.mod.adr(PCBT.Module).nr) всё
					всё;
					если basenr = 0 то
						baseid := base.size(PCBT.RecSize).td.offset
					аесли base.owner = НУЛЬ то
						baseid := base.ptr.owner.sym(PCOM.Symbol).fp
					иначе
						StringPool.GetString(base.owner.name, name2);
						baseid := base.owner.sym(PCOM.Symbol).fp
					всё;
					oldmth := base.size(PCBT.RecSize).nofMethods;
				всё;
				W.пЦел16_мз(basenr);
				W.пЦел32_мз(baseid);
				W.пЦел16_мз(устарПреобразуйКБолееУзкомуЦел(size.nofMethods));	(*NofMethods*)
				W.пЦел16_мз(устарПреобразуйКБолееУзкомуЦел(oldmth));	(*InheritedMethods*)
				W.пЦел16_мз(устарПреобразуйКБолееУзкомуЦел(size.nofLocalMethods));	(*NewMethods*)
				pos := W.МестоВПотоке();
				W.пЦел16_мз(0);
				W.пСтроку8˛включаяСимв0(name);

				(*New Methods in Record*)
				i := 0; m := rec.scope.firstMeth;
				нцПока m # НУЛЬ делай
					adr := m.adr(PCBT.Method);
					W.пЦел16_мз(устарПреобразуйКБолееУзкомуЦел(adr.mthNo));
					W.пЦел16_мз(устарПреобразуйКБолееУзкомуЦел(adr.entryNr));
					увел(i);
					m := m.nextMeth
				кц;
				утв(i = size.nofLocalMethods, 500);	(*sanity check*)

				(* Ptrs in Record *)
				i := W.МестоВПотоке();
				PtrAdr(W, 0, rec, ложь);
				nofptrs := (W.МестоВПотоке() - i)(цел32) DIV 4;
				если nofptrs > матМаксимум(цел16) то PCM.Error(221, PCM.InvalidPosition, "") всё;
				если nofptrs # 0 то
					i := W.МестоВПотоке(); W.ПерейдиКМестуВПотоке(pos);
					W.пЦел16_мз(устарПреобразуйКБолееУзкомуЦел(nofptrs));
					W.ПерейдиКМестуВПотоке(i)
				всё
			кон WriteType;

			проц Types;
				перем W: SectionWriter; rec: PCT.Record;
			нач
				TypeAlign4(); desc.types := type.used;
				W := type.W; W.ПерейдиКМестуВПотоке(type.used);
				W.пЦел32_мз(mod.scope.nofRecs);
				rec := mod.scope.records;
				нцПока rec # НУЛЬ делай
					если PCT.interface в rec.mode то
						СТОП(99)
					иначе
						WriteType(W, rec)
					всё;
					rec := rec.link
				кц;
				rec := mod.scope.records;
				нцПока rec # НУЛЬ делай
					rec.size(PCBT.RecSize).td := НУЛЬ;
					rec := rec.link
				кц;
				W.ПротолкниБуферВПоток()
			кон Types;

			проц PutName(W: SectionWriter; name: массив из симв8);
			нач
				W.пСтроку8˛включаяСимв0(name);
				если (W.МестоВПотоке() остОтДеленияНа 2) = 1 то W.пСимв8(0X) всё
			кон PutName;

			проц ModDesc;
				перем W: SectionWriter; sect: Section; r: ImportReloc;
			нач
				W := type.W; W.ПерейдиКМестуВПотоке(type.used);
				W.пЦел32_мз(0); (* hmod *)
				AddOfsReloc(type, W.МестоВПотоке(), type); (* image base *)
				W.пЦел32_мз(-BaseRVA);
				AddOfsReloc(type, W.МестоВПотоке(), type);
				W.пЦел32_мз(desc.modules);
				AddOfsReloc(type, W.МестоВПотоке(), type);
				W.пЦел32_мз(desc.commands);
				AddOfsReloc(type, W.МестоВПотоке(), type);
				W.пЦел32_мз(desc.methods);
				AddOfsReloc(type, W.МестоВПотоке(), type);
				W.пЦел32_мз(desc.pointers);
				AddOfsReloc(type, W.МестоВПотоке(), type);
				W.пЦел32_мз(desc.exports);
				AddOfsReloc(type, W.МестоВПотоке(), type);
				W.пЦел32_мз(desc.imports);
				AddOfsReloc(type, W.МестоВПотоке(), type);
				W.пЦел32_мз(desc.types);
				если var # НУЛЬ то
					AddOfsReloc(type, W.МестоВПотоке(), var)
				иначе
					AddOfsReloc(type, W.МестоВПотоке(), const)
				всё;
				W.пЦел32_мз(0);
				AddOfsReloc(type, W.МестоВПотоке(), const);
				W.пЦел32_мз(const.used-1);
				AddOfsReloc(type, W.МестоВПотоке(), code);
				W.пЦел32_мз(0);
				AddOfsReloc(type, W.МестоВПотоке(), code);
				W.пЦел32_мз(code.used-1);
				AddOfsReloc(type, W.МестоВПотоке(), const); (* SB *)
				W.пЦел32_мз(0);
				AddOfsReloc(type, W.МестоВПотоке(), idata);
				W.пЦел32_мз(0);
				AddOfsReloc(type, W.МестоВПотоке(), edata);
				W.пЦел32_мз(0);
				desc.iatfix := W.МестоВПотоке()(цел32);
				sect := sects;
				нцПока sect # НУЛЬ делай
					r := sect.imports;
					нцПока r # НУЛЬ делай
						если ~r.iat то
							W.пЦел16_мз(0); W.пЦел32_мз(0); W.пЦел32_мз(0)
						всё;
						r := r.next
					кц;
					sect := sect.next
				кц;
				W.пЦел16_мз(-1); W.пЦел32_мз(0); W.пЦел32_мз(0);
				W.ПротолкниБуферВПоток()
			кон ModDesc;

			проц IATFix;
				перем W: SectionWriter; sect: Section; r: ImportReloc;
			нач
				W := type.W; W.ПерейдиКМестуВПотоке(desc.iatfix);
(*
	iat fixup table
		mode	code-ofs
		iat address
	mode
		0: uofs
		1: abs
		2: 0 = code / 1 = data
		15: end
*)
				sect := sects;
				нцПока sect # НУЛЬ делай
					r := sect.imports;
					нцПока r # НУЛЬ делай
						если ~r.iat то
							если sect = code то
								если r.abs то
									если r.uofs то
										W.пЦел16_мз(3)
									иначе
										W.пЦел16_мз(2)
									всё
								иначе
									утв(~r.uofs);
									W.пЦел16_мз(0)
								всё;
								AddOfsReloc(type, W.МестоВПотоке(), code);
								W.пЦел32_мз(r.ofs(цел32));
								AddOfsReloc(type, W.МестоВПотоке(), idata);
								W.пЦел32_мз(r.obj.iat - idata.head.VirtualAddress)
							иначе
								СТОП(99)
							всё
						всё;
						r := r.next
					кц;
					sect := sect.next
				кц;
				W.пЦел16_мз(-1); W.пЦел32_мз(0); W.пЦел32_мз(0);
				W.ПротолкниБуферВПоток()
			кон IATFix;

			проц GenStub;
				перем
					W: SectionWriter; loader: ImportMod; obj: ImportObj;
					p: PCT.Proc; idx: StringPool.Index; main: массив 8 из симв8;
			нач
				optHdr.AddressOfEntryPoint := code.used;
(* EBX, ESI, EDI are caller saved, EAX & ECX are used for stack init *)
				W := code.W; W.ПерейдиКМестуВПотоке(code.used);
				W.пСимв8(0BAX); (* MOV EDX, mod *)
				TypeAlign4();
				AddOfsReloc(code, W.МестоВПотоке(), type);
				W.пЦел32_мз(type.used); (* ModDesc *)
				если name # Loader то
					loader := AddImportMod(Loader);
					W.пСимв8(0FFX); W.пСимв8(025X); (* JMP Main *)
					если mode = ModeDLL то
						obj := AddImportObj(loader, "DllMain")
					аесли mode = ModeEXE то
						obj := AddImportObj(loader, "WinMain")
					иначе
						СТОП(99)
					всё;
					AddImportReloc(code, W.МестоВПотоке(), obj, истина, истина, ложь);
					W.пЦел32_мз(0)
				иначе
					утв(mode = ModeDLL);
					main := "DllMain";
					StringPool.GetIndex(main, idx);
					p := mod.scope.firstProc;
					нцПока (p # НУЛЬ) и (p.name # idx) делай
						p := p.nextProc
					кц;
					утв(p # НУЛЬ);
					W.пСимв8(0E9X); (* JMP Main *)
					W.пЦел32_мз(p.adr(PCBT.Procedure).codeoffset-(W.МестоВПотоке()(цел32)+4))
				всё;
				W.ПротолкниБуферВПоток();
				ModDesc()
			кон GenStub;

			проц GenIData(base: цел32);
				перем W: SectionWriter; p, mod: ImportMod; obj: ImportObj; sect: Section; r: ImportReloc; i, j: цел32; ofs: Потоки.ТипМестоВПотоке;
			нач
				если name # Loader то
					p := НУЛЬ; mod := imports;
					нцПока (mod # НУЛЬ) и (mod.name # Loader) делай
						p := mod; mod := mod.next
					кц;
					утв(mod # НУЛЬ);
					если p # НУЛЬ то
						p.next := mod.next;
						mod.next := imports;
						imports := mod
					всё
				всё;
				idata.head.VirtualAddress := base;
				optHdr.DataDirectory[ImageDirectoryEntryImport].VirtualAddress := base;
				W := idata.W; W.ПерейдиКМестуВПотоке(0);
				mod := imports;
				нцПока mod # НУЛЬ делай
					WriteImageImportDescriptor(W, mod.desc);
					mod := mod.next
				кц;
				i := 0;
				нцПока i < размер16_от(ImageImportDescriptor) делай
					W.пСимв8(0X); увел(i)
				кц;
				optHdr.DataDirectory[ImageDirectoryEntryImport].Size := W.МестоВПотоке()(цел32);
				mod := imports;
				нцПока mod # НУЛЬ делай
					mod.desc.Characteristics := W.МестоВПотоке()(цел32);
					obj := mod.objs;
					нцПока obj # НУЛЬ делай
						W.пЦел32_мз(0); obj := obj.next
					кц;
					W.пЦел32_мз(0);
					mod := mod.next
				кц;
				ofs := W.МестоВПотоке();
				optHdr.DataDirectory[ImageDirectoryEntryIAT].VirtualAddress := base + ofs(цел32);
				mod := imports;
				нцПока mod # НУЛЬ делай
					mod.desc.FirstThunk := W.МестоВПотоке()(цел32);
					obj := mod.objs;
					нцПока obj # НУЛЬ делай
						W.пЦел32_мз(0); obj := obj.next
					кц;
					W.пЦел32_мз(0);
					mod := mod.next
				кц;
				W.ПротолкниБуферВПоток();
				optHdr.DataDirectory[ImageDirectoryEntryIAT].Size := (W.МестоВПотоке() - ofs)(цел32);
				mod := imports; i := 0;
				нцПока mod # НУЛЬ делай
					obj := mod.objs; j := 0;
					нцПока obj # НУЛЬ делай
						W.ПерейдиКМестуВПотоке(mod.desc.Characteristics + j);
						W.пЦел32_мз(base + idata.used);
						W.ПерейдиКМестуВПотоке(mod.desc.FirstThunk + j);
						obj.iat := base + mod.desc.FirstThunk + j;
						W.пЦел32_мз(base + idata.used);
						W.ПерейдиКМестуВПотоке(idata.used);
						W.пЦел16_мз(0);
						PutName(W, obj.name);
						obj := obj.next; увел(j, 4)
					кц;
					W.ПротолкниБуферВПоток();
					mod.desc.Characteristics := base + mod.desc.Characteristics;
					mod.desc.Name := base + idata.used;
					mod.desc.FirstThunk := base + mod.desc.FirstThunk;
					W.ПерейдиКМестуВПотоке(i);
					WriteImageImportDescriptor(W, mod.desc);
					W.ПерейдиКМестуВПотоке(idata.used);
					PutName(W, mod.name);
					W.ПротолкниБуферВПоток();
					mod := mod.next; увел(i, размер16_от(ImageImportDescriptor))
				кц;
				sect := sects;
				нцПока sect # НУЛЬ делай
					r := sect.imports;
					нцПока r # НУЛЬ делай
						если r.iat то
							утв(r.abs и ~r.uofs);
							AddOfsReloc(sect, r.ofs, idata);
							W := sect.W; W.ПерейдиКМестуВПотоке(r.ofs);
							W.пЦел32_мз(r.obj.iat - base)
						всё;
						r := r.next
					кц;
					sect := sect.next
				кц;
				W.ПротолкниБуферВПоток()
			кон GenIData;

			проц GenEData(base: цел32);
				перем W: SectionWriter; dir: ImageExportDirectory; e: ExportObj; fix: Потоки.ТипМестоВПотоке; i, n: цел32;
			нач
				edata.head.VirtualAddress := base;
				optHdr.DataDirectory[ImageDirectoryEntryExport].VirtualAddress := base;
				e := exports; n := 0;
				нцПока e # НУЛЬ делай
					e := e.next; увел(n)
				кц;
				dir.Characteristics := 0;
				dir.TimeDateStamp := fileHdr.TimeDateStamp;
				dir.MajorVersion := 0;
				dir.MinorVersion := 0;
				dir.Name := 0;
				dir.Base := 1;
				dir.NumberOfFunctions := n;
				dir.NumberOfNames := n;
				dir.AddressOfFunctions := 0;
				dir.AddressOfNames := 0;
				dir.AddressOfNameOrdinals := 0;
				W := edata.W; W.ПерейдиКМестуВПотоке(0);
				WriteImageExportDirectory(W, dir);
				dir.AddressOfFunctions := base + W.МестоВПотоке()(цел32);
				e := exports;
				нцПока e # НУЛЬ делай
					W.пЦел32_мз(e.sect.head.VirtualAddress + e.ofs);
					e := e.next
				кц;
				dir.AddressOfNames := base + W.МестоВПотоке()(цел32);
				fix := W.МестоВПотоке(); i := 0;
				нцПока i < n делай
					W.пЦел32_мз(0); увел(i)
				кц;
				dir.AddressOfNameOrdinals := base + W.МестоВПотоке()(цел32);
				i := 0;
				нцПока i < n делай
					W.пЦел16_мз(устарПреобразуйКБолееУзкомуЦел(i)); увел(i)
				кц;
				dir.Name := base + W.МестоВПотоке()(цел32);
				PutName(W, name);
				e := exports;
				нцПока e # НУЛЬ делай
					W.ПерейдиКМестуВПотоке(fix);
					W.пЦел32_мз(base + edata.used);
					W.ПерейдиКМестуВПотоке(edata.used);
					PutName(W, e.name);
					W.ПротолкниБуферВПоток();
					e := e.next; увел(fix, 4)
				кц;
				W.ПерейдиКМестуВПотоке(0);
				WriteImageExportDirectory(W, dir);
				W.ПротолкниБуферВПоток();
				optHdr.DataDirectory[ImageDirectoryEntryExport].Size := edata.used
			кон GenEData;

			проц BeginBlock(W: SectionWriter; adr: цел32; перем blockva, blocksize: цел32; перем blockfix: Потоки.ТипМестоВПотоке);
			нач
				blockva := adr - (adr остОтДеленияНа PageSize); blocksize := 8;
				W.пЦел32_мз(blockva);
				blockfix := W.МестоВПотоке();
				W.пЦел32_мз(blocksize)
			кон BeginBlock;

			проц EndBlock(W: SectionWriter; blockfix: Потоки.ТипМестоВПотоке; перем blocksize: цел32);
				перем ofs: Потоки.ТипМестоВПотоке;
			нач
				W.пЦел16_мз(0); увел(blocksize, 2);
				если (blocksize остОтДеленияНа 4) # 0 то
					W.пЦел16_мз(0); увел(blocksize, 2)
				всё;
				ofs := W.МестоВПотоке(); W.ПерейдиКМестуВПотоке(blockfix);
				W.пЦел32_мз(blocksize);
				W.ПерейдиКМестуВПотоке(ofs)
			кон EndBlock;

			проц LocalRelocs;
				перем W: SectionWriter; R: SectionReader; sect: Section; r: BaseReloc; x: цел32;
			нач
				sect := sects;
				нцПока sect # НУЛЬ делай
					W := sect.W; R := sect.R;
					r := sect.relocs;
					нцПока r # НУЛЬ делай
						R.ПерейдиКМестуВПотоке(r.ofs);
						R.чЦел32_мз(x);
						W.ПерейдиКМестуВПотоке(r.ofs);
						W.пЦел32_мз(x + optHdr.ImageBase + r.base.head.VirtualAddress);
						r := r.next
					кц;
					W.ПротолкниБуферВПоток();
					sect := sect.next
				кц
			кон LocalRelocs;

			проц GenReloc(base: цел32);
				перем
					W: SectionWriter; sect: Section; r: BaseReloc;
					blockva, blocksize, bak, x: цел32; blockfix: Потоки.ТипМестоВПотоке;
			нач
				reloc.head.VirtualAddress := base;
				optHdr.DataDirectory[ImageDirectoryEntryBasereloc].VirtualAddress := base;
				LocalRelocs();
				blockva := BaseRVA-PageSize; blocksize := 0; blockfix := -1;
				W := reloc.W;
				bak := 0; sect := sects;
				нцПока sect # НУЛЬ делай
					r := sect.relocs;
					нцПока r # НУЛЬ делай
						x := sect.head.VirtualAddress + r.ofs(цел32);
						утв(x > bak);
						если x >= (blockva+PageSize) то
							если blockfix >= 0 то EndBlock(W, blockfix, blocksize) всё;
							BeginBlock(W, x, blockva, blocksize, blockfix)
						всё;
						bak := x; умень(x, blockva);
						W.пЦел16_мз(устарПреобразуйКБолееУзкомуЦел(x + логСдвиг(цел32(ImageRelBasedHighLow), 12)));
						увел(blocksize, 2);
						r := r.next
					кц;
					sect := sect.next
				кц;
				если blockfix >= 0 то EndBlock(W, blockfix, blocksize) всё;
				W.ПротолкниБуферВПоток();
				optHdr.DataDirectory[ImageDirectoryEntryBasereloc].Size := reloc.used
			кон GenReloc;

			проц ToFile;
				перем file: Files.FileName; F: Files.File; W: Files.Writer; sect: Section; i, size: цел32; s: мнвоНаБитахМЗ;
			нач
				если PCM.prefix # "" то
					копируйСтрокуДо0(PCM.prefix, file);
					Strings.Append(file, name)
				иначе
					копируйСтрокуДо0(name, file)
				всё;
				если mode = ModeEXE то
					Strings.Append(file, ".EXE")
				аесли mode = ModeDLL то
					Strings.Append(file, ".DLL")
				иначе
					СТОП(99)
				всё;
ЛогЯдра.пСтроку8("PCOFPE "); ЛогЯдра.пСтроку8(file);
				сам.optHdr.BaseOfCode := сам.code.head.VirtualAddress;
				F := Files.New(file);
				Files.OpenWriter(W, F, 0);
				W.пЦел16_мз(ImageDosSignature);
				i := W.МестоВПотоке()(цел32); нцПока i < 60 делай W.пСимв8(0X); увел(i) кц;
				W.пЦел32_мз(128);
				i := W.МестоВПотоке()(цел32); нцПока i < 128 делай W.пСимв8(0X); увел(i) кц;
				size := 128 + 4 + размер16_от(ImageFileHeader) + размер16_от(ImageOptionalHeader) + сам.fileHdr.NumberOfSections*размер16_от(ImageSectionHeader);
				size := Align(size, DefaultFileAlign);
				сам.optHdr.SizeOfHeaders := size;
				size := Align(size, DefaultSectionAlign);
				sect := сам.sects;
				нцПока sect # НУЛЬ делай
					s := НИЗКОУР.подмениТипЗначения(мнвоНаБитахМЗ, sect.head.Characteristics);
					если ImageScnCntCode в s то
						увел(сам.optHdr.SizeOfCode, Align(sect.head.VirtualSize, DefaultSectionAlign))
					аесли ImageScnCntInitializedData в s то
						увел(сам.optHdr.SizeOfInitializedData, Align(sect.head.VirtualSize, DefaultSectionAlign))
					иначе
						увел(сам.optHdr.SizeOfUninitializedData, Align(sect.head.VirtualSize, DefaultSectionAlign))
					всё;
					увел(size, Align(sect.head.VirtualSize, DefaultSectionAlign));
					sect := sect.next
				кц;
				сам.optHdr.SizeOfImage := size;
				W.пЦел32_мз(ImageNtSignature);
				WriteImageFileHeader(W, сам.fileHdr);
				WriteImageOptionalHeader(W, сам.optHdr);
				i := сам.optHdr.SizeOfHeaders;
				sect := сам.sects;
				нцПока sect # НУЛЬ делай
					если sect.used > 0 то
						утв(sect.head.VirtualSize = sect.used);
						sect.head.SizeOfRawData := Align(sect.used, DefaultFileAlign);
						sect.head.PointerToRawData := i; увел(i, sect.head.SizeOfRawData)
					иначе
						sect.head.SizeOfRawData := 0; sect.head.PointerToRawData := 0
					всё;
					WriteImageSectionHeader(W, sect.head);
					sect := sect.next
				кц;
				i := W.МестоВПотоке()(цел32); нцПока i < сам.optHdr.SizeOfHeaders делай W.пСимв8(0X); увел(i) кц;
				sect := сам.sects;
				нцПока sect # НУЛЬ делай
					если sect.head.SizeOfRawData > 0 то
						W.пБайты(sect.data^, 0, sect.used);
						i := sect.used;
						нцПока i < sect.head.SizeOfRawData делай W.пСимв8(0X); увел(i) кц
					всё;
					sect := sect.next
				кц;
				W.ПротолкниБуферВПоток();
				Files.Register(F)
;ЛогЯдра.пСтроку8(" "); ЛогЯдра.пЦел64(F.Length(), 0); ЛогЯдра.пВК_ПС()
			кон ToFile;

			проц &New*(mod: PCT.Module; adr: PCBT.Module);
				перем i: цел32; s: мнвоНаБитахМЗ;
			нач
				сам.mod := mod; сам.adr := adr;
				сам.fileHdr.Machine := ImageFileMachineI386;
				сам.fileHdr.NumberOfSections := 0;
				сам.fileHdr.TimeDateStamp := TimeDateStamp();
				сам.fileHdr.PointerToSymbolTable := 0;
				сам.fileHdr.NumberOfSymbols := 0;
				сам.fileHdr.SizeOfOptionalHeader := размер16_от(ImageOptionalHeader);
				s := {ImageFileExecutableImage, ImageFile32BitMachine, ImageFileLineNumsStripped, ImageFileLocalSymsStripped};
				если mode = ModeEXE то
					включиВоМнвоНаБитах(s, ImageFileRelocsStripped)
				аесли mode = ModeDLL то
					включиВоМнвоНаБитах(s, ImageFileDll)
				иначе
					СТОП(99)
				всё;
				сам.fileHdr.Characteristics := цел16(s);
				сам.optHdr.Magic := ImageOptionalMagic;
				сам.optHdr.MajorLinkerVersion := MajorLinkerVersion;
				сам.optHdr.MinorLinkerVersion := MinorLinkerVersion;
				сам.optHdr.SizeOfCode := 0;
				сам.optHdr.SizeOfInitializedData := 0;
				сам.optHdr.SizeOfUninitializedData := 0;
				сам.optHdr.AddressOfEntryPoint := 0;
				сам.optHdr.BaseOfCode := 0;
				сам.optHdr.BaseOfData := 0;
				если mode = ModeEXE то
					сам.optHdr.ImageBase := EXEImageBase
				аесли mode = ModeDLL то
					сам.optHdr.ImageBase := DLLImageBase
				иначе
					СТОП(99)
				всё;
				сам.optHdr.SectionAlignment := DefaultSectionAlign;
				сам.optHdr.FileAlignment := DefaultFileAlign;
				сам.optHdr.MajorOperatingSystemVersion := 4;
				сам.optHdr.MinorOperatingSystemVersion := 0;
				сам.optHdr.MajorImageVersion := 0;
				сам.optHdr.MinorImageVersion := 0;
				сам.optHdr.MajorSubsystemVersion := 4;
				сам.optHdr.MinorSubsystemVersion := 0;
				сам.optHdr.Win32VersionValue := 0;
				сам.optHdr.SizeOfImage := 0;
				сам.optHdr.SizeOfHeaders := 0;
				сам.optHdr.CheckSum := 0;
				если mode = ModeEXE то
					сам.optHdr.Subsystem := устарПреобразуйКБолееУзкомуЦел(subsystem)
				аесли mode = ModeDLL то
					сам.optHdr.Subsystem := ImageSubsystemUnknown
				иначе
					СТОП(99)
				всё;
				сам.optHdr.DllCharacteristics := 0;
				сам.optHdr.SizeOfStackReserve := DefaultStackSize;
				сам.optHdr.SizeOfStackCommit := PageSize;
				сам.optHdr.SizeOfHeapReserve := DefaultHeapSize;
				сам.optHdr.SizeOfHeapCommit := PageSize;
				сам.optHdr.LoaderFlags := 0;
				сам.optHdr.NumberOfRvaAndSizes := ImageNumberOfDirectoryEntries;
				i := 0;
				нцПока i < ImageNumberOfDirectoryEntries делай
					сам.optHdr.DataDirectory[i].VirtualAddress := 0;
					сам.optHdr.DataDirectory[i].Size := 0;
					увел(i)
				кц;
				сам.sects := НУЛЬ; сам.exports := НУЛЬ; сам.imports := НУЛЬ;
				нов(сам.type, сам, ".type", {ImageScnCntInitializedData, ImageScnMemRead, ImageScnMemWrite});
				если adr.locsize > 0 то
					нов(сам.var, сам, ".var", {ImageScnMemRead, ImageScnMemWrite})
				иначе
					сам.var := НУЛЬ
				всё;
				нов(сам.const, сам, ".const", {ImageScnCntInitializedData, ImageScnMemRead, ImageScnMemWrite});
				нов(сам.code, сам, ".code", {ImageScnCntCode, ImageScnMemRead, ImageScnMemWrite, ImageScnMemExecute});
				нов(сам.idata, сам, ".idata", {ImageScnCntInitializedData, ImageScnMemRead});
				нов(сам.edata, сам, ".edata", {ImageScnCntInitializedData, ImageScnMemRead});
				если mode = ModeDLL то
					нов(сам.reloc, сам, ".reloc", {ImageScnCntInitializedData, ImageScnMemDiscardable, ImageScnMemRead})
				иначе
					сам.reloc := НУЛЬ
				всё;

			кон New;
		кон PEModule;

	перем
		mode: цел32; (* ModeDef, ModeDLL, ModeEXE *)
		subsystem: цел32; (* ImageSubsystemWindowsCui, ImageSubsystemWindowsGui *)

	проц WriteImageFileHeader(W: Потоки.Писарь; перем head: ImageFileHeader);
	нач
		W.пЦел16_мз(head.Machine);
		W.пЦел16_мз(head.NumberOfSections);
		W.пЦел32_мз(head.TimeDateStamp);
		W.пЦел32_мз(head.PointerToSymbolTable);
		W.пЦел32_мз(head.NumberOfSymbols);
		W.пЦел16_мз(head.SizeOfOptionalHeader);
		W.пЦел16_мз(head.Characteristics)
	кон WriteImageFileHeader;

	проц WriteImageOptionalHeader(W: Потоки.Писарь; перем head: ImageOptionalHeader);
		перем i: цел32;
	нач
		W.пЦел16_мз(head.Magic);
		W.пСимв8(head.MajorLinkerVersion);
		W.пСимв8(head.MinorLinkerVersion);
		W.пЦел32_мз(head.SizeOfCode);
		W.пЦел32_мз(head.SizeOfInitializedData);
		W.пЦел32_мз(head.SizeOfUninitializedData);
		W.пЦел32_мз(head.AddressOfEntryPoint);
		W.пЦел32_мз(head.BaseOfCode);
		W.пЦел32_мз(head.BaseOfData);
		W.пЦел32_мз(head.ImageBase);
		W.пЦел32_мз(head.SectionAlignment);
		W.пЦел32_мз(head.FileAlignment);
		W.пЦел16_мз(head.MajorOperatingSystemVersion);
		W.пЦел16_мз(head.MinorOperatingSystemVersion);
		W.пЦел16_мз(head.MajorImageVersion);
		W.пЦел16_мз(head.MinorImageVersion);
		W.пЦел16_мз(head.MajorSubsystemVersion);
		W.пЦел16_мз(head.MinorSubsystemVersion);
		W.пЦел32_мз(head.Win32VersionValue);
		W.пЦел32_мз(head.SizeOfImage);
		W.пЦел32_мз(head.SizeOfHeaders);
		W.пЦел32_мз(head.CheckSum);
		W.пЦел16_мз(head.Subsystem);
		W.пЦел16_мз(head.DllCharacteristics);
		W.пЦел32_мз(head.SizeOfStackReserve);
		W.пЦел32_мз(head.SizeOfStackCommit);
		W.пЦел32_мз(head.SizeOfHeapReserve);
		W.пЦел32_мз(head.SizeOfHeapCommit);
		W.пЦел32_мз(head.LoaderFlags);
		W.пЦел32_мз(head.NumberOfRvaAndSizes);
		i := 0;
		нцПока i < ImageNumberOfDirectoryEntries делай
			W.пЦел32_мз(head.DataDirectory[i].VirtualAddress);
			W.пЦел32_мз(head.DataDirectory[i].Size);
			увел(i)
		кц
	кон WriteImageOptionalHeader;

	проц WriteImageSectionHeader(W: Потоки.Писарь; перем head: ImageSectionHeader);
	нач
		W.пБайты(head.Name, 0, ImageSizeOfShortName);
		W.пЦел32_мз(head.VirtualSize);
		W.пЦел32_мз(head.VirtualAddress);
		W.пЦел32_мз(head.SizeOfRawData);
		W.пЦел32_мз(head.PointerToRawData);
		W.пЦел32_мз(head.PointerToRelocations);
		W.пЦел32_мз(head.PointerToLinenumbers);
		W.пЦел16_мз(head.NumberOfRelocations);
		W.пЦел16_мз(head.NumberOfLinenumbers);
		W.пНеБолее32БитИзМнваНаБитах_мз(head.Characteristics)
	кон WriteImageSectionHeader;

	проц WriteImageImportDescriptor(W: Потоки.Писарь; перем desc: ImageImportDescriptor);
	нач
		W.пЦел32_мз(desc.Characteristics);
		W.пЦел32_мз(desc.TimeDateStamp);
		W.пЦел32_мз(desc.ForwarderChain);
		W.пЦел32_мз(desc.Name);
		W.пЦел32_мз(desc.FirstThunk)
	кон WriteImageImportDescriptor;

	проц WriteImageExportDirectory(W: Потоки.Писарь; перем dir: ImageExportDirectory);
	нач
		W.пЦел32_мз(dir.Characteristics);
		W.пЦел32_мз(dir.TimeDateStamp);
		W.пЦел16_мз(dir.MajorVersion);
		W.пЦел16_мз(dir.MinorVersion);
		W.пЦел32_мз(dir.Name);
		W.пЦел32_мз(dir.Base);
		W.пЦел32_мз(dir.NumberOfFunctions);
		W.пЦел32_мз(dir.NumberOfNames);
		W.пЦел32_мз(dir.AddressOfFunctions);
		W.пЦел32_мз(dir.AddressOfNames);
		W.пЦел32_мз(dir.AddressOfNameOrdinals)
	кон WriteImageExportDirectory;

	проц TimeDateStamp(): цел32;
		(* number of seconds since 1.1.1970 UTC *)
		перем now: Dates.DateTime; A: массив 12 из цел32; y, days: цел32;
	нач
		now := Dates.Now();
		утв((now.year >= 1970) и (now.year < 2100));
		A[0] := 0; A[1] := 31; A[2] := 59; A[3] := 90; A[4] := 120; A[5] := 151; A[6] := 181;
		A[7] := 212; A[8] := 243; A[9] := 273; A[10] := 304; A[11] := 334;
		y := now.year - 1970;
		days := y*365 + (y DIV 4) + A[now.month-1] + now.day - 1;
		если Dates.LeapYear(now.year) и (now.month > 2) то увел(days) всё;
		возврат now.second + 60*(now.minute - Clock.tz + 60*(now.hour + 24*days))
	кон TimeDateStamp;

	проц AddOfsReloc(sect: Section; ofs: Потоки.ТипМестоВПотоке; base: Section);
		(* value at sect:ofs must be relocated to base + value *)
		перем p, r, n: BaseReloc;
	нач
		p := НУЛЬ; r := sect.relocs;
		нцПока (r # НУЛЬ) и (r.ofs < ofs) делай
			p := r; r := r.next
		кц;
		утв((p = НУЛЬ) или (p.ofs < ofs));
		утв((r = НУЛЬ) или (r.ofs > ofs));
		нов(n); n.next := r; n.base := base; n.ofs := ofs;
		если p # НУЛЬ то p.next := n иначе sect.relocs := n всё
	кон AddOfsReloc;

	проц AddImportObj(mod: ImportMod; name: массив из симв8): ImportObj;
		перем p, n, obj: ImportObj;
	нач
		p := НУЛЬ; n := mod.objs;
		нцПока (n # НУЛЬ) и (n.name < name) делай
			p := n; n := n.next
		кц;
		если (n = НУЛЬ) или (n.name > name) то
			нов(obj); копируйСтрокуДо0(name, obj.name); obj.iat := 0; obj.next := n;
			если p # НУЛЬ то p.next := obj иначе mod.objs := obj всё;
			возврат obj
		иначе
			возврат n
		всё
	кон AddImportObj;

	проц AddImportReloc(sect: Section; offset: Потоки.ТипМестоВПотоке; obj: ImportObj; iat, abs, ofs: булево);
		(*
			value at sect:ofs must be fixed up to iat[obj]
			iat = TRUE	iat relative
			iat = FALSE	absolute, copy value from iat table
		*)
		перем p, i, n: ImportReloc;
	нач
		утв((iat и abs и ~ofs) или (~iat и (abs или ~ofs)));
		p := НУЛЬ; i := sect.imports;
		нцПока (i # НУЛЬ) и (i.ofs < offset) делай
			p := i; i := i.next
		кц;
		утв((p = НУЛЬ) или (p.ofs < offset));
		утв((i = НУЛЬ) или (i.ofs > offset));
		нов(n); n.next := i; n.ofs := offset; n.obj := obj; n.iat := iat;
		n.abs := abs; n.uofs := ofs;
		если p # НУЛЬ то p.next := n иначе sect.imports := n всё
	кон AddImportReloc;

	проц Align(value, align: цел32): цел32;
	нач
		возврат value + ((align-(value остОтДеленияНа align)) остОтДеленияНа align)
	кон Align;

	проц Generate*(перем R: PCM.Rider; scope: PCT.ModScope; перем codeSize: цел32);
		перем pe: PEModule; base: цел32; W: SectionWriter;
	нач
		PCM.CloseObj(R); (* write symbol only object file *)
		нов(pe, scope.owner, scope.owner.adr(PCBT.Module)); base := BaseRVA;
		StringPool.GetString(pe.mod.name, pe.name);
		PCLIR.CG.GetCode(pe.codearr, codeSize, pe.hdrCodeSize, pe.addressFactor);
		W := pe.const.W; W.ПерейдиКМестуВПотоке(0);
		W.пБайты(pe.adr.const^, 0, pe.adr.constsize);
		W.ПротолкниБуферВПоток();
		W := pe.code.W; W.ПерейдиКМестуВПотоке(0);
		W.пБайты(pe.codearr^, 0, codeSize);
		W.ПротолкниБуферВПоток();
		если pe.var # НУЛЬ то
			(* var: padding for proper sb offsets *)
			pe.var.head.VirtualSize := Align(pe.adr.locsize, PageSize)
		всё;
		pe.FixupLinks(); (* InsertFixupLists:, LinkBlock only SysCalls & Case *)
(*
	CollectInfo: to do: ref block
*)
		pe.Commands(); (* CollectInfo, CommandBlock *)
		pe.UseModules(); (* CollectInfo, ImportBlock *)
		pe.FixupOwnProcs(); (* EntryBlock, LinkBlock: entries only for methods *)
		pe.Pointers(); (* PointerBlock *)
		pe.FixupOwnVars(); (* VarConsBlock: only OwnVars *)
		pe.Exports(); (* ExportBlock *)
		pe.Imports(); (* UseBlock, InsertFixupLists, VarConsBlock *)
		pe.Types(); (* TypeBlock *)
		pe.GenStub();
		pe.type.SetBase(base);
		если pe.var # НУЛЬ то
			pe.var.SetBase(base)
		всё;
		pe.const.SetBase(base);
		увел(pe.optHdr.AddressOfEntryPoint, base);
		pe.code.SetBase(base);
		pe.GenIData(base);
		pe.IATFix();
		pe.idata.SetBase(base);
		pe.GenEData(base);
		pe.edata.SetBase(base);
		если mode = ModeDLL то
			pe.GenReloc(base);
			pe.reloc.SetBase(base)
		иначе
			pe.LocalRelocs()
		всё;
		pe.ToFile()
	кон Generate;

	проц SetDLL*;
	нач
		mode := ModeDLL;
	кон SetDLL;

	проц SetEXE*;
	нач
		mode := ModeEXE;
	кон SetEXE;

	проц SetCUI*;
	нач
		subsystem := ImageSubsystemWindowsCui;
	кон SetCUI;

	проц SetGUI*;
	нач
		subsystem := ImageSubsystemWindowsGui;
	кон SetGUI;

	проц Install*;
	нач
		PCBT.generate := Generate
	кон Install;

нач
	mode := ModeDLL;
	subsystem := ImageSubsystemWindowsCui
кон PCOFPE.

System.Free PCOFPE ~

PC.Compile \s \.Syw \FPE *	PC.Compile \s \.Syw \FPE \X *
