(* Aos, Copyright 2001, Pieter Muller, ETH Zurich *)

модуль TCP; (** AUTHOR "pjm, mvt"; PURPOSE "TCP protocol"; *)

(*
TCP - Transmission Control Protocol. Based on the 4.4BSD-Lite distribution described in Wright and Stevens, "TCP/IP Illustrated, Volume 2: The Implementation", ISBN 0-201-63354-X. See the BSD copyright statement at the end of this module. From that code it inherits some horrible control flow, which was left mostly intact, to make it easier to compare with the book.

	TCP Header

	00	16	source port
	02	16	destination port
	04	32	sequence number
	08	32	acknowledgement number
	12	08	header length & reserved
		07..04	header length (4-byte units)
		03..00	reserved
	13	08	flags
		07..06	reserved
		05..05	URG
		04..04	ACK
		03..03	PSH
		02..02	RST
		01..01	SYN
		00..00	FIN
	14	16	window size
	16	16	TCP checksum
	18	16	urgent pointer
	20	--	options (0-40 bytes)
	--	--	data

	TCP Pseudo-header (for checksum calculation)

	00	32	source address
	04	32	destination address
	08	08	zero = 0
	09	08	protocol = 17
	10	16	TCP length (duplicate)

	Notes:
	o Bit numbers above are Intel bit order.
	o Avoid use of SET because of PPC bit numbering issues.
	o Always access fields as 8-, 16- or 32-bit values and use DIV, MOD, ASH, ODD for bit access.


*)

использует НИЗКОУР, Machine, ЛогЯдра, Clock, Modules, Objects, Kernel, Commands, Network, IP, Потоки, ActiveTimers;

конст
	StrongChecks = ложь;

	TraceProtocol = ложь;
	TraceError = ложь;
	TracePacket = ложь;
	TraceTimer = ложь;
	TraceCongestion = ложь;
	Trace = TraceProtocol или TraceError или TracePacket или TraceTimer;

	HandleCongestion = истина;

	MinEphemeralPort = 1024;
	MaxEphemeralPort = 50000;
	HashTableSize = 1024 * 16; (* size of connection lookup hash table *)

	Acceptable = 500;	(* "backlog" on listening connections *)

	NilPort* = 0;

	(** Error codes *)
	Ok* = 0;
	ConnectionRefused* = 3701;
	ConnectionReset* = 3702;
	WrongInterface* = 3703;
	TimedOut* = 3704;
	NotConnected* = 3705;
	NoInterface* = 3706;
	InterfaceClosed* = 3707;

	MinError = 3700;
	MaxError = 3735;
	NumErrors = MaxError-MinError+1;

	(** TCP connection states *)
	NumStates* = 12;
	Closed* = 0;
	Listen* = 1;
	SynSent* = 2;
	SynReceived* = 3;
	Established* = 4;
	CloseWait* = 5;
	FinWait1* = 6;
	Closing* = 7;
	LastAck* = 8;
	FinWait2* = 9;
	TimeWait* = 10;
	Unused* = 11; (* no real state, only used in this implementation *)

	OpenStates* = {Listen, SynReceived, Established, CloseWait, FinWait1, FinWait2};
	ClosedStates* = {Unused, Closed, Closing, LastAck, TimeWait};
	HalfClosedStates* = ClosedStates + {FinWait1, FinWait2};
	FinStates* = {Unused, Closed, CloseWait, Closing, LastAck, TimeWait};

	Fin = 0; Syn = 1; Rst = 2; Psh = 3; Ack = 4; Urg = 5;	(* tcp header flags *)

	DoRFC1323 = истина; (* handle time stamp option (processing and generating) *)
	ProcOptions = истина; (* process TCP options *)
	GenOptions = истина; (* generate TCP options *)

	(* Flags in Connection *)
	AckNow = 0;	(* send Ack immediately *)
	DelAck = 1;	(* send Ack, but try to delay it *)
	NoDelay = 2;	(* don't delay packets tocoalesce (disable Nagle algorithm) *)
	SentFin = 3;	(* have sent Fin *)
	Force = 4;	(* force out a byte (persist/OOB) *)
	RcvdScale = 5;	(* set when other side sends window scale option in Syn *)
	RcvdTstmp = 6;	(* set when other side sends timestamp option in Syn *)
	ReqScale = 7;	(* have/will request window scale option in Syn *)
	ReqTstmp = 8;	(* have/will request timestamp option in Syn *)
	DoKeepAlive = 9;	(* enable keep-alive timer *)
	AcceptConn = 10;	(* listening for incoming connections *)
	(*Notify = 11;*)	(* socket wakeup *)
	(*Gone = 12;*)	(* SS_NOFDREF *)
	(*NoMore = 13;*)	(* SS_CANTRCVMORE *)
	Timeout = 14;

	NumTimers = 4;
	ReXmt = 0; Persist = 1; Keep = 2; MSL2 = 3;

	FastPeriod = 5;	(* number of fast ticks per second *)
	SlowPeriod = 2;	(* number of slow ticks per second *)
	TimerPeriod = 10;	(* timer ticks per second *)
	MinTime = 1*SlowPeriod;	(* minimum allowable time value *)
	ReXmtMax = 64*SlowPeriod;	(* max allowable ReXmt value *)

	ReXmtThresh = 3;

	KeepInit = 75*SlowPeriod;	(* connection establishment timer value (75s) *)
	KeepIntvl = 75*SlowPeriod;	(* time between probes when no response (75s) *)
	KeepIdle = 2*60*60*SlowPeriod;	(* default time before probing (2h) *)
	KeepCnt = 8;	(* max probes before drop *)
	MaxIdle = KeepCnt * KeepIntvl;	(* max time to send keepalive probes (10min) *)
	MSL = 30*SlowPeriod;	(* max segment lifetime (30s) *)
	MaxPersistIdle = KeepIdle;	(* max time to keep dead/unreachable connections (2h) *)


	PawsIdle = 24*24*60*60*SlowPeriod;

	SRTTBase = 0;	(* base round trip time *)
	SRTTDflt = 3*SlowPeriod;	(* assumed RTT if no info *)
	RTTShift = 3;
	RTTVarShift = 2;

	PersMin = 5*SlowPeriod;	(* retransmit persistance *)
	PersMax = 60*SlowPeriod;	(* maximum persist interval *)

	MSS = 536-12; (* maximum segment size for outgoing segments, 12 = size of timestamp option *)

	MaxRxtShift = 12;	(* maximum retransmits *)

	MaxWin = 65535;	(* largest value for (unscaled) window *)
	MaxWinShift = 14;	(* maximum window shift *)

	MaxSendSpace = 80000H; (* 512KB, max. 1023MB *)
	MaxRecvSpace = 80000H; (* 512KB, max. 1023MB *)

	SegsPerBuf = 4;	(* number of mss segments per send buffer (potential fragmentation waste is 1/SegsPerBuf) *)

	ISSInc = 128000;	(* increment for iss each second *)

	IPTypeTCP = 6; (* TCP type code for IP packets *)

	MinTCPHdrLen = 20;
	MaxTCPHdrLen = 60;
	MaxPseudoHdrLen = 40; (* IPv4 = 12; IPv6 = 40 *)

	NewZeros = ложь;	(* NEW initializes allocated object fields to 0 *)

	BroadcastReceived = 3708;
	InvalidParameter = 3709;
	AllPortsInUse = 3710;
	AddressInUse = 3711;
	DuplicateSegment = 3712;
	DuplicatePartialSegment = 3713;
	DuplicateSegmentPAWS = 3714;
	DataBeyondWindow1 = 3715;
	DataBeyondWindow2 = 3716;
	DataBeyondWindow3 = 3717;
	BadChecksum = 3718;
	DuplicateAck = 3719;
	OutOfRangeAck = 3720;
	TimeOutKeepAlive = 3721;
	TimeoutEstablished = 3722;
	SegmentTooBig = 3723;
	SegmentTooSmall = 3724;
	BadHeaderLength = 3725;
	ConnectionGone = 3726;
	NIYNewIncarnation = 3727;
	NIYOutOfBand = 3728;
	NIYMSS = 3729;
	ConnectionAborted = 3730;
	NotInitialized = 3731;
	DataDuplicatePrevComplete = 3732;
	DataDuplicatePrevPartial = 3733;
	DataDuplicateNextComplete = 3734;
	DataDuplicateNextPartial = 3735;

тип
	(* Send buffer types *)
	SendData = IP.Packet;

	SendBuffer = укль на запись
		next: SendBuffer;
		ofs, len: цел32;	(* data[ofs..ofs+len-1] is valid *)
		seq: цел32;	(* sequence number of byte data[ofs] (only valid if len # 0) *)
		pf: мнвоНаБитахМЗ;	(* flags of segment *)
		data: SendData	(* size should be multiple of maxseg *)
	кон;

тип
	ISS = окласс
		перем iss: цел32;	(* next iss to use *)

		проц Update(hz: цел32);
		нач {единолично}
			увел(iss, ISSInc DIV hz)
		кон Update;

		проц Get(): цел32;
		перем t: цел32;
		нач {единолично}
			t := iss; увел(iss, ISSInc);
			возврат t
		кон Get;

		проц &Init*(iss: цел32);
		нач
			сам.iss := iss
		кон Init;
	кон ISS;

тип
	Timer = окласс	(* temporary *)
		перем
			lastFast, lastSlow: цел32;	(* time of last execution *)
			(*lastTrace: SIGNED32;*)
			now: цел32;	(* current tcp "time" - read from other procedures, but only updated inside this object *)
			timer: ActiveTimers.Timer;

		проц CallDelayedAck(p: Connection);
		нач
			p.DelayedAck();
		кон CallDelayedAck;

		проц CallSlowTimer(p: Connection);
		нач
			p.SlowTimer();
		кон CallSlowTimer;

		проц HandleTimeout;
		перем t: цел32;
		нач {единолично}
			t := Kernel.GetTicks();
			если t - lastFast >= Kernel.second DIV FastPeriod то
				lastFast := t;
				pool.Enumerate(CallDelayedAck);
			всё;
			если t - lastSlow >= Kernel.second DIV SlowPeriod то
				lastSlow := t;
				pool.Enumerate(CallSlowTimer);
				issSource.Update(SlowPeriod);
				увел(now)
			всё;
			timer.SetTimeout(HandleTimeout, Kernel.second DIV TimerPeriod)
		кон HandleTimeout;

		(* Finalize timer by cancelling it *)

		проц Finalize;
		нач {единолично}
			timer.Finalize
		кон Finalize;

		проц &Init*;
		нач
			now := 0;
			lastSlow := Kernel.GetTicks() - Kernel.second;
			lastFast := lastSlow; (*lastTrace := lastSlow;*)
			нов(timer);
			timer.SetTimeout(HandleTimeout, Kernel.second DIV TimerPeriod)
		кон Init;

	кон Timer;

тип
	(** Connection object.
		NOTE: Only one process should access a Connection!
	*)
	Connection* = окласс(Потоки.ФункциональныйИнтерфейсКПотоку)
		перем
			poolNext, parent, acceptNext: Connection;
			(* assigned interface *)
			int-: IP.Interface;
			(* local protocol address *)
			lport-: цел32;
			(* foreign protocol address *)
			fip-: IP.Adr;
			fport-: цел32;
			state*: цел8;	(* TCP state *)
			timer: массив NumTimers из цел32;
			rxtshift-: цел32;	(* log(2) of rexmt exponential backoff *)
			rxtcur-: цел32;	(* current retransmission timeout (ticks) *)
			dupacks-: цел32;	(* number of consequtive duplicate acks received *)
			maxseg-: цел32;	(* maximum segment size to send *)
			flags: мнвоНаБитахМЗ;	(* various connection and buffer flags *)
			error: цел32;	(* error on connection (socket error) *)
			acceptable: цел32;	(* number of connections that can be before acceptance *)
				(* send sequence *)
			snduna-: цел32;	(* send unacknowledged *)
			sndnxt-: цел32;	(* send next *)
			sndup: цел32;	(* send urgent pointer *)
			sndwl1-: цел32;	(* window update seg seq number *)
			sndwl2-: цел32;	(* window update seg ack number *)
			iss-: цел32;	(* initial send sequence number *)
			sndwnd-: цел32;	(* send window *)
			sndmax-: цел32;	(* highest sequence number sent - used to recognize retransmits *)
				(* receive sequence *)
			rcvwnd-: цел32;	(* receive window *)
			rcvnxt-: цел32;	(* receive next *)
			rcvup: цел32;	(* receive urgent pointer *)
			irs-: цел32;	(* initial receive sequence number *)
			rcvadv-: цел32;	(* advertised window by other end *)
				(* congestion control *)
			sndcwnd-: цел32;	(* congestion-controlled window *)
			sndssthresh-: цел32;	(* sndcwnd threshold for slow start - exponential to linear switch *)
				(* transmit timing *)
			idle-: цел32;	(* inactivity time *)
			rtt-: цел32;	(* round trip time *)
			rtseq-: цел32;	(* sequence number being timed *)
			srtt-: цел32;	(* smoothed round trip time *)
			rttvar-: цел32;	(* variance in round trip time *)
			rttmin-: цел32;	(* minimum rtt allowed *)
			maxsndwnd: цел32;	(* largest window peer has offered *)
				(* RFC 1323 *)
			sndscale: цел32;	(* scaling for send window (0-14) *)
			rcvscale: цел32;	(* scaling for receive window (0-14) *)
			requestrscale: цел32;	(* our pending window scale *)
			requestedsscale: цел32;	(* peer's pending window scale *)
			tsrecent: цел32;	(* timestamp echo data *)
			tsrecentage: цел32;	(* when last updated *)
			lastacksent-: цел32;	(* sequence number of last ack field *)
				(* send buffer *)
			sndcc-: цел32;	(* number of bytes in send buffer *)
			sndspace-: цел32;	(* number of bytes that may still be added before buffer is full *)
			sndhead, sndtail: SendBuffer;	(* queue of segments (contiguous and in order) *)
			sndcontig: SendData;	(* maxseg size buffer to make data contiguous *)
				(* receive buffer *)
			rcvspace-: цел32;	(* number of bytes that may still be received before buffer is considered full *)
			rcvhiwat-: цел32;	(* receive high water mark (MaxRecvSpace) *)
			rcvhead, rcvreasm, rcvtail: Network.Buffer;	(* queue of segments - see description at the beginning of this file *)
			rcvheadFragment: Network.Buffer; (* current fragment of rcvhead *)
			timeout: ActiveTimers.Timer;
			traceflow-: цел32;

		(* Initialization for internal use only. *)
		проц &Init*;
		нач
			state := Unused;
		кон Init;

		(** Open a TCP connection (only use once per Connection instance).
			Use TCP.NilPort for lport to automatically assign an unused local port.
		*)
		проц Open*(lport: цел32; fip: IP.Adr; fport: цел32; перем res: целМЗ);
		нач {единолично}
			утв((state = Unused) и (lport >= 0) и (lport < 10000H) и (fport >= 0) и (fport < 10000H));
			если timeSource # НУЛЬ то
				InitConnection(сам);
				если (~IP.IsNilAdr(fip)) и (fport # NilPort) то
					(* active open (connect) *)
					int := IP.InterfaceByDstIP(fip);
					если int # НУЛЬ то
						сам.fip := fip;
						pool.Add(сам, lport, fport, res); (* add connection to connection pool *)
						если res = Ok то	(* address assignment ok, now start the connection *)
							Machine.AtomicInc(NTCPConnectAttempt);
							state := SynSent; timer[Keep] := KeepInit;
							iss := issSource.Get();
							snduna := iss; sndnxt := iss; sndmax := iss; sndup := iss;
							Output(сам)
						всё;
					иначе
						res := NoInterface;
					всё;
				иначе
					(* passive open (listen) *)
					утв((fport = NilPort) и (IP.IsNilAdr(fip)));
					сам.int := НУЛЬ;
					сам.fip := IP.NilAdr;
					pool.Add(сам, lport, NilPort, res);
					если res = Ok то
						включиВоМнвоНаБитах(flags, AcceptConn);
						acceptable := Acceptable;
						state := Listen;
					всё
				всё;
				если TraceProtocol то
					TraceTCP("Open", сам, empty^, empty^, 0, 0, 0)
				всё
			иначе
				res := NotInitialized;
			всё
		кон Open;


		(** Send data on a TCP connection. *)
		проц {перекрыта}ЗапишиВПоток*(конст data: массив из симв8; ofs, len: размерМЗ; propagate: булево; перем res: целМЗ);
		перем buf: SendBuffer; len0: цел32;
		нач {единолично}
			если StrongChecks то Invariant(сам) всё;
			утв(ofs+len <= длинаМассива(data));	(* index check *)
			нц
				если len <= 0 то прервиЦикл всё;
				если len <= maxseg то len0 := цел32(len) иначе len0 := maxseg всё;
				если ~((state в {Established, CloseWait}) и (sndspace >= len0)) то	(* can not send immediately *)
					дождись(((state в {Established, CloseWait}) и (sndspace >= len0)) или ~(state в {SynSent..CloseWait}));
					если StrongChecks то Invariant(сам) всё;
					если ~(state в {SynSent..CloseWait}) то	(* connection broken *)
						если error # Ok то res := error иначе res := NotConnected всё;
						возврат
					всё
				всё;
				buf := sndtail;
				если длинаМассива(buf.data^) - (buf.ofs+buf.len) >= len0 то	(* last buffer has space for data *)
					Network.Copy(data, buf.data^, ofs, buf.ofs+buf.len, len0);
					увел(buf.len, len0)
				иначе	(* last buffer has no space for data *)
					buf := buf.next;
					если buf # sndhead то	(* is free buffer *)
						утв((buf.ofs = 0) и (buf.len = 0));	(* buffer must be unused *)
						утв(длинаМассива(buf.data^) >= len0)	(* index check *)
					иначе
						Machine.AtomicInc(NTCPNewBufs);
						нов(buf); нов(buf.data, MSS * SegsPerBuf);
						если ~NewZeros то buf.ofs := 0; всё;
						buf.next := sndtail.next; sndtail.next := buf;
						утв(длинаМассива(buf.data^) >= len0)	(* index check *)
					всё;
					Network.Copy(data, buf.data^, ofs, 0, len0);
					buf.len := len0; sndtail := buf
				всё;
				увел(sndcc, len0); умень(sndspace, len0);
				Output(сам);
				увел(ofs, len0); умень(len, len0)
			кц;
			если TraceProtocol то
				TraceTCP("Send", сам, empty^, data, 0, ofs, len)
			всё;
			res := Ok
		кон ЗапишиВПоток;


		(** Receive data on a TCP connection. The data parameter specifies the buffer. The ofs parameters specify the position in the buffer where data should be received (usually 0), and the size parameters specifies how many bytes of data can be received in the buffer. The min parameter specifies the minimum number of bytes to receive before Receive returns and must by <= size. The len parameter returns the number of bytes received, and the res parameter returns 0 if ok, or a non-zero error code otherwise (e.g. if the connection is closed by the communication partner, or by a call of the Close method). *)
		проц {перекрыта}ПрочтиИзПотока*(перем data: массив из симв8; ofs, size, min: размерМЗ; перем len: размерМЗ; перем res: целМЗ);
		перем
			buf: Network.Buffer;
			rlen: цел32;

		нач {единолично}
			если StrongChecks то Invariant(сам) всё;
			утв((ofs >= 0) и (ofs+size <= длинаМассива(data)) и (min <= size));	(* parameter consistency check *)
			len := 0;
			нц
				нцПока (rcvhead # НУЛЬ) и (rcvhead # rcvreasm) и (size > 0) делай
					если rcvhead.nextFragment = НУЛЬ то
						(* read all available data until user buffer is full *)
						rlen := матМинимум(rcvhead.len, size(цел32));
						Network.Copy(rcvhead.data, data, rcvhead.ofs, ofs, rlen);
						увел(len, rlen);
						увел(ofs, rlen);
						умень(size, rlen);
						увел(rcvhead.ofs, rlen);
						умень(rcvhead.len, rlen);
						увел(rcvhead.int, rlen);
						увел(rcvspace, rlen);
						если rcvhead.len = 0 то
							(* go to next buffer *)
							buf := rcvhead;
							rcvhead := rcvhead.next;
							если rcvhead # НУЛЬ то
								rcvhead.prev := НУЛЬ;
							всё;
							Network.ReturnBuffer(buf);
							Output(сам); (* enable sending window update segment *)
						всё;
					иначе
						(* rcvhead has fragments *)
						(* read all available data until user buffer is full *)
						если rcvheadFragment = НУЛЬ то
							rcvheadFragment := rcvhead;
						всё;
						rlen := матМинимум(rcvheadFragment.len, size(цел32));
						Network.Copy(rcvheadFragment.data, data, rcvheadFragment.ofs, ofs, rlen);
						увел(len, rlen);
						увел(ofs, rlen);
						умень(size, rlen);
						увел(rcvheadFragment.ofs, rlen);
						умень(rcvheadFragment.len, rlen);
						увел(rcvheadFragment.int, rlen);
						увел(rcvspace, rlen);
						если rcvheadFragment.len = 0 то
							если rcvheadFragment.nextFragment # НУЛЬ то
								(* go to next fragment *)
								rcvheadFragment := rcvheadFragment.nextFragment;
							иначе
								(* go to next buffer *)
								buf := rcvhead;
								rcvhead := rcvhead.next;
								если rcvhead # НУЛЬ то
									rcvhead.prev := НУЛЬ;
								всё;
								Network.ReturnBuffer(buf);
								Output(сам); (* enable sending window update segment *)
							всё;
						всё;

					всё;
				кц;
				если size = 0 то
					(* user buffer full *)
					прервиЦикл;
				всё;
				если len >= min то
					(* enough was read *)
					прервиЦикл;
				иначе
					(* await available data or closed connection state *)
					дождись(((rcvhead # НУЛЬ) и (rcvhead # rcvreasm)) или ~(state в {SynSent, SynReceived, Established, FinWait1, FinWait2}));
					если StrongChecks то Invariant(сам) всё;
					если (rcvhead # НУЛЬ) и (rcvhead # rcvreasm) то
						(* new data available, start again with LOOP *)
					иначе
						(* no data available, and no more can arrive, as we've seen the FIN *)
						если error # Ok то res := error иначе res := Потоки.КонецФайла (* end of file *) всё;
						возврат;
					всё;
				всё;
			кц;
			если StrongChecks то Invariant(сам) всё;
			если TraceProtocol то
				TraceTCP("Receive", сам, empty^, data, 0, ofs, len)
			всё;
			res := Ok
		кон ПрочтиИзПотока;


		(** Enable or disable delayed send (Nagle algorithm).
			If enabled, the sending of a segment is delayed if it is not filled by one call to Send, in order to be able to be filled
			by further calls to Send. This is the default option.
			If disabled, a segment is sent immediatly after a call to Send, even if it is not filled. This option is normally chosen
			by applications like telnet or VNC client, which send verly little data but shall not be delayed.
		*)
		проц DelaySend*(enable: булево);
		нач {единолично}
			если enable то
				исключиИзМнваНаБитах(flags, NoDelay);
			иначе
				включиВоМнвоНаБитах(flags, NoDelay);
			всё;
		кон DelaySend;


		(** Enable or disable keep-alive. (default: disabled) *)
		проц KeepAlive*(enable: булево);
		нач {единолично}
			если enable то
				включиВоМнвоНаБитах(flags, DoKeepAlive);
			иначе
				исключиИзМнваНаБитах(flags, DoKeepAlive);
			всё;
		кон KeepAlive;


		(** Return number of bytes that may be read without blocking. *)
		проц Available*(): цел32;
		перем
			len: цел32;
			item: Network.Buffer;
			fragmentBuffer: Network.Buffer;
			reassembledLength: цел32;

		нач {единолично}
			len := 0;
			item := rcvhead;
			нцПока(item # НУЛЬ) и (item # rcvreasm) делай
				если item.nextFragment # НУЛЬ то
					увел(len, item.len);
				иначе
					(* fragmented packet *)
					fragmentBuffer := item;
					reassembledLength := 0;
					нцПока fragmentBuffer # НУЛЬ делай
						увел(len, fragmentBuffer.len);
						fragmentBuffer := fragmentBuffer.nextFragment;
					кц;
				всё;
				item := item.next;
			кц;
			возврат len;
		кон Available;


		(** Return connection state. *)
		проц State*(): цел32;
		нач {единолично}
			если (state в FinStates) и (rcvhead # НУЛЬ) и (rcvhead.len # 0) то	(* workaround for client errors *)
				если state = CloseWait то	(* act as if we haven't seen a FIN yet *)
					возврат Established
				иначе
					возврат FinWait1
				всё
			иначе
				возврат state
			всё
		кон State;


		(** Wait until the connection state is either in the good or bad set, up to "ms" milliseconds. *)
		проц AwaitState*(good, bad: мнвоНаБитахМЗ; ms: цел32; перем res: целМЗ);
		нач {единолично}
			если ~(state в (good+bad)) то
				если ms # -1 то
					если timeout = НУЛЬ то нов(timeout) всё;
					timeout.SetTimeout(сам.HandleTimeout, ms);
				всё;
				исключиИзМнваНаБитах(flags, Timeout);
				дождись((state в (good+bad)) или (Timeout в flags));
				если ms # -1 то timeout.CancelTimeout(); всё
			всё;
			если state в good то
				res := Ok
			аесли state в bad то
				res := NotConnected
			иначе
				res := TimedOut
			всё
		кон AwaitState;

		проц HandleTimeout;
		нач {единолично}
			включиВоМнвоНаБитах(flags, Timeout)
		кон HandleTimeout;

		(** Close a TCP connection (half-close). *)
		проц {перекрыта}Закрой*;
		нач {единолично}
			если state < Established то
				CloseConnection(сам)
			аесли ложь (* linger *) то
				Drop(сам, 0)
			иначе
				UsrClosed(сам);
				если state # Closed то Output(сам) всё
			всё;
			если TraceProtocol то
				TraceTCP("Close", сам, empty^, empty^, 0, 0, 0)
			всё
		кон Закрой;


		(** Discard a TCP connection (shutdown). *)
		проц Discard*;
		нач {единолично}
			если state < Established то
				CloseConnection(сам)
			иначе
				Drop(сам, ConnectionReset)	(* ??? *)
			всё;
			если TraceProtocol то
				TraceTCP("Discard", сам, empty^, empty^, 0, 0, 0)
			всё
		кон Discard;


		(** Accept a client waiting on a listening connection. Blocks until a client is available or the connection is closed. *)
		проц Accept*(перем client: Connection; перем res: целМЗ);
		нач {единолично}
			дождись((state # Listen) или (acceptNext # НУЛЬ));
			если acceptNext # НУЛЬ то
				client := acceptNext; acceptNext := acceptNext.acceptNext;
				увел(acceptable); res := Ok
			иначе
				client := НУЛЬ; res := ConnectionRefused
			всё
		кон Accept;


		(** Return TRUE iff a listening connection has clients waiting to be accepted. *)
		проц Requested*(): булево;
		нач {единолично}
			возврат (state = Listen) и (acceptNext # НУЛЬ)
		кон Requested;


		(* Process a received segment for the current Connection. *)
		проц Input(int: IP.Interface; fip: IP.Adr; hdrLen: цел32; buffer: Network.Buffer);
		перем
			bufferQueued: булево; (* was buffer queued by ProcessInput() ? *)
			p: Connection;

		нач {единолично}
			(* to do: move header prediction code here *)
			если StrongChecks то Invariant(сам) всё;
			bufferQueued := ложь;
			если AcceptConn в flags то
				если acceptable > 0 то
					нов(p); InitConnection(p);	(* fig. 28.7 *)
					p.int := int;
					p.fip := fip;
					p.state := Listen; p.parent := сам;
					ProcessInput(p, hdrLen, buffer, истина, bufferQueued);
					если p.state = SynReceived то	(* packet was accepted *)
						умень(acceptable)	(* limit number of "temporary" Connections *)
					всё
				иначе
					Machine.AtomicInc(NTCPUnacceptable)
				всё
			иначе
				если сам = nilpcb то
					(* set info for "Respond" *)
					сам.int := int;
					сам.fport := Network.GetNet2(buffer.data, buffer.ofs);
					сам.lport := Network.GetNet2(buffer.data, buffer.ofs+2);
				всё;
				если сам.int # int то
					(* packet must be received by interface attached to this connection *)
					Error(WrongInterface, 0, сам);
				иначе
					сам.fip := fip;
					ProcessInput(сам, hdrLen, buffer, ложь, bufferQueued);
				всё;
			всё;
			если StrongChecks то Invariant(сам) всё;
			если ~bufferQueued то
				Network.ReturnBuffer(buffer);
			всё;
		кон Input;


		(* Schedule a delayed ack. *)
		проц DelayedAck;
		нач {единолично}
			если StrongChecks то Invariant(сам) всё;
			если DelAck в flags то
				flags := (flags - {DelAck}) + {AckNow};
				Machine.AtomicInc(NTCPDelAck);
				Output(сам)
			всё
		кон DelayedAck;


		(* Schedule a slow timer event (fig. 25.8). *)
		проц SlowTimer;
		перем dropit: булево;
			oldie: цел32;
		нач {единолично}
			oldie := sndnxt;
			если StrongChecks то Invariant(сам) всё;

			если Expired(timer[ReXmt]) то	(* fig. 25.26 *)
				увел(rxtshift);
				если rxtshift > MaxRxtShift то
					rxtshift := MaxRxtShift; Error(TimedOut, 0, сам); Drop(сам, TimedOut)
				иначе
					Machine.AtomicInc(NTCPReXmtTimer);
					RangeSet(rxtcur, (арифмСдвиг(srtt, -RTTShift) + rttvar) * backoff[rxtshift], rttmin, ReXmtMax);
					timer[ReXmt] := rxtcur;
					если rxtshift > MaxRxtShift DIV 4 то
						(* to do: drop current route *)
						увел(rttvar, арифмСдвиг(srtt, -RTTShift));
						srtt := 0
					всё;
					sndnxt := snduna; rtt := 0;
					sndcwnd := maxseg; dupacks := 0;
					sndssthresh := матМаксимум(матМинимум(sndwnd, sndcwnd) DIV 2 DIV maxseg, 2) * maxseg;
					если TraceCongestion то
						ЛогЯдра.пСтроку8("ST sndssthresh := "); ЛогЯдра.пЦел64(sndssthresh, 1); ЛогЯдра.пВК_ПС
					всё;
					Output(сам)
				всё
			всё;

			если Expired(timer[Persist]) то	(* fig. 25.13 *)
				Machine.AtomicInc(NTCPPersistTimer);
				если (rxtshift = MaxRxtShift) и ((idle >= MaxPersistIdle) или (idle >= (арифмСдвиг(srtt, -RTTShift) + rttvar) * totbackoff)) то
					Machine.AtomicInc(NTCPPersistDrop);	(* vol. 3 fig. 14.17 *)
					Drop(сам, TimedOut)
				иначе
					SetPersist(сам); включиВоМнвоНаБитах(flags, Force); Output(сам); исключиИзМнваНаБитах(flags, Force)
				всё
			всё;

			traceflow := 0;

			если Expired(timer[Keep]) то	(* fig. 25.16 *)
				Machine.AtomicInc(NTCPKeepTimer); dropit := ложь;
				если state >= Established то
					если (DoKeepAlive в flags) и (state <= CloseWait) то
						если idle < KeepIdle + MaxIdle то
							traceflow := 1;
							Machine.AtomicInc(NTCPKeepProbe);
							Respond(сам, rcvnxt, snduna-1, {});
							timer[Keep] := KeepIntvl
						иначе
							traceflow := 2;
							dropit := истина; Error(TimeOutKeepAlive, 0, сам)
						всё
					иначе
						traceflow := 3;
						timer[Keep] := KeepIdle
					всё
				иначе
					traceflow := 4;
					dropit := истина; Error(TimeoutEstablished, 0, сам)
				всё;
				если dropit то Drop(сам, TimedOut) всё
			всё;

			если Expired(timer[MSL2]) то	(* fig. 25.10 *)
				если (state # TimeWait) и (idle <= MaxIdle) то
					timer[MSL2] := KeepIntvl
				иначе
					если state = FinWait2 то Machine.AtomicInc(NTCPFinWait2Timer) иначе Machine.AtomicInc(NTCPTimeWaitTimer) всё;
					CloseConnection(сам)
				всё
			всё;

			увел(idle);
			если rtt # 0 то увел(rtt) всё;
			(* check if interface wasn't closed/removed in meantime *)
			если (int # НУЛЬ) и (int.closed) то
				Drop(сам, InterfaceClosed);
			всё;
		кон SlowTimer;

		(* Finalize the Connection object *)

		проц Finalize;
		нач
			если timeout # НУЛЬ то timeout.Finalize; всё;
			Discard();
		кон Finalize;

	кон Connection;

тип
	ConnectionHandler* = проц {делегат} (p: Connection);

	ConnectionPool* = окласс
		перем
			eport: цел32;
			table: массив HashTableSize из Connection;

		(* Initialization for internal use only. *)

		проц &Init*;
		перем i: цел32;
		нач
			нцДля i:= 0 до HashTableSize-1 делай
				table[i] := НУЛЬ;
			кц;
			eport := MinEphemeralPort;
		кон Init;

		(* Finalize all connections in this pool *)

		проц Finalize;
		перем i: цел32;
		нач
			нцДля i:= 0 до HashTableSize-1 делай
				нцПока table[i] # НУЛЬ делай
					table[i].Finalize();
				кц;
			кц;
		кон Finalize;

		(* Look for the specified Connection. *)

		проц Lookup(lport, fport: цел32; fip: IP.Adr): Connection;
		перем
			item: Connection;

		нач
			item := table[HashPool(lport, fport, fip)];
			нцПока (item # НУЛЬ) и ((~IP.AdrsEqual(item.fip, fip)) или (item.fport # fport) или (item.lport # lport)) делай
				item := item.poolNext;
			кц;

			если item = НУЛЬ то
				возврат nilpcb;
			иначе
				возврат item;
			всё;
		кон Lookup;

		(** Enumerate all Connections. Only for tracing, due to concurrent updates data may be stale. *)

		проц Enumerate*(handle: ConnectionHandler);
		перем
			i: цел32;
			item: Connection;
		нач
			нцДля i:= 0 до HashTableSize-1 делай
				item := table[i];
				нцПока item # НУЛЬ делай
					handle(item);
					item := item.poolNext;
				кц;
			кц;
		кон Enumerate;

		(* Add the connection p to the pool (attach). Assumes the caller has exclusive access to p.
			IF (fport = NilPort) & (fip = IP.NilAdr), a listening connection is assumed.
			ELSE an active open is assumed.
			IF (lport = NilPort), an ephemeral port is assigned.
		*)
		проц Add(p: Connection; lport, fport: цел32; перем res: целМЗ);
		перем i, sport: цел32;
		нач {единолично}
			если ((fport # NilPort) и (IP.IsNilAdr(p.fip))) или (* workaround for XOR *)
				((fport = NilPort) и (~IP.IsNilAdr(p.fip))) то
				(* both must be "nil" or both must not be "nil" *)
				res := InvalidParameter;
				Error(res, 0, p);
				возврат;
			всё;

			если lport = NilPort то
				(* find an ephemeral port *)
				sport := eport;
				нц
					lport := eport;
					увел(eport);
					если eport > MaxEphemeralPort то
						eport := MinEphemeralPort;
					всё;
					если Lookup(lport, fport, p.fip) = nilpcb то
						(* found port that is not in use *)
						прервиЦикл;
					всё;
					если eport = sport то
						res := AllPortsInUse;
						Error(res, 0, p);
						возврат;
					всё;
				кц;
			иначе
				если Lookup(lport, fport, p.fip) # nilpcb то
					res := AddressInUse;
					Error(res, 0, p);
					возврат;
				всё;
			всё;
			p.lport := lport;
			p.fport := fport;

			(* add to pool *)
			i := HashPool(lport, fport, p.fip);
			p.poolNext := table[i];
			table[i] := p;
			res := Ok;
		кон Add;

		(* Remove a Connection from the queue (detach), making its address re-usable. *)

		проц Remove(p: Connection);
		перем
			i: цел32;
			item: Connection;
		нач {единолично}
			i := HashPool(p.lport, p.fport, p.fip);
			если table[i] # НУЛЬ то
				если table[i] = p то
					(* remove first item *)
					table[i] := table[i].poolNext;
					возврат;
				иначе
					(* search list for connection *)
					item := table[i];
					нцПока (item.poolNext # НУЛЬ) и (item.poolNext # p) делай
						item := item.poolNext;
					кц;
					если item.poolNext # НУЛЬ то
						(* found - remove *)
						item.poolNext := item.poolNext.poolNext;
						возврат;
					всё;
				всё;
			всё;
			Error(ConnectionGone, 0, p); (* pcb gone, e.g. Rst received *)
		кон Remove;

	кон ConnectionPool;

тип
	(** Install a procedure to be called when no matching port was found for an incoming connection request.
		The buffer MUST NOT be returned by the listener, it is returned automatically by the caller afterwards.
	*)
	PacketDumpListener* = проц (fip: IP.Adr; buffer: Network.Buffer);

перем
	pool*: ConnectionPool;	(* pool of all Connections *)
	timeSource: Timer;	(* global timer *)
	issSource: ISS;	(* source for ISS numbers *)
	lastpcb: Connection;	(* cache last used pcb (never NIL). Note that it is possible that a deleted pcb can be ressurrected by a packet arriving for it. As soon as a packet for another connection arrives, the deleted pcb will vanish. *)
	nilpcb: Connection;	(* never NIL *)
	empty: SendData;	(* never NIL *)
	backoff: массив MaxRxtShift+1 из цел32;	(* exponential backoff multipliers *)
	totbackoff: цел32;
	outflags: массив NumStates из мнвоНаБитахМЗ;	(* output header flags *)

	(* TCP counters *)
	NTCPError-: массив NumErrors из цел32;
	NTCPConnectAttempt-, NTCPPersistTimer-, NTCPFinWait2Timer-, NTCPSendProbe-, NTCPReXmtPack-,
		NTCPReXmtByte-, NTCPSendPack-, NTCPSendByte-, NTCPAcks-, NTCPSendCtrl-, NTCPSendUrg-,
		NTCPSendWinUp-, NTCPSegsTimed-, NTCPSendTotal-, NTCPKeepTimer-, NTCPKeepProbe-,
		NTCPReXmtTimer-, NTCPRcvTotal-, NTCPRcvOptions-, NTCPCacheMiss-, NTCPPredAck-, NTCPAckPack-,
		NTCPAckByte-, NTCPPredData-, NTCPRcvPackFast-, NTCPRcvByteFast-, NTCPConnects-, NTCPRcvWinProbe-,
		NTCPDrops-, NTCPRcvWinUpd-, NTCPRTTUpdated-, NTCPDelAck-, NTCPConnDrops-, NTCPClosed-, NTCPSplitBuffer-,
		NTCPRcvPackSlow-, NTCPRcvByteSlow-, NTCPNewBufs-, NTCPTimeWaitTimer-,
		NTCPUnacceptable-, NTCPAccepts-, NTCPPersistDrop-: цел32;
	trace: булево;
	packetDumpListener : PacketDumpListener;

(* Trace installer *)

(** Install a procedure to be called when no matching port was found for an incoming connection request.
	The buffer doesn't have to be returned by the listener, it is returned automatically by the caller afterwards.
*)
проц SetDefaultListener*(pdl : PacketDumpListener);
нач
	packetDumpListener := pdl
кон SetDefaultListener;


(* --- Utility procedures. *)
проц Invariant(p: Connection);
перем
	rcvbuf: Network.Buffer;
	sndbuf: SendBuffer;
	found: булево;

нач
	если StrongChecks и (p # nilpcb) то
		(* receive buffers *)
		rcvbuf := p.rcvhead;
		если rcvbuf # НУЛЬ то
			(* not empty *)
			утв((rcvbuf.len > 0) или (Fin в rcvbuf.set));
			утв(rcvbuf.prev = НУЛЬ);
			если rcvbuf.next = НУЛЬ то
				(* the only buffer *)
				утв(p.rcvtail = rcvbuf);
			иначе
				rcvbuf := rcvbuf.next;
				если rcvbuf.next = НУЛЬ то
					(* 2 buffers *)
					утв(rcvbuf.prev.next = rcvbuf);
					утв(p.rcvtail = rcvbuf);
				иначе
					(* check chain (more than 2 buffers *)
					нцДо
						утв(rcvbuf.next.prev = rcvbuf);
						утв(rcvbuf.prev.next = rcvbuf);
						rcvbuf := rcvbuf.next;
					кцПри rcvbuf.next = НУЛЬ;
					(* last buffer *)
					утв(p.rcvtail = rcvbuf);
				всё;
			всё;
		всё;

		(* send buffers *)
		sndbuf := p.sndhead; found := ложь;
		нц
			found := found или (sndbuf = p.sndtail);
			sndbuf := sndbuf.next;
			утв(sndbuf # НУЛЬ);
			если sndbuf = p.sndhead то прервиЦикл всё;
			утв(~found или ((sndbuf.ofs = 0) и (sndbuf.len = 0)))
		кц;
		утв(found);
	всё
кон Invariant;


(* Hash function for ConnectionPool *)
проц HashPool(lport, fport: цел32; fip:IP.Adr): цел32;
перем
	i: цел32;
	hash: цел32;
нач
	(* hash := (lport + fport + fip) MOD HashTableSize; *)
	hash := lport + fport;

	просей fip.usedProtocol из
		IP.IPv4:
			увел(hash, fip.ipv4Adr);

		|IP.IPv6:
			нцДля i := 0 до 15 делай
				увел(hash, кодСимв8(fip.ipv6Adr[i]));
			кц;

		иначе

	всё;

	возврат hash остОтДеленияНа HashTableSize;

кон HashPool;

(*
(* Hash function for ConnectionPool. *)

PROCEDURE -HashPool(lport, fport: SIGNED32; fip: IP.Adr): SIGNED32;
CODE {SYSTEM.i386}
	(* hash := (lport + fport + fip) MOD HashTableSize; *)
	POP ECX
	POP EBX
	POP EAX
	; Convert IP to host byte order
	XCHG CL, CH
	ROL ECX, 16
	XCHG CL, CH
	; Calculate sum
	ADD EAX, EBX
	ADD EAX, ECX
	; MOD operation
	MOV EBX, HashTableSize
	XOR EDX, EDX
	DIV EBX
	MOV EAX, EDX
END HashPool;
*)



(* Set x to val, but keep it between min and max. *)

проц RangeSet(перем x: цел32; val, min, max: цел32);
нач
	если val < min то x := min
	аесли val > max то x := max
	иначе x := val
	всё
кон RangeSet;

проц WriteTime(t: цел32);
перем s: массив 8 из симв8;
нач
	ЛогЯдра.пЦел64(t DIV Kernel.second, 1);
	s[0] := "."; t := (t остОтДеленияНа Kernel.second)*1000 DIV Kernel.second;
	s[1] := симв8ИзКода(48+t DIV 100 остОтДеленияНа 10); s[2] := симв8ИзКода(48+t DIV 10 остОтДеленияНа 10);
	s[3] := симв8ИзКода(48+t остОтДеленияНа 10); s[4] := 0X;
	ЛогЯдра.пСтроку8(s)
кон WriteTime;

(* TCP error function. *)

проц Error(err: целМЗ; n: цел32; p: Connection);
нач
	если trace то
		ЛогЯдра.ЗахватВЕдиноличноеПользование; ЛогЯдра.пСтроку8("TCP: "); WriteTime(Kernel.GetTicks());
		ЛогЯдра.пСтроку8(" result "); ЛогЯдра.пЦел64(err, 1);
		ЛогЯдра.пСимв8(" "); ЛогЯдра.пЦел64(n, 1); ЛогЯдра.ОсвобождениеИзЕдиноличногоПользования
	всё;
	если TraceError и (p # НУЛЬ) то TraceTCP("", p, empty^, empty^, 0, 0, 0) всё;
	Machine.AtomicInc(NTCPError[0]); Machine.AtomicInc(NTCPError[err-MinError])
кон Error;

(* Calculate and store new value for persist timer. *)

проц SetPersist(p: Connection);
нач
	утв(p.timer[ReXmt] = 0);
	RangeSet(p.timer[Persist], (p.srtt DIV 4 + p.rttvar) DIV 2 * backoff[p.rxtshift], PersMin, PersMax);
	если p.rxtshift < MaxRxtShift то увел(p.rxtshift) всё
кон SetPersist;

(* Trace Connection fields. *)

проц TraceConnection(p: Connection);
перем i: цел32;
нач
	если Trace то
		ЛогЯдра.пСтроку8(" state=");
		просей p.state из
			Closed: ЛогЯдра.пСтроку8("Closed")
			|Listen: ЛогЯдра.пСтроку8("Listen")
			|SynSent: ЛогЯдра.пСтроку8("SynSent")
			|SynReceived: ЛогЯдра.пСтроку8("SynReceived")
			|Established: ЛогЯдра.пСтроку8("Established")
			|CloseWait: ЛогЯдра.пСтроку8("CloseWait")
			|FinWait1: ЛогЯдра.пСтроку8("FinWait1")
			|Closing: ЛогЯдра.пСтроку8("Closing")
			|LastAck: ЛогЯдра.пСтроку8("LastAck")
			|FinWait2: ЛогЯдра.пСтроку8("FinWait2")
			|TimeWait: ЛогЯдра.пСтроку8("TimeWait")
		всё;
		ЛогЯдра.пСтроку8(" maxseg="); ЛогЯдра.пЦел64(p.maxseg, 1);
		ЛогЯдра.пСтроку8(" flags={");
		если AckNow в p.flags то ЛогЯдра.пСтроку8(" AckNow") всё;
		если DelAck в p.flags то ЛогЯдра.пСтроку8(" DelAck") всё;
		если NoDelay в p.flags то ЛогЯдра.пСтроку8(" NoDelay") всё;
		если SentFin в p.flags то ЛогЯдра.пСтроку8(" SentFin") всё;
		если Force в p.flags то ЛогЯдра.пСтроку8(" Force") всё;
		если RcvdScale в p.flags то ЛогЯдра.пСтроку8(" RcvdScale") всё;
		если RcvdTstmp в p.flags то ЛогЯдра.пСтроку8(" RcvdTstmp") всё;
		если ReqScale в p.flags то ЛогЯдра.пСтроку8(" ReqScale") всё;
		если ReqTstmp в p.flags то ЛогЯдра.пСтроку8(" ReqTstmp") всё;
		если DoKeepAlive в p.flags то ЛогЯдра.пСтроку8(" DoKeepAlive") всё;
		если AcceptConn в p.flags то ЛогЯдра.пСтроку8(" AcceptConn") всё;
		нцДля i := 11 до 31 делай
			если i в p.flags то ЛогЯдра.пСимв8(" "); ЛогЯдра.пЦел64(i, 1) всё
		кц;
		ЛогЯдра.пСтроку8(" } error="); ЛогЯдра.пЦел64(p.error, 1);
		ЛогЯдра.пВК_ПС;
		ЛогЯдра.пСтроку8(" iss="); ЛогЯдра.пЦел64(p.iss, 1);
		ЛогЯдра.пСтроку8(" snduna="); ЛогЯдра.пЦел64(p.snduna-p.iss, 1);
		ЛогЯдра.пСтроку8(" sndnxt="); ЛогЯдра.пЦел64(p.sndnxt-p.iss, 1);
		ЛогЯдра.пСтроку8(" sndmax="); ЛогЯдра.пЦел64(p.sndmax-p.iss, 1);
		ЛогЯдра.пСтроку8(" sndup="); ЛогЯдра.пЦел64(p.sndup-p.iss, 1);
		ЛогЯдра.пСтроку8(" sndwl2="); ЛогЯдра.пЦел64(p.sndwl2-p.iss, 1);
		ЛогЯдра.пСтроку8(" rtseq="); ЛогЯдра.пЦел64(p.rtseq-p.iss, 1);
		ЛогЯдра.пВК_ПС;
		ЛогЯдра.пСтроку8(" sndwnd="); ЛогЯдра.пЦел64(p.sndwnd, 1);
		ЛогЯдра.пСтроку8(" sndcwnd="); ЛогЯдра.пЦел64(p.sndcwnd, 1);
		ЛогЯдра.пСтроку8(" sndcc="); ЛогЯдра.пЦел64(p.sndcc, 1);
		ЛогЯдра.пСтроку8(" sndspace="); ЛогЯдра.пЦел64(p.sndspace, 1);
		ЛогЯдра.пСтроку8(" sndssthresh="); ЛогЯдра.пЦел64(p.sndssthresh, 1);
		ЛогЯдра.пВК_ПС;
		ЛогЯдра.пСтроку8(" irs="); ЛогЯдра.пЦел64(p.irs, 1);
		ЛогЯдра.пСтроку8(" rcvnxt="); ЛогЯдра.пЦел64(p.rcvnxt-p.irs, 1);
		ЛогЯдра.пСтроку8(" rcvup="); ЛогЯдра.пЦел64(p.rcvup-p.irs, 1);
		ЛогЯдра.пСтроку8(" sndwl1="); ЛогЯдра.пЦел64(p.sndwl1-p.irs, 1);
		ЛогЯдра.пСтроку8(" rcvadv="); ЛогЯдра.пЦел64(p.rcvadv-p.irs, 1);
		ЛогЯдра.пСтроку8(" lastacksent="); ЛогЯдра.пЦел64(p.lastacksent-p.irs, 1);
		ЛогЯдра.пВК_ПС;
		ЛогЯдра.пСтроку8(" rcvwnd="); ЛогЯдра.пЦел64(p.rcvwnd, 1);
		ЛогЯдра.пСтроку8(" rcvspace="); ЛогЯдра.пЦел64(p.rcvspace, 1);
		ЛогЯдра.пСтроку8(" rcvhiwat="); ЛогЯдра.пЦел64(p.rcvhiwat, 1);
		ЛогЯдра.пСтроку8(" idle="); ЛогЯдра.пЦел64(p.idle, 1);
		ЛогЯдра.пСтроку8(" rtt="); ЛогЯдра.пЦел64(p.rtt, 1);
		ЛогЯдра.пСтроку8(" srtt="); ЛогЯдра.пЦел64(p.srtt, 1);
		ЛогЯдра.пВК_ПС;
		ЛогЯдра.пСтроку8(" rttvar="); ЛогЯдра.пЦел64(p.rttvar, 1);
		ЛогЯдра.пСтроку8(" rttmin="); ЛогЯдра.пЦел64(p.rttmin, 1);
		ЛогЯдра.пСтроку8(" maxsndwnd="); ЛогЯдра.пЦел64(p.maxsndwnd, 1);
		ЛогЯдра.пСтроку8(" sndscale="); ЛогЯдра.пЦел64(p.sndscale, 1);
		ЛогЯдра.пСтроку8(" rcvscale="); ЛогЯдра.пЦел64(p.rcvscale, 1);
		ЛогЯдра.пСтроку8(" requestrscale="); ЛогЯдра.пЦел64(p.requestrscale, 1);
		ЛогЯдра.пВК_ПС;
		ЛогЯдра.пСтроку8(" requestedsscale="); ЛогЯдра.пЦел64(p.requestedsscale, 1);
		ЛогЯдра.пСтроку8(" tsrecent="); ЛогЯдра.пЦел64(p.tsrecent, 1);
		ЛогЯдра.пСтроку8(" tsrecentage="); ЛогЯдра.пЦел64(p.tsrecentage, 1);
		ЛогЯдра.пСтроку8(" rxtshift="); ЛогЯдра.пЦел64(p.rxtshift, 1);
		ЛогЯдра.пСтроку8(" rxtcur="); ЛогЯдра.пЦел64(p.rxtcur, 1);
		ЛогЯдра.пСтроку8(" dupacks="); ЛогЯдра.пЦел64(p.dupacks, 1);
		ЛогЯдра.пВК_ПС; ЛогЯдра.пВК_ПС
	всё
кон TraceConnection;

(* Trace the protocol. *)

проц TraceTCP(msg: массив из симв8; p: Connection; конст hdr, data: массив из симв8; hlen, ofs, len: размерМЗ);
нач
	если Trace то
		WriteTime(Kernel.GetTicks()); ЛогЯдра.пСимв8(" ");
		ЛогЯдра.пСтроку8(msg); TraceConnection(p);
		если TracePacket то
			ЛогЯдра.пБлокПамяти16рично(адресОт(hdr[0]), hlen);
			ЛогЯдра.пБлокПамяти16рично(адресОт(data[ofs]), len)
		всё
	всё
кон TraceTCP;

(* Output a TCP segment. *)

проц Output(p: Connection);
перем
	idle, sendalot: булево;
	optLen, off, sum, win, len, adv, x, startseq, left: цел32;
	pf: мнвоНаБитахМЗ; buf: SendBuffer; data: SendData;
	pseudoHdr: массив MaxPseudoHdrLen из симв8;
	hdr: массив MaxTCPHdrLen из симв8;
	pseudoHdrLen: цел32;
нач
	idle := (p.sndmax = p.snduna);
	если idle и (p.idle >= p.rxtcur) то p.sndcwnd := p.maxseg всё;
	нцДо
		sendalot := ложь;
		нц	(* look for reason to send a segment (not a real loop, just a goto-substitute) *)
			off := p.sndnxt - p.snduna;	(* the first off bytes from the buffer have been sent and are waiting for Ack *)
			win := p.sndwnd;	(* minimum of window advertised by receiver and the congestion window *)
			если HandleCongestion и (p.sndcwnd < win) то win := p.sndcwnd всё;
			pf := outflags[p.state];
			если Force в p.flags то
				если win = 0 то
					если off < p.sndcc то исключиИзМнваНаБитах(pf, Fin) всё;
					win := 1
				иначе
					p.timer[Persist] := 0; p.rxtshift := 0
				всё
			всё;
			len := p.sndcc;	(* minimum of bytes in send buffer and win *)
			если win < len то len := win всё;
			умень(len, off);	(* off bytes have already been sent and are waiting for Ack *)
			если len < 0 то
				len := 0;
				если win = 0 то p.timer[ReXmt] := 0; p.sndnxt := p.snduna всё;
			всё;
			если len > p.maxseg то len := p.maxseg; sendalot := истина всё;
			если (p.sndnxt + len) - (p.snduna + p.sndcc) < 0 то исключиИзМнваНаБитах(pf, Fin) всё;	(* not emptying send buffer *)
			win := p.rcvspace;	(* now win is receive window advertised *)
			если len # 0 то
				если len = p.maxseg то прервиЦикл всё;
				если (idle или (NoDelay в p.flags)) и (len + off >= p.sndcc) то прервиЦикл всё;
				если Force в p.flags то прервиЦикл всё;
				если len >= p.maxsndwnd DIV 2 то прервиЦикл всё;
				если p.sndnxt - p.sndmax < 0 то прервиЦикл всё
			всё;
			если win > 0 то
				adv := арифмСдвиг(MaxWin, p.rcvscale);
				если win < adv то adv := win всё;
				умень(adv, p.rcvadv - p.rcvnxt);
				если adv >= 2*p.maxseg то прервиЦикл всё;
				если 2*adv >= p.rcvhiwat то прервиЦикл всё
			всё;
			если AckNow в p.flags то прервиЦикл всё;
			если pf * {Syn,Rst} # {} то прервиЦикл всё;
			если p.sndup - p.snduna > 0 то прервиЦикл всё;
			если (Fin в pf) и (~(SentFin в p.flags) или (p.sndnxt = p.snduna)) то прервиЦикл всё;
			если (p.sndcc # 0) и (p.timer[ReXmt] = 0) и (p.timer[Persist] = 0) то
				p.rxtshift := 0; SetPersist(p)
			всё;
			возврат (* 0 *)	(* no reason to send a segment *)
		кц; (* LOOP *)

		(* form output segment *)
		optLen := 0;
		если Syn в pf то
			p.sndnxt := p.iss;
			если GenOptions то
				(* generate MSS option *)
				hdr[MinTCPHdrLen+optLen] := 2X; (* MSS option *)
				hdr[MinTCPHdrLen+optLen+1] := 4X; (* option length *)
				Network.PutNet2(hdr, MinTCPHdrLen+optLen+2, p.int.dev.mtu-120); (* MSS = dev.mtu-120 *)
				увел(optLen, 4);
				(* generate window scale option *)
				если ((ReqScale в p.flags) и (~(Ack в pf) или (RcvdScale в p.flags))) то
					hdr[MinTCPHdrLen+optLen] := 1X; (* NOP *)
					hdr[MinTCPHdrLen+optLen+1] := 3X; (* window scale option *)
					hdr[MinTCPHdrLen+optLen+2] := 3X; (* option length *)
					hdr[MinTCPHdrLen+optLen+3] := симв8ИзКода(p.requestrscale); (* window scale *)
					увел(optLen, 4);
				всё;
			всё;
		всё;
		(* generate timestamp option *)
		если GenOptions и DoRFC1323 и (ReqTstmp в p.flags) и ~(Rst в pf) и ((pf * {Syn, Ack} = {Syn}) или (RcvdTstmp в p.flags)) то
			hdr[MinTCPHdrLen+optLen] := 1X; (* NOP *)
			hdr[MinTCPHdrLen+optLen+1] := 1X; (* NOP *)
			hdr[MinTCPHdrLen+optLen+2] := 8X; (* timestamp option *)
			hdr[MinTCPHdrLen+optLen+3] := 0AX; (* option length *)
			Network.PutNet4(hdr, MinTCPHdrLen+optLen+4, timeSource.now);
			Network.PutNet4(hdr, MinTCPHdrLen+optLen+8, p.tsrecent);
			увел(optLen, 12);
		всё;

		(* This doesn't work if Fin was set before !! (bug in TCP/IP Illustrated Vol. 2, p. 873, fig. 26.24)
			Solved by setting MSS = 536 - 12 (size of timestamp option) and commenting this out.
			(mvt, 28.02.2004)
		IF len > p.maxseg - optLen THEN
			len := p.maxseg - optLen;
			sendalot := TRUE;
		END;
		*)

		если len # 0 то
			если (Force в p.flags) и (len = 1) то Machine.AtomicInc(NTCPSendProbe)
			аесли p.sndnxt - p.sndmax < 0 то Machine.AtomicInc(NTCPReXmtPack); Machine.AtomicAdd(NTCPReXmtByte, len)
			иначе Machine.AtomicInc(NTCPSendPack); Machine.AtomicAdd(NTCPSendByte, len)
			всё;
			если off + len = p.sndcc то включиВоМнвоНаБитах(pf, Psh) всё;
				(* data to send is in buffer[off..off+len-1] *)
			buf := p.sndhead; нцПока off >= buf.len делай умень(off, buf.len); buf := buf.next кц;
			если off+len <= buf.len то	(* all data is this buffer *)
				data := buf.data; увел(off, buf.ofs)
			иначе	(* data is spread over more buffers *)
				Machine.AtomicInc(NTCPSplitBuffer);
				data := p.sndcontig;
				утв(len <= длинаМассива(data^));
				утв(buf.len-off <= len);	(* index check *)
				Network.Copy(buf.data^, data^, off+buf.ofs, 0, buf.len-off);
				off := buf.len-off; left := len-off;
				нцПока left # 0 делай
					buf := buf.next; если left <= buf.len то x := left иначе x := buf.len всё;
					утв(off+x <= len);	(* index check *)
					Network.Copy(buf.data^, data^, buf.ofs, off, x);
					увел(off, x); умень(left, x)
				кц;
				off := 0
			всё
		иначе
			если AckNow в p.flags то Machine.AtomicInc(NTCPAcks)
			аесли pf * {Syn,Fin,Rst} # {} то Machine.AtomicInc(NTCPSendCtrl)
			аесли p.sndup - p.snduna > 0 то Machine.AtomicInc(NTCPSendUrg)
			иначе Machine.AtomicInc(NTCPSendWinUp)
			всё;
			data := empty; off := 0
		всё;
		если (Fin в pf) и (SentFin в p.flags) и (p.sndnxt = p.sndmax) то умень(p.sndnxt) всё;

		если (len # 0) или (pf * {Syn,Fin} # {}) или (p.timer[Persist] # 0) то
			Network.PutNet4(hdr, 4, p.sndnxt)	(* sequence number *)
		иначе
			Network.PutNet4(hdr, 4, p.sndmax)
		всё;
		Network.PutNet4(hdr, 8, p.rcvnxt);	(* acknowledgement number *)
		если (win < p.rcvhiwat DIV 4) и (win < p.maxseg) то win := 0 всё;
		если win > арифмСдвиг(MaxWin, p.rcvscale) то win := арифмСдвиг(MaxWin, p.rcvscale) всё;
		если win < p.rcvadv - p.rcvnxt то win := p.rcvadv - p.rcvnxt всё;
		Network.PutNet2(hdr, 14, арифмСдвиг(win, -p.rcvscale));
		если p.sndup - p.sndnxt > 0 то
			x := p.sndup - p.sndnxt;
			если x > 65535 то x := 65535 всё;
			Network.PutNet2(hdr, 18, x);
			включиВоМнвоНаБитах(pf, Urg)
		иначе
			p.sndup := p.snduna
		всё;
		hdr[13] := симв8ИзКода(устарПреобразуйКБолееУзкомуЦел(устарПреобразуйКБолееУзкомуЦел(НИЗКОУР.подмениТипЗначения(цел32, pf))));

		(* set rest of TCP header *)
		Network.PutNet2(hdr, 0, p.lport);
		Network.PutNet2(hdr, 2, p.fport);
		hdr[12] := симв8ИзКода((MinTCPHdrLen+optLen) DIV 4*10H);
		Network.Put2(hdr, 16, 0); (* checksum := 0; *)

		если ~(Network.ChecksumTCP в p.int.dev.calcChecksum) то
			(* set pseudo header *)
			pseudoHdrLen := p.int.WritePseudoHeader(pseudoHdr, p.int.localAdr, p.fip, IPTypeTCP, MinTCPHdrLen+optLen+len);

			sum := IP.Checksum1(pseudoHdr, 0, pseudoHdrLen, 0);
			sum := IP.Checksum1(hdr, 0, MinTCPHdrLen+optLen, sum);
			sum := IP.Checksum2(data^, off, len, sum);
			Network.Put2(hdr, 16, sum); (* checksum := sum *)
		всё;

		если ~(Force в p.flags) или (p.timer[Persist] = 0) то
			startseq := p.sndnxt;
			если pf * {Syn,Fin} # {} то
				если Syn в pf то увел(p.sndnxt) всё;
				если Fin в pf то увел(p.sndnxt); включиВоМнвоНаБитах(p.flags, SentFin) всё
			всё;
			увел(p.sndnxt, len);
			если p.sndnxt - p.sndmax > 0 то
				p.sndmax := p.sndnxt;
				если p.rtt = 0 то p.rtt := 1; p.rtseq := startseq; Machine.AtomicInc(NTCPSegsTimed) всё
			всё;
			если (p.timer[ReXmt] = 0) и (p.sndnxt # p.snduna) то
				p.timer[ReXmt] := p.rxtcur;
				если p.timer[Persist] # 0 то p.timer[Persist] := 0; p.rxtshift := 0 всё
			всё
		аесли (p.sndnxt + len) - p.sndmax > 0 то
			p.sndmax := p.sndnxt + len
		иначе (* skip *)
		всё;
		если TraceProtocol то
			TraceTCP("Output", p, hdr, data^, MinTCPHdrLen+optLen, off, len)
		всё;

		(* Send packet *)
		p.int.Send(IPTypeTCP, p.fip, hdr, data^, MinTCPHdrLen+optLen, off, len, IP.MaxTTL);

		(* old code:
			IP.IPOutput(IP.default, p.hdr, data^, IP.MinIPHdrLen+MinTCPHdrLen, off, len);
			IF FALSE THEN	(* error in IPOutput *)
				IF FALSE THEN	(* out of buffers *)
					p.sndcwnd := p.maxseg;	(* close congestion window *)
					RETURN (* 0 *)
				END;
				IF FALSE & (p.state >= SynReceived) THEN	(* host unreachable or network down *)
					(*p.softerror := error;*) RETURN (* 0 *)
				END;
				RETURN (* error *)
			END;
		*)
		Machine.AtomicInc(NTCPSendTotal);
		если (win > 0) и ((p.rcvnxt + win) - p.rcvadv > 0) то p.rcvadv := p.rcvnxt + win всё;
		p.lastacksent := p.rcvnxt;
		p.flags := p.flags - {AckNow,DelAck}
	кцПри ~sendalot;
	(* RETURN 0 *)
кон Output;

(* Special output function for Rst and KeepAlive packets (fig. 26.34). *)

проц Respond(p: Connection; ack, seq: цел32; rf: мнвоНаБитахМЗ);
перем
	win, sum: цел32;
	pseudoHdr: массив MaxPseudoHdrLen из симв8;
	hdr: массив MaxTCPHdrLen из симв8;
	pseudoHdrLen: цел32;

нач
	win := арифмСдвиг(p.rcvspace, -p.rcvscale);	(* zero in nilpcb *)
	если rf = {} то
		(* keepalive probe *)
		включиВоМнвоНаБитах(rf, Ack)
	иначе
		(* Rst segment *)
	всё;

	(* set TCP header *)
	Network.PutNet2(hdr, 0, p.lport);
	Network.PutNet2(hdr, 2, p.fport);
	Network.PutNet4(hdr, 4, seq);
	Network.PutNet4(hdr, 8, ack);
	hdr[12] := симв8ИзКода(MinTCPHdrLen DIV 4*10H);
	hdr[13] := симв8ИзКода(устарПреобразуйКБолееУзкомуЦел(устарПреобразуйКБолееУзкомуЦел(НИЗКОУР.подмениТипЗначения(цел32, rf))));
	Network.PutNet2(hdr, 14, win);
	Network.Put2(hdr, 16, 0); (* checksum := 0 *)
	Network.Put2(hdr, 18, 0); (* urgent pointer := 0 *)

	если ~(Network.ChecksumTCP в p.int.dev.calcChecksum) то
		(* set pseudo header *)
		pseudoHdrLen := p.int.WritePseudoHeader(pseudoHdr, p.int.localAdr, p.fip, IPTypeTCP, MinTCPHdrLen);

		sum := IP.Checksum1(pseudoHdr, 0, pseudoHdrLen, 0);
		sum := IP.Checksum2(hdr, 0, MinTCPHdrLen, sum);
		Network.Put2(hdr, 16, sum); (* checksum := sum; *)
	всё;

	p.int.Send(IPTypeTCP, p.fip, hdr, hdr, MinTCPHdrLen, 0, 0, IP.MaxTTL);
кон Respond;

(* Cancel all timers. *)

проц CancelTimers(p: Connection);
перем i: цел32;
нач
	нцДля i := 0 до NumTimers-1 делай p.timer[i] := 0 кц
кон CancelTimers;

(* Apply new RTT measurement to smoothed estimators. *)

(*
PROCEDURE XmitTimer(p: Connection; rtt: SIGNED32);
VAR delta: SIGNED32;
BEGIN
	Machine.AtomicInc(NTCPRTTUpdated);
	IF p.srtt # 0 THEN
		delta := rtt - 1 - ASH(p.srtt, -RTTShift);
		INC(p.srtt, delta);
		IF p.srtt <= 0 THEN p.srtt := 1 END;
		IF delta < 0 THEN delta := -delta END;
		DEC(delta, ASH(p.rttvar, -RTTVarShift));
		INC(p.rttvar, delta);
		IF p.rttvar <= 0 THEN p.rttvar := 1 END
	ELSE
		p.srtt := ASH(rtt, RTTShift); p.rttvar := ASH(rtt, RTTVarShift-1)
	END;
	p.rtt := 0; p.rxtshift := 0;
	RangeSet(p.rxtcur, ASH(p.srtt, -RTTShift) + p.rttvar, p.rttmin, ReXmtMax);
	(*p.softerror := 0*)
END XmitTimer;
*)

проц XmitTimer(p: Connection; rtt: цел32);
(*
	 m ->  rtt
	 sa -> p.srtt
	 sd -> p.rttvar
*)
перем delta: цел32;
нач
	Machine.AtomicInc(NTCPRTTUpdated);
	если p.srtt # 0 то
(*		delta := (rtt*4)  - ASH(p.srtt, -RTTShift);*)
		delta := rtt - 1 - арифмСдвиг(p.srtt, -RTTShift);
		увел(p.srtt, delta);
		если p.srtt <= 0 то p.srtt := 1 всё;
		если delta < 0 то delta := -delta всё;
		умень(delta, арифмСдвиг(p.rttvar, -RTTVarShift));
		увел(p.rttvar, delta);
		если p.rttvar <= 0 то p.rttvar := 1 всё
	иначе
		p.srtt := арифмСдвиг(rtt, RTTShift); p.rttvar := арифмСдвиг(rtt, RTTVarShift-1)
	всё;
	p.rtt := 0; p.rxtshift := 0;
(*	p.rxtcur:=((p.srtt DIV 8)+ p.rttvar) DIV 4;
	IF p.rxtcur < (rtt+2) THEN p.rxtcur:=rtt; END;*)
	RangeSet(p.rxtcur, арифмСдвиг(p.srtt, -RTTShift) + p.rttvar, MinTime, ReXmtMax);

	(*p.softerror := 0*)
кон XmitTimer;


(* Drop len bytes from the front of the send buffer. *)
проц SbDrop(p: Connection; len: цел32);
перем buf: SendBuffer;
нач
	умень(p.sndcc, len); увел(p.sndspace, len);
	buf := p.sndhead;
	нц
		если buf.len > len то	(* part of buffer will remain *)
			увел(buf.ofs, len); умень(buf.len, len);	(* ignore buf.seq (later: why?) *)
			прервиЦикл
		всё;
		умень(len, buf.len);
		buf.ofs := 0; buf.len := 0;	(* make buffer ready for re-use *)
		если buf # p.sndtail то buf := buf.next всё;
		если len = 0 то прервиЦикл всё
	кц;
	p.sndhead := buf
кон SbDrop;


(* Close a connection (fig. 27.4-6). *)
проц CloseConnection(p: Connection);
перем
	buf: Network.Buffer;

нач
	если ложь (* we sent enough data to update rtt in route *) то
	всё;
	pool.Remove(p);
	(* can not remove from parent's accept list, because of possible deadlock *)
	если p = lastpcb то lastpcb := nilpcb всё;	(* only for GC -- race does not matter *)
		(* can not clear any pcb pointer fields, because Lookup is non-exclusive *)
	(*SoIsDisconnected(p);*)
	p.state := Closed;
	(* return the buffers still in receive queue *)
	p.rcvreasm := НУЛЬ;
	p.rcvtail := НУЛЬ;
	нцПока p.rcvhead # НУЛЬ делай
		buf := p.rcvhead;
		p.rcvhead := p.rcvhead.next;
		Network.ReturnBuffer(buf);
	кц;
	Machine.AtomicInc(NTCPClosed);
кон CloseConnection;


(* Drop a connection (fig. 27.2). *)
проц Drop(p: Connection; err: цел32);
нач
	если p.state >= SynReceived то
		p.state := Closed; Output(p); Machine.AtomicInc(NTCPDrops)
	иначе
		Machine.AtomicInc(NTCPConnDrops)
	всё;
	(* IF (err = TimedOut) & (p.softerror # Ok) THEN err := p.softerror END; *)
	p.error := err; CloseConnection(p)
кон Drop;

проц SetMSS(p: Connection; mss: цел32);
	(* Error(NIYMSS, 0, p); *)
	(* Processing of received MSS option not necessary as long as sending is always done with MSS=536. *)
кон SetMSS;


(* Process a received TCP segment. *)
проц Input(int: IP.Interface; type: цел32; fip, lip: IP.Adr; buffer: Network.Buffer);
перем
	lport, fport, hdrLen: цел32;
	p: Connection;
нач
	утв(type = IPTypeTCP);
	Machine.AtomicInc(NTCPRcvTotal);
	если IP.AdrsEqual(int.localAdr, lip) то
		если buffer.len >= MinTCPHdrLen то
			hdrLen := устарПреобразуйКБолееШирокомуЦел(кодСимв8(buffer.data[buffer.ofs+12])) DIV 10H * 4;
			если (hdrLen < MinTCPHdrLen) или (hdrLen > buffer.len) то
				(* bad header length *)
				Error(BadHeaderLength, hdrLen, НУЛЬ);
				(*GotoDrop;*)
			иначе
				(* findpcb *)
				p := lastpcb;
				fport := Network.GetNet2(buffer.data, buffer.ofs);
				lport := Network.GetNet2(buffer.data, buffer.ofs+2);
				если (p = nilpcb) или (~IP.AdrsEqual(p.fip, fip)) или (p.lport # lport) или (p.fport # fport) то
					p := pool.Lookup(lport, fport, fip);
					если p = nilpcb то
						(* look for listening connection *)
						p := pool.Lookup(lport, NilPort, IP.NilAdr);
					всё;
					lastpcb := p;
					Machine.AtomicInc(NTCPCacheMiss);
				всё;
				p.Input(int, fip, hdrLen, buffer);
				возврат; (* w/o returning buffer *)
			всё;
		иначе
			Error(SegmentTooSmall, buffer.len, НУЛЬ);
		всё;
	иначе
		Error(BroadcastReceived, buffer.len, НУЛЬ);
	всё;
	Network.ReturnBuffer(buffer);
кон Input;


(* Process a received TCP segment for the specified Connection. *)
проц ProcessInput(p: Connection; hdrLen: цел32; buffer: Network.Buffer; drop: булево; перем bufferQueued: булево);
конст
	Options = 0; TSPresent = 1; NeedOutput = 2;

перем
	win, sum, urp, seq, ack, tsval, tsecr, acked, discard, tlen, optLen: цел32;
	pseudoHdr: массив MaxPseudoHdrLen из симв8;
	pseudoHdrLen: цел32;
	pf, lf: мнвоНаБитахМЗ;
	reassembledLength: цел32;
	fragmentBuffer: Network.Buffer;

	проц GotoDrop;	(* fig. 29.27 *)
	нач
		если TraceProtocol то TraceTCP("Drop", p, empty^, empty^, 0, 0, 0) всё;
		если drop то Drop(p, ConnectionAborted) всё
	кон GotoDrop;

	проц GotoDropReset;	(* fig. 29.27 - may be called with p = nilpcb (at start) *)
	нач
		если (Rst в pf) то
			GotoDrop
		иначе
			если Ack в pf то
				Respond(p, 0, ack, {Rst})
			иначе
				если Syn в pf то увел(tlen) всё;
				Respond(p, seq + tlen, 0, {Rst,Ack})
			всё;
			если drop то Drop(p, ConnectionAborted) всё
		всё
	кон GotoDropReset;

	проц GotoDropAfterAck;	(* fig. 29.26 *)
	нач
		если Rst в pf то
			GotoDrop
		иначе
			включиВоМнвоНаБитах(p.flags, AckNow); Output(p)
		всё
	кон GotoDropAfterAck;

	проц ProcessOptions;	(* fig. 28.9 & 28.10 *)
	перем opt: симв8; i, m, optlen: цел32;
	нач
		i := buffer.ofs+MinTCPHdrLen; m := buffer.ofs+hdrLen;
		нц
			если i >= m то прервиЦикл всё;
			opt := buffer.data[i];
			если opt = 0X то
				прервиЦикл; (* EOL *)
			аесли opt = 1X то
				optlen := 1; (* NOP *)
			иначе
				optlen := кодСимв8(buffer.data[i+1]);
				если optlen = 0 то прервиЦикл всё;
			всё;
			просей opt из
				2X: (* MaxSeg *)
					если (optlen = 4) и (Syn в pf) то
						SetMSS(p, Network.GetNet2(buffer.data, i+2));
					всё;
				|3X: (* Window Scaling *)
					если (optlen = 3) и (Syn в pf) то
						включиВоМнвоНаБитах(p.flags, RcvdScale);
						p.requestedsscale := матМинимум(устарПреобразуйКБолееШирокомуЦел(кодСимв8(buffer.data[i+2])), MaxWinShift);
					всё;
				|8X: (* Timestamp *)
					если DoRFC1323 и (optlen = 10) то
						включиВоМнвоНаБитах(lf, TSPresent);
						tsval := Network.GetNet4(buffer.data, i+2);
						tsecr := Network.GetNet4(buffer.data, i+6);
						если Syn в pf то
							включиВоМнвоНаБитах(p.flags, RcvdTstmp);
							p.tsrecent := tsval;
							p.tsrecentage := timeSource.now;
						всё;
					всё;
				иначе
					(* skip *)
			всё;
			увел(i, optlen);
		кц
	кон ProcessOptions;

	проц ProcessListen(): булево;	(* fig. 28.15-17 *)
	перем
		res: целМЗ;
		q: Connection;
	нач
		если Rst в pf то GotoDrop; возврат ложь всё;
		если Ack в pf то GotoDropReset; возврат ложь всё;
		если ~(Syn в pf) то GotoDrop; возврат ложь всё;
		pool.Add(p, Network.GetNet2(buffer.data, buffer.ofs+2), Network.GetNet2(buffer.data, buffer.ofs), res);
		если res # Ok то
			GotoDrop;
			возврат ложь;
		всё;
		если ProcOptions и (Options в lf) то ProcessOptions всё;
		p.iss := issSource.Get();
		p.snduna := p.iss; p.sndnxt := p.iss; p.sndmax := p.iss; p.sndup := p.iss;
		p.irs := seq; p.rcvnxt := seq+1; p.rcvadv := p.rcvnxt;
		включиВоМнвоНаБитах(p.flags, AckNow);
		p.state := SynReceived;
		p.timer[Keep] := KeepInit;
		drop := ложь;	(* commit *)
			(* put on accept queue *)
		утв(Objects.LockedByCurrent(p.parent));	(* came here via Connection.Input of parent *)
		q := p.parent.acceptNext; p.acceptNext := НУЛЬ;
		если q = НУЛЬ то
			p.parent.acceptNext := p
		иначе
			нцПока q.acceptNext # НУЛЬ делай q := q.acceptNext кц;	(* find last entry in queue *)
			q.acceptNext := p
		всё;
		Machine.AtomicInc(NTCPAccepts);
		возврат истина
	кон ProcessListen;

	проц ProcessSynSent(): булево;
	нач
		если (Ack в pf) и ((ack - p.iss <= 0) или (ack - p.sndmax > 0)) то GotoDropReset; возврат ложь всё;
		если Rst в pf то
			если Ack в pf то Error(ConnectionRefused, 0, p); Drop(p, ConnectionRefused) всё;
			GotoDrop; возврат ложь
		всё;
		если ~(Syn в pf) то GotoDrop; возврат ложь всё;
		если Ack в pf то
			p.snduna := ack;
			если p.sndnxt - p.snduna < 0 то p.sndnxt := p.snduna всё;
		всё;
		p.timer[ReXmt] := 0;
		p.irs := seq; p.rcvnxt := seq+1; p.rcvadv := p.rcvnxt;
		включиВоМнвоНаБитах(p.flags, AckNow);
		если (Ack в pf) и (p.snduna - p.iss > 0) то
			Machine.AtomicInc(NTCPConnects); (*SoIsConnected(p);*)
			p.state := Established;
			если p.flags * {RcvdScale,ReqScale} = {RcvdScale,ReqScale} то
				p.sndscale := p.requestedsscale; p.rcvscale := p.requestrscale
			всё;
			(*GotoPresent;*)	(* not necessary, processed later *)
			если p.rtt # 0 то XmitTimer(p, p.rtt) всё
		иначе
			p.state := SynReceived
		всё;
		возврат истина
	кон ProcessSynSent;

	проц Trim1;	(* fig. 28.21 *)
	нач
		увел(seq);
		если tlen > p.rcvwnd то
			Error(DataBeyondWindow1, tlen - p.rcvwnd, p);	(* data received beyond window (with Syn) *)
			tlen := p.rcvwnd; исключиИзМнваНаБитах(pf, Fin)
		всё;
		p.sndwl1 := seq-1; p.rcvup := seq
	кон Trim1;

	проц Paws(): булево;	(* fig. 28.22 *)
	нач
		если (TSPresent в lf) и ~(Rst в pf) и (p.tsrecent # 0) и (tsval - p.tsrecent < 0) то
			если (timeSource.now - p.tsrecentage) > PawsIdle то
				p.tsrecent := 0
			иначе
				Error(DuplicateSegmentPAWS, tlen, p); (* duplicate segment (PAWS) *)
				GotoDropAfterAck; возврат ложь
			всё
		всё;
		возврат истина
	кон Paws;

	проц Trim2(todrop: цел32): булево;	(* fig. 28.24-25, corrected fig. 28.30*)
	нач
		если Syn в pf то
			исключиИзМнваНаБитах(pf, Syn); увел(seq);
			если urp > 1 то умень(urp) иначе исключиИзМнваНаБитах(pf, Urg) всё;
			умень(todrop)
		всё;
		если (todrop > tlen) или ((todrop = tlen) и ~(Fin в pf)) то
			исключиИзМнваНаБитах(pf, Fin); включиВоМнвоНаБитах(p.flags, AckNow); todrop := tlen;
			Error(DuplicateSegment, todrop, p)	(* duplicate segment *)
		иначе
			Error(DuplicatePartialSegment, todrop, p)	(* partially duplicate segment *)
		всё;
		увел(discard, todrop); увел(seq, todrop); умень(tlen, todrop);
		если urp > todrop то умень(urp, todrop) иначе исключиИзМнваНаБитах(pf, Urg); urp := 0 всё;
		возврат истина
	кон Trim2;

	проц Trim3(todrop: цел32): булево;	(* fig. 28.29 *)
	нач
		если todrop >= tlen то
			если (Syn в pf) и (p.state = TimeWait) и (seq - p.rcvnxt > 0) то
				(*iss := p.rcvnxt + ISSInc; CloseConnection(p); goto findpcb*)
				Error(NIYNewIncarnation, 0, p);	(* new incarnation NIY - also read p. 945-946 *)
				GotoDropAfterAck; возврат ложь
			всё;
			если (p.rcvwnd = 0) и (seq = p.rcvnxt) то
				включиВоМнвоНаБитах(p.flags, AckNow); Machine.AtomicInc(NTCPRcvWinProbe)
			иначе
				Error(DataBeyondWindow2, tlen, p);	(* data received beyond window (complete) *)
				GotoDropAfterAck; возврат ложь
			всё
		иначе
			Error(DataBeyondWindow3, todrop, p)	(* data received beyond window (partial) *)
		всё;
		умень(tlen, todrop); pf := pf - {Psh,Fin};
		возврат истина
	кон Trim3;

	проц RecordTS;	(* fig. 28.35 *)
	перем x: цел32;
	нач
		если DoRFC1323 то
			если pf * {Syn,Fin} # {} то x := 1 иначе x := 0 всё;
			если p.lastacksent - (seq + tlen + x) < 0 то
				p.tsrecentage := timeSource.now;
				p.tsrecent := tsval;
			всё
		всё
	кон RecordTS;

	проц ProcessRst(): булево;	(* fig. 28.36 *)
	нач
		просей p.state из
			SynReceived, Established, FinWait1, FinWait2, CloseWait:
				если p.state = SynReceived то p.error := ConnectionRefused иначе p.error := ConnectionReset всё;
				p.state := Closed; Error(p.error, 0, p);	(* connection reset *)
				CloseConnection(p); GotoDrop; возврат ложь
			|Closing, LastAck:
				CloseConnection(p); GotoDrop; возврат ложь
			иначе (* skip *)
		всё;
		возврат истина
	кон ProcessRst;

	проц ProcessAck(): булево;	(* fig. 29.2-29.14 *)
	перем onxt, cw, incr: цел32; finacked: булево;
	нач
		если p.state в {SynReceived..TimeWait} то
			если p.state = SynReceived то
				если (p.snduna - ack > 0) или (ack - p.sndmax > 0) то
					GotoDropReset; возврат ложь
				всё;
				Machine.AtomicInc(NTCPConnects);
				(*SoIsConnected(p);*)
				p.state := Established;
				если p.flags * {RcvdScale,ReqScale} = {RcvdScale,ReqScale} то
					p.sndscale := p.requestedsscale; p.rcvscale := p.requestrscale
				всё;
				(* IF tlen > 0 THEN (* would inc of twice by the header size *)
					Reasm;
				END; *)
				p.sndwl1 := seq-1;
			всё;
			если ack - p.snduna <= 0 то
				если (tlen = 0) и (win = p.sndwnd) то
					Error(DuplicateAck, 0, p);	(* duplicate ack *)
					если (p.timer[ReXmt] = 0) или (ack # p.snduna) то
						p.dupacks := 0
					иначе
						увел(p.dupacks);
						если p.dupacks = ReXmtThresh то
							onxt := p.sndnxt;
							p.sndssthresh := матМаксимум(матМинимум(p.sndwnd, p.sndcwnd) DIV 2 DIV p.maxseg, 2) * p.maxseg;
							если TraceCongestion то
								ЛогЯдра.пСтроку8("DA sndssthresh := "); ЛогЯдра.пЦел64(p.sndssthresh, 1); ЛогЯдра.пВК_ПС
							всё;
							p.timer[ReXmt] := 0; p.rtt := 0; p.sndnxt := ack; p.sndcwnd := p.maxseg;
							Output(p);
							p.sndcwnd := p.sndssthresh + p.maxseg * p.dupacks;
							если onxt - p.sndnxt > 0 то p.sndnxt := onxt всё;
							GotoDrop; возврат ложь
						аесли p.dupacks > ReXmtThresh то
							увел(p.sndcwnd, p.maxseg);
							Output(p);
							GotoDrop; возврат ложь
						иначе (* skip *)
						всё
					всё
				иначе
					p.dupacks := 0
				всё;
				возврат истина	(* skip rest of Ack processing - goto step 6 *)
			всё;

			если (p.dupacks > ReXmtThresh) и (p.sndcwnd > p.sndssthresh) то
				p.sndcwnd := p.sndssthresh
			всё;
			p.dupacks := 0;
			если ack - p.sndmax > 0 то
				Error(OutOfRangeAck, ack - p.sndmax, p); GotoDropAfterAck;
				возврат ложь;
			всё;
			acked := ack - p.snduna;
			Machine.AtomicInc(NTCPAckPack); Machine.AtomicAdd(NTCPAckByte, acked);
			если TSPresent в lf то XmitTimer(p, timeSource.now - tsecr + 1)
			аесли (p.rtt # 0) и (ack - p.rtseq > 0) то XmitTimer(p, p.rtt)
			иначе (* skip *)
			всё;
			если ack = p.sndmax то p.timer[ReXmt] := 0; включиВоМнвоНаБитах(lf, NeedOutput)
			аесли p.timer[Persist] = 0 то
				p.timer[ReXmt] := p.rxtcur;
			иначе (* skip *)
			всё;
			cw := p.sndcwnd; incr := p.maxseg;
			если cw > p.sndssthresh то incr := incr * incr DIV cw всё;
			p.sndcwnd := матМинимум(cw + incr, арифмСдвиг(MaxWin, p.sndscale));
			если acked > p.sndcc то
				умень(p.sndwnd, p.sndcc); SbDrop(p, p.sndcc); finacked := истина
			иначе
				SbDrop(p, acked); умень(p.sndwnd, acked); finacked := ложь
			всё;
			(*IF Notify IN p.flags THEN SoWakeup(p) END;*)
			p.snduna := ack;
			если p.sndnxt - p.snduna < 0 то p.sndnxt := p.snduna всё;
			просей p.state из
				FinWait1:
					если finacked то
						(*IF NoMore IN p.flags THEN SoIsDisconnected(p); p.timer[MSL2] := MaxIdle END;*)
						p.timer[MSL2] := MaxIdle;	(* otherwise we hang in FinWait2 *)
						p.state := FinWait2
					всё
				|Closing:
					если finacked то
						p.state := TimeWait; CancelTimers(p); p.timer[MSL2] := 2 * MSL;
						(*SoIsDisconnected(p)*)
					всё
				|LastAck:
					если finacked то
						CloseConnection(p); GotoDrop; возврат ложь
					всё
				|TimeWait:
					p.timer[MSL2] := 2 * MSL; GotoDropAfterAck; возврат ложь
				иначе (* skip *)
			всё (* CASE *)
		всё;
		возврат истина
	кон ProcessAck;


	проц GotoPresent;
	перем
		buf: Network.Buffer;

	нач
		buf := p.rcvreasm;	(* first buffer on reassembly list *)
		если (p.state >= Established) и (buf # НУЛЬ) и (buf.int = p.rcvnxt) то
			нцДо
				умень(p.rcvspace, buf.len);
				увел(p.rcvnxt, buf.len);
				pf := buf.set * {Fin};
				buf := buf.next;
			кцПри (buf = НУЛЬ) или (buf.int # p.rcvnxt);
			p.rcvreasm := buf;
		иначе
			исключиИзМнваНаБитах(pf, Fin);
		всё;
	кон GotoPresent;


	проц Reasm;
	перем
		pos, last: Network.Buffer;
		lap: цел32;

	нач
		buffer.set := pf;
		buffer.int := seq;
		увел(buffer.ofs, hdrLen + discard);
		buffer.len := tlen;

		если p.rcvhead = НУЛЬ то
			(* insert into empty queue *)
			buffer.next := НУЛЬ;
			buffer.prev := НУЛЬ;
			p.rcvhead := buffer;
			p.rcvreasm := buffer;
			p.rcvtail := buffer;
			bufferQueued := истина;
		иначе
			(* go to insert position, insert in front of pos and after last. *)
			pos := p.rcvreasm;
			если pos = НУЛЬ то
				(* no reasm part of queue *)
				last := p.rcvtail;
			иначе
				last := pos.prev;
				нцПока (pos # НУЛЬ) и (pos.int < seq) делай
					last := pos;
					pos := pos.next;
				кц;
			всё;
			если last # НУЛЬ то
				(* check for overlap with previous buffer *)
				lap := (last.int + last.len) - seq;
				если lap > 0 то
					(* some overlap - drop new data *)
					если lap >= tlen то
						(* complete duplicate *)
						Error(DataDuplicatePrevComplete, tlen, p);
						возврат;
					иначе
						(* partial duplicate *)
						Error(DataDuplicatePrevPartial, lap, p);
						увел(buffer.ofs, lap);
						умень(buffer.len, lap);
						умень(tlen, lap);
						увел(seq, lap);
						buffer.int := seq;
					всё;
				всё;
			всё;
			если pos # НУЛЬ то
				(* check for overlap with next buffer *)
				lap := (seq + tlen) - pos.int;
				если lap > 0 то
					(* some overlap - drop new data *)
					если lap >= tlen то
						(* complete duplicate *)
						Error(DataDuplicateNextComplete, lap, p);
						возврат;
					иначе
						(* partial duplicate *)
						Error(DataDuplicateNextPartial, lap, p);
						умень(tlen, lap);
						умень(buffer.len, lap);
					всё;
				всё;
			всё;
			Machine.AtomicInc(NTCPRcvPackSlow);
			Machine.AtomicAdd(NTCPRcvByteSlow, tlen);
			(* insert buffer into correct position in queue *)
			если pos = НУЛЬ то
				(* insert at the end of the queue *)
				утв(last = p.rcvtail);
				buffer.next := НУЛЬ;
				buffer.prev := last;
				buffer.prev.next := buffer;
				p.rcvtail := buffer;
				если p.rcvreasm = НУЛЬ то
					p.rcvreasm := buffer;
				всё;
			аесли last = НУЛЬ то
				(* insert at the beginning of the queue *)
				утв((pos = p.rcvhead) и (pos = p.rcvreasm));
				buffer.prev := НУЛЬ;
				buffer.next := pos;
				buffer.next.prev := buffer;
				p.rcvhead := buffer;
				p.rcvreasm := buffer;
			иначе
				(* insert somewhere in the middle *)
				утв((last.next = pos) и (pos.prev = last));
				last.next := buffer;
				buffer.prev := last;
				pos.prev := buffer;
				buffer.next := pos;
				если buffer.next = p.rcvreasm то
					p.rcvreasm := buffer;
				всё;
			всё;
			bufferQueued := истина;
		всё;
		GotoPresent;
	кон Reasm;

	проц DoData;
	нач
		если ((tlen # 0) или (Fin в pf)) и (p.state < TimeWait) то
			если (seq = p.rcvnxt) и (p.rcvreasm = НУЛЬ) и (p.state = Established) то
				включиВоМнвоНаБитах(p.flags, DelAck)
			иначе
				включиВоМнвоНаБитах(p.flags, AckNow)	(* cf. fig. 27.15 *)
			всё;
			Reasm();
		иначе
			исключиИзМнваНаБитах(pf, Fin)
		всё;
		если Fin в pf то
			если p.state < TimeWait то
				(*SoCantRcvMore(p);*)
				включиВоМнвоНаБитах(p.flags, AckNow); увел(p.rcvnxt)
			всё;
			просей p.state из
				SynReceived, Established:
					p.state := CloseWait
				|FinWait1:
					p.state := Closing
				|FinWait2:
					p.state := TimeWait; CancelTimers(p); p.timer[MSL2] := 2 * MSL;
					(*SoIsDisconnected(p)*)
				|TimeWait:
					p.timer[MSL2] := 2 * MSL
				иначе (* skip *)
			всё (* CASE *)
		всё;
		если TraceProtocol то
			TraceTCP("Input", p, buffer.data, empty^, buffer.ofs+hdrLen, 0, 0)
		всё;
		если (NeedOutput в lf) или (AckNow в p.flags) то Output(p) всё
	кон DoData;

	проц Step6(): булево;
	нач
		если (Ack в pf) и ((p.sndwl1 - seq < 0) или ((p.sndwl1 = seq) и ((p.sndwl2 - ack < 0) или
				((p.sndwl2 = ack) и (win > p.sndwnd))))) то
			если (tlen = 0) и (p.sndwl2 = ack) и (win > p.sndwnd) то Machine.AtomicInc(NTCPRcvWinUpd) всё;
			p.sndwnd := win; p.sndwl1 := seq; p.sndwl2 := ack;
			если p.sndwnd > p.maxsndwnd то p.maxsndwnd := p.sndwnd всё;
			включиВоМнвоНаБитах(lf, NeedOutput)
		всё;
		если (Urg в pf) и (urp # 0) и (p.state < TimeWait) то
			Error(NIYOutOfBand, 0, p); (* out-of-band data NIY *)
			(*IF urp + p.rcvcc > sbmax THEN*)
				urp := 0; исключиИзМнваНаБитах(pf, Urg); DoData; возврат ложь;
			(*END;*)
		иначе
			если p.rcvnxt - p.rcvup > 0 то p.rcvup := p.rcvnxt всё
		всё;
		возврат истина
	кон Step6;


нач
	lf := {};
	discard := 0; (* data from 0 to discard has to be thrown away. *)
	tlen := buffer.len-hdrLen; (* length of user data. *)
	optLen := hdrLen - MinTCPHdrLen; (* length of options *)

	pf := НИЗКОУР.подмениТипЗначения(мнвоНаБитахМЗ, устарПреобразуйКБолееШирокомуЦел(кодСимв8(buffer.data[buffer.ofs+13])));

	если optLen > 0 то (* TCP options present *)
		Machine.AtomicInc(NTCPRcvOptions);
		если ProcOptions то
			если DoRFC1323 то
				(* quick processing of timestamp option, fig. 28.4 *)
				если ((optLen = 12) или ((optLen > 12) и (buffer.data[buffer.ofs+MinTCPHdrLen+12] = 0X))) и ~(Syn в pf) и
						(buffer.data[buffer.ofs+MinTCPHdrLen] = 1X) и
						(buffer.data[buffer.ofs+MinTCPHdrLen+1] = 1X) и
						(buffer.data[buffer.ofs+MinTCPHdrLen+2] = 8X) и
						(buffer.data[buffer.ofs+MinTCPHdrLen+3] = 0AX) то
					включиВоМнвоНаБитах(lf, TSPresent);
					tsval := Network.GetNet4(buffer.data, buffer.ofs+MinTCPHdrLen+4);
					tsecr := Network.GetNet4(buffer.data, buffer.ofs+MinTCPHdrLen+8);
				иначе
					включиВоМнвоНаБитах(lf, Options);
				всё;
			иначе
				включиВоМнвоНаБитах(lf, Options);
			всё
		всё
	всё;

	(* initialize variables needed for GotoDropReset *)
	seq := Network.GetNet4(buffer.data, buffer.ofs+4);
	ack := Network.GetNet4(buffer.data, buffer.ofs+8);

(*	pf := SYSTEM.VAL(SET, LONG(ORD(buffer.data[buffer.ofs+13])));*)
	если p = nilpcb то
		если packetDumpListener # НУЛЬ то packetDumpListener(p.fip, buffer) всё;
		GotoDropReset; возврат
	всё;
	если p.state <= Closed то GotoDrop; возврат всё;

	если ~(Network.ChecksumTCP в buffer.calcChecksum) то
		(* calculate checksum *)
		(* set pseudo header *)
		reassembledLength := 0;
		fragmentBuffer := buffer;
		нцПока fragmentBuffer # НУЛЬ делай
			увел(reassembledLength, fragmentBuffer.len);
			fragmentBuffer := fragmentBuffer.nextFragment;
		кц;

		pseudoHdrLen := p.int.WritePseudoHeader(pseudoHdr, p.fip, p.int.localAdr, IPTypeTCP, reassembledLength);
		sum := IP.Checksum1(pseudoHdr, 0, pseudoHdrLen, 0);

		если buffer.nextFragment # НУЛЬ то
			(* fragmented packets *)
			fragmentBuffer := buffer;
			нцПока fragmentBuffer.nextFragment # НУЛЬ делай
				sum := IP.Checksum1(fragmentBuffer.data, fragmentBuffer.ofs, fragmentBuffer.len, sum);
				fragmentBuffer := fragmentBuffer.nextFragment;
			кц;
			sum := IP.Checksum2(fragmentBuffer.data, fragmentBuffer.ofs, fragmentBuffer.len, sum);
		иначе
			sum := IP.Checksum2(buffer.data, buffer.ofs, buffer.len, sum);
		всё;

		если sum # 0 то
			Error(BadChecksum, 0, p);
			GotoDrop;
			возврат;
		всё;
	всё;

	win := Network.GetNet2(buffer.data, buffer.ofs+14);
	urp := Network.GetNet2(buffer.data, buffer.ofs+18);

	если ~(Syn в pf) то win := арифмСдвиг(win, p.sndscale) всё;

	p.idle := 0; p.timer[Keep] := KeepIdle;
	если ProcOptions и (Options в lf) и (p.state # Listen) то ProcessOptions всё;

	(* header prediction (fig. 28.11-13) *)
	если (p.state = Established) и (pf * {Syn,Fin,Rst,Urg,Ack} = {Ack}) и
			(~DoRFC1323 или ~(TSPresent в lf) или (tsval - p.tsrecent >= 0)) и (seq = p.rcvnxt) и
			(win # 0) и (win = p.sndwnd) и (p.sndnxt = p.sndmax) то
		если DoRFC1323 и (TSPresent в lf) и (seq - p.lastacksent <= 0) то
			p.tsrecentage := timeSource.now;
			p.tsrecent := tsval; (* see p. 937 & fig. 26.20 *)
		всё;
		если tlen = 0 то
			если (ack - p.snduna > 0) и (ack - p.sndmax <= 0) и (p.sndcwnd >= p.sndwnd) и (p.dupacks < ReXmtThresh) то
				(* p.dupacks < ReXmtThres fix from "Performance Problems in 4.4BSD TCP" *)
				Machine.AtomicInc(NTCPPredAck);
				если DoRFC1323 и (TSPresent в lf) то XmitTimer(p, timeSource.now - tsecr + 1)
				аесли (p.rtt # 0) и (ack - p.rtseq > 0) то XmitTimer(p, p.rtt)
				иначе (* skip *)
				всё;
				acked := ack - p.snduna;
				Machine.AtomicInc(NTCPAckPack); Machine.AtomicAdd(NTCPAckByte, acked);
				SbDrop(p, acked);
				p.snduna := ack;
				если ack = p.sndmax то p.timer[ReXmt] := 0
				аесли p.timer[Persist] = 0 то
					p.timer[ReXmt] := p.rxtcur;
				иначе (* skip *)
				всё;
				(*IF Notify IN p.flags THEN SoWakeup(p) END;*)
				если p.sndcc # 0 то Output(p) всё;
				возврат
			всё
		аесли (ack = p.snduna) и (p.rcvreasm = НУЛЬ) и (tlen <= p.rcvspace) то
			Machine.AtomicInc(NTCPPredData);
			Machine.AtomicInc(NTCPRcvPackFast);
			Machine.AtomicAdd(NTCPRcvByteFast, tlen);
			(* can assume no overlap with last or next buffers *)
			Reasm; (* queue the buffer directly *)
			(*SoWakeup(p);*)
			включиВоМнвоНаБитах(p.flags, DelAck);
			возврат
		иначе
			(* skip - continue to slow path *)
		всё
	всё;

	(* slow path *)
	p.rcvwnd := матМаксимум(матМаксимум(p.rcvspace, 0), p.rcvadv - p.rcvnxt);
	просей p.state из
		Listen:
			если ProcessListen() то Trim1 иначе возврат всё
		|SynSent:
			если ProcessSynSent() то Trim1 иначе возврат всё
		иначе
			если DoRFC1323 и ~Paws() то возврат всё;
			если (p.rcvnxt - seq > 0) и ~Trim2(p.rcvnxt - seq) то возврат всё;
			(*IF (Gone IN p.flags) & (p.state > CloseWait) & (tlen # 0) THEN
				CloseConnection(p); Machine.AtomicInc(NTCPRcvAfterClose); GotoDropReset; RETURN
			END;*)
			если ((seq + tlen) - (p.rcvnxt + p.rcvwnd) > 0) и ~Trim3((seq + tlen) - (p.rcvnxt + p.rcvwnd)) то возврат всё;
			если DoRFC1323 и (TSPresent в lf) и (seq - p.lastacksent <= 0) то RecordTS всё;
			если (Rst в pf) и ~ProcessRst() то возврат всё;
			если Syn в pf то Drop(p, ConnectionReset); GotoDropReset; возврат всё;
			если ~(Ack в pf) то GotoDrop; возврат всё;
			если ~ProcessAck() то возврат всё;
	всё; (* CASE *)
	если ~Step6() то возврат всё;
	DoData;
кон ProcessInput;


(* Initialize a new Connection. *)
проц InitConnection(p: Connection);
перем
	buf: SendBuffer;

нач
	если ~NewZeros то	(* clear all fields *)
		CancelTimers(p);
		p.fip := IP.NilAdr; p.fport := NilPort; p.rxtshift := 0; p.dupacks := 0;
		p.snduna := 0; p.sndnxt := 0; p.sndup := 0; p.sndwl1 := 0; p.sndwl2 := 0; p.iss := 0;
		p.sndwnd := 0; p.rcvwnd := 0; p.rcvnxt := 0; p.rcvup := 0; p.irs := 0; p.rcvadv := 0;
		p.sndmax := 0; p.idle := 0; p.rtt := 0; p.rtseq := 0; p.maxsndwnd := 0;
		p.sndscale := 0; p.rcvscale := 0; p.requestrscale := 0; p.requestedsscale := 0;
		p.tsrecent := 0; p.tsrecentage := 0; p.lastacksent := 0; p.error := 0; p.acceptable := 0;
		p.sndcc := 0; p.poolNext := НУЛЬ; p.parent := НУЛЬ; p.acceptNext := НУЛЬ
	всё;
		(* initialize fields *)
	p.maxseg := MSS; p.state := Closed;
	если DoRFC1323 то p.flags := {ReqScale,ReqTstmp} иначе p.flags := {} всё;
	p.srtt := SRTTBase; p.rttvar := SRTTDflt * 4; p.rttmin := MinTime;
	RangeSet(p.rxtcur, (SRTTBase DIV 4 + SRTTDflt * 4) DIV 2, MinTime, ReXmtMax);
	p.sndcwnd := арифмСдвиг(MaxWin, MaxWinShift);
	p.sndssthresh := арифмСдвиг(MaxWin, MaxWinShift);
	p.sndspace := MaxSendSpace;
	p.rcvspace := MaxRecvSpace;
	p.rcvhiwat := MaxRecvSpace;
	нцПока (p.requestrscale < MaxWinShift) и (арифмСдвиг(MaxWin, p.requestrscale) < p.rcvhiwat) делай
		увел(p.requestrscale)
	кц;
	Machine.AtomicInc(NTCPNewBufs);
		(* allocate send buffer *)
	нов(buf); нов(buf.data, MSS * SegsPerBuf);
	если ~NewZeros то buf.ofs := 0; buf.len := 0; всё;
	buf.next := buf; p.sndhead := buf; p.sndtail := buf;
	нов(p.sndcontig, MSS);
	(* init receive buffer *)
	p.rcvhead := НУЛЬ;
кон InitConnection;


(* Move connection to next state in close process. *)
проц UsrClosed(p: Connection);
нач
	просей p.state из
		Closed, Listen, SynSent:
			p.state := Closed; CloseConnection(p)
		|SynReceived, Established:
			p.state := FinWait1
		|CloseWait:
			p.state := LastAck
		иначе (* skip *)
	всё;
	(*IF p.state >= FinWait2 THEN SoIsDisconnected(p) END*)
кон UsrClosed;


(* If t is not zero, decrement it. Return true if it has reached 0, false otherwise. *)
проц Expired(перем t: цел32): булево;
нач
	если t # 0 то умень(t); возврат t = 0 иначе возврат ложь всё
кон Expired;

проц GetID(): цел32;
перем id, time, date: цел32;
нач
	Clock.Get(time, date);
	id := НИЗКОУР.подмениТипЗначения(цел32, НИЗКОУР.подмениТипЗначения(мнвоНаБитахМЗ, time) / НИЗКОУР.подмениТипЗначения(мнвоНаБитахМЗ, date));
	возврат id;
кон GetID;


(** Aos command - display all errors *)
проц DisplayErrors*(context : Commands.Context);
перем i: цел32;
нач
	нцДля i := 1 до NumErrors-1 делай
		если NTCPError[i] # 0 то
			context.out.пСтроку8("TCP: Error "); context.out.пЦел64(i+MinError, 1);
			context.out.пСтроку8(" "); context.out.пЦел64(NTCPError[i], 1); context.out.пВК_ПС;
		всё;
	кц;
кон DisplayErrors;


(** Aos command - discard and finalize all connections *)
проц DiscardAll*;
нач
	pool.Finalize();
кон DiscardAll;


(** Temporary trace procedure. *)
проц ToggleTrace*;
нач
	trace := ~trace;
	ЛогЯдра.ЗахватВЕдиноличноеПользование; ЛогЯдра.пСтроку8("TCP trace ");
	если trace то ЛогЯдра.пСтроку8("on") иначе ЛогЯдра.пСтроку8("off") всё;
	ЛогЯдра.ОсвобождениеИзЕдиноличногоПользования
кон ToggleTrace;

проц Init;
перем i: цел32;
нач

	нцДля i := 0 до MaxRxtShift делай
		если i < 6 то backoff[i] := арифмСдвиг(1, i) иначе backoff[i] := 64 всё;
		увел(totbackoff, backoff[i])
	кц;

(*	maxdiff := 0;*)
(*	backoff[0]:=1;
	backoff[1]:=1;
	backoff[2]:=2;
	backoff[3]:=3;
	backoff[4]:=5;
	backoff[5]:=10;
	backoff[6]:=18;
	backoff[7]:=30;
	backoff[8]:=60;
	backoff[9]:=120;
	backoff[10]:=240;
	backoff[11]:=240;
	backoff[12]:=240;*)
	утв(MaxRxtShift=12);
	totbackoff := 0;
	нцДля i:=0 до MaxRxtShift делай
		увел(totbackoff, backoff[i]);
	кц;

	(* Flags used when sending segments in tcp_output. Basic flags {Rst, Ack, Syn, Fin} are totally determined by state, with the proviso that Fin is sent only if all data queued for output is included in the segment. The {Psh,Urg} flags are set as necessary.
	*)
	outflags[Closed] := {Rst,Ack}; outflags[Listen] := {}; outflags[SynSent] := {Syn};
	outflags[SynReceived] := {Syn,Ack}; outflags[Established] := {Ack};
	outflags[CloseWait] := {Ack}; outflags[FinWait1] := {Fin,Ack}; outflags[Closing] := {Fin,Ack};
	outflags[LastAck] := {Fin,Ack}; outflags[FinWait2] := {Ack}; outflags[TimeWait] := {Ack};

	(* other globals *)
	нов(nilpcb);
	nilpcb.lport := -1; (* can never match *)
	nilpcb.int := НУЛЬ;
	если ~NewZeros то nilpcb.rcvspace := 0; nilpcb.rcvscale := 0 всё;	(* for Respond *)
	lastpcb := nilpcb;
	нов(empty, 1);
	нов(pool);
	нов(issSource, GetID());
	нов(timeSource)
кон Init;

проц Cleanup;
нач
	IP.RemoveReceiver(IPTypeTCP);
	pool.Finalize();
	timeSource.Finalize();
кон Cleanup;

нач
	утв(~DoRFC1323 или (ProcOptions и GenOptions)); (* constants should make sense *)
	утв(НИЗКОУР.подмениТипЗначения(цел32, {Fin}) = 1);	(* bit order for flags cast in Input, Output and Respond *)
	утв((TimerPeriod остОтДеленияНа FastPeriod = 0) и (TimerPeriod остОтДеленияНа SlowPeriod = 0));
	trace := ложь;
	Init();
	IP.InstallReceiver(IPTypeTCP, Input);
	Modules.InstallTermHandler(Cleanup);
кон TCP.

(*
History:
08.11.2003	mvt	Changed for new interface of IP and Network.
08.11.2003	mvt	Fixed array position error in ProcessOptions().
09.11.2003	mvt	Min()/Max() functions now in inline assembler.
10.11.2003	mvt	Added InterfaceClosed detection in Connection.SlowTimer().
10.11.2003	mvt	Added correct finalization of Connection, ConnectionPool, Timer and the module itself.
11.11.2003	mvt	Completely changed receive buffer queueing, integrated Network buffers directly.
12.11.2003	mvt	Completely changed ConnectionPool, now working with a hash table.
12.12.2003	mvt	Bugfixed entire module by comparing it with the book.
12.12.2003	mvt	Completed header prediction code according to the book.
12.12.2003	mvt	Added support for RFC1323 (timestamp, PAWS).
12.12.2003	mvt	Added support for window scaling (for windows >64KB).
14.02.2004	mvt	Fixed reassembly bug in Reasm().
14.02.2004	mvt	Fixed MSS option sending bug in Output().
28.02.2004	mvt	Fixed early Fin sending bug in Output().
04.03.2004	rp	  Fixed & (p.dupacks < ReXmtThresh) in Step6 according to ftp://ftp.cs.arizona.edu/xkernel/papers/tcp_problems.ps
04.03.2004	rp 	 Fixed XmitTimer according to  ftp://ftp.cs.arizona.edu/xkernel/papers/tcp_problems.ps
02.05.2005	eb	Supports IPv6 (WritePseudoHdr) and fragmented IP packets.
*)

(*
 * Copyright (c) 1982, 1986, 1993
 *      The Regents of the University of California.  All rights reserved.
 *
 * Redistribution and use in source and binary forms, with or without
 * modification, are permitted provided that the following conditions
 * are met:
 * 1. Redistributions of source code must retain the above copyright
 *    notice, this list of conditions and the following disclaimer.
 * 2. Redistributions in binary form must reproduce the above copyright
 *    notice, this list of conditions and the following disclaimer in the
 *    documentation and/or other materials provided with the distribution.
 * 3. All advertising materials mentioning features or use of this software
 *    must display the following acknowledgement:
 *      This product includes software developed by the University of
 *      California, Berkeley and its contributors.
 * 4. Neither the name of the University nor the names of its contributors
 *    may be used to endorse or promote products derived from this software
 *    without specific prior written permission.
 *
 * THIS SOFTWARE IS PROVIDED BY THE REGENTS AND CONTRIBUTORS ``AS IS'' AND
 * ANY EXPRESS OR IMPLIED WARRANTIES, INCLUDING, BUT NOT LIMITED TO, THE
 * IMPLIED WARRANTIES OF MERCHANTABILITY AND FITNESS FOR A PARTICULAR PURPOSE
 * ARE DISCLAIMED.  IN NO EVENT SHALL THE REGENTS OR CONTRIBUTORS BE LIABLE
 * FOR ANY DIRECT, INDIRECT, INCIDENTAL, SPECIAL, EXEMPLARY, OR CONSEQUENTIAL
 * DAMAGES (INCLUDING, BUT NOT LIMITED TO, PROCUREMENT OF SUBSTITUTE GOODS
 * OR SERVICES; LOSS OF USE, DATA, OR PROFITS; OR BUSINESS INTERRUPTION)
 * HOWEVER CAUSED AND ON ANY THEORY OF LIABILITY, WHETHER IN CONTRACT, STRICT
 * LIABILITY, OR TORT (INCLUDING NEGLIGENCE OR OTHERWISE) ARISING IN ANY WAY
 * OUT OF THE USE OF THIS SOFTWARE, EVEN IF ADVISED OF THE POSSIBILITY OF
 * SUCH DAMAGE.
 *)

(* pjm:

Gigabit:
Alteon AceNIC / 3Com 3C985 / NetGear GA620 Gigabit Ethernet Adapter
http://sanjose.alteon.com/open.shtml

Linux Driver
http://home.cern.ch/~jes/gige/acenic.html

Packet Engines Hamachi Driver
http://www.nscl.msu.edu/~kasten/perf/hamachi/

A Connection has to react to external and internal events
1. User calls (external)
	Connection.Open
	Connection.Send
	Connection.Receive
	Connection.Available
	Connection.Close
2. Timer.HandleTimeout (internal)
	Connection.DelayedAck
	Connection.SlowTimer
3. Packet arrival (external)
	Connection.Input (from Input)

The Timer reacts to external and internal events
1. Timer.HandleTimeout (external)
2. Timer.GetISS (internal - only called from Connection.Open, which is only called externally)

The ConnectionPool reacts to external and internal events
1. Lookup (internal)
2. Enumerate (external)
3. Add (internal)
4. Remove (internal)
*)
