модуль TLS;	(** AUTHOR "F.N."; PURPOSE "RFC 2246: Transport Layer Security v1.0"; *)
(*
	05.2014 -- Timothée Martiel -- Implemented TLS client connection.
*)
использует
	TCP, Потоки, Files, IP, ЛогЯдра , Pipes, Kernel, Clock, BIT, Dates,
	Ciphers := CryptoCiphers, Utils := CryptoUtils, HMAC := CryptoHMAC, CSPRNG := CryptoCSPRNG,
	CryptoMD5, CryptoSHA1, CryptoRSA, CryptoBigNumbers, PKCS1, X509;

конст
	(* debugging *)
	Trace = истина;

	(** tlsStates *)
	ServerHandshake* = 12;
	ClientHandshake* = 13;

	(* client and server common handshake states *)
	NotAValidHandshakeState = 100; HandshakeFinished = 101; GenerateChangeCipherSpec = 102; AwaitFinished = 103;

	(* server-side handshake states *)
	AwaitClientHello = 201; GenerateServerHello = 202; GenerateServerHelloDone = 203; AwaitClientKeyExchange = 204;
	AwaitChangeSpec = 205; GenerateHelloWithResumption = 210;
	AwaitChangeSpecWithResumption = 211; AwaitFinishedWithResumption = 212;

	(* client-side handshake states *)
	GenerateClientHello = 300; AwaitServerHello = 301; AwaitCertificate = 302; AwaitServerHelloDone = 303; GenerateClientKeyExchange = 304;

	(** available cipher suites *)
	TlsRsaWithNullMd5* = 0001H; TlsRsaWithNullSha* = 0002H; TlsRsaWithRc4128Md5* = 0004H;
	TlsRsaWithRc4128Sha* = 0005H; TlsRsaWithIdeaCbcSha* = 0007H; TlsRsaWithDesCbcSha* = 0009H;
	TlsRsaWith3DesEdeCbcSha* = 000AH;
	(*	not supported
	TlsDhDssWithDesCbcSha* = 000CH; TlsDhDssWith3DesEdeCbcSha* = 000DH;
	TlsDhRsaWithDesCbcSha* = 000FH; TlsDhRsaWith3DesEdeCbcSha* = 0010H;
	TlsDhAnonWithRc4128Md5* = 0018H; TlsDhAnonWithDesCbcSha* = 001AH; TlsDhAnonWith3DesEdeCbcSha* = 001BH;
	*)
	(* TLS 1.2 cipher suites, not implemented yet *)
	TlsRsaWithAes128CbcSha* = 002FH;
	(* not supported
	TlsDhDssWithAes128CbcSha* = 0030H; TlsDhRsaWithAes128CbcSha* = 0031H;
	TlsDheDssWithAes128CbcSha* = 0032H; TlsDheRsaWithAes128CbcSha* = 0033H;
	TlsDhAnonWithAes128CbcSha* = 0034H;
	*)
	TlsRsaWithAes256CbcSha* = 0035H;
	(* not supported
	TlsDhDssWithAes256CbcSha* = 0036H; TlsDhRsaWithAes256CbcSha* = 0037H;
	TlsDheDssWithAes256CbcSha* = 0038H; TlsDheRsaWithAes256CbcSha* = 0039H;
	TlsDhAnonWithAes256CbcSha* = 003AH;
	*)

	(** record layer content type *)
	ChangeCipherSpec* = 20; Alert* = 21; Handshake* = 22; ApplicationData* = 23; SSLv2ClientHello* = 128;

	(** handshake message types *)
	HelloRequest* = 0; ClientHello* = 1; ServerHello* = 2; Certificate* = 11;
	ServerKeyExchange* = 12; CertificateRequest* = 13; ServerHelloDone* = 14; CertificateVerify* = 15;
	ClientKeyExchange* = 16; Finished* = 20;
	V2ClientHello* = 30;

	(* alert levels *)
	Warning = 1; Fatal = 2;

	(* alert types *)
	NoError = -1;
	CloseNotify = 0; UnexpectedMessage = 10; BadRecordMac = 20; DecryptionFailed = 21;
	RecordOverflow = 22; DecompressionFailure = 30; HandshakeFailure = 40; NoCertificate = 41; (* only SSL 3.0 *)
	BadCertificate = 42; UnsupportedCertificate = 43; CertificateRevoked = 44; CertificateExpired = 45;
	CertificateUnknown = 46; IllegalParameter = 47; UnknownCA = 48; AccessDenied = 49;
	DecodeError = 50; DecryptError = 51; ExportRestriction = 60; ProtocolVersion = 70;
	InsufficientSecurity = 71; InternalError = 80; UserCancelled = 90; NoRenegotiation = 100; UnsupportedExtension=110;

	(** error numbers *)
	Ok* = 0; TLSHandshakeAborted* = 2;

	Suites* = 20;
	Buflen = 18500;
	MaxPHashKernelLogput = 1024;
	MaxKeyBlock = 144;
	MaxPHashSeed = 128;
	MaxPlaintextLength = 16384; 	(* 2^14 *)
	MaxCompressedLength = 17408;	(* 2^14 + 2^10 *)
	MaxCiphertextLength = 18432;	(* 2^14 + 2^11 *)
	SessionIdLength = 16;
	SessionHashtableSize = 1023;	(* 256 * 456 *)
	SessionCleanUpInterval = 60;	(* seconds *)
	DefaultSessionLifetime = 3600; (* seconds *)

	DefaultSuitesNbr = 3;

тип
	SecurityParameters = окласс
		перем
			cipherSuite, cipherKeySize: цел32;	(* size in bytes *)
			clientRandom, serverRandom: массив 32 из симв8;
			PRFAlgorithm: массив 32 из симв8;
	кон SecurityParameters;

	ConnectionState = окласс
		перем
			cipher: Ciphers.Cipher;
			mac: HMAC.HMac;
			recordSeq: DoubleLong;
			cipherKey: массив 32 из симв8;
			iv: массив 16 из симв8;
			macSecret: массив 20 из симв8;

		проц & Init*;
		нач
			нов( recordSeq)
		кон Init;
	кон ConnectionState;

	(*
	DoubleLong = OBJECT	(* 64-bit number, the initial value is -1 *)
		VAR num -: ARRAY 2 OF SIGNED32;	(* 64 bits, msb: num[ 0 ] *)

		PROCEDURE & Init*;
		BEGIN
			num[ 0 ] := 0;	num[ 1 ] := -1
		END Init;

		PROCEDURE Inc;
		BEGIN
			ASSERT( ( num[ 0 ] < MAX( SIGNED32 ) ) OR ( num[ 1 ] < MAX( SIGNED32 ) ) );
			IF num[ 1 ] < MAX( SIGNED32 ) THEN
				INC( num[ 1 ] );
				RETURN
			ELSE
				num[ 1 ] := 0;
				INC( num[ 0 ] )
			END
		END Inc;

		(* write the current value of num in big-endian to data starting at ofs *)
		PROCEDURE GetBytes( VAR data: ARRAY OF CHAR; ofs: SIZE );
		BEGIN
			ASSERT( ofs < LEN( data ) - 7 );
			data[ ofs ] := CHR( num[ 0 ] DIV ( 256*256*256 ) );
			data[ ofs + 1 ] := CHR( num[ 0 ] DIV ( 256*256 ) );
			data[ ofs + 2 ] := CHR( num[ 0 ] DIV 256 );
			data[ ofs + 3 ] := CHR( num[ 0 ] );
			data[ ofs + 4 ] := CHR( num[ 1 ] DIV ( 256*256*256 ) );
			data[ ofs + 5 ] := CHR( num[ 1 ] DIV ( 256*256 ) );
			data[ ofs + 6 ] := CHR( num[ 1 ] DIV 256 );
			data[ ofs + 7 ] := CHR( num[ 1 ] )
		END GetBytes;
	END DoubleLong;
	*)  (*! contains a large gap between 80000000 and 100000000. g.f.	*)


	DoubleLong = окласс	(* 64-bit counter, the initial value is -1 *)
		перем
			numH, numL: цел32;

		проц &Init;
		нач
			numH := -1; numL := -1
		кон Init;

		проц Inc;
		нач
			если numL # -1 то  увел( numL )
			аесли numH = -1 то  numH := 0;  numL := 0
			иначе  увел( numH );  numL := 0
			всё
		кон Inc;

		(* write the current value of num in big-endian to buf starting at ofs *)
		проц GetBytes( перем buf: массив из симв8;  ofs: размерМЗ );
		перем p: размерМЗ; val: цел32;
		нач
			p := ofs + 7;  val := numL;
			нцДо
				buf[p] := симв8ИзКода( val остОтДеленияНа 256 );
				если p = ofs + 4 то  val := numH  иначе  val := val DIV 256  всё;
				умень( p )
			кцПри p < ofs;
		кон GetBytes;

	кон DoubleLong;


	(* data expansion function as defined in rfc2246, section 5 *)
	PHash = окласс
		перем hMac: HMAC.HMac;

		(* initialization of a PHash object using h as internal hashing-function *)
		проц & Init*( hashname: массив из симв8 );
		нач
			нов( hMac, hashname );
		кон Init;

		проц Expand( перем secret, seed, outbuf: массив из симв8; secretLen, seedLen, outLen: размерМЗ );
			перем
				a: массив 2 * MaxPHashSeed из симв8;
				i, iterations: размерМЗ;
		нач
			утв( seedLen <= ( MaxPHashSeed  ) );
			утв( outLen <= ( MaxPHashKernelLogput ) );
			hMac.Initialize( secret, secretLen );
			hMac.Update( seed, 0, seedLen );
			hMac.GetMac( a, 0 );	(* a( 1 ) *)
					нцДля i := 0 до seedLen-1 делай		a[ hMac.size + i ] := seed[ i ]		кц;	(* concatenate seed to a( 1 ) *)
			iterations := ( outLen DIV hMac.size ) + 1;
			(* iteration *)
			нцДля i := 0 до iterations - 1 делай
				hMac.Initialize( secret, secretLen );
				hMac.Update( a, 0, hMac.size+seedLen );
				hMac.GetMac( outbuf, i*hMac.size );
				(* increment a *)
				hMac.Initialize( secret, secretLen );
				hMac.Update( a, 0, hMac.size );
				hMac.GetMac( a, 0 )
			кц
		кон Expand;
	кон PHash;

	(* pseudorandom stream as defined in rfc2246, section 5 *)
	PRF = окласс
		перем
			pMD5, pSHA: PHash; (* Used for "SHA1 XOR MD5", i.e. <= v1.1 *)
			pHash: PHash; (* Used in > v1.1 *)

		проц & Init* (конст algorithm: массив из симв8);
		нач
			если algorithm = "SHA1 XOR MD5" то
				нов( pMD5, "CryptoMD5" );	нов( pSHA, "CryptoSHA1" )
			иначе
				нов( pHash, algorithm)
			всё;
		кон Init;

		проц GetBytes( перем secret, seed, outbuf: массив из симв8; конст label: массив из симв8; secretLen, seedLen, outLen: размерМЗ );
			перем
				md5Result, shaResult: массив MaxKeyBlock из симв8;
				pSeed, s1, s2: массив 140 из симв8;
				i, j, l: размерМЗ;
		нач
			если pHash = НУЛЬ то (* Use SHA1 XOR MD5 algo *)
				(* pseed := label::seed *)
				l :=  длинаМассива( label ) - 1;
				нцДля i := 0 до l-1 делай	pSeed[ i ] := label[ i ]	кц;
				нцДля i := 0 до seedLen-1 делай	pSeed[ l + i ] := seed[ i ]	кц;

				j := secretLen DIV 2 + secretLen остОтДеленияНа 2;	(* j := ceil( secretLen / 2 ) *)
				нцДля i := 0 до j-1 делай			s1[ i ] := secret[ i ]			кц;
				нцДля i := secretLen-j до secretLen-1 делай		s2[ i+j-secretLen ] := secret[ i ]		кц;

				pMD5.Expand( s1, pSeed, md5Result, j, seedLen+l, outLen );
				pSHA.Expand( s2, pSeed, shaResult, j, seedLen+l, outLen );

				нцДля i := 0 до outLen-1 делай	outbuf[ i ] := BIT.CXOR( md5Result[ i ], shaResult[ i ] )	кц
			иначе (* Use direct algo *)
				pHash.Expand( secret, seed, shaResult, secretLen, seedLen, outLen );
				(* Copy to truncate *)
				нцДля i := 0 до outLen - 1 делай outbuf[i] := shaResult[i] кц
			всё
		кон  GetBytes;
	кон PRF;

	Policy* = окласс
		перем
			cipherSuites -: массив Suites из цел32;
			nofCipherSuites -: размерМЗ;	(** number of enabled cipher-suites *)
			sessionResumptionEnabled -: булево;
			sessionLifetime -: цел32; (** seconds *)
			version-: массив 2 из симв8;

		проц &Init*;
		нач
			(* set default values *)
			sessionResumptionEnabled := истина;
			sessionLifetime := DefaultSessionLifetime;
		кон Init;

		(** set n negotiable cipher suites in order of preference*)
		проц SetCipherSuites*( перем s: массив из цел32; n: размерМЗ );
			перем i: размерМЗ;
		нач
			утв( n <= Suites );
			нцДля i := 0 до n-1 делай cipherSuites[ i ] := s[ i ] кц;
			nofCipherSuites := n
		кон SetCipherSuites;

		(** Returns TRUE if the cipher-suite s is supported by this policy *)
		проц IsSupported*( s: цел32 ): булево;
			перем i: размерМЗ;
		нач
			нцДля i := 0 до nofCipherSuites - 1 делай
				если cipherSuites[ i ] = s то возврат истина всё
			кц;
			возврат ложь
		кон IsSupported;

		(** set whether sessions may be resumed; default is TRUE *)
		проц EnableSessionResumption*( enable: булево );
		нач	sessionResumptionEnabled := enable
		кон EnableSessionResumption;

		(** lifetime of a session in seconds; default: 3600s *)
		проц SetSessionLifetime*( t: цел32 );
		нач
			утв( t >= 0 );
			sessionLifetime := t
		кон SetSessionLifetime;

		(** set TLS version to use *)
		проц SetVersion*(major, minor: цел32);
		нач
			утв(major = 1);
			утв(minor >= 0);
			утв(minor <= 2);
			version[0] := симв8ИзКода(3);
			version[1] := симв8ИзКода(1 + minor)
		кон SetVersion;

	кон Policy;

	Session = окласс
		перем
			id : массив 32 из симв8;
			idLength : размерМЗ;
			resumable : булево;
			cipherSuite : цел32;
			preMasterSecret, masterSecret -: массив 48 из симв8;
			lifetime: цел32;	(* seconds *)
			timer: Kernel.Timer;
			next: Session;

		(** initialize a session.
			If caching is FALSE, no session-id will associated with the new session.
			if cache is TRUE and len is zero, a session id will be randomly generated.
			if cache is TRUE and len is non-zero, a session-id will be read from data *)
		проц & Init*( caching: булево; перем data: массив из симв8; ofs, len: размерМЗ; lifetime: цел32 );
			перем i: размерМЗ;
		нач
			утв( ofs > -1 );	утв( len > -1 );	утв( ofs + len <= длинаМассива( data ) );	утв( lifetime > 0 );
			resumable := caching;
			если caching то
				если len = 0 то	(* server-side: session-id has to be generated *)
					idLength := SessionIdLength;
					(*Utils.RandomBytes( id, 0, SessionIdLength )*)
					CSPRNG.CSRand(id, SessionIdLength * 8);
				иначе	(* client-side: session-id has been generated by server *)
					idLength := len;
				нцДля i := 0 до len - 1 делай		id[ i ] := data[ ofs + i ]		кц
				всё
			всё;
			cipherSuite := 0;
			сам.lifetime := lifetime
		кон Init;

		(** Marks this Session as not resumable for future Connections *)
		проц Invalidate;
		нач
			resumable := ложь
		кон Invalidate;

		(** Sets the PreMasterSecret contained in data, starting at ofs. The lenght of the PreMasterSecret is always 48 bytes *)
		проц SetPreMasterSecret( data: массив из симв8; ofs: размерМЗ );
			перем i: размерМЗ;
		нач
			утв( длинаМассива(data) >= ofs + 48 );
			нцДля i := 0 до 47 делай		preMasterSecret[ i ] := data[ ofs + i ]		кц
		кон SetPreMasterSecret;

	нач { активное }
		нов( timer );
		timer.Sleep( 1000 * lifetime );
		Invalidate( )

	кон Session;

	Context* = окласс
		перем
			policy-: Policy;
			rsaCertificate: массив 10000 из симв8;
			rsaPrivateKey, rsaPublicKey: CryptoRSA.Key;
			lengthOfRsaCertificate: размерМЗ;
			sessionCache: массив SessionHashtableSize из Session;
			timer: Kernel.Timer;
			active: булево;

		проц & Init*( p: Policy );
		нач
			policy := p;
		нов( timer );
				active := истина
		кон Init;

		проц Dispose*;
		нач
			active := ложь
		кон Dispose;

		(** Loads the rsa-certificate specified with filename. The certificate must be DER-formatted *)
		проц LoadRsaCertificate*( filename: массив из симв8 ): цел32;
			перем
				f: Files.File;
				r: Files.Reader;
				i: размерМЗ;
		нач
			f := Files.Old(filename);	(* open an old file *)
			если f # НУЛЬ то
				Files.OpenReader( r, f, 0);	(* open a buffer on the file *)
				i := 0;
				нцПока r.кодВозвратаПоследнейОперации # Потоки.КонецФайла делай
					rsaCertificate[ i + 6 ] := r.чИДайСимв8( );	(* first six bytes are length-fields of the certificate *)
					увел( i )
				кц;
				lengthOfRsaCertificate := i-1;
				если Trace то PrintRsaCertificate( ) всё;
				(* length-fields *)
				rsaCertificate[ 0 ] := симв8ИзКода( ( lengthOfRsaCertificate + 3 ) DIV ( 256 * 256 ) );
				rsaCertificate[ 1 ] := симв8ИзКода( ( lengthOfRsaCertificate + 3 ) DIV 256 остОтДеленияНа 256 );
				rsaCertificate[ 2 ] := симв8ИзКода( ( lengthOfRsaCertificate + 3 ) остОтДеленияНа 256 );
				rsaCertificate[ 3 ] := симв8ИзКода( ( lengthOfRsaCertificate ) DIV ( 256 * 256 ) );
				rsaCertificate[ 4 ] := симв8ИзКода( ( lengthOfRsaCertificate ) DIV 256 остОтДеленияНа 256 );
				rsaCertificate[ 5 ] := симв8ИзКода( ( lengthOfRsaCertificate ) остОтДеленияНа 256 );
				увел( lengthOfRsaCertificate, 6 );
				возврат Ok
			иначе
				ЛогЯдра.пСтроку8("RSA Certificate file not found"); ЛогЯдра.пВК_ПС;
				возврат -1;
			всё
		кон LoadRsaCertificate;

		(** Loads the material needed to establish an rsa private key. Parameters p and q are two big prime numbers,
			e is the public exponent of the public key of the rsa certificate to be used. p, q and e have to be hexadecimal strings.
			pLen, qLen and eLen are the lengths of the hex strings *)
		проц LoadRsaPrivateKey*( pHex, qHex, eHex: массив из симв8; pLen, qLen, eLen: цел16 );
			перем
				p, q, e: CryptoBigNumbers.BigNumber;
				dummy: CryptoRSA.Key;
		нач
			CryptoBigNumbers.AssignHex( p, pHex, pLen );
			CryptoBigNumbers.AssignHex( q, qHex, qLen );
			CryptoBigNumbers.AssignHex( e, eHex, eLen );
			нов( сам.rsaPrivateKey );	нов( dummy );
			CryptoRSA.MakeKeys( p, q, e, "AosTLS", dummy, сам.rsaPrivateKey );
			если Trace то
				ЛогЯдра.пСтроку8("RSA-key loaded"); ЛогЯдра.пВК_ПС;
				ЛогЯдра.пСтроку8("   prime p:"); ЛогЯдра.пВК_ПС;
				CryptoBigNumbers.Print( p );
				ЛогЯдра.пСтроку8("   prime q:"); ЛогЯдра.пВК_ПС;
				CryptoBigNumbers.Print( q );
				ЛогЯдра.пСтроку8("   public exponent:"); ЛогЯдра.пВК_ПС;
				CryptoBigNumbers.Print( e );
				ЛогЯдра.пСтроку8("   modulus:"); ЛогЯдра.пВК_ПС;
				CryptoBigNumbers.Print( сам.rsaPrivateKey.modulus );
				ЛогЯдра.пСтроку8("   private exponent:"); ЛогЯдра.пВК_ПС;
				CryptoBigNumbers.Print( сам.rsaPrivateKey.exponent );
			всё
		кон LoadRsaPrivateKey;

		(** Fills rsaPublicKey from server certificate. *)
		проц GetRsaPublicKey*;
		перем
			certificate: X509.Certificate;
			reader: Потоки.ЧтецИзСтроки;
		нач
			если rsaPublicKey = НУЛЬ то
				(* Read X509 Certificate *)
				нов(certificate);
				нов(reader, lengthOfRsaCertificate);
				(* Skip 6 bytes: they represent the length of the certificate, but are not part of it. *)
				reader.ПримиСрезСтроки8ВСтрокуДляЧтения(rsaCertificate, 6, lengthOfRsaCertificate);
				certificate := X509.Read(reader);

				(* Get modulus and exponent of public key *)
				rsaPublicKey := certificate.publicKey;
			всё
		кон GetRsaPublicKey;

		проц  PrintRsaCertificate*;
		нач
			ЛогЯдра.пСтроку8("Certificate [");ЛогЯдра.пЦел64(lengthOfRsaCertificate,3);ЛогЯдра.пСтроку8("]");ЛогЯдра.пВК_ПС;
			ЛогЯдра.пСрезБуфера16рично(rsaCertificate, 6, lengthOfRsaCertificate )
		кон PrintRsaCertificate;

		(** A new server-side Session-object is created and returned according to the policy settings *)
		проц GetNewServerSession*( ): Session;
			перем
				dummy: массив 1 из симв8;
				s: Session;
		нач
			нов( s, policy.sessionResumptionEnabled, dummy, 0, 0, policy.sessionLifetime );
			возврат s
		кон GetNewServerSession;

		(** look up the session cache for a stored cache associated with the session-id of length len,
			starting at ofs in data. If no session is found, NIL is returned. This method is invoked by a TLS-server. *)
		проц FindSessionByID*( перем data: массив из симв8; ofs, idLen: размерМЗ ): Session;
			перем
				i: размерМЗ;
				current, previous: Session;	(* fork search *)
		нач
			утв( idLen = SessionIdLength );
			утв( idLen < 33 );	утв( idLen >= 2  );	утв( ofs > -1 );	утв( длинаМассива( data )  >= ofs + idLen );
			если ~policy.sessionResumptionEnabled то возврат НУЛЬ всё;
			i := ( кодСимв8( data[ ofs ] ) + 256 * кодСимв8( data[ ofs + 1 ] ) ) остОтДеленияНа SessionHashtableSize;
			current := sessionCache[ i ];
			previous := sessionCache[ i ];
			нцПока current # НУЛЬ делай
				если EqualSessionID( current.id, data, 0, ofs, idLen ) то
					если current.resumable то
						если current # previous то	(* if current is NOT the first element in the list *)
							previous.next := current.next;
							current.next := sessionCache[ i ];
							sessionCache[ i ] := current
						всё;
						возврат current
					иначе
						возврат НУЛЬ
					всё
				иначе
					previous := current;
					current := current.next
				всё
			кц;
			возврат НУЛЬ
		кон FindSessionByID;

		(* stores a given Session-object in the session-cache *)
		проц StoreSession( s: Session );
			перем i: цел32;
		нач
			утв( s.resumable );
			i := кодСимв8( s.id[ 0 ] ) + 256 * кодСимв8( s.id[ 1 ] );
			i := i остОтДеленияНа SessionHashtableSize;
			s.next := sessionCache[ i ];
			sessionCache[ i ] := s
		кон StoreSession;

		(* returns TRUE iff data1 and data2 contain the same string of length len starting at different offsets *)
		проц EqualSessionID( перем data1, data2: массив из симв8; ofs1, ofs2, len: размерМЗ ): булево;
			перем i: размерМЗ;
		нач
			нцДля i := 0 до len - 1 делай
				если data1[ ofs1 + i ] # data2[ ofs2 + i ] то возврат ложь всё;
			кц;
			возврат истина
		кон EqualSessionID;

		(* recursive function *)
		проц DeleteUnresumableSessions( s: Session ): Session;
		нач
			если s = НУЛЬ то возврат НУЛЬ всё;	(* end of recursion *)
			если s.resumable то
				s.next := DeleteUnresumableSessions( s.next );
				возврат s
			иначе
				возврат DeleteUnresumableSessions( s.next )
			всё
		кон DeleteUnresumableSessions;

		(* delete unresumable sessions *)
		проц CleanUpSessionCache;
			перем i: цел32;
		нач
			нцДля i := 0 до SessionHashtableSize - 1 делай
				sessionCache[ i ] := DeleteUnresumableSessions( sessionCache[ i ] )
			кц
		кон CleanUpSessionCache;

	нач { активное }
		нцПока active делай
			timer.Sleep( SessionCleanUpInterval * 1000 );
			CleanUpSessionCache( )
		кц

	кон Context;

	Connection* = окласс ( TCP.Connection )
		перем
			conn: TCP.Connection;
			in: Потоки.Чтец;
			out, appDataWriter: Потоки.Писарь;
			appDataReader: Потоки.Чтец;
			applicationDataPipe: Pipes.Pipe;
			context: Context;
			session: Session;
			tlsErrorCause -: цел32;	(** alert type that lead to failure *)
			handshakeState: цел32;
			outbuf, inbuf: массив Buflen из симв8; (* buffers for outgoing and incoming messages *)
			hsMD5send, hsMD5verify: CryptoMD5.Hash;	(* handshake hash functions; to be used in the Finished messages *)
			hsSHAsend, hsSHAverify: CryptoSHA1.Hash;	(* handshake hash functions; to be used in the Finished messages *)
			pendingSecurityParameters: SecurityParameters;
			currentWriteState, pendingWriteState, currentReadState, pendingReadState: ConnectionState;
			version -: массив 2 из симв8;
			client, trapped: булево;

		проц &{перекрыта}Init*;
		нач
			state := TCP.Unused;
			tlsErrorCause := NoError;
			(* establish application-data-out-buffer *)
			нов( applicationDataPipe, 1024 * 1024(*4096*) ); (* is this a good size? *)
			(*Streams.OpenWriter( appDataWriter, applicationDataPipe.Send );*)
			нов(appDataWriter, applicationDataPipe.Send, 1024*1024);
			Потоки.НастройЧтеца( appDataReader, applicationDataPipe.Receive );
			нов( hsMD5send );	нов( hsSHAsend );
			нов( hsMD5verify );	нов( hsSHAverify );
			нов( pendingWriteState );	нов( currentWriteState );
			нов( pendingReadState );	нов( currentReadState );
			нов( pendingSecurityParameters );

			hsMD5send.Initialize( );	hsSHAsend.Initialize( );
			hsMD5verify.Initialize( );	hsSHAverify.Initialize( )
		кон Init;



		проц AwaitStateNotEqual*(s : цел32);
		нач { единолично}
			дождись(state # s);
		кон AwaitStateNotEqual;

		проц AwaitStateEqual*(s : цел32);
		нач { единолично}
			дождись(state = s);
		кон AwaitStateEqual;

		проц SetState*(s : цел8);
		нач { единолично}
			state := s;
		кон SetState;

		проц ChangeWriteState;
		нач
			currentWriteState := pendingWriteState;
			нов( pendingWriteState )
		кон ChangeWriteState;

		проц ChangeReadState;
		нач
			currentReadState := pendingReadState;
			нов( pendingReadState )
		кон ChangeReadState;

		(** Must be called before Open *)
		проц SetContext*( cxt: Context  );
		нач
			утв( conn = НУЛЬ );
			context := cxt;
			version[0] := cxt.policy.version[0];
			version[1] := cxt.policy.version[1]
		кон SetContext;

		(** open a TLS connection (only use once per Connection instance). Use IP.NilPort for lport to automatically assign
		an unused local port. Use IP.NilAdr for fip to open a passive connection. *)
		проц {перекрыта}Open*(  lport: цел32; fip: IP.Adr; fport: цел32; перем res: целМЗ );
		нач
			(*ASSERT( IP.IsNilAdr(fip) );	(* only server-side is implemented *)*)
			(*ASSERT( context # NIL );*)	(* context must be set before calling Open *)
			утв( conn = НУЛЬ );	(* invoke this method only once per instance *)

			если context=НУЛЬ то
				SetDefaultPolicy
			всё;

			client := ~IP.IsNilAdr(fip);

			(* open TCPConnection *)
			нов( сам.conn );
			сам.conn.Open( lport, fip, fport, res );
			если res # TCP.Ok то возврат всё;

			SetState(conn.state);
			res := Ok;
			если client то Connect всё;
			утв( conn # НУЛЬ )
		кон Open;

		проц SetDefaultPolicy*;
		перем ctx:Context;
		нач
			нов(ctx, defaultCipherPolicy);
			SetContext(ctx);
		кон SetDefaultPolicy;

		(* set a TCP Connection for communication; this method should only be invoked by the Accept-method *)
		проц SetConnection*( c: TCP.Connection );
		нач
			утв( conn = НУЛЬ );
			утв( State()= TCP.Unused );
			conn := c;
			Потоки.НастройЧтеца( in, сам.conn.ПрочтиИзПотока );	Потоки.НастройПисаря( out, сам.conn.ЗапишиВПоток );
			SetState(ServerHandshake);
			handshakeState := AwaitClientHello
		кон SetConnection;

		(** Call this method only on a passive (listenig server-side) TLS.Connection. Non blocking *)
		проц {перекрыта}Accept*( перем client: TCP.Connection; перем res: целМЗ );
			перем
				newTLSConn: Connection;
				newTCPConn: TCP.Connection;
		нач
			утв( State() = TCP.Listen );
			утв ( сам.conn # НУЛЬ );
			сам.conn.Accept( newTCPConn, res );
			если res # TCP.Ok то возврат всё;
			нов( newTLSConn );
			newTLSConn.SetContext( сам.context );
			newTLSConn.SetConnection( newTCPConn );
			client := newTLSConn;
			res := Ok
		кон Accept;

		(** Sets up the TCP connection for a client-side connection. *)
		проц Connect*;
		нач
			Потоки.НастройЧтеца( in, сам.conn.ПрочтиИзПотока );
			Потоки.НастройПисаря( out, сам.conn.ЗапишиВПоток );
			SetState(ClientHandshake);
			handshakeState := GenerateClientHello
		кон Connect;

		(** Close this TLS.Connection *)
		проц {перекрыта}Закрой*;
		нач
			если Trace то ЛогЯдра.пСтроку8("Close"); ЛогЯдра.пВК_ПС; всё;
			утв( сам.conn # НУЛЬ );
			если ( State() = TCP.Established ) или ( State() = ServerHandshake ) то
				SendWarning( CloseNotify )
			всё;
			conn.Закрой();
			applicationDataPipe.Close();
			handshakeState := NotAValidHandshakeState;
			SetState(TCP.Closed);
		кон Закрой;

		(** Send secured data *)
		проц {перекрыта}ЗапишиВПоток*( конст data: массив из симв8; ofs, len: размерМЗ; propagate: булево; перем res: целМЗ );
			перем i, size: размерМЗ;
		нач {единолично}
			дождись((state = TCP.Established) или (state = TCP.Closed));
			если state = TCP.Established то
				нцПока len > 0 делай
					если Trace то PrintDirection(истина); ЛогЯдра.пСтроку8("Application Data");ЛогЯдра.пВК_ПС всё;
					size := len;
					если size > MaxPlaintextLength то		size := MaxPlaintextLength		всё;
					нцДля i := 0 до size-1 делай
						outbuf[ i ] := data[ ofs + i ]
					кц;
					SendRecord( outbuf, ApplicationData, 0, size );
					увел( ofs, size );
					умень( len, size )
				кц
			иначе
				res := Потоки.КонецФайла;
			всё;
		кон ЗапишиВПоток;

		(** Receive secured data *)
		проц {перекрыта}ПрочтиИзПотока*( перем data: массив из симв8; ofs, size, min: размерМЗ; перем len: размерМЗ; перем res: целМЗ);
		нач
			applicationDataPipe.Receive(data, ofs, size, min, len ,res);
		кон ПрочтиИзПотока;

		(* Generates the MasterSecret for the current session as described in rfc 2246, section 8 *)
		проц GenerateMasterSecret;
			перем
				prf: PRF;
				seed: массив 64 из симв8;
				i: размерМЗ;
		нач
			нцДля i := 0 до 31 делай
				seed[ i ] := сам.pendingSecurityParameters.clientRandom[ i ];
				seed[ i + 32 ] := сам.pendingSecurityParameters.serverRandom[ i ]
			кц;
			нов( prf, pendingSecurityParameters.PRFAlgorithm );
			prf.GetBytes( сам.session.preMasterSecret, seed, сам.session.masterSecret, "master secret", 48, 64, 48 );
			(* discard preMasterSecret *)
			нцДля i := 0 до 47 делай	сам.session.preMasterSecret[ i ] := симв8ИзКода( 0 )	кц
		кон GenerateMasterSecret;

		(* Generates key-material for the pending state *)
		проц GenerateKeys;
			перем
				prf: PRF;
				keyBlock: массив 136 из симв8;
				seed: массив 64 из симв8;
				i, keyBlockLen, ofs, macSecretSize, cipherKeySize, cipherBlockSize: размерМЗ;
		нач
			(* calculate the needed amount of key-material *)
			macSecretSize := сам.pendingWriteState.mac.size;
			cipherKeySize := сам.pendingSecurityParameters.cipherKeySize;
			если сам.pendingWriteState.cipher # НУЛЬ то
				cipherBlockSize := сам.pendingWriteState.cipher.blockSize
			иначе
				cipherBlockSize := 0
			всё;
			keyBlockLen := 2 * macSecretSize + 2 * cipherKeySize;
			если cipherBlockSize > 1 то	(* if a blockcipher is used, initialization vectors are needed *)
				увел( keyBlockLen, 2 * cipherBlockSize )
			всё;
			утв( keyBlockLen <= 136 );	(* AES-256-CBC-SHA needs 136 bytes of keymaterial. all others need less *)
			нцДля i := 0 до 31 делай
				seed[ i ] := сам.pendingSecurityParameters.serverRandom[ i ];
				seed[ i + 32 ] := сам.pendingSecurityParameters.clientRandom[ i ]
			кц;
			нов( prf, pendingSecurityParameters.PRFAlgorithm );
			prf.GetBytes( сам.session.masterSecret, seed, keyBlock, "key expansion", 48, 64, keyBlockLen );
			(* mac secret *)
			нцДля i := 0 до macSecretSize - 1 делай
				если client то
					сам.pendingWriteState.macSecret[ i ] := keyBlock[ i ];
					сам.pendingReadState.macSecret[ i ] := keyBlock[ macSecretSize + i ]
				иначе
					сам.pendingReadState.macSecret[ i ] := keyBlock[ i ];
					сам.pendingWriteState.macSecret[ i ] := keyBlock[ macSecretSize + i ]
				всё
			кц;
			(* keys for encryption and decription *)
			ofs := 2 * macSecretSize;
			нцДля i := 0 до cipherKeySize - 1 делай
				если client то
					сам.pendingWriteState.cipherKey[ i ] := keyBlock[ ofs + i ];
					сам.pendingReadState.cipherKey[ i ] := keyBlock[ ofs + cipherKeySize + i ]
				иначе
					сам.pendingReadState.cipherKey[ i ] := keyBlock[ ofs + i ];
					сам.pendingWriteState.cipherKey[ i ] := keyBlock[ ofs + cipherKeySize + i ]
				всё
			кц;
			(* initialization vectors *)
			если cipherBlockSize > 1 то
				ofs := 2 * macSecretSize + 2 * cipherKeySize;
				нцДля i := 0 до cipherBlockSize - 1 делай
					если client то
						сам.pendingWriteState.iv[ i ] := keyBlock[ ofs + i ];
						сам.pendingReadState.iv[ i ] := keyBlock[ ofs + cipherBlockSize + i ]
					иначе
						сам.pendingReadState.iv[ i ] := keyBlock[ ofs + i ];
						сам.pendingWriteState.iv[ i ] := keyBlock[ ofs + cipherBlockSize + i ]
					всё
				кц
			всё
		кон GenerateKeys;

		(* initializes a given ConnectionState with the key material contained in the ConnectionState and in
			the given SecurityParameters *)
		проц InitializeConnectionState( state: ConnectionState; sp: SecurityParameters );
		нач
			если state.cipher # НУЛЬ то
				state.cipher.InitKey( state.cipherKey, 8 * sp.cipherKeySize );
				если state.cipher.blockSize > 0 то
					state.cipher.SetIV( state.iv, Ciphers.CBC )
				всё
			всё
		кон InitializeConnectionState;

		проц PrepareConnectionState( state: ConnectionState; cipherSuite: цел32 ; перем res : целМЗ);
		нач
			утв( cipherSuite # 0 );
			res := Ok;
			просей cipherSuite из
				| TlsRsaWithNullMd5:
					нов( state.mac, "CryptoMD5" );
					state.cipher := НУЛЬ;
				| TlsRsaWithNullSha:
					нов( state.mac, "CryptoSHA1" );
					state.cipher := НУЛЬ;
				| TlsRsaWithRc4128Md5:
					нов( state.mac, "CryptoMD5" );
					state.cipher := Ciphers.NewCipher( "CryptoARC4" );
				| TlsRsaWithRc4128Sha:
					нов( state.mac, "CryptoSHA1" );
					state.cipher := Ciphers.NewCipher( "CryptoARC4" );
				| TlsRsaWithIdeaCbcSha:
					нов( state.mac, "CryptoSHA1" );
					state.cipher := Ciphers.NewCipher( "CryptoIDEA" );
				| TlsRsaWithDesCbcSha:
					нов( state.mac, "CryptoSHA1" );
					state.cipher := Ciphers.NewCipher( "CryptoDES" );
				| TlsRsaWith3DesEdeCbcSha:
					нов( state.mac, "CryptoSHA1" );
					state.cipher := Ciphers.NewCipher( "CryptoDES3" );
				| TlsRsaWithAes128CbcSha, TlsRsaWithAes256CbcSha:
					нов( state.mac, "CryptoSHA1" );
					state.cipher := Ciphers.NewCipher( "CryptoAES" );
				иначе
					res := -1;
			всё;
		кон PrepareConnectionState;

		проц PrepareSecurityParameters( sp: SecurityParameters; cipherSuite: цел32 ; перем res : целМЗ);
		нач
			утв( cipherSuite # 0 );
			res := Ok;
			sp.cipherSuite := cipherSuite;
			просей cipherSuite из
				| TlsRsaWithNullMd5:
					sp.cipherKeySize := 0;
				| TlsRsaWithNullSha:
					sp.cipherKeySize := 0;
				| TlsRsaWithRc4128Md5:
					sp.cipherKeySize := 16;
				| TlsRsaWithRc4128Sha:
					sp.cipherKeySize := 16;
				| TlsRsaWithIdeaCbcSha:
					sp.cipherKeySize := 16;
				| TlsRsaWithDesCbcSha:
					sp.cipherKeySize := 8;
				| TlsRsaWith3DesEdeCbcSha:
					sp.cipherKeySize := 24;
				| TlsRsaWithAes128CbcSha:
					sp.cipherKeySize := 16;
				| TlsRsaWithAes256CbcSha:
					sp.cipherKeySize := 32
			иначе
				res := -1
			всё;
			если version[1] < 3X то
				sp.PRFAlgorithm := "SHA1 XOR MD5"
			иначе
				sp.PRFAlgorithm := "CryptoSHA256"
			всё
		кон PrepareSecurityParameters;

	(* **********************************************************************************
		RECORD LAYER
		********************************************************************************** *)

		проц SendRecord( перем data: массив из симв8; contentType, ofs, len: размерМЗ );
			перем
				macInput: массив 13 из симв8;
				iv: массив 16 из симв8; (* used in TLSv1.1 *)
				i, length, padLen, blocksize: размерМЗ;
				sendIV: булево; (* Send an IV before data *)
		нач
			утв( len <= MaxPlaintextLength );
			(* increment the number of sent records *)
			currentWriteState.recordSeq.Inc( );
			length := len;
			(* data compression: no other algo than NULL is implemented *)
			(* mac *)
			если currentWriteState.mac # НУЛЬ то
				currentWriteState.recordSeq.GetBytes( macInput, 0 );
				macInput[ 8 ] := симв8ИзКода( contentType );
				macInput[ 9 ] := version[ 0 ];
				macInput[ 10 ] := version[ 1 ];
				macInput[ 11 ] := симв8ИзКода( len DIV 256 );
				macInput[ 12 ] := симв8ИзКода( len );
				currentWriteState.mac.Initialize( currentWriteState.macSecret, currentWriteState.mac.size );
				currentWriteState.mac.Update( macInput, 0, 13 );
				currentWriteState.mac.Update( data, ofs, len );
				currentWriteState.mac.GetMac( data, ofs+len );
				увел( length, currentWriteState.mac.size )
			всё;
			(* encryption *)
			если currentWriteState.cipher # НУЛЬ то	(* encryption has to be done *)
				blocksize := currentWriteState.cipher.blockSize;
				если blocksize > 1 то	(* padding for encryption has to be added *)
					sendIV := кодСимв8(version[1]) >= 2;
					если sendIV то (* TLSv1.1 and greater has an additional IV field *)
						CSPRNG.CSRand(iv, blocksize * 8);
						currentWriteState.cipher.Encrypt(iv, 0, blocksize);
					всё;
					padLen := ( blocksize - ( ( length + 1 ) остОтДеленияНа blocksize ) ) остОтДеленияНа blocksize;	(* padLen = [ 0, blocksize-1 ] *)
					если padLen > 0 то
						утв(padLen < 255);
						нцДля i := 0 до padLen - 1 делай		data[ ofs + length + i ] := симв8ИзКода( padLen остОтДеленияНа 100H)		кц
					всё;
					data[ ofs + length + padLen ] := симв8ИзКода( padLen остОтДеленияНа 100H );
					length := length + padLen + 1
				всё;
				утв(length остОтДеленияНа blocksize = 0);
				currentWriteState.cipher.Encrypt( data, ofs, length );
			всё;
			если sendIV то увел(length, blocksize) всё;
			(* record header *)
			out.пСимв8( симв8ИзКода( contentType ) );
			out.пСимв8( version[0] );
			out.пСимв8( version[1] );
			out.пСимв8( симв8ИзКода( length DIV 256 ) );
			out.пСимв8( симв8ИзКода( length ) );
			если sendIV то out.пБайты(iv, 0, blocksize); умень(length, blocksize) всё;
			out.пБайты( data, ofs, length );
			out.ПротолкниБуферВПоток;
		кон SendRecord;

		(* receive one record *)
		проц ReceiveRecord;
			перем
				macInput: массив 13 из симв8;
				verify: массив 20 из симв8;
				i, padd, len, type, macSize, res, major, minor, ofs, length: размерМЗ;
				badRecordMac: булево; (* Send a bad_record_mac error *)
		нач
			(* increment the number of received records *)
			currentReadState.recordSeq.Inc( );
			(* record header *)
			type := кодСимв8( in.чИДайСимв8( ) );	(* content type *)
			если type = 128 то (* SSLv2-compatible ClientHello *)
				len := кодСимв8( in.чИДайСимв8() );
				in.чБайты( inbuf, 0, len, length );
				если len = length то
					ReceiveV2Handshake( inbuf, 0, len );
					возврат
				иначе
					SendError( InternalError );
					возврат
				всё
			всё;
			major := кодСимв8( in.чИДайСимв8() );	minor := кодСимв8( in.чИДайСимв8() );
			(*IF ( major # 3 ) OR ( minor # 1) THEN  END;	(* version control *)*)
			если (major # кодСимв8(version[0])) или (minor # кодСимв8(version[1])) то
				SendError( ProtocolVersion );
				возврат
			всё;
			len := 256 * кодСимв8( in.чИДайСимв8() ) + кодСимв8( in.чИДайСимв8() );	(* length of payload *)
			если len > MaxCiphertextLength то
				SendError( RecordOverflow );
				возврат
			всё;
			(* payload *)
			in.чБайты( inbuf, 0, len, length );
			если in.кодВозвратаПоследнейОперации # Потоки.Успех то
				если Trace то ЛогЯдра.пСтроку8("Can't read record: supposed to read:"); ЛогЯдра.пЦел64(len, 7); ЛогЯдра.пСтроку8(" read: "); ЛогЯдра.пЦел64(length,7);всё;
				возврат
			всё;
			(* records with unknown client protocol type are ignored; type=128: SSLv2-compatible ClientHello *)
			если ( type = 128 ) или ( type < 20 ) или ( type > 23 ) то	возврат	всё;
			если length # len то
				SendError( IllegalParameter );
				возврат
			всё;
			(* decryption *)
			если currentReadState.cipher # НУЛЬ то
				если (currentReadState.cipher.blockSize > 1) и (len остОтДеленияНа currentReadState.cipher.blockSize # 0) то
					badRecordMac := истина;
					умень(len, len остОтДеленияНа currentReadState.cipher.blockSize)
				всё;
				currentReadState.cipher.Decrypt( inbuf, 0, len  );
				если (minor >= 2) и (currentReadState.cipher.blockSize > 1) то увел(ofs, currentReadState.cipher.blockSize); умень(len, ofs) всё;
				если res # Ciphers.Ok то
					если Trace то ЛогЯдра.пСтроку8("There was a Problem while decrypting record.");ЛогЯдра.пВК_ПС всё;
					(*SendError( InternalError );
					RETURN*)
					badRecordMac := истина
				всё;
				если currentReadState.cipher.blockSize > 1 то	(* padding has to be removed *)
					padd := кодСимв8(inbuf[ofs + len - 1]);
					ЛогЯдра.ЗахватВЕдиноличноеПользование; ЛогЯдра.пСрезБуфера16рично(inbuf, ofs, len); ЛогЯдра.ОсвобождениеИзЕдиноличногоПользования;
					нцДля i := 0 до padd делай (* check padding *)
						если ofs + len - i - 1 < 0 то badRecordMac := истина
						аесли кодСимв8(inbuf[ofs + len - i - 1]) # padd то badRecordMac := истина всё
					кц;
					если len - padd - 1 < currentReadState.mac.size то
						badRecordMac := истина
					иначе
						len := len - padd - 1
					всё
				всё
			всё;
			(* mac verification *)
			если currentReadState.mac # НУЛЬ то
				macSize := currentReadState.mac.size;
				len := len - macSize;
				currentReadState.recordSeq.GetBytes( macInput, 0 );
				macInput[ 8 ] := симв8ИзКода( type );
				macInput[ 9 ] := симв8ИзКода( major );
				macInput[ 10 ] := симв8ИзКода( minor );
				macInput[ 11 ] := симв8ИзКода( len DIV 256 );
				macInput[ 12 ] := симв8ИзКода( len );
				currentReadState.mac.Initialize( currentReadState.macSecret, macSize );
				currentReadState.mac.Update( macInput, 0, 13 );
				currentReadState.mac.Update( inbuf, ofs, len );
				currentReadState.mac.GetMac( verify, 0 );
				если ~badRecordMac то
					нцДля i := 0 до macSize - 1 делай
						если inbuf[ ofs + len + i ] # verify[ i ] то
							badRecordMac := истина
						всё
						(*SendError( BadRecordMac );
						RETURN*)
					кц
				всё;
			всё;
			если badRecordMac то
				SendError( BadRecordMac );
				возврат
			всё;
			(* data compression: no other algo than NULL is implemented *)
			(* dispatching *)
			просей type из
				| Handshake:
					ReceiveHandshake( inbuf, ofs, len )
				| ApplicationData:
					appDataWriter.пБайты( inbuf, ofs, len );
					appDataWriter.ПротолкниБуферВПоток;
				| Alert:
					утв( len = 2 );
					ReceiveAlert( inbuf, ofs, len )
				| ChangeCipherSpec:
					утв( len = 1 );
					Transition( inbuf, ChangeCipherSpec, 0, ofs, len )
			иначе
				(* Unknown record type, send unexpected_message *)
				SendError( UnexpectedMessage );
				возврат
			всё;
		кон ReceiveRecord;

	(* **********************************************************************************
		CHANGE CIPHER SPEC PROTOCOL
		********************************************************************************** *)

		проц SendChangeCipherSpec;
		нач
			если Trace то PrintDirection(истина); ЛогЯдра.пСтроку8("ChangeCipherSpec");ЛогЯдра.пВК_ПС всё;
			outbuf[ 0 ] := симв8ИзКода( 1 );
			SendRecord( outbuf, ChangeCipherSpec, 0, 1 );
			ChangeWriteState( )
		кон SendChangeCipherSpec;

		проц ReceiveChangeCipherSpec( перем data: массив из симв8; ofs: размерМЗ );
		нач
			если Trace то PrintDirection(ложь); ЛогЯдра.пСтроку8("ChangeCipherSpec");ЛогЯдра.пВК_ПС всё;
			если кодСимв8( data[ ofs ] ) # 1 то (* wrong content of ChangeCipherSpec *)
				SendError( IllegalParameter )
			иначе
				ChangeReadState( )
			всё
		кон ReceiveChangeCipherSpec;

	(* **********************************************************************************
		HANDSHAKE PROTOCOL
		********************************************************************************** *)

		проц SendHandshake( перем data: массив из симв8; hsType: цел32; ofs, len: размерМЗ );
			перем l: размерМЗ;
		нач
			утв( len < 256 * 256 * 256 );
			l := len;
			data[ ofs ] := симв8ИзКода( hsType );
			data[ ofs + 3 ] := симв8ИзКода( l остОтДеленияНа 256 );	l := l DIV 256;
			data[ ofs + 2 ] := симв8ИзКода( l остОтДеленияНа 256 );	l := l DIV 256;
			data[ ofs + 1 ] := симв8ИзКода( l остОтДеленияНа 256 );
			если hsType # HelloRequest то
				(* update the digests used in the finished-messages *)
				если (hsType # Finished) или (hsType # ClientHello) то (* Finished-msg doesn't contain digest of itself *)
					hsMD5send.Update( data, ofs, len + 4 );
					hsSHAsend.Update( data, ofs, len + 4 )
				всё;
				hsMD5verify.Update( data, ofs, len + 4 );
				hsSHAverify.Update( data, ofs, len + 4 )
			всё;
			SendRecord( data, Handshake, ofs, len + 4 );
		кон SendHandshake;

		(* receives one or more handshake messages *)
		проц ReceiveHandshake( перем data: массив из симв8; ofs, len: размерМЗ );
			перем msgLen, hsType: цел32; ptr: размерМЗ;
		нач
			утв( длинаМассива( data ) >= ofs + len );
			ptr := ofs;
			нцПока ptr < ofs + len делай	(* for each handshake message *)
				hsType := кодСимв8( data[ ptr ] );	(* handshake type *)
				msgLen := 256 * 256 * кодСимв8( data[ ptr + 1 ] ) + 256 * кодСимв8( data[ ptr + 2 ] ) + кодСимв8( data[ ptr + 3 ] );
				(* update the digests used in the finished-messages *)
				hsMD5send.Update( data, ptr, msgLen + 4 );
				hsSHAsend.Update( data, ptr, msgLen + 4 );
				если hsType # Finished то (* Finished-msg doesn't contain digest of itself *)
					hsMD5verify.Update( data, ptr, msgLen + 4 );
					hsSHAverify.Update( data, ptr, msgLen + 4 )
				всё;
				Transition( data, Handshake, hsType, ptr + 4, msgLen );
				ptr := ptr + 4 + msgLen
			кц
		кон ReceiveHandshake;

		проц ReceiveV2Handshake( перем data: массив из симв8; ofs, len: размерМЗ );
		нач
			утв( data[ofs] = симв8ИзКода( 1 ) );	(* v2ClientHello *)
			(* re-initialize hashes *)
			hsMD5send.Initialize( );	hsSHAsend.Initialize( );
			hsMD5verify.Initialize( );	hsSHAverify.Initialize( );
			(* update the digests used in the finished-messages *)
			hsMD5send.Update( data, ofs, len );
			hsSHAsend.Update( data, ofs, len );
			hsMD5verify.Update( data, ofs, len );
			hsSHAverify.Update( data, ofs, len );
			Transition( data, Handshake, V2ClientHello, ofs, len );
		кон ReceiveV2Handshake;

		проц StartHandshake;
		нач
			Потоки.НастройЧтеца( in, сам.conn.ПрочтиИзПотока );
			Потоки.НастройПисаря( out, сам.conn.ЗапишиВПоток );
			SetState(ClientHandshake);
			handshakeState := GenerateClientHello;
			Transition(outbuf, Handshake, 0, 0, 0)
		кон StartHandshake;

		проц ReceiveClientHello( перем data: массив из симв8; ofs, len: размерМЗ ): цел32;
			перем
				nofSuites, i, idLen, cipherSuite, major, minor: цел32; idPos, pos: размерМЗ; res: целМЗ;
		нач
			если Trace то PrintDirection(ложь); ЛогЯдра.пСтроку8("ClientHello");ЛогЯдра.пВК_ПС всё;
			pos := ofs;
			(* version check *)
			major := кодСимв8( data[ pos ] );	minor := кодСимв8( data[ pos + 1 ] );
			если Trace то ЛогЯдра.пСтроку8("  version: ");ЛогЯдра.пЦел64(major,1);ЛогЯдра.пСтроку8(".");ЛогЯдра.пЦел64(minor,1);ЛогЯдра.пВК_ПС всё;
			если ( major < 3  ) или ( minor < 1 ) то (* fatal error: protocol version not supported *)
				SendError( ProtocolVersion );
				возврат -1
			всё;
			увел( pos, 2 );
			(* 32 bytes client random *)
			нцДля i := 0 до 31 делай		pendingSecurityParameters.clientRandom[ i ] := data[ pos + i ]		кц;
			увел( pos, 32 );
			если Trace то ЛогЯдра.пСтроку8("SERVER client random:"); ЛогЯдра.пВК_ПС; ЛогЯдра.пСрезБуфера16рично(pendingSecurityParameters.clientRandom, 0, 32); ЛогЯдра.пВК_ПС всё;
			(* session id *)
			idLen := кодСимв8( data[ pos ] );
			idPos := pos + 1;
			увел( pos, idLen + 1 );
			(* cipher-suites *)
			nofSuites := (256 * кодСимв8( data[ pos ] ) + кодСимв8( data[ pos + 1 ] )) DIV 2; (* number of cipher-suites supported by the client *)
			увел( pos, 2 );

			если idLen = SessionIdLength то	(* client attempted session resumption *)
				session := context.FindSessionByID( data, idPos, idLen );
				если session # НУЛЬ то
					(* check: is the resumed session's cipher-suite contained by the client-hello ? *)
					нцДля i := 0 до nofSuites - 1 делай
						cipherSuite := 256 * кодСимв8( data[ pos + 2 * i ] ) + кодСимв8( data[ pos + 2 * i + 1 ] );
						если cipherSuite = session.cipherSuite то	(* session resumption *)
							pendingSecurityParameters.cipherSuite := session.cipherSuite;
							если Trace то ЛогЯдра.пСтроку8("ciphersuite: ");ЛогЯдра.пЦел64(pendingSecurityParameters.cipherSuite, 8 );ЛогЯдра.пВК_ПС всё;
							возврат GenerateHelloWithResumption
						всё
					кц
				всё
			всё;
			(* establish new session *)
			session := context.GetNewServerSession( );
			(* choose cipher-suite *)
			i := 0;
			нц
				cipherSuite := 256 * кодСимв8( data[ pos + 2 * i ] ) + кодСимв8( data[ pos + 2 * i + 1 ] );
				если Trace то ЛогЯдра.пСтроку8("Server: client accepts cipher suite: "); ЛогЯдра.пЦел64(cipherSuite, 0); ЛогЯдра.пВК_ПС всё;
				если context.policy.IsSupported( cipherSuite ) то
					прервиЦикл
				всё;
				увел( i );
				если i = nofSuites то прервиЦикл всё
			кц;
			если cipherSuite = 0 то	(* no compatible cipher-suite found *)
				если Trace то ЛогЯдра.пСтроку8("Server: No common cipher suite found"); ЛогЯдра.пВК_ПС всё;
				SendError( HandshakeFailure );
				возврат -1
			всё;
			сам.session.cipherSuite := cipherSuite;
			PrepareSecurityParameters( pendingSecurityParameters, cipherSuite, res );
			если res < 0 то
				если Trace то ЛогЯдра.пСтроку8("Server: Error preparing cipher suite"); ЛогЯдра.пВК_ПС всё;
				SendError( HandshakeFailure );
				возврат -1
			всё;
			PrepareConnectionState( pendingWriteState, cipherSuite, res );
			если res < 0 то
				если Trace то ЛогЯдра.пСтроку8("Server: Error preparing pending write state"); ЛогЯдра.пВК_ПС всё;
				SendError( HandshakeFailure );
				возврат -1
			всё;
			PrepareConnectionState( pendingReadState, cipherSuite, res );
			если res < 0 то
				если Trace то ЛогЯдра.пСтроку8("Server: Error preparing pending read state"); ЛогЯдра.пВК_ПС всё;
				SendError( HandshakeFailure );
				возврат -1
			всё;
			(* ignore compression method *)
			возврат GenerateServerHello
		кон ReceiveClientHello;

		проц SendClientHello(перем data: массив из симв8; ofs: цел32);
		перем
			pos, i: размерМЗ;
		нач
			если Trace то PrintDirection(истина); ЛогЯдра.пСтроку8("ClientHello");ЛогЯдра.пВК_ПС всё;
			утв( ofs > 3 );

			pos := ofs;

			(* client version *)
			data[ pos ] := version[ 0 ];	data[ pos + 1 ] := version[ 1 ];	(* only 3.1 is supported *)
			увел( pos, 2 );

			(* client random bytes generation*)
			Create32RandomBytes( pendingSecurityParameters.clientRandom );
			нцДля i := 0 до 31 делай	data[ pos + i ] := pendingSecurityParameters.clientRandom[ i ]	кц;	(* copy random to outbuf *)
			увел( pos, 32 );

			(* session-id *)
			если session # НУЛЬ то
				(* if a previous session is available, ask server to resume it. *)
				data[ pos ] := симв8ИзКода( session.idLength );
				увел(pos);
				нцДля i := 0 до session.idLength - 1 делай data[pos + i] := session.id[i] кц;
				увел(pos, session.idLength)
			иначе
				data[pos] := 0X;
				увел(pos)
			всё;

			(* cipher-suite: length, then suite *)
			data[pos] := симв8ИзКода((2 * context.policy.nofCipherSuites) DIV 256);
			data[pos + 1] := симв8ИзКода((2 * context.policy.nofCipherSuites) остОтДеленияНа 256);
			увел(pos, 2);
			нцДля i := 0 до context.policy.nofCipherSuites - 1 делай
				data[ pos ] := симв8ИзКода(context.policy.cipherSuites[i] DIV 256);
				data[ pos + 1 ] := симв8ИзКода(context.policy.cipherSuites[i] остОтДеленияНа 256);
				увел( pos, 2 )
			кц;

			(* compression-method *)
			data[ pos ] := 1X;
			увел( pos );
			data[ pos ] := 0X;
			увел( pos );

			SendHandshake( data, ClientHello, ofs - 4, pos - ofs)
		кон SendClientHello;

		проц ReceiveV2ClientHello( перем data: массив из симв8; ofs, len: размерМЗ ): цел32;
			перем nofSuites, idLen, challengeLen, i, cipherSuite: цел32; res: целМЗ;
		нач
			если Trace то PrintDirection(ложь); ЛогЯдра.пСтроку8("SSLv2.0 ClientHello");ЛогЯдра.пВК_ПС всё;
			nofSuites := ( 256 * кодСимв8(data[ofs+3]) + кодСимв8(data[ofs+4]) ) DIV 3;
			idLen := 256 * кодСимв8(data[ofs+5]) + кодСимв8(data[ofs+6]);
			challengeLen := 256 * кодСимв8(data[ofs+7]) + кодСимв8(data[ofs+8]);
			(* if an SSLv2.0-ClientHello is received, a new session has to be established, because a client sends an TLSv1.0-ClientHello when resuming a session *)
			session := context.GetNewServerSession( );
			(* choose cipher-suite *)
			увел( ofs, 9);
			i := 0;
			нц
				cipherSuite := 256*256*кодСимв8( data[ ofs + 3 * i ] ) + 256 * кодСимв8( data[ ofs + 3 * i + 1 ] ) + кодСимв8( data[ ofs + 3 * i + 2 ] );
				если context.policy.IsSupported( cipherSuite ) то
					прервиЦикл
				всё;
				увел( i );
				если (i = nofSuites) или (ofs + 3 * i + 2 >= длинаМассива(data)) то прервиЦикл всё
			кц;
			если cipherSuite = 0 то	(* no compatible cipher-suite found *)
				SendError( HandshakeFailure );
				возврат -1
			всё;
			сам.session.cipherSuite := cipherSuite;
			PrepareSecurityParameters( pendingSecurityParameters, cipherSuite, res );
			если res < 0 то
				SendError( HandshakeFailure );
				возврат -1
			всё;
			PrepareConnectionState( pendingWriteState, cipherSuite, res );
			если res < 0 то
				SendError( HandshakeFailure );
				возврат -1
			всё;
			PrepareConnectionState( pendingReadState, cipherSuite, res );
			если res < 0 то
				SendError( HandshakeFailure );
				возврат -1
			всё;
			увел( ofs, nofSuites * 3 );
			(* session id *)
			если idLen = SessionIdLength то	(* client attempted session resumption *)
				session := context.FindSessionByID( data, ofs, idLen );
				если session # НУЛЬ то
					возврат GenerateHelloWithResumption
				всё
			всё;
			увел( ofs, idLen );
			(* 32 bytes client random *)
			нцДля i := 0 до 31-challengeLen делай		pendingSecurityParameters.clientRandom[ i ] := симв8ИзКода(0)		кц;
			нцДля i := 0 до challengeLen-1 делай		pendingSecurityParameters.clientRandom[ 32-challengeLen + i ] := data[ ofs + i ]		кц;
			возврат GenerateServerHello
		кон ReceiveV2ClientHello;

		проц ReceiveServerHello(перем data: массив из симв8; ofs, len: размерМЗ): цел32;
		перем
			major, minor, i, idLen, cipherSuite: цел32; idPos, pos: размерМЗ; res: целМЗ;
		нач
			если Trace то PrintDirection(ложь); ЛогЯдра.пСтроку8("ServerHello");ЛогЯдра.пВК_ПС всё;
			pos := ofs;

			(* version check *)
			major := кодСимв8( data[ pos ] );	minor := кодСимв8( data[ pos + 1 ] );
			если ( major < 3  ) или ( minor < 1 ) то (* fatal error: protocol version not supported *)
				если Trace то ЛогЯдра.пСтроку8("Incompatible protocol version"); ЛогЯдра.пВК_ПС всё;
				возврат -1
			всё;
			увел( pos, 2 );

			(* 32 bytes server random *)
			нцДля i := 0 до 31 делай		pendingSecurityParameters.serverRandom[ i ] := data[ pos + i ]		кц;
			увел( pos, 32 );

			(* session id *)
			idLen := кодСимв8( data[ pos ] );
			idPos := pos + 1;
			увел( pos, idLen + 1 );

			если session # НУЛЬ то
				(* See if session was restored *)
				session := context.FindSessionByID(data, idPos, idLen);
			всё;
			если session = НУЛЬ то
				(* create a new session *)
				нов(session, истина, data, idPos, idLen, context.policy.sessionLifetime);
			всё;

			(* cipher-suite selected by the server*)
			cipherSuite := 250 * кодСимв8( data[ pos] ) + кодСимв8( data[ pos + 1 ] );
			сам.session.cipherSuite := cipherSuite;
			PrepareSecurityParameters( pendingSecurityParameters, cipherSuite, res );
			если res < 0 то
				если Trace то ЛогЯдра.пСтроку8("Failed to Prepare TLS security parameters"); ЛогЯдра.пВК_ПС всё;
				возврат -1
			всё;
			PrepareConnectionState( pendingWriteState, cipherSuite, res );
			если res < 0 то
				если Trace то ЛогЯдра.пСтроку8("Failed to Prepare TLS pending write state"); ЛогЯдра.пВК_ПС всё;
				возврат -1
			всё;
			PrepareConnectionState( pendingReadState, cipherSuite, res );
			если res < 0 то
				если Trace то ЛогЯдра.пСтроку8("Failed to Prepare TLS pending read state"); ЛогЯдра.пВК_ПС всё;
				возврат -1
			всё;

			(* ignore compression method *)
			возврат AwaitCertificate
		кон ReceiveServerHello;

		проц SendServerHello( перем data: массив из симв8; ofs: размерМЗ );
			перем i, pos: размерМЗ;
		нач
			если Trace то PrintDirection(истина); ЛогЯдра.пСтроку8("ServerHello");ЛогЯдра.пВК_ПС всё;
			утв( ofs > 3 );
			pos := ofs;
			(* server version *)
			data[ pos ] := version[ 0 ];	data[ pos + 1 ] := version[ 1 ];	(* only 3.1 is supported *)
			увел( pos, 2 );
			(* server random bytes generation*)
			Create32RandomBytes( pendingSecurityParameters.serverRandom );
			нцДля i := 0 до 31 делай	data[ pos + i ] := pendingSecurityParameters.serverRandom[ i ]	кц;	(* copy random to outbuf *)
			увел( pos, 32 );
			(* session-id *)
			data[ pos ] := симв8ИзКода( session.idLength );
			увел( pos );
			нцДля i := 0 до session.idLength - 1 делай		data[ pos + i ] := session.id[ i ]		кц;	(* copy session-id to data *)
			увел( pos, session.idLength );
			(* cipher-suite *)
			data[ pos ] := симв8ИзКода( pendingSecurityParameters.cipherSuite DIV 250 );
			data[ pos + 1 ] := симв8ИзКода( pendingSecurityParameters.cipherSuite остОтДеленияНа 250 );
			увел( pos, 2 );
			(* compression-method *)
			data[ pos ] := симв8ИзКода( 0 );
			увел( pos );
			SendHandshake( data, ServerHello, ofs-4, pos-ofs )
		кон SendServerHello;

		проц SendClientKeyExchange(перем data: массив из симв8; ofs: размерМЗ): цел32;
		перем
			length: размерМЗ;
		нач
			если Trace то
				PrintDirection(истина);
				ЛогЯдра.пСтроку8("Client Key Exchange"); ЛогЯдра.пВК_ПС
			всё;
			context.GetRsaPublicKey;

			(* Premaster secret *)
			(*Utils.RandomBytes(session.preMasterSecret, 2, 46);*)
			CSPRNG.CSRand(session.preMasterSecret, 48 * 8);
			session.preMasterSecret[0] := version[0];
			session.preMasterSecret[1] := version[1];

			PKCS1.Encrypt(session.preMasterSecret, 0, 48, context.rsaPublicKey, 2, data, ofs + 2, length);
			утв(length # 0);
			data[ofs] := симв8ИзКода(length DIV 256);
			data[ofs + 1] := симв8ИзКода(length остОтДеленияНа 256);
			SendHandshake(data, ClientKeyExchange, ofs - 4, length + 2);

			(* Generate master secret. Done in the end, because premaster secret is erased. *)
			GenerateMasterSecret;
			GenerateKeys;
			InitializeConnectionState( сам.pendingWriteState, сам.pendingSecurityParameters );
			InitializeConnectionState( сам.pendingReadState, сам.pendingSecurityParameters );

			возврат GenerateChangeCipherSpec
		кон SendClientKeyExchange;

		проц ReceiveClientKeyExchange(конст data: массив из симв8; ofs, len: размерМЗ );
			перем
				encryptedPremasterSecret, premasterSecret: CryptoBigNumbers.BigNumber;
				tmp: массив 512 из симв8;
				rnd: массив 48 из симв8;
				i: размерМЗ;
				error: булево;
		нач
			увел( ofs, 2 ); умень( len, 2 );	(* the two first bytes have to be ignored *)
			если Trace то
				PrintDirection(ложь);
				ЛогЯдра.пСтроку8("ClientKeyExchange");ЛогЯдра.пВК_ПС;
			всё;
			(* Get random premaster secret in case of decryption error *)
			CSPRNG.CSRand(rnd, 48 * 8);
			(* decryption of the PreMasterSecret *)
			CryptoBigNumbers.AssignBin( encryptedPremasterSecret, data, ofs, len );
			premasterSecret := сам.context.rsaPrivateKey.Decrypt( encryptedPremasterSecret  );
			если  premasterSecret = НУЛЬ то
				если Trace то ЛогЯдра.пСтроку8("Decryption of PreMasterSecret was NOT successful!");ЛогЯдра.пВК_ПС всё;
				error := истина
			иначе
				CryptoBigNumbers.GetBinaryValue( premasterSecret, tmp, 0 );
			всё;

			(* pkcs#1 block type 2 has to be used *)
			error := ( tmp[ 0 ] # симв8ИзКода( 0 ) ) или ( tmp[ 1 ] # симв8ИзКода( 2 ) ) или error;
			если ~error то
				i := 10;	(* there are at least 8 padding bytes *)
				нцПока tmp[ i ] # симв8ИзКода( 0 ) делай	увел( i )	кц;	(* padding ends with a zero-byte *)
				увел( i );
				сам.session.SetPreMasterSecret( tmp, i );
			иначе
				сам.session.SetPreMasterSecret( rnd, 0);
			всё;

			GenerateMasterSecret( );
			GenerateKeys( );
			InitializeConnectionState( сам.pendingWriteState, сам.pendingSecurityParameters );
			InitializeConnectionState( сам.pendingReadState, сам.pendingSecurityParameters )
		кон ReceiveClientKeyExchange;

		проц ReceiveCertificate( перем data: массив из симв8; ofs, len: размерМЗ ): цел32;
		перем
			pos, length, lengthP3: цел32;
		нач
			если Trace то
				PrintDirection(ложь);
				ЛогЯдра.пСтроку8("Certificate"); ЛогЯдра.пВК_ПС;
			всё;

			(* Get Certificate Length. First 3 bytes: length + 3, next 3 bytes: length *)
			lengthP3 := кодСимв8(data[ofs]) * 256 * 256 + кодСимв8(data[ofs + 1]) * 256 + кодСимв8(data[ofs + 2]);
			length := кодСимв8(data[ofs + 3]) * 256 * 256 + кодСимв8(data[ofs + 4]) * 256 + кодСимв8(data[ofs + 5]);
			(*ASSERT(lengthP3 = length + 3);*)
			context.lengthOfRsaCertificate := length;

			(* Get content, including first 6 bytes *)
			нцДля pos := 0  до length + 5 делай
				context.rsaCertificate[pos] := data[pos + ofs]
			кц;

			(* Check certificate *)
			возврат AwaitServerHelloDone
		кон ReceiveCertificate;

		проц SendCertificate( перем data: массив из симв8; ofs: размерМЗ );
			перем i: размерМЗ;
		нач
			утв( ofs > 3 );
			если Trace то PrintDirection(истина); ЛогЯдра.пСтроку8("Certificate");ЛогЯдра.пВК_ПС всё;
			нцДля i := 0 до context.lengthOfRsaCertificate-1 делай
				data[ ofs + i ] := context.rsaCertificate[ i ];
			кц;
			SendHandshake( data, Certificate, ofs-4, context.lengthOfRsaCertificate );
		кон SendCertificate;

		проц SendServerHelloDone( перем data: массив из симв8; ofs: размерМЗ );
		нач
			утв( ofs > 3 );
			если Trace то PrintDirection(истина); ЛогЯдра.пСтроку8("ServerHelloDone");ЛогЯдра.пВК_ПС всё;
			SendHandshake( data, ServerHelloDone, ofs-4, 0 )
		кон SendServerHelloDone;

		проц ReceiveServerHelloDone(конст data: массив из симв8; ofs, len: размерМЗ): цел32;
		нач
			если Trace то PrintDirection(ложь); ЛогЯдра.пСтроку8("ServerHelloDone"); ЛогЯдра.пВК_ПС всё;
			возврат GenerateClientKeyExchange
		кон ReceiveServerHelloDone;

		проц SendFinished( перем data: массив из симв8; ofs: размерМЗ );
			перем
				seed: массив 36 из симв8;
				verifyData: массив 12 из симв8;
				i: размерМЗ;
				prf: PRF;
		нач
			если Trace то PrintDirection(истина); ЛогЯдра.пСтроку8("Finished");ЛогЯдра.пВК_ПС всё;
			утв( ofs > 3 );
			hsMD5send.GetHash( seed, 0 );	hsSHAsend.GetHash( seed, 16 );	(* concatenate md5 and sha output *)
			нов( prf, pendingSecurityParameters.PRFAlgorithm );
			если client то
				prf.GetBytes( сам.session.masterSecret, seed, verifyData, "client finished", 48, 36, 12 )
			иначе
				prf.GetBytes( сам.session.masterSecret, seed, verifyData, "server finished", 48, 36, 12 )
			всё;

			нцДля i := 0 до 11 делай
				data[ ofs + i ] := verifyData[ i ]
			кц;
			SendHandshake( data, Finished, ofs-4, 12 )
		кон SendFinished;

		проц ReceiveFinished(конст data: массив из симв8; ofs, len: размерМЗ );
			перем
				seed: массив 36 из симв8;
				verifyData: массив 12 из симв8;
				prf: PRF;
				i: размерМЗ;
		нач
			если Trace то PrintDirection(ложь); ЛогЯдра.пСтроку8("Finished"); ЛогЯдра.пВК_ПС всё;
			утв( len = 12 );
			hsMD5verify.GetHash( seed, 0 );	hsSHAverify.GetHash( seed, 16 );	(* concatenate md5 and sha output *)
			нов( prf, pendingSecurityParameters.PRFAlgorithm );
			если client то
				prf.GetBytes( сам.session.masterSecret, seed, verifyData, "server finished", 48, 36, 12 )
			иначе
				prf.GetBytes( сам.session.masterSecret, seed, verifyData, "client finished", 48, 36, 12 )
			всё;
			нцДля i := 0 до 11 делай
				если verifyData[ i ] # data[ ofs + i ] то
					SendError( DecryptError );
					возврат
				всё
			кц
		кон ReceiveFinished;

	(* **********************************************************************************
		ALERT PROTOCOL
		********************************************************************************** *)

		проц ReceiveAlert( перем data: массив из симв8; ofs, len: размерМЗ );
			перем level, description: цел32; ptr: размерМЗ;
		нач
			ptr := ofs;
			нцПока ptr < ofs + len делай	(* for each Alert-message *)
				level := кодСимв8( data[ ptr ] );
				description := кодСимв8( data[ ptr + 1 ] );
				если level = Warning то
					ReceiveWarning( description )
				аесли level = Fatal то
					ReceiveError( description )
				иначе	(* illegal level *)
					SendError( IllegalParameter )
				всё;
				увел( ptr, 2 )
			кц
		кон ReceiveAlert;

		проц ReceiveWarning( desc: цел32);
		нач
			(* always send an error; this could be more sophisticated *)
			tlsErrorCause := desc;
			SendError( CloseNotify )
		кон ReceiveWarning;

		проц ReceiveError( alertType: цел32);
		нач
			если Trace то
				PrintDirection(ложь);
				ЛогЯдра.пСтроку8("Error");ЛогЯдра.пВК_ПС;
				ЛогЯдра.пСтроку8("  alertType: ");ЛогЯдра.пЦел64(alertType, 3);ЛогЯдра.пВК_ПС;
			всё;
			если session # НУЛЬ то 		сам.session.Invalidate( )		всё;
			сам.conn.Закрой( );
			applicationDataPipe.Close();
			SetState(TCP.Closed);
		кон ReceiveError;

		проц SendWarning( alertType: цел32 );
		нач
			если Trace то
				PrintDirection(истина);
				ЛогЯдра.пСтроку8("Warning");ЛогЯдра.пВК_ПС;
				ЛогЯдра.пСтроку8("  alertType: ");ЛогЯдра.пЦел64(alertType, 3);ЛогЯдра.пВК_ПС;
			всё;
			outbuf[ 0 ] := симв8ИзКода( 1 );	(* level: warning *)
			outbuf[ 1 ] := симв8ИзКода( alertType );
			SendRecord( outbuf, Alert, 0, 2 );
		кон SendWarning;

		проц SendError( alertType: цел32 );
		нач
			если Trace то
				PrintDirection(истина);
				ЛогЯдра.пСтроку8("Error");ЛогЯдра.пВК_ПС;
				ЛогЯдра.пСтроку8("  alertType: ");ЛогЯдра.пЦел64(alertType, 3);ЛогЯдра.пВК_ПС;
			всё;
			outbuf[ 0 ] := симв8ИзКода( 2 );	(* level: fatal *)
			outbuf[ 1 ] := симв8ИзКода( alertType );
			SendRecord( outbuf, Alert, 0, 2 );
			если session # НУЛЬ то		сам.session.Invalidate( )		всё;
			сам.conn.Закрой( );
			applicationDataPipe.Close();
			SetState(TCP.Closed);
		кон SendError;

	(* **********************************************************************************
		FINITE STATE MACHINE
		********************************************************************************** *)

		проц Transition( перем data: массив из симв8; action, subAction: цел32; ofs, len: размерМЗ );
			перем dummy: массив 1 из симв8;
				res : целМЗ;
		нач
			если action = ChangeCipherSpec то
				просей handshakeState из
					| AwaitChangeSpec:
						ReceiveChangeCipherSpec( data, ofs );
						handshakeState := AwaitFinished
					| AwaitChangeSpecWithResumption:
						ReceiveChangeCipherSpec( data, ofs );
						handshakeState := AwaitFinishedWithResumption
				иначе
					SendError( UnexpectedMessage )
				всё
			аесли action = Handshake то
				если State()= ServerHandshake то
					просей handshakeState из
						| AwaitClientHello:
							если subAction = ClientHello то
								handshakeState := ReceiveClientHello( data, ofs, len );
								Transition( dummy, Handshake, 0, 0, 0 )
							аесли subAction = V2ClientHello то
								handshakeState := ReceiveV2ClientHello( data, ofs, len );
								Transition( dummy, Handshake, 0, 0, 0 )
							иначе	 (* fatal error *)
								SendError( UnexpectedMessage )
							всё
						| GenerateServerHello:	(* establish new session *)
							SendServerHello( outbuf, 4 );
							SendCertificate( outbuf, 4 );
							handshakeState := GenerateServerHelloDone;
							Transition( dummy, Handshake, 0, 0, 0 )
						| GenerateServerHelloDone:
							SendServerHelloDone( outbuf, 4 );
							handshakeState := AwaitClientKeyExchange;
						| AwaitClientKeyExchange:
							если subAction = ClientKeyExchange то
								ReceiveClientKeyExchange( data, ofs, len );
								handshakeState := AwaitChangeSpec;
							иначе (* fatal error *)
								SendError( UnexpectedMessage )
							всё
						| AwaitFinished:
							если subAction = Finished то
								ReceiveFinished( data, ofs, len );
								handshakeState := GenerateChangeCipherSpec;
								Transition( dummy, Handshake, 0, 0, 0 )
							иначе (* fatal error *)
								SendError( UnexpectedMessage )
							всё
						| GenerateChangeCipherSpec:
							SendChangeCipherSpec;
							SendFinished( outbuf, 4 );
							handshakeState := HandshakeFinished;
							SetState(TCP.Established);
							если сам.context.policy.sessionResumptionEnabled то
								сам.context.StoreSession( сам.session )
							всё
						| GenerateHelloWithResumption:	(* session resumption *)
							SendServerHello( outbuf, 4 );
							PrepareSecurityParameters( pendingSecurityParameters, pendingSecurityParameters.cipherSuite, res );
							если res < 0 то
								SendError( UnexpectedMessage )
							всё;
							PrepareConnectionState( pendingWriteState, pendingSecurityParameters.cipherSuite,res );
							если res < 0 то
								SendError( HandshakeFailure );
							всё;
							PrepareConnectionState( pendingReadState, pendingSecurityParameters.cipherSuite, res );
							если res < 0 то
								SendError( HandshakeFailure );
							всё;
							GenerateKeys( );
							InitializeConnectionState( сам.pendingWriteState, сам.pendingSecurityParameters );
							InitializeConnectionState( сам.pendingReadState, сам.pendingSecurityParameters );
							SendChangeCipherSpec;
							SendFinished( outbuf, 4 );
							handshakeState := AwaitChangeSpecWithResumption
						| AwaitFinishedWithResumption:
							если subAction = Finished то
								ReceiveFinished( data, ofs, len );
								handshakeState := HandshakeFinished;
								SetState(TCP.Established);
							иначе (* fatal error *)
								SendError( UnexpectedMessage )
							всё
					всё (* CASE *)
				аесли State() = ClientHandshake то
					просей handshakeState из
						 GenerateClientHello:
						 	SendClientHello(outbuf, 4);
						 	handshakeState := AwaitServerHello
						|AwaitServerHello:
							handshakeState := ReceiveServerHello(data, ofs, len);
						|AwaitCertificate:
							handshakeState := ReceiveCertificate(data, ofs, len);
						|AwaitServerHelloDone:
							handshakeState := ReceiveServerHelloDone(data, ofs, len);
							Transition(dummy, Handshake, 0, 0, 0)
						|GenerateClientKeyExchange:
							handshakeState := SendClientKeyExchange(outbuf, 4);
							Transition(dummy, Handshake, 0, 0, 0)
						|GenerateChangeCipherSpec:
							SendChangeCipherSpec;
							SendFinished(outbuf, 4);
							handshakeState := AwaitChangeSpec
						|AwaitChangeSpec:
							ReceiveChangeCipherSpec(data, ofs);
							handshakeState := AwaitFinished
						|AwaitFinished:
							ReceiveFinished(data, ofs, len);
							SetState(TCP.Established);
					всё
				аесли State() = TCP.Established то
					если subAction = ClientHello то (* the only handshake msg a server should receive after a finished handshake *)
						SetState(ServerHandshake);
						handshakeState := ReceiveClientHello( data, ofs, len );
						Transition( dummy, Handshake, 0, 0, 0 )
					иначе (* fatal error *)
						SendError( UnexpectedMessage )
					всё
				всё
			всё;
		кон Transition;

	(* **********************************************************************************
		UTILITIES
		********************************************************************************** *)

		проц Create32RandomBytes( перем data: массив из симв8 );
			перем i, time, date, timestamp, d, h, m, s: цел32; unixEpoch: Dates.DateTime;
		нач
			утв( длинаМассива( data ) >  31 );
			(* 28 random bytes *)
			CSPRNG.CSRand(data, 32 * 8);
			(* 4 bytes timestamp *)
			(*Clock.Get( date, time );*)
			(*timestamp := BIT.LXOR( date, time );*)
			unixEpoch.year := 1970; unixEpoch.month := 1; unixEpoch.day := 1;
			утв(Dates.ValidDateTime(unixEpoch));
			Dates.TimeDifference(Dates.Now(), unixEpoch, d, h, m, s);
			увел(s, m * 60);
			увел(s, h * 3600);
			увел(s, d * 86400);
			timestamp := s;
			нцДля i := 3 до 0 шаг -1 делай
				data[ i ] := симв8ИзКода( timestamp );
				timestamp := timestamp DIV 256
			кц;
			(*Utils.RandomBytes( data, 4, 28 )*)
		кон Create32RandomBytes;

		(** Prints the correct S > C or C > S depending on current action and state *)
		проц PrintDirection(send: булево);
		нач
			если client и send то
				ЛогЯдра.пСтроку8("CLIENT: C > S ")
			аесли client и ~send то
				ЛогЯдра.пСтроку8("CLIENT: S > C ")
			аесли ~client и send то
				ЛогЯдра.пСтроку8("SERVER: S > C ")
			иначе
				ЛогЯдра.пСтроку8("SERVER: C > S ")
			всё
		кон PrintDirection;

	нач { активное }
		если trapped то SetState(TCP.Closed); возврат всё;
		trapped := истина;

		AwaitStateNotEqual(TCP.Unused);
		если client то
			StartHandshake;
			нцДо
				ReceiveRecord
			кцПри (State() = TCP.Established) или (State() = TCP.Closed);
			если State() = TCP.Established то
				нцДо
					ReceiveRecord
				кцПри (State() = TCP.Closed) или (in.кодВозвратаПоследнейОперации # Потоки.Успех);
				Закрой
			всё
		иначе
			если State() # TCP.Listen то
				(* listen for incoming messages *)
				нцДо
					ReceiveRecord( )
				кцПри (State() = TCP.Closed) или (in.кодВозвратаПоследнейОперации # Потоки.Успех);
				Закрой();
			всё;
		всё
	кон Connection;
перем
	(*version: ARRAY 2 OF CHAR;*)
	defaultCipherPolicy: Policy;

	(** Returns a new connection with a reasonnable default policy *)
	проц GetConnection * (): Connection;
	перем
		con: Connection;
	нач
		нов(con);
		возврат con
	кон GetConnection;

	проц GetServerConnection * (конст certificate, pHex, qHex, eHex: массив из симв8; pLen, qLen, eLen: цел32): Connection;
	перем
		con: Connection;
		ctx: Context;
	нач
		нов(ctx, defaultCipherPolicy);
		если ctx.LoadRsaCertificate(certificate) # Ok то возврат НУЛЬ всё;
		ctx.LoadRsaPrivateKey(pHex, qHex, eHex, цел16(pLen), цел16(qLen), цел16(eLen));
		нов(con);
		con.SetContext(ctx);
		возврат con
	кон GetServerConnection;

	(** Prepares default ciphers for TLS v1.2 *)
	проц InitDefaults;
	перем
		defaultSuites:массив DefaultSuitesNbr из цел32;
	нач
		defaultSuites[0] := TlsRsaWithAes256CbcSha;
		defaultSuites[1] := TlsRsaWithAes128CbcSha;
		defaultSuites[2] := TlsRsaWith3DesEdeCbcSha;
		нов(defaultCipherPolicy);
		defaultCipherPolicy.SetCipherSuites(defaultSuites, DefaultSuitesNbr);
		defaultCipherPolicy.SetVersion(1, 2)
	кон InitDefaults;


нач
	InitDefaults
кон TLS.
