модуль Трассировка;	(** Автор: "fn"

	Настраиваый системный протокол. 


 Примитивом записи является заменяемая процедура Char, остальные выражаются через неё. Реализации процедуры
 Char по соглашению называются TraceChar и могут меняться по ходу загрузки и в течение жизни исполняемого
 экземпляра. 
 

 Для этого лога основное требование - полнота вывода. Поэтому он не использует блокировки - некоторые клиенты
 могут не дождаться блокировки или сломаться, дожидаясь её. Соответственно, функции в нём должны быть
 неблокирующими и реентаребльными, до возможного предела. В реальности при выводе, например, в последовательный порт,
 происходит ожидание готовности порта, поэтому трассировка может приводить к приостановке выполнения. 
 
 Следствие из этого: при одновременных вызовах из двух активностей печати строк UTF-8 байты могут идти вперемежку, 
 предотвратить это в рамках требований к Char нельзя, и это фатально для записи UTF-8, поэтому нам придётся
 пока воспользоваться транслитом, а потом сделать примитивную пр-ру для вывода CharJQ.
 
 В Win32 и Linux32 вывод Trace при нашей обычной конфигурации происходит в консоль. 



*)

использует НИЗКОУР, UCS32;

тип
	ТипПроцедуры˛реализующейВыводСимв8ДляТрассировки*= проц (с:симв8);
перем
	пСимв8*: ТипПроцедуры˛реализующейВыводСимв8ДляТрассировки;
	Процедура˛реализующаяПереключениеЦветаТрассировки*: проц (c: цел8);

проц ИмитируйЗахватВЕдиноличноеПользование*;
нач {безКооперации, безОбычныхДинПроверок}
кон ИмитируйЗахватВЕдиноличноеПользование;

проц ИмитируйОсвобождениеИзЕдиноличногоПользования*;
нач {безКооперации, безОбычныхДинПроверок} пВК_ПС;
кон ИмитируйОсвобождениеИзЕдиноличногоПользования;

(** Send the specified characters to the trace output (cf. Streams.Sender). *)
проц ЗапишиВПоток*(конст буфер: массив из симв8; начальноеСмещениеВБуфере˛байт, сколькоБайтЗаписать: размерМЗ; propagate: булево; перем кодВозврата: целМЗ);
нач {безКооперации, безОбычныхДинПроверок} увел (сколькоБайтЗаписать, начальноеСмещениеВБуфере˛байт); утв (сколькоБайтЗаписать <= длинаМассива (буфер)); нцПока начальноеСмещениеВБуфере˛байт # сколькоБайтЗаписать делай пСимв8 (буфер[начальноеСмещениеВБуфере˛байт]); увел (начальноеСмещениеВБуфере˛байт); кц; кодВозврата := 0;
кон ЗапишиВПоток;

(** Skip to the next line on trace output. *)
проц пВК_ПС*;
нач {безКооперации, безОбычныхДинПроверок} пСимв8 (0DX); пСимв8 (0AX);
кон пВК_ПС;

(** Write a string to the trace output. *)
проц пСтроку8* (конст стр: массив из симв8);
перем ч: размерМЗ; с: симв8;
нач {безКооперации, безОбычныхДинПроверок} нцДля ч := 0 до длинаМассива (стр) - 1 делай с := стр[ч]; если с = 0X то возврат всё; пСимв8 (с) кц;
кон пСтроку8;




		(** Здесь беда: при параллельном выводе байты от разных источников будут идти вперемежку! 
		    Encode one UCS-32 value in ucs into one well-formed UTF-8 character. Sm takzhe UTF8Strings.EncodeChar *)
проц пСимв32˛представленныйТипомЦел32˛вЮ8*(ucs: бцел32);
перем буф: массив 7 из симв8; byte, i, маска, макс: цел16;
нач
	если (ucs <= 7FH) то
		пСимв8(симв8ИзКода(устарПреобразуйКБолееУзкомуЦел(ucs)));
		возврат 
	иначе
		byte := 5; маска := 7F80H; макс := 3FH;
		нцПока (ucs > макс) делай
			буф[byte] := симв8ИзКода(80H + устарПреобразуйКБолееУзкомуЦел(ucs остОтДеленияНа 40H)); увел(byte, -1); (* CHR(80H + SHORT(AND(ucs, 3FH))) *)
			ucs := ucs DIV 64; (* LSH(ucs, -6) *)
			маска := маска DIV 2; (* 80H + LSH(mask, -1). Left-most bit remains set after DIV (mask is negative) *)
			макс := макс DIV 2 (* LSH(max, -1) *)
		кц;
		буф[byte] := симв8ИзКода(маска + устарПреобразуйКБолееУзкомуЦел(ucs)); 
		нцДля i := 0 до 5 - byte делай
			буф[i] := буф[i + byte] кц;
		буф[6 - byte] := 0X;
		пСтроку8(буф) всё кон пСимв32˛представленныйТипомЦел32˛вЮ8;

		(** Encode one UCS-32 value in ucs into one well-formed UTF-8 character. Sm takzhe UTF8Strings.EncodeChar *)
проц пСимв32_вЮ8*(с: UCS32.CharJQ);
нач {безКооперации, безОбычныхДинПроверок}
	пСимв32˛представленныйТипомЦел32˛вЮ8(с.UCS32CharCode) кон пСимв32_вЮ8;



(* НАЧАЛО Этот кусок есть в Streams, KernelLog и Trace, но в Trace отличаются флаги! *)

(** 
   Напечатай заканчивающуюся нулём строку UCS32 в формате UTF8.
	rezhim: 0 - просто выводит буквы
	1 - выводит буквы и завершает их нулём (как RawString)
	2 - выводит буквы в таких кавычках „“, закавычивая закрывающую кавычку, LF выводит как есть, Tab - как \t, прочие 
		управляющие буквы и буквы вне диапазона по кириллицу - в виде \NNN;
	3 - выводит буквы в таких кавычках \" "\, кавычку закавычивает, LF выводит как есть, Tab - как \t, 
		прочие управляющие буквы и буквы вне диапазона по кириллицу - в виде \NNN;  *)
проц пСтроку32*(конст з : UCS32.StringJQ; режим : бцел8);
	перем i: размерМЗ; kod : бцел32; 
нач {безКооперации, безОбычныхДинПроверок}
	i := 0;
	если режим = 2 то пСимв32˛представленныйТипомЦел32˛вЮ8(UCS32.DoubleLowDash9QuotationMark) 
	аесли режим = 3 то пСтроку8('\"') 
	всё;
	kod := з[i].UCS32CharCode;
	нц
		если i = длинаМассива(з) то
			пСимв32˛представленныйТипомЦел32˛вЮ8(UCS32.ReplacementChar); прервиЦикл всё;
		kod := з[i].UCS32CharCode;
		если kod = 0 то
			если режим = 1 то
				пСимв8(0X)
			аесли режим = 2 то
				пСимв32˛представленныйТипомЦел32˛вЮ8(UCS32.LeftDoubleQuotationMark)
			аесли режим = 3 то
				пСтроку8('"\') всё;
			возврат;
		аесли (режим = 2) и (kod = UCS32.LeftDoubleQuotationMark) то
			пСимв8("\"); пСимв32˛представленныйТипомЦел32˛вЮ8(kod)
		аесли (режим = 3) и (kod = кодСимв8('"')) то
			пСимв8("\"); пСимв32˛представленныйТипомЦел32˛вЮ8(kod)
		аесли (режим >= 2) и ((kod < кодСимв8(" ")) или (kod >= UCS32.DiapazonJunikodaSKirillicejj)) то
			если kod = UCS32.KodTAB то
				пСтроку8("\t")
			аесли (kod = UCS32.KodLF) 
				или (kod = UCS32.LeftDoubleQuotationMark)
				или (kod = UCS32.DoubleLowDash9QuotationMark) то
				пСимв32˛представленныйТипомЦел32˛вЮ8(kod)
			иначе
				пСимв8("\");
				п16ричное(kod, 0);
				пСимв8(";") всё
		иначе
			пСимв32˛представленныйТипомЦел32˛вЮ8(kod) всё;
		увел(i) кц кон пСтроку32;
	
проц пСтроку32БуквальльноС0*(конст з : UCS32.StringJQ);
нач {безКооперации, безОбычныхДинПроверок} пСтроку32(з, 1) кон пСтроку32БуквальльноС0;

проц пСтроку32_вЮ8*(конст з : UCS32.StringJQ);
нач {безКооперации, безОбычныхДинПроверок} пСтроку32(з, 0) кон пСтроку32_вЮ8;


(* КОНЕЦ Этот кусок есть в Streams, KernelLog и Trace *)


(** Write a string to the trace output and skip to next line. *)
проц StringLn* (конст стр: массив из симв8);
нач {безКооперации, безОбычныхДинПроверок} пСтроку8 (стр); пВК_ПС;
кон StringLn;

(** Write a character. *)
проц пЦел64* (з: цел64; ширинаПоля: размерМЗ);
перем i: размерМЗ; x0: цел64; a: массив 21 из симв8;
нач {безКооперации, безОбычныхДинПроверок}
	если з < 0 то
		если з = матМинимум (цел64) то
			умень (ширинаПоля, 20);
			нцПока ширинаПоля > 0 делай пСимв8 (' '); умень (ширинаПоля) кц;
			пСтроку8 ("-9223372036854775808");
			возврат
		иначе
			умень (ширинаПоля); x0 := -з
		всё
	иначе
		x0 := з
	всё;
	i := 0;
	нцДо
		a[i] := симв8ИзКода (x0 остОтДеленияНа 10 + 30H); x0 := x0 DIV 10; увел (i)
	кцПри x0 = 0;
	нцПока ширинаПоля > i делай пСимв8 (' '); умень (ширинаПоля) кц;
	если з < 0 то пСимв8 ('-') всё;
	нцДо умень (i); пСимв8 (a[i]) кцПри i = 0
кон пЦел64;

проц пБулево* (з : булево);
нач {безКооперации, безОбычныхДинПроверок} если з то пСтроку8 ("TRUE") иначе пСтроку8 ("FALSE") всё
кон пБулево;

(** Write "x" as a decimal number with a power-of-two multiplier (K, M or G), followed by "suffix". "w" is the field width, excluding "suffix". *)
проц пОбъёмПамятиСРазмерностью* (з: цел64; ширина: размерМЗ; конст суффикс: массив из симв8);
конст K = 1024; M = K*K; G = K*M;
перем mult: симв8;
нач {безКооперации, безОбычныхДинПроверок}
	если з остОтДеленияНа K # 0 то
		пЦел64 (з, ширина)
	иначе
		если з остОтДеленияНа M # 0 то mult := 'K'; з := з DIV K
		аесли з остОтДеленияНа G # 0 то mult := 'M'; з := з DIV M
		иначе mult := 'G'; з := з DIV G
		всё;
		пЦел64 (з, ширина-1); пСимв8 (mult)
	всё;
	пСтроку8 (суффикс)
кон пОбъёмПамятиСРазмерностью;

(**
	Write an integer in hexadecimal right-justified in a field of at least ABS(w) characters.
	If w < 0 THEN w least significant hex digits of x are written (possibly including leading zeros)
*)
проц п16ричное*(з: цел64; ширина: размерМЗ );
перем i: размерМЗ;
	буф: массив 2*размер16_от(цел64)+2 из симв8;
	neg: булево;
	ч: цел64;
нач {безКооперации, безОбычныхДинПроверок}
	если ширина >= 0 то
		i:= 0;
		если з < 0 то neg := истина; з :=-з аесли з=0 то буф := "0" иначе neg := ложь всё;
		i := 0;
		нцДо
			ч := з остОтДеленияНа 10H;
			если ч < 10 то буф[i] := симв8ИзКода(ч+кодСимв8("0")) иначе буф[i] := симв8ИзКода(ч-10+кодСимв8("A")) всё;
			з := з DIV 10H;
			увел(i);
		кцПри (i = 2 * размер16_от(цел64)) или (з=0);
		если ч > 9 то буф[i] := "0"; увел(i) всё;
		если neg то буф[i] := "-"; увел(i) всё;
		нцПока(ширина > i) делай пСимв8(" "); умень(ширина); кц;
		нцДо умень(i); пСимв8(буф[i]); кцПри i=0;
	иначе
		ширина := -ширина;
		нцПока(ширина>2*размер16_от(цел64)) делай
			пСимв8(" "); умень(ширина);
		кц;
		буф[ширина] := 0X;
		нцДо
			умень(ширина);
			ч := з остОтДеленияНа 10H;
			если ч <10 то буф[ширина] := симв8ИзКода(ч+кодСимв8("0")) иначе буф[ширина] := симв8ИзКода(ч-10+кодСимв8("A")) всё;
			з := з DIV 10H;
		кцПри ширина = 0;
		пСтроку8(буф);
	всё;

кон п16ричное;

(** Write "x" as a hexadecimal address *)
проц пАдресВПамяти* (з: адресВПамяти);
нач {безКооперации, безОбычныхДинПроверок}
	п16ричное(з,-2*размер16_от(адресВПамяти));
кон пАдресВПамяти;

(** Write "x" as a size *)
проц пРазмерМЗ* (з: размерМЗ);
нач {безКооперации, безОбычныхДинПроверок}
	пЦел64(з,0);
кон пРазмерМЗ;

(** Write "x" as a hexadecimal number. "w" is the field width. Always prints 16 digits. *)
проц п16ричноеДубликат* (з: цел64; ширина: размерМЗ);
нач {безКооперации, безОбычныхДинПроверок} п16ричное (з, ширина);
кон п16ричноеДубликат;

(** Write a block of memory in hex. *)
проц пБлокПамяти16рично* (вхАдр: адресВПамяти; вхРазм˛байт: размерМЗ);
перем i, j: адресВПамяти; с: симв8;
нач {безКооперации, безОбычныхДинПроверок}
	вхРазм˛байт := вхАдр+вхРазм˛байт-1;
	нцДля i := вхАдр до вхРазм˛байт шаг 16 делай
		пАдресВПамяти (i); пСимв8 (' ');
		нцДля j := i до i+15 делай
			если j <= вхРазм˛байт то
				НИЗКОУР.прочтиОбъектПоАдресу (j, с);
				пСимв8(' ');
				п16ричное (кодСимв8 (с), -2)
			иначе
				пСимв8 (' ');
				пСимв8 (' ');
				пСимв8 (' ');
			всё
		кц;
		пСимв8 (' '); пСимв8 (' ');
		нцДля j := i до i+15 делай
			если j <= вхРазм˛байт то
				НИЗКОУР.прочтиОбъектПоАдресу (j, с);
				если (с < ' ') или (с >= симв8ИзКода (127)) то с := '.' всё;
				пСимв8 (с)
			всё
		кц;
		пВК_ПС
	кц;
кон пБлокПамяти16рично;

(* Write basic stack frame information *)
проц пКадрыСтека- (пропуститьКадров, квоКадров, максКвоБайтВывестиВКаждомКадре: размерМЗ);
перем frame {неОтслСборщиком}: укль {опасныйДоступКПамяти} на запись descriptor, previous, caller, parameters: адресВПамяти кон;
нач {безКооперации, безОбычныхДинПроверок}
	frame := операцияАдресОт frame + размерОт адресВПамяти;
	нцПока пропуститьКадров # 0 делай
		frame := frame.previous;
		если frame = НУЛЬ то возврат всё;
		умень (пропуститьКадров);
	кц;
	нцПока квоКадров # 0 делай
		пАдресВПамяти (frame.caller); пСимв8 (':'); пВК_ПС;
		если frame.previous = НУЛЬ то возврат всё;
		если frame.previous - операцияАдресОт frame.descriptor <= максКвоБайтВывестиВКаждомКадре то
			пБлокПамяти16рично (операцияАдресОт frame.parameters, frame.previous - операцияАдресОт frame.descriptor);
		аесли максКвоБайтВывестиВКаждомКадре # 0 то
			пБлокПамяти16рично (операцияАдресОт frame.parameters, максКвоБайтВывестиВКаждомКадре); пСтроку8 ("..."); пВК_ПС;
		всё;
		умень (квоКадров); frame := frame.previous;
	кц;
	нцПока frame.previous # НУЛЬ делай увел (квоКадров); frame := frame.previous кц;
	если квоКадров # 0 то пСимв8 ('+'); пЦел64 (квоКадров, 0); пВК_ПС; всё;
кон пКадрыСтека;

(** Write a buffer in hex. *)
проц пСрезБуфера16рично* (конст з: массив из симв8; начальноеСмещениеВБуфере˛байт, сколькоБайтВывести: размерМЗ);
нач {безКооперации, безОбычныхДинПроверок} пБлокПамяти16рично (адресОт (з[начальноеСмещениеВБуфере˛байт]), сколькоБайтВывести)
кон пСрезБуфера16рично;

(** Write bits (ofs..ofs+n-1) of x in binary. *)
проц пМнвоНаБитахМЗКакБиты* (з: мнвоНаБитахМЗ; начСмещение˛бит, сколькоБитВывести: размерМЗ);
нач {безКооперации, безОбычныхДинПроверок}
	нцДо
		умень (сколькоБитВывести);
		если (начСмещение˛бит+сколькоБитВывести) в з то пСимв8 ('1') иначе пСимв8 ('0') всё
	кцПри сколькоБитВывести = 0
кон пМнвоНаБитахМЗКакБиты;

проц пМнвоНаБитахМЗКакЧисла*(з: мнвоНаБитахМЗ);
перем первое: булево; i: размерМЗ;
нач
	первое := истина;
	пСимв8("{");
	нцДля i := 0 до матМаксимум(мнвоНаБитахМЗ) делай
		если i в з то
			если ~первое то пСимв8(",") иначе первое := ложь всё;
			пЦел64(i,1);
		всё;
	кц;
	пСимв8("}");
кон пМнвоНаБитахМЗКакЧисла;


(** Colors *)
проц ПишиСиним*;
нач {безКооперации, безОбычныхДинПроверок} Процедура˛реализующаяПереключениеЦветаТрассировки (9);
кон ПишиСиним;

проц ПишиЗелёным*;
нач {безКооперации, безОбычныхДинПроверок} Процедура˛реализующаяПереключениеЦветаТрассировки (10);
кон ПишиЗелёным;

проц ПишиКрасным*;
нач {безКооперации, безОбычныхДинПроверок} Процедура˛реализующаяПереключениеЦветаТрассировки (12);
кон ПишиКрасным;

проц ПишиЖёлтым*;
нач {безКооперации, безОбычныхДинПроверок} Процедура˛реализующаяПереключениеЦветаТрассировки (14);
кон ПишиЖёлтым;

проц ПишиЦветомПоУмолчанию*;
нач {безКооперации, безОбычныхДинПроверок} Процедура˛реализующаяПереключениеЦветаТрассировки (7);
кон ПишиЦветомПоУмолчанию;

проц ЗаглушкаДляПСимв8(з: симв8);
нач {безКооперации, безОбычныхДинПроверок}
кон ЗаглушкаДляПСимв8;

проц ЗаглушкаДляПроцедуры˛реализующейПереключениеЦветаТрассировки(ц: цел8);
нач {безКооперации, безОбычныхДинПроверок}
кон ЗаглушкаДляПроцедуры˛реализующейПереключениеЦветаТрассировки;

проц Настройся*;
нач {безКооперации, безОбычныхДинПроверок}
	пСимв8 := ЗаглушкаДляПСимв8;
	Процедура˛реализующаяПереключениеЦветаТрассировки := ЗаглушкаДляПроцедуры˛реализующейПереключениеЦветаТрассировки;
кон Настройся;


(* NapechatajjKodyBukvStringJQ - отладочная утилита, к-рую можно использовать, если непонятно, что же находится в нашей строке. 
   Она же открывает нам знание о том, что строковый литерал в виде текста - это не идеальная форма представления строкового 
   литерала, поскольку он не читается с экрана. Не факт, что ей место именно здесь.
   
   См. также NapechatajjKodyBukvArrayOfChar *)
проц НапечатайКодыБуквСтроки32*(конст з : UCS32.StringJQ; заКонцомТоже : булево); 
перем i : размерМЗ;
нач
	нц 
		если i = длинаМассива(з) - 1 то 
			пВК_ПС; прервиЦикл всё;
		пЦел64(i,0); пСтроку8("="); пЦел64(з[i].UCS32CharCode,0); 
		если i остОтДеленияНа 16 = 15 то 
			пВК_ПС
		иначе
			пСтроку8(" ") всё;
		если (з[i].UCS32CharCode = 0) и ~заКонцомТоже то 
			пВК_ПС; прервиЦикл всё; 
		увел(i) кц кон НапечатайКодыБуквСтроки32;


(* NapechatajjKodyBukvArrayOfChar - печатает коды знаков в ARRAY OF CHAR. *)
проц НапечатайКодыБуквСтроки8*(конст з : массив из симв8; заКонцомТоже : булево); 
перем i : размерМЗ;
нач
	нц 
		если i = длинаМассива(з) - 1 то 
			пВК_ПС; прервиЦикл всё;
		пЦел64(i,0); пСтроку8("="); пЦел64(кодСимв8(з[i]),0); 
		если i остОтДеленияНа 16 = 15 то 
			пВК_ПС
		иначе
			пСтроку8(" ") всё;
		если (кодСимв8(з[i]) = 0) и ~заКонцомТоже то 
			пВК_ПС; прервиЦикл всё; 
		увел(i) кц кон НапечатайКодыБуквСтроки8;

(*
BEGIN
	Char := NullChar;
	Color := NullColor;
	*)
кон Трассировка.

