модуль UsbFTDI;  (** AUTHOR "neuf"; PURPOSE "FTDI FT232BM USB-RS232 Converter Driver"; *)
(**
 * This is a A2 port of ftdi-sio.c, ftdi-sio.h.
 *
 * Usage:
 *
 *	UsbFTDI.Install ~ loads this driver
 *	System.Free UsbFTDI ~
 *
 * Status: BETA
 *
 * References:
 *
 *	UsbRS232.Mod by staubesv
 *	ftdi-sio.c Linux FTDI device driver
 *	ftdi-sio.h contains some documentation
 *
 * History:
 *
 *	26.09.2009	First Release (neuf)
 *	9.11.2012 Patched a bug in Send (COPY copies only until 0X), added some time tracing when buffer overflows (fof)
 *
 * Todo:
 *	- Correct Set(Get)LCR(MCR)
 *	- use PurgeTx(Rx) (in Port.Close?)
 * 	- use SetEvent(Error)Char (necessary?)
 *	- testing
 *)

использует Usb (* for init of Usbdi.drivers ! *), НИЗКОУР, Kernel, ЛогЯдра, Modules, Serials, Usbdi;

конст

	Name = "UsbFtdi";
	Description = "USB-RS232 Interface Converter Driver (FT232BM)";
	Priority = 0;

	BufSize = 8192;

	TraceSend = {0};				(* Display sent characters *)
	TraceReceive = {1};			(* Display received characters *)
	TraceCommands = {2};
	TraceReceiveData = {3};
	TraceReceiveStatus = {4};
	(*TraceAll = {0..31};*)
	TraceNone = {};

(*	Trace = TraceReceive+TraceReceiveStatus+TraceReceiveData;*)
	Trace = TraceNone;

	Debug = истина;
	Verbose = истина;

	ModuleName = "UsbFTDI";

	(* ------- FTDI specific data ----------- *)
	(* IDs *)
	IdVendorFTDI = 0403H;
	IdProductFT232 = 6001H;

	(* Expected endpoints *)
	EpBulkOut = 02H; 	(* Used to send data *)
	EpBulkIn = 081H; 	(* Used to receive data *)

	(* request types (for convenience all of they collect here)*)
	FtdiReset=0;			(* Reset the port *)
	FtdiModemCtrl=1;		(* Set the modem control register *)
	FtdiSetFlowCtrl=2;		(* Set flow control register *)
	FtdiSetBaudrate=3;		(* Set baud rate *)
	FtdiSetData=4;			(* Set the data characteristics of the port *)
	FtdiGetModemStatus=5;	(* Retrieve current value of modern status register *)
	FtdiSetEventChar=6;		(* Set the event character *)
	FtdiSetErrorChar=7;		(* Set the error character *)

	(* Port Identifier Table (not used for now)*)
(*
	PitDefault=0; (* SIOA *)
	PitSioA=1; (* SIOA *)
	(* The device this driver is tested with one has only one port *)
	PitSioB=2; (* SIOB *)
	PitParallel=	3; (* Parallel *)
*)

	(* FtdiRESET *)
	(*
	* BmRequestType:  0100 0000B
	* bRequest:       FtdiRESET
	* wValue:         Control Value
	*                   0 = Reset SIO
	*                   1 = Purge RX buffer
	*                   2 = Purge TX buffer
	* wIndex:         Port
	* wLength:        0
	* Data:           None
	*
	* The Reset SIO command has this effect:
	*
	*    Sets flow control set to 'none'
	*    Event char = $0D
	*    Event trigger = disabled
	*    Purge RX buffer
	*    Purge TX buffer
	*    Clear DTR
	*    Clear RTS
	*    baud and data format not reset
	*
	* The Purge RX and TX buffer commands affect nothing except the buffers
	*
	*)
	(*FtdiResetRequestType=40H;*)
	FtdiResetRequest=FtdiReset;
	FtdiResetSio=0;
	FtdiResetPurgeRx=1;
	FtdiResetPurgeTx=2;


	(* FtdiSET_BAUDRATE *)
	(*
	* BmRequestType:  0100 0000B
	* bRequest:       FtdiSET_BAUDRATE
	* wValue:         BaudDivisor value - see below
	* wIndex:         Port
	* wLength:        0
	* Data:           None
	* The BaudDivisor values are calculated as follows:
	* - BaseClock is either 12000000 or 48000000 depending on the device. FIXME: I wish
	*   I knew how to detect old chips to select proper base clock!
	* - BaudDivisor is a fixed point number encoded in a funny way.
	*   (--WRONG WAY OF THINKING--)
	*   BaudDivisor is a fixed point number encoded with following bit weighs:
	*   (-2)(-1)(13..0). It is a radical with a denominator of 4, so values
	*   end with 0.0 (00...), 0.25 (10...), 0.5 (01...), and 0.75 (11...).
	*   (--THE REALITY--)
	*   The both-bits-set has quite different meaning from 0.75 - the chip designers
	*   have decided it to mean 0.125 instead of 0.75.
	*   This info looked up in FTDI application note "FT8U232 DEVICES \ Data Rates
	*   and Flow Control Consideration for USB to RS232".
	* - BaudDivisor = (BaseClock / 16) / BaudRate, where the (=) operation should
	*   automagically re-encode the resulting value to take fractions into consideration.
	* As all values are integers, some bit twiddling is in order:
	*   BaudDivisor = (BaseClock / 16 / BaudRate) |
	*   (((BaseClock / 2 / BaudRate) & 4) ? 0x4000    // 0.5
	*    : ((BaseClock / 2 / BaudRate) & 2) ? 0x8000  // 0.25
	*    : ((BaseClock / 2 / BaudRate) & 1) ? 0xc000  // 0.125
	*    : 0)
	*
	* For the FT232BM, a 17th divisor bit was introduced to encode the multiples
	* of 0.125 missing from the FT8U232AM.  Bits 16 to 14 are coded as follows
	* (the first four codes are the same as for the FT8U232AM, where bit 16 is
	* always 0):
	*   000 - add .000 to divisor
	*   001 - add .500 to divisor
	*   010 - add .250 to divisor
	*   011 - add .125 to divisor
	*   100 - add .375 to divisor
	*   101 - add .625 to divisor
	*   110 - add .750 to divisor
	*   111 - add .875 to divisor
	* Bits 15 to 0 of the 17-bit divisor are placed in the urb value.  Bit 16 is
	* placed in bit 0 of the urb index.
	*
	* Note that there are a couple of special cases to support the highest baud
	* rates.  If the calculated divisor value is 1, this needs to be replaced with
	* 0.  Additionally for the FT232BM, if the calculated divisor value is 0x4001
	* (1.5), this needs to be replaced with 0x0001 (1) (but this divisor value is
	* not supported by the FT8U232AM).
	*)
	(*FtdiSetBaudrateRequestType=40H;*)
	FtdiSetBaudrateRequest=FtdiSetBaudrate;

	(* FtdiData *)
	(*
	* BmRequestType:  0100 0000B
	* bRequest:       FtdiData
	* wValue:         Data characteristics (see below)
	* wIndex:         Port
	* wLength:        0
	* Data:           No
	*
	* Data characteristics
	*
	*   B0..7   Number of data bits
	*   B8..10  Parity
	*           0 = None
	*           1 = Odd
	*           2 = Even
	*           3 = Mark
	*           4 = Space
	*   B11..13 Stop Bits
	*           0 = 1
	*           1 = 1.5
	*           2 = 2
	*   B14
	*           1 = TX ON (break)
	*           0 = TX OFF (normal state)
	*   B15 Reserved
	*
	*)
	(*FtdiSetDataRequestType=40H;*)
	FtdiSetDataRequest=FtdiSetData;
	FtdiSetData5=5;
	FtdiSetData6=6;
	FtdiSetData7=7;
	FtdiSetData8=8;
	FtdiSetDataParityNone={};(*(0x0 << 8 )*)
	FtdiSetDataParityOdd={8};(*(0x1 << 8 )*)
	FtdiSetDataParityEven={9};(*(0x2 << 8 )*)
	FtdiSetDataParityMark={8,9};(*(0x3 << 8 )*)
	FtdiSetDataParitySpace={10};(*(0x4 << 8 )*)
	FtdiSetDataStopBits1={};(*(0x0 << 11 )*)
	FtdiSetDataStopBits15={11};(*(0x1 << 11 )*)
	FtdiSetDataStopBits2={12};(*(0x2 << 11 )*)
	FtdiSetDataBreak={14};(*(0x1 << 14)*)

	(* FtdiModemCtrl *)
	(*
	* BmRequestType:   0100 0000B
	* bRequest:        FtdiModemCtrl
	* wValue:          ControlValue (see below)
	* wIndex:          Port
	* wLength:         0
	* Data:            None
	*
	* NOTE: If the device is in RTS/CTS flow control, the RTS set by this
	* command will be IGNORED without an error being returned
	* Also - you can not set DTR and RTS with one control message
	* ControlValue
	* B0    DTR state
	*          0 = reset
	*          1 = set
	* B1    RTS state
	*          0 = reset
	*          1 = set
	* B2..7 Reserved
	* B8    DTR state enable
	*          0 = ignore
	*          1 = use DTR state
	* B9    RTS state enable
	*          0 = ignore
	*          1 = use RTS state
	* B10..15 Reserved
	*)
	(*FtdiModemCtrlRequestType=40H;*)
	FtdiModemCtrlRequest=FtdiModemCtrl;
	FtdiDtrMask=0;
	(*
	FtdiDtrHigh={0,8}(*right???*);(*( 1 | ( FtdiDtrMASK  << 8))*)
	FtdiDtrLow={0}(*right???*);(*( 0 | ( FtdiDtrMASK  << 8))*)
	*)
	FtdiRtsMask=1;
	(*
	FtdiRtsHigh={1,9}(*right???*);(*( 2 | ( FtdiRtsMASK << 8 ))*)
	FtdiRtsLow={1}(*right???*);(*( 0 | ( FtdiRtsMASK << 8 ))*)
	*)

	(* FtdiFlowCtrl *)
	(*
	*   BmRequestType:  0100 0000b
	*   bRequest:       FtdiFlowCtrl
	*   wValue:         Xoff/Xon
	*   wIndex:         Protocol/Port - hIndex is protocl / lIndex is port
	*   wLength:        0
	*   Data:           None
	*
	* hIndex protocol is:
	*   B0 Output handshaking using RTS/CTS
	*       0 = disabled
	*       1 = enabled
	*   B1 Output handshaking using DTR/DSR
	*       0 = disabled
	*       1 = enabled
	*   B2 Xon/Xoff handshaking
	*       0 = disabled
	*       1 = enabled
	*
	* A value of zero in the hIndex field disables handshaking
	*
	* If Xon/Xoff handshaking is specified, the hValue field should contain the XOFF character
	* and the lValue field contains the XON character.
	*)

	(*FtdiFlowCtrlRequestType=40H;*)
	FtdiFlowCtrlRequest=FtdiSetFlowCtrl;
	FtdiDisableFlowCtrl={}; (*0x0*)
	FtdiRtsCtsHs={8}(*right???*);(*(0x1 << 8)*)
	FtdiDtrDsrHs={9}(*right???*);(*(0x2 << 8)*)
	FtdiXonXoffHs={10}(*right???*);(*(0x4 << 8)*)

	(*
	* FtdiEventCHAR
	*
	* Set the special event character for the specified communications port.
	* If the device sees this character it will immediately return the
	* data read so far - rather than wait 40ms or until 62 bytes are read
	* which is what normally happens.
	*  BmRequestType:   0100 0000b
	*  bRequest:        FtdiEventChar
	*  wValue:          EventChar
	*  wIndex:          Port
	*  wLength:         0
	*  Data:            None
	*
	* wValue:
	*   B0..7   Event Character
	*   B8      Event Character Processing
	*             0 = disabled
	*             1 = enabled
	*   B9..15  Reserved
	*
	*)
	(*FtdiEventCharRequestType=40H;*)
	FtdiEventCharRequest=FtdiSetEventChar;



	(* FtdiErrorChar *)
	(* Set the parity error replacement character for the specified communications port *)
	(*
	*  BmRequestType:  0100 0000b
	*  bRequest:       FtdiEventCHAR
	*  wValue:         Error Char
	*  wIndex:         Port
	*  wLength:        0
	*  Data:           None
	*
	*Error Char
	*  B0..7  Error Character
	*  B8     Error Character Processing
	*           0 = disabled
	*           1 = enabled
	*  B9..15 Reserved
	*
	*)
	(*FtdiErrorCharRequestType=40H;*)
	FtdiErrorCharRequest=FtdiSetErrorChar;

	(* FtdiGetModemSTATUS *)
	(* Retreive the current value of the modem status register *)
	(*
	*   BmRequestType:   1100 0000b
	*   bRequest:        FtdiGetModemSTATUS
	*   wValue:          zero
	*   wIndex:          Port
	*   wLength:         1
	*   Data:            Status
	*
	* One byte of data is returned
	* B0..3 0
	* B4    CTS
	*         0 = inactive
	*         1 = active
	* B5    DSR
	*         0 = inactive
	*         1 = active
	* B6    Ring Indicator (RI)
	*         0 = inactive
	*         1 = active
	* B7    Receive Line Signal Detect (RLSD)
	*         0 = inactive
	*         1 = active
	*)
	(*FtdiGetModemStatusRequestType=0C0H; (ToHost+Vendor+Device)*)
	FtdiGetModemStatusRequest=FtdiGetModemStatus;
	FtdiCtsMask=4;(* 0x10*)
	FtdiDsrMask=5;(* 0x20*)
	FtdiRiMask=6;(* 0x40*)
	FtdiRlsdMask=7;(*0x80*)



(* Descriptors returned by the device
 *
 *  Device Descriptor
 *
 * Offset	Field			Size		Value	Description
 * 0			bLength				1	0x12	Size of descriptor in bytes
 * 1			bDescriptorType		1	0x01	DEVICE Descriptor Type
 * 2			bcdUSB				2	0x0110	USB Spec Release Number
 * 4			bDeviceClass		1	0x00	Class Code
 * 5			bDeviceSubClass	1	0x00	SubClass Code
 * 6			bDeviceProtocol		1	0x00	Protocol Code
 * 7			bMaxPacketSize0	1	0x08	Maximum packet size for endpoint 0
 * 8			idVendor			2	0x0403	Vendor ID
 * 10		idProduct			2	0x8372	Product ID (FtdiPID)
 * 12		bcdDevice			2	0x0001	Device release number
 * 14		iManufacturer		1	0x01	Index of man. string desc
 * 15		iProduct			1	0x02	Index of prod string desc
 * 16		iSerialNumber		1	0x02	Index of serial nmr string desc
 * 17		bNumConfigurations 1    0x01	Number of possible configurations
 *
 * Configuration Descriptor
 *
 * Offset	Field			Size	Value
 * 0	bLength			1	0x09	Size of descriptor in bytes
 * 1	bDescriptorType		1	0x02	CONFIGURATION Descriptor Type
 * 2	wTotalLength		2	0x0020	Total length of data
 * 4	bNumInterfaces		1	0x01	Number of interfaces supported
 * 5	bConfigurationValue	1	0x01	Argument for SetCOnfiguration() req
 * 6	iConfiguration		1	0x02	Index of config string descriptor
 * 7	bmAttributes		1	0x20	Config characteristics Remote Wakeup
 * 8	MaxPower		1	0x1E	Max power consumption
 *
 * Interface Descriptor
 *
 * Offset	Field			Size	Value
 * 0	bLength			1	0x09	Size of descriptor in bytes
 * 1	bDescriptorType		1	0x04	INTERFACE Descriptor Type
 * 2	bInterfaceNumber	1	0x00	Number of interface
 * 3	bAlternateSetting	1	0x00	Value used to select alternate
 * 4	bNumEndpoints		1	0x02	Number of endpoints
 * 5	bInterfaceClass		1	0xFF	Class Code
 * 6	bInterfaceSubClass	1	0xFF	Subclass Code
 * 7	bInterfaceProtocol	1	0xFF	Protocol Code
 * 8	iInterface		1	0x02	Index of interface string description
 *
 * IN Endpoint Descriptor
 *
 * Offset	Field			Size	Value
 * 0	bLength			1	0x07	Size of descriptor in bytes
 * 1	bDescriptorType		1	0x05	ENDPOINT descriptor type
 * 2	bEndpointAddress	1	0x82	Address of endpoint
 * 3	bmAttributes		1	0x02	Endpoint attributes - Bulk
 * 4	bNumEndpoints		2	0x0040	maximum packet size
 * 5	bInterval		1	0x00	Interval for polling endpoint
 *
 * OUT Endpoint Descriptor
 *
 * Offset	Field			Size	Value
 * 0	bLength			1	0x07	Size of descriptor in bytes
 * 1	bDescriptorType		1	0x05	ENDPOINT descriptor type
 * 2	bEndpointAddress	1	0x02	Address of endpoint
 * 3	bmAttributes		1	0x02	Endpoint attributes - Bulk
 * 4	bNumEndpoints		2	0x0040	maximum packet size
 * 5	bInterval		1	0x00	Interval for polling endpoint
 *
 * DATA FORMAT
 *
 * IN Endpoint
 *
 * The device reserves the first two bytes of data on this endpoint to contain the current
 * values of the modem and line status registers. In the absence of data, the device
 * generates a message consisting of these two status bytes every 40 ms
 *
 * Byte 0: Modem Status
 *
 * Offset	Description
 * B0	Reserved - must be 1
 * B1	Reserved - must be 0
 * B2	Reserved - must be 0
 * B3	Reserved - must be 0
 * B4	Clear to Send (CTS)
 * B5	Data Set Ready (DSR)
 * B6	Ring Indicator (RI)
 * B7	Receive Line Signal Detect (RLSD)
 *
 * Byte 1: Line Status
 *
 * Offset	Description
 * B0	Data Ready (DR)
 * B1	Overrun Error (OE)
 * B2	Parity Error (PE)
 * B3	Framing Error (FE)
 * B4	Break Interrupt (BI)
 * B5	Transmitter Holding Register (THRE)
 * B6	Transmitter Empty (TEMT)
 * B7	Error in RCVR FIFO
 *
 *)
 FtdiRs0Cts=4;(*(1 << 4)*)
 FtdiRs0Dsr=5;(*(1 << 5)*)
 FtdiRs0Ri=6;(*(1 << 6)*)
 FtdiRs0Rlsd=7;(*(1 << 7)*)

 FtdiRsDr=0;  (*1*)
 FtdiRsOe=1; (*(1<<1)*)
 FtdiRsPe=2; (*(1<<2)*)
 FtdiRsFe=3; (*(1<<3)*)
 FtdiRsBi=4; (*(1<<4)*)
 FtdiRsThre=5; (*(1<<5)*)
 FtdiRsTempt=6; (*(1<<6)*)
 FtdiRsFifo=7;  (*(1<<7)*)

(*
 * OUT Endpoint
 *
 * This device reserves the first bytes of data on this endpoint contain the length
 * and port identifier of the message. For the FTDI USB Serial converter the port
 * identifier is always 1.
 *
 * Byte 0: Line Status
 *
 * Offset	Description
 * B0	Reserved - must be 1
 * B1	Reserved - must be 0
 * B2..7	Length of message - (not including Byte 0)
 *
 *)


тип

	UsbFtdiDriver = окласс (Usbdi.Driver)
	перем
		port : Port;
		controlPipe : Usbdi.Pipe;
		bulkIn: Usbdi.Pipe;
		bulkOut : Usbdi.Pipe;
		data1, data4, data64 : Usbdi.BufferPtr; (* datax -> ARRAY x OF CHAR *)
		status2 : Usbdi.BufferPtr;
		diagnostics : мнвоНаБитахМЗ;
		msr : мнвоНаБитахМЗ; (* Modem Status Register: Updated by UpdateStatus() & GetMSR *)
		lsr : мнвоНаБитахМЗ;   (* Line Status Register: Updated by UpdateStatus() *)
		mcr : мнвоНаБитахМЗ; (* Modem Control Register *)
		lcr : мнвоНаБитахМЗ;   (* Line Control Register *)
		mc : мнвоНаБитахМЗ; (*  Serials.DTR, Serials.RTS, Serials.DSR, Serials.CTS, Serials.RI, Serials.DCD & Serials.BI (Break Interrupt) *)

		проц {перекрыта}Connect() : булево;
		перем ignore : Usbdi.Status;
		нач
			(* Get default control pipe *)
			controlPipe := device.GetPipe(0);
			если controlPipe = НУЛЬ то
				если Debug то ShowModule("Couldn't get default control pipe."); ЛогЯдра.пВК_ПС; всё;
				возврат ложь;
			всё;

			(* Get bulk in pipes *)
			bulkIn := device.GetPipe(EpBulkIn);
			если (bulkIn = НУЛЬ) то
				если Debug то ShowModule("Couldn't get in pipes."); ЛогЯдра.пВК_ПС; всё;
				возврат ложь;
			всё;

			(* Get bulk out pipe *)
			bulkOut := device.GetPipe(EpBulkOut);
			если bulkOut = НУЛЬ то
				если Debug то ShowModule("Couldn't get bulk out pipe."); ЛогЯдра.пВК_ПС; всё;
				возврат ложь;
			всё;

			(* the interrupt pipe for endpoint EpInterruptStatus is used to asynchronously receive status information... set up the USB transfers. *)
			bulkIn.SetTimeout(0);
			нов(port); port.driver := сам; (* port is used in completion handler, must be set up here *)
			bulkIn.SetCompletionHandler(UpdateDataStatus);
			ignore := bulkIn.Transfer(64, 0, data64^);

			(* Reset device *)
			если ~Reset() то
				если Debug то ShowModule("GetMSR failed during connect."); ЛогЯдра.пВК_ПС; всё;
				возврат ложь;
			всё;



			(* Get Modem Status Register (MSR) *)
			если ~GetMSR(msr) то
				если Debug то ShowModule("GetMSR failed during connect."); ЛогЯдра.пВК_ПС; всё;
				возврат ложь;
			всё;



			(* Register port at Serials *)
			Serials.RegisterPort(port, Description);
			возврат истина;
		кон Connect;

		проц {перекрыта}Disconnect;
		нач
			если Debug то ShowModule("Driver Disconnected"); ЛогЯдра.пВК_ПС; всё;
			Serials.UnRegisterPort(сам.port);
		кон Disconnect;

		проц ResetCmd(type:цел32):булево;
		перем status : Usbdi.Status;
		нач
			(*
			usb_control_msg(serial->dev, usb_sndctrlpipe(serial->dev, 0),

			FTDI_SIO_RESET_REQUEST, FTDI_SIO_RESET_REQUEST_TYPE,

			FTDI_SIO_RESET_SIO,

			0, buf, 0, WDR_TIMEOUT);
			*)
			status := device.Request(Usbdi.ToDevice + Usbdi.Vendor + Usbdi.Device, FtdiResetRequest, type, 0, 0, data1^);
			если status # Usbdi.Ok то
				если Debug то ShowModule("SetLCR failed."); ЛогЯдра.пВК_ПС; всё;
				возврат ложь;
			иначе
				возврат истина;
			всё;
		кон ResetCmd;
		проц Reset():булево;
		нач
			возврат ResetCmd(FtdiResetSio);
		кон Reset;
		проц PurgeTx():булево;
		нач
			возврат ResetCmd(FtdiResetPurgeTx);
		кон PurgeTx;
		проц PurgeRx():булево;
		нач
			возврат ResetCmd(FtdiResetPurgeRx);
		кон PurgeRx;
		проц SetEventChar(ch:симв8):булево;
		перем wValue:цел32;status : Usbdi.Status;
		нач
			wValue:=LAND(кодСимв8(ch),100H);
			status := device.Request(Usbdi.ToDevice + Usbdi.Vendor + Usbdi.Device, FtdiEventCharRequest, wValue, 0, 0, data1^);
			если status # Usbdi.Ok то
				если Debug то ShowModule("SetEventChar failed."); ЛогЯдра.пВК_ПС; всё;
				возврат ложь;
			иначе
				возврат истина;
			всё;
		кон SetEventChar;
		проц SetErrorChar(ch:симв8):булево;
		перем wValue:цел32;status : Usbdi.Status;
		нач
			wValue:=LAND(кодСимв8(ch),100H);
			status := device.Request(Usbdi.ToDevice + Usbdi.Vendor + Usbdi.Device, FtdiErrorCharRequest, wValue, 0, 0, data1^);
			если status # Usbdi.Ok то
				если Debug то ShowModule("SetEventChar failed."); ЛогЯдра.пВК_ПС; всё;
				возврат ложь;
			иначе
				возврат истина;
			всё;
		кон SetErrorChar;


		(* Interrupt on Completion - Handler for EpBulkIn; status(first 2 bytes) & data contained in variable data64 *)
		проц UpdateDataStatus(status : Usbdi.Status; actLen : размерМЗ);
		перем ignore : Usbdi.Status; i: размерМЗ;
		нач
			если Trace * TraceReceive # {} то
				ShowModule("UpdateDataStatus: Received ");
				ЛогЯдра.пСтроку8(" Bytes: ");ЛогЯдра.пЦел64(actLen, 0);
				ЛогЯдра.пСтроку8(" Status: ");ЛогЯдра.пЦел64(status,0);
				ЛогЯдра.пВК_ПС;
			всё;
			если (status = Usbdi.Ok) или (status = Usbdi.ShortPacket) то
				если actLen>=2 то
					msr := НИЗКОУР.подмениТипЗначения(мнвоНаБитахМЗ, data64[0]); (* status2[0] is the MSR *)
					если FtdiRiMask в msr то включиВоМнвоНаБитах(mc, Serials.RI); иначе исключиИзМнваНаБитах(mc, Serials.RI); всё;
					если FtdiDsrMask в msr то включиВоМнвоНаБитах(mc, Serials.DSR); иначе исключиИзМнваНаБитах(mc, Serials.DSR); всё;
					если FtdiCtsMask в msr то включиВоМнвоНаБитах(mc, Serials.CTS); иначе исключиИзМнваНаБитах(mc, Serials.CTS); всё;
					если FtdiRlsdMask в msr то включиВоМнвоНаБитах(mc,  Serials.DCD); иначе исключиИзМнваНаБитах(mc, Serials.DCD); всё;
					если Trace * TraceReceiveStatus # {} то
						если Serials.RI в mc то ЛогЯдра.пСтроку8("[RI]"); всё;
						если Serials.DSR в mc то ЛогЯдра.пСтроку8("[DSR]"); всё;
						если Serials.CTS в mc то ЛогЯдра.пСтроку8("[CTS]"); всё;
						если Serials.DCD в mc то ЛогЯдра.пСтроку8("[DCD]"); всё;
					всё;
					lsr := НИЗКОУР.подмениТипЗначения(мнвоНаБитахМЗ, data64[1]); (* status2[1] is the LSR *)
					diagnostics := {};
					если FtdiRsOe в lsr то включиВоМнвоНаБитах(diagnostics, Serials.OverrunError); всё;
					если FtdiRsPe в lsr то включиВоМнвоНаБитах(diagnostics, Serials.ParityError); всё;
					если FtdiRsFe в lsr то включиВоМнвоНаБитах(diagnostics, Serials.FramingError); всё;
					если FtdiRsBi в lsr то
						включиВоМнвоНаБитах(mc, Serials.BreakInterrupt); включиВоМнвоНаБитах(diagnostics, Serials.BreakInterrupt);
					иначе
						исключиИзМнваНаБитах(mc, Serials.BreakInterrupt);
					всё;
					если Trace * TraceReceiveStatus # {} то
						если Serials.BreakInterrupt в mc то ЛогЯдра.пСтроку8("[BI]"); всё;
						ЛогЯдра.пСтроку8(" Errors: ");
						если diagnostics = {} то ЛогЯдра.пСтроку8("none");
						иначе
							если Serials.OverrunError в diagnostics то ЛогЯдра.пСтроку8("[Overrun]"); всё;
							если Serials.ParityError в diagnostics то ЛогЯдра.пСтроку8("[Parity]"); всё;
							если Serials.FramingError в diagnostics то ЛогЯдра.пСтроку8("[Framing]"); всё;
							если Serials.BreakInterrupt в diagnostics то ЛогЯдра.пСтроку8("BreakInterrupt]"); всё;
						всё;
					всё;
				всё;
				если actLen>2 то (* okay... now we have not only status but data too *)
					если Trace * TraceReceiveData # {} то
						ShowModule("UpdateDataStatus: Received "); ЛогЯдра.пЦел64(actLen, 0); ЛогЯдра.пСтроку8(" Bytes:");
						нцДля i := 0 до actLen - 1 делай ЛогЯдра.пСимв8(" "); ЛогЯдра.пЦел64(кодСимв8(data64[i]), 0); кц;
						ЛогЯдра.пВК_ПС;
					всё;
					(* leave in data64 data only (exclude 2 status bytes)*)
					нцДля i:=0 до actLen-3 делай
						data64[i]:=data64[i+2];
					кц;
					port.HandleData(data64^, actLen-2);
				всё;
				ignore := bulkIn.Transfer(64, 0, data64^);(* get next data *)
			иначе
				если Debug то ShowModule("UpdateDataStatus failed."); ЛогЯдра.пВК_ПС;
					трассируй(status);

				всё;
				ignore := bulkIn.Transfer(64, 0, data64^);(* get next data *)
			всё;
			если Trace * TraceReceiveStatus # {} то ЛогЯдра.пВК_ПС; всё;
		кон UpdateDataStatus;

		(*
		* The BaudDivisor values are calculated as follows:
		* - BaseClock is either 12000000 or 48000000 depending on the device. FIXME: I wish
		*   I knew how to detect old chips to select proper base clock!
		* - BaudDivisor is a fixed point number encoded in a funny way.
		*   (--WRONG WAY OF THINKING--)
		*   BaudDivisor is a fixed point number encoded with following bit weighs:
		*   (-2)(-1)(13..0). It is a radical with a denominator of 4, so values
		*   end with 0.0 (00...), 0.25 (10...), 0.5 (01...), and 0.75 (11...).
		*   (--THE REALITY--)
		*   The both-bits-set has quite different meaning from 0.75 - the chip designers
		*   have decided it to mean 0.125 instead of 0.75.
		*   This info looked up in FTDI application note "FT8U232 DEVICES \ Data Rates
		*   and Flow Control Consideration for USB to RS232".
		* - BaudDivisor = (BaseClock / 16) / BaudRate, where the (=) operation should
		*   automagically re-encode the resulting value to take fractions into consideration.
		* As all values are integers, some bit twiddling is in order:
		*   BaudDivisor = (BaseClock / 16 / BaudRate) |
		*   (((BaseClock / 2 / BaudRate) & 4) ? 0x4000    // 0.5
		*    : ((BaseClock / 2 / BaudRate) & 2) ? 0x8000  // 0.25
		*    : ((BaseClock / 2 / BaudRate) & 1) ? 0xc000  // 0.125
		*    : 0)
		*
		* For the FT232BM, a 17th divisor bit was introduced to encode the multiples
		* of 0.125 missing from the FT8U232AM.  Bits 16 to 14 are coded as follows
		* (the first four codes are the same as for the FT8U232AM, where bit 16 is
		* always 0):
		*   000 - add .000 to divisor
		*   001 - add .500 to divisor
		*   010 - add .250 to divisor
		*   011 - add .125 to divisor
		*   100 - add .375 to divisor
		*   101 - add .625 to divisor
		*   110 - add .750 to divisor
		*   111 - add .875 to divisor
		* Bits 15 to 0 of the 17-bit divisor are placed in the urb value.  Bit 16 is
		* placed in bit 0 of the urb index.
		*
		* Note that there are a couple of special cases to support the highest baud
		* rates.  If the calculated divisor value is 1, this needs to be replaced with
		* 0.  Additionally for the FT232BM, if the calculated divisor value is 0x4001
		* (1.5), this needs to be replaced with 0x0001 (1) (but this divisor value is
		* not supported by the FT8U232AM).
		*)

(*
		PROCEDURE BaseToDivisor(baud:SIGNED16 ):SIGNED32;

		VAR

			divfrac: ARRAY 8 OF SIGNED32(* = { 0, 3, 2, 4, 1, 5, 6, 7 };*);
			divisor3, divisor: SIGNED32;
		BEGIN
			divfrac[0]:=0;divfrac[1]:=3;divfrac[2]:=2;divfrac[3]:=4;
			divfrac[4]:=1;divfrac[5]:=5;divfrac[6]:=6;divfrac[7]:=7;
			divisor3:= (48000000 DIV 2) DIV baud ; (* divisor shifted 3 bits to the left*)
			divisor:= LSH(divisor3,3);
(*divisor3 >> 3*)
			divisor:=divisor + LSH(divfrac[divisor3 ], -14);
			(* Deal with special cases for highest baud rates. *)

			IF divisor = 1 THEN
				divisor:=0  (*1.0*)
			ELSIF divisor=4001H THEN
				divisor:=1;	(* 1.5 *)
			END;

			RETURN divisor;

		END BaseToDivisor;
*)



		(* Set baudrate divisor; returns TRUE if operation succeeded, FALSE otherwise *)
		проц SetBaudrate(baudrate : цел32) : булево;
		перем divisor : цел32; status : Usbdi.Status;
			 wValue, wIndex:цел32;
		нач
			если Trace * TraceCommands # {} то ShowModule("SetBaudrate to "); ЛогЯдра.пЦел64(baudrate, 0); ЛогЯдра.пСтроку8(" bps."); ЛогЯдра.пВК_ПС; всё;
			port.portbps := 0; (* indicates invalid value *)

			если ((device.descriptor.idVendor = IdVendorFTDI) и (device.descriptor.idProduct = IdProductFT232)) то
			(* use two-byte coded value
				based on frequency = 3 MHz.
				baudrate = 3MHz / divisor
				divisor encoded as
					ofs + 08000H =~= ofs +0.25
					ofs + 04000H =~= ofs +0.5
					ofs + 0C000H =~= ofs +0.125
					ofs + 10000H =~= ofs +0.375
					ofs + 14000H =~= ofs +0.625
					ofs + 18000H =~= ofs +0.75
					ofs + 1C000H =~= ofs +0.875
					where ofs <! 04000H (16234)
			*)
				если baudrate = 300 то wValue := 2710H; wIndex:=0; (* 10000*)
				аесли baudrate = 600 то wValue := 1388H; wIndex:=0; (*5000*)
				аесли baudrate = 1200 то wValue := 09C4H; wIndex:=0; (*2500*)
				аесли baudrate = 2400 то wValue := 04E2H; wIndex:=0; (*1250*)
				аесли baudrate = 4800 то wValue := 0271H; wIndex:=0; (*625*)
				аесли baudrate = 9600 то wValue := 4138H; wIndex:=0; (*312+0.5*)
				аесли baudrate = 19200 то wValue := 809CH; wIndex:=0; (*156+0.25*)
				аесли baudrate = 38400 то wValue := 0C04EH; wIndex:=0; (*78+0.125*)
				аесли baudrate = 57600 то wValue := 0034H; wIndex:=0; (*52*)
				аесли baudrate = 115200 то wValue := 001AH; wIndex:=0; (*26*)
				аесли baudrate = 230400 то wValue := 000DH; wIndex := 0; (* 13 *)
				аесли baudrate = 460800 то wValue := 4006H; wIndex := 0; (* 6 + 0.5 *)
				аесли baudrate = 921600 то wValue := 8003H; wIndex := 0; (*3+0.25*)
				иначе
					если Debug то ShowModule("SetBaudrate: Wrong baud rate selected."); ЛогЯдра.пВК_ПС; всё;
					возврат ложь;
				всё;

				data1[0] := симв8ИзКода(divisor);
				status := device.Request(Usbdi.ToDevice + Usbdi.Vendor + Usbdi.Device, FtdiSetBaudrateRequest, wValue, wIndex, 0, data1^);

			иначе (* standart UART way ... *)
				если (115200 остОтДеленияНа baudrate) # 0 то
					если Debug то ShowModule("SetBaudrate: Wrong baud rate selected."); ЛогЯдра.пВК_ПС; всё;
					возврат ложь;
				иначе
					divisor := 115200 DIV baudrate;
				всё;

				data4[0] := симв8ИзКода(divisor);
				data4[1] := симв8ИзКода(логСдвиг(divisor, -8));
				data4[2] := симв8ИзКода(логСдвиг(divisor, -16));
				data4[3] := симв8ИзКода(логСдвиг(divisor, -24));
				status := device.Request(Usbdi.ToDevice + Usbdi.Vendor + Usbdi.Device, FtdiSetBaudrateRequest, 0, 0, 4, data4^);
			всё;

			если status # Usbdi.Ok то
				если Debug то ShowModule("SetBaudrate failed (FtdiSetBaudrateRequest)"); ЛогЯдра.пВК_ПС; всё;
				возврат ложь;
			всё;

			port.portbps := baudrate;
			возврат истина;
		кон SetBaudrate;

		(* Vendor-specific request: Used to set the Line Control Register (LCR) *)
		проц SetLCR(set : мнвоНаБитахМЗ) : булево;
		перем status : Usbdi.Status;wValue:цел32;
		нач
			(*data1[0] := SYSTEM.VAL(CHAR, set);*)
			wValue:=НИЗКОУР.подмениТипЗначения(цел32,set);
			status := device.Request(Usbdi.ToDevice + Usbdi.Vendor + Usbdi.Device, FtdiSetDataRequest, wValue, 0, 0, data1^);
			если status # Usbdi.Ok то
				если Debug то ShowModule("SetLCR failed."); ЛогЯдра.пВК_ПС; всё;
				возврат ложь;
			иначе
				lcr := set;
				возврат истина;
			всё;
		кон SetLCR;
		(* vendor-specific request: Used to get the Line Control Register (LCR) *)
		проц GetLCR(перем lcr : мнвоНаБитахМЗ) : булево;
		(*VAR status : Usbdi.Status;*)
		нач
			(*
			status := device.Request(Usbdi.ToHost + Usbdi.Vendor + Usbdi.Device, MctGetLineCtrl, 0, 0, 1, data1^);
			IF status # Usbdi.Ok THEN
				IF Debug THEN ShowModule("GetLCR failed."); KernelLog.Ln; END;
				RETURN FALSE;
			ELSE
				lcr := SYSTEM.VAL(SET, data1[0]);
				RETURN TRUE;
			END;
			*)
			lcr:=сам.lcr;
			возврат истина;
		кон GetLCR;
		(* Vendor-specific request: used to set RTS & DTR Bits of the Modem Control Register (MCR) *)
		(* Updates DTR&RTS in mc *)
		проц SetMCR(set : мнвоНаБитахМЗ) : булево;
		перем status : Usbdi.Status;wValue:цел32;
		нач
			если Serials.DTR в set то включиВоМнвоНаБитах(mcr, FtdiDtrMask); иначе исключиИзМнваНаБитах(mcr, FtdiDtrMask); всё;
			если Serials.RTS в set то включиВоМнвоНаБитах(mcr, FtdiRtsMask); иначе исключиИзМнваНаБитах(mcr, FtdiRtsMask); всё;
			(*INCL(mcr, MctMcrOut2); (* Always enable Out2 *)*)

			(*data1[0] := CHR(SYSTEM.VAL(SIGNED32, mcr));*)
			wValue:=НИЗКОУР.подмениТипЗначения(цел32,mcr);
			status := device.Request(Usbdi.ToDevice + Usbdi.Vendor + Usbdi.Device, FtdiModemCtrlRequest, wValue, 0, 0, data1^);
			если status # Usbdi.Ok то
				если Debug то ShowModule("SetMCR failed: "); ЛогЯдра.пВК_ПС; всё;
				возврат ложь;
			иначе
				если Serials.DTR в set то включиВоМнвоНаБитах(mc, Serials.DTR) иначе исключиИзМнваНаБитах(mc, Serials.DTR) всё;
				если Serials.RTS в set то включиВоМнвоНаБитах(mc, Serials.RTS) иначе исключиИзМнваНаБитах (mc, Serials.RTS) всё;
				возврат истина;
			всё;
		кон SetMCR;

		(* Updates the msr & mc variable *)
		проц GetMSR(перем value : мнвоНаБитахМЗ) : булево;
		перем status : Usbdi.Status;
		нач
			status := device.Request(Usbdi.ToHost + Usbdi.Vendor + Usbdi.Device, FtdiGetModemStatusRequest, 0, 0, 2, status2^);
			если status # Usbdi.Ok то
				если Debug то ShowModule("GetMSR failed."); ЛогЯдра.пВК_ПС; всё;
				возврат ложь;
			иначе
				если Trace * TraceCommands # {} то ShowModule("GetMSR succeeded (value: "); ЛогЯдра.пМнвоНаБитахМЗКакБиты(НИЗКОУР.подмениТипЗначения(мнвоНаБитахМЗ, data1[0]), 0, 8); ЛогЯдра.пСтроку8(")");  ЛогЯдра.пВК_ПС; всё;
				msr := НИЗКОУР.подмениТипЗначения(мнвоНаБитахМЗ, status2[0]);
				если FtdiRiMask в msr то включиВоМнвоНаБитах(mc, Serials.RI); иначе исключиИзМнваНаБитах(mc, Serials.RI); всё;
				если FtdiDsrMask в msr то включиВоМнвоНаБитах(mc, Serials.DSR); иначе исключиИзМнваНаБитах(mc, Serials.DSR); всё;
				если FtdiCtsMask в msr то включиВоМнвоНаБитах(mc, Serials.CTS); иначе исключиИзМнваНаБитах(mc, Serials.CTS);  всё;
				(*IF FtdiCdMask IN msr THEN INCL(mc, Serials.DCD); ELSE EXCL(mc, Serials.DCD); END;*)
				value := msr;
				возврат истина;
			всё;
		кон GetMSR;

		проц &Init*;
		нач
			нов(data1, 1); нов(data4, 4); нов(data64, 64); нов(status2, 2);
			msr := {}; lsr := {}; mcr := {}; lcr := {};
		кон Init;

	кон UsbFtdiDriver;

тип

	Port = окласс(Serials.Port)
	перем
		driver : UsbFtdiDriver;
		portbps : цел32;
		data1 : Usbdi.BufferPtr; (* datax -> ARRAY x OF CHAR *)
		buf: массив BufSize из симв8;
		sendBuffer: Usbdi.BufferPtr;
		head, tail: размерМЗ;
		open: булево;
		diagnostic: цел32;

		log: массив 16 из цел32;
		logPos: цел32;

		проц & InitPort;
		нач
			нов(sendBuffer, 128); нов(data1,1);
		кон InitPort;

		проц {перекрыта}Open(bps, data, parity, stop : цел32; перем res: целМЗ);
		нач {единолично}
			если open то
				если Verbose то ShowModule(name); ЛогЯдра.пСтроку8(" already open"); ЛогЯдра.пВК_ПС; всё;
				res := Serials.PortInUse;
				возврат;
			всё;
			SetPortState(bps, data, parity, stop, res);
			если res = Serials.Ok то
				open := истина;
				head := 0; tail:= 0;
				если Verbose то ShowModule(name); ЛогЯдра.пСтроку8("opened"); ЛогЯдра.пВК_ПС; всё;
			всё
		кон Open;

		(** Send len characters from buf to output, starting at ofs. res is non-zero on error. *)
		проц {перекрыта}ЗапишиВПоток(конст buf: массив из симв8; ofs, len: размерМЗ; propagate: булево; перем res: целМЗ);
		перем status : Usbdi.Status;
		нач {единолично}
			если ~open то res := Serials.Closed; возврат; всё;
			если Trace * TraceSend # {} то ShowModule("Sending "); ЛогЯдра.пЦел64(len, 0); ЛогЯдра.пСтроку8(" bytes"); ЛогЯдра.пВК_ПС; всё;
			если ((sendBuffer = НУЛЬ) или (длинаМассива(sendBuffer) < len)) то нов(sendBuffer, len) всё;
			НИЗКОУР.копируйПамять(адресОт(buf[ofs]), адресОт(sendBuffer[0]), len);
			status := driver.bulkOut.Transfer(len, ofs, sendBuffer^);
			если status = Usbdi.Ok то
				res := Serials.Ok;
				charactersSent := charactersSent + len;
			иначе
				res := Serials.TransportError;
				если Debug то ShowModule("Transmission failed, res: "); ЛогЯдра.пЦел64(status, 0); ЛогЯдра.пВК_ПС; всё;
			всё;
		кон ЗапишиВПоток;

		(** Send a single character to the UART. *)
		проц {перекрыта}SendChar(ch: симв8; перем res : целМЗ);
		перем status : Usbdi.Status;
		нач {единолично}
			если ~open то res := Serials.Closed; возврат; всё;
			data1[0] := ch;
			если Trace * TraceSend # {} то ShowModule("Sending character ORD: "); ЛогЯдра.пЦел64(кодСимв8(data1[0]), 0); ЛогЯдра.пВК_ПС; всё;
			status := driver.bulkOut.Transfer(1, 0, data1^);
			если status # Usbdi.Ok то
				res := Serials.Ok;
				увел(charactersSent);
			иначе
				res := Serials.TransportError;
				если Debug то ShowModule("Transmission of character failed."); ЛогЯдра.пВК_ПС; всё;
			всё;
		кон SendChar;

		(** Wait for the next character is received in the input buffer. The buffer is fed by HandleData *)
		проц {перекрыта}ReceiveChar(перем ch: симв8; перем res: целМЗ);
		нач {единолично}
			если ~open то res := Serials.Closed; возврат; всё;
			дождись(tail # head);
			если tail = -1 то
				res := Serials.Closed;
			иначе
				ch := buf[head]; head := (head+1) остОтДеленияНа BufSize;
				res := diagnostic
			всё
		кон ReceiveChar;


		(** Receive size characters into buf, starting at ofs and return the effective number of bytes read in len.
			Wait until at least min bytes (possibly zero) are available. res is non-zero on error. *)
		проц {перекрыта}ПрочтиИзПотока*(перем buf: массив из симв8; ofs, size, min: размерМЗ; перем len: размерМЗ; перем res: целМЗ);
		перем ch: симв8;
		нач
			len := 0;
			res := Serials.Ok;
			нцПока (len < min) делай
				ReceiveChar(ch, res);
				если res # Serials.Ok то возврат всё;
				buf[ofs + len] := ch;
				увел(len);
			кц;
			нцПока (Available() > 0) и (len < size) делай
				ReceiveChar(ch, res);
				если res # Serials.Ok то возврат всё;
				buf[ofs + len] := ch;
				увел(len)
			кц;

			log[logPos] := Kernel.GetTicks();
			logPos := (logPos + 1) остОтДеленияНа длинаМассива(log)

		кон ПрочтиИзПотока;

		(** On detecting an interupt request, transfer the characters from the UART buffer to the input buffer *)
		проц HandleData(конст data :  Usbdi.Buffer; actLen : размерМЗ);
		перем n, i : размерМЗ; 	ch : симв8;
		нач {единолично}
			charactersReceived := charactersReceived + actLen;
			i := 0;
			нц
				если i >= actLen то прервиЦикл; всё;
				ch := data[i];
				n := (tail + 1) остОтДеленияНа BufSize;
				если tail = -1 то
					(*
					IF Debug THEN KernelLog.String("UsbFTDI.Port.HandleData: connection was closed"); KernelLog.Ln END;
					EXIT
					*)
				аесли n # head то
					buf[tail] := ch; tail := n
				иначе
					если Debug то
						если log[logPos]#матМаксимум(цел32) то
							ЛогЯдра.пСтроку8("UsbFTDI.Port.HandleData: Buffer overflow detected"); ЛогЯдра.пВК_ПС;
							ЛогЯдра.пЦел64(Kernel.GetTicks(), 1); ЛогЯдра.пВК_ПС;
							нцДля i := 0 до длинаМассива(log)-1 делай
								ЛогЯдра.пЦел64(i,1); ЛогЯдра.пСтроку8(":"); ЛогЯдра.пЦел64(log[(logPos+i) остОтДеленияНа длинаМассива(log)], 1); ЛогЯдра.пВК_ПС;
							кц;
							log[logPos]:= матМаксимум(цел32)
						всё;
					всё;
					прервиЦикл;
				всё;
				увел(i);
				diagnostic := НИЗКОУР.подмениТипЗначения(цел32, driver.diagnostics - {Serials.OverrunError, Serials.ParityError, Serials.FramingError, Serials.BreakInterrupt});
					(* not including Serials.OE, Serials.PE, Serials.FE & Serials.BI, otherwise the driver stops receiving data when frame errors occur *)
			кц;
		кон HandleData;

		проц {перекрыта}Available(): размерМЗ;
		нач {единолично}
			возврат (tail - head) остОтДеленияНа BufSize
		кон Available;

		проц SetPortState(bps, data, parity, stop : цел32; перем res: целМЗ);
		перем s : мнвоНаБитахМЗ;
		нач
			если (bps > 0) и (921600 остОтДеленияНа bps = 0) то

				если (data >= 5)
					и (data <= 8)
					и (parity >= Serials.ParNo)
					и (parity <= Serials.ParSpace)
					и (stop >= Serials.Stop1)
					и (stop <= Serials.Stop1dot5) то

					если ~driver.SetBaudrate(bps) то
						res := Serials.WrongBPS; возврат;
					всё;

					(* Prepare parameters destined to LCR data, stop, parity *)
					просей data из	(* word length *)
						   5: s := НИЗКОУР.подмениТипЗначения(мнвоНаБитахМЗ,FtdiSetData5);
						| 6: s := НИЗКОУР.подмениТипЗначения(мнвоНаБитахМЗ,FtdiSetData6);
						| 7: s := НИЗКОУР.подмениТипЗначения(мнвоНаБитахМЗ,FtdiSetData7);
						| 8: s := НИЗКОУР.подмениТипЗначения(мнвоНаБитахМЗ,FtdiSetData8);
					всё;

					просей parity из
						   Serials.ParNo: 	s := s + FtdiSetDataParityNone;
						| Serials.ParOdd: 	s := s + FtdiSetDataParityOdd;
						| Serials.ParEven: 	s := s + FtdiSetDataParityEven;
						| Serials.ParMark: 	s := s + FtdiSetDataParityMark;
						| Serials.ParSpace: 	s := s + FtdiSetDataParitySpace;
					всё;
					(*
					IF (stop = Serials.Stop1dot5) & (data # 5) THEN res := Serials.WrongStop; RETURN; END;
					IF stop # Serials.Stop1 THEN s := s + FtdiSetDataStopBits2;  END;
					code instead is below*)
					просей stop из
						Serials.Stop1: s:=s+FtdiSetDataStopBits1;
						|Serials.Stop1dot5: s:=s+FtdiSetDataStopBits15;
						|Serials.Stop2: s:=s+FtdiSetDataStopBits2;
					всё;

					(* Finalize the LCR *)
					если ~driver.SetLCR(s) то
						res := Serials.WrongData;возврат;
					всё;

					(* Set DTR, RTS in the MCR *)
					s := {}; включиВоМнвоНаБитах(s, Serials.DTR); включиВоМнвоНаБитах(s, Serials.RTS);
					если ~driver.SetMCR(s) то
						res := Serials.WrongData; возврат;
					всё;
					res := Serials.Ok
				иначе
					res := Serials.WrongData (* bad data/parity/stop *)
				всё
			иначе
				res := Serials.WrongBPS (* bad BPS *)
			всё;
		кон SetPortState;

		(** Get the port state: speed, no. of data bits, parity, no. of stop bits *)
		проц {перекрыта}GetPortState(перем openstat : булево; перем bps, data, parity, stop : цел32);
		перем set : мнвоНаБитахМЗ; res : булево;
		нач
			(* get parameters *)
			openstat := open;
			bps := portbps;

			res := driver.GetLCR(set);
			data:=LAND(НИЗКОУР.подмениТипЗначения(цел32,set),0FFH);


			если set * FtdiSetDataStopBits2 # {} то
				если data = FtdiSetData5 то stop := Serials.Stop1dot5; 	иначе stop := Serials.Stop2; всё;
			иначе
				stop := Serials.Stop1;
			всё;

			если set * {3..5} = FtdiSetDataParitySpace то parity := Serials.ParSpace;
			аесли set * {3..5} = FtdiSetDataParityMark то parity := Serials.ParMark;
			аесли set * {3..5} = FtdiSetDataParityEven то parity := Serials.ParEven;
			аесли set * {3..5} = FtdiSetDataParityOdd то parity := Serials.ParOdd;
			иначе parity := Serials.ParNo;
			всё;
			если Trace * TraceCommands # {} то
				ShowModule("GetPortState of port "); ЛогЯдра.пСтроку8(name); ЛогЯдра.пСтроку8(":");
				если res то
					ЛогЯдра.пСтроку8(" State: "); если open то ЛогЯдра.пСтроку8("Open"); иначе ЛогЯдра.пСтроку8("Closed"); всё;
					ЛогЯдра.пСтроку8(" DataBits: "); ЛогЯдра.пЦел64(data, 0);
					ЛогЯдра.пСтроку8(" StopBits: "); если stop=3 то ЛогЯдра.пСтроку8("1.5"); иначе ЛогЯдра.пЦел64(stop, 0); всё;
					ЛогЯдра.пСтроку8(" Parity: ");
					просей parity из
						0 : ЛогЯдра.пСтроку8("None");
						|1 : ЛогЯдра.пСтроку8("Odd");
						|2 : ЛогЯдра.пСтроку8("Even");
						|3 : ЛогЯдра.пСтроку8("Mark");
						|4 : ЛогЯдра.пСтроку8("Space");
					иначе
						ЛогЯдра.пСтроку8("Unknown");
					всё;
					ЛогЯдра.пСтроку8(" Bps: "); ЛогЯдра.пЦел64(bps, 0); ЛогЯдра.пВК_ПС;
				иначе
					ЛогЯдра.пСтроку8("Status request failed."); ЛогЯдра.пВК_ПС;
				всё;
			всё;
		кон GetPortState;

		(** ClearMC - Clear the specified modem control lines.  s may contain DTR, RTS & Break. *)
		проц {перекрыта}ClearMC(s: мнвоНаБитахМЗ);
		перем  temp : мнвоНаБитахМЗ; ignore : булево;
		нач {единолично}
			если s * {Serials.DTR, Serials.RTS} # {} то
				temp := driver.mcr;
				если s * {Serials.DTR} # {} то исключиИзМнваНаБитах(temp, Serials.DTR); всё;
				если s * {Serials.RTS} # {} то исключиИзМнваНаБитах(temp, Serials.RTS); всё;
				ignore := driver.SetMCR(temp);
			всё;
			если Serials.Break в s то
				ignore := driver.GetLCR(temp);
				исключиИзМнваНаБитах(temp, Serials.Break);
				ignore := driver.SetLCR(temp);
			всё;
		кон ClearMC;

		(** SetMC - Set the specified modem control lines.  s may contain DTR, RTS & Break. *)
		проц {перекрыта}SetMC(s: мнвоНаБитахМЗ);
		перем ignore : булево;
		нач {единолично}
			если s * {Serials.DTR, Serials.RTS} # {} то ignore := driver.SetMCR(s * {Serials.DTR, Serials.RTS}); всё;
			если Serials.Break в s то
				ignore := driver.SetLCR({Serials.Break});
			всё;
		кон SetMC;

		(** GetMC - Return the state of the specified modem control lines. s contains the current state of DSR, CTS, RI, DCD & Break Interrupt. *)
		проц {перекрыта}GetMC(перем s: мнвоНаБитахМЗ);
		нач {единолично}
			s := driver.msr; (* Inlcudes CTS, DSR, RI, CD *)
			если FtdiRsBi в driver.lsr то включиВоМнвоНаБитах(s, Serials.Break); всё;
		кон GetMC;

		проц {перекрыта}Закрой;
		перем timer : Kernel.Timer; counter : цел32;
		нач {единолично}
			если ~open то
				если Verbose то ShowModule(name); ЛогЯдра.пСтроку8(" not open"); ЛогЯдра.пВК_ПС; всё;
				возврат;
			иначе
				если ~(FtdiRsTempt в driver.lsr) то (* wait for last byte to leave *)
					нов(timer); counter := 0;
					нцДо
						timer.Sleep(1);
						увел(counter);
					кцПри (FtdiRsTempt в driver.lsr) или (counter>100); (* No remaining word in the FIFO or transmit shift register *)
				всё;
				tail := -1; (* Force a pending Receive to terminate in error. *)
				open := ложь;
				если Verbose то ShowModule(name); ЛогЯдра.пСтроку8(" closed"); ЛогЯдра.пВК_ПС всё;
			всё;
		кон Закрой;

	кон Port;

проц LAND(x, y: цел32): цел32;
нач возврат НИЗКОУР.подмениТипЗначения(цел32, НИЗКОУР.подмениТипЗначения(мнвоНаБитахМЗ, x) * НИЗКОУР.подмениТипЗначения(мнвоНаБитахМЗ, y))
кон LAND;

проц ShowModule(конст string : массив из симв8);
нач
	ЛогЯдра.пСтроку8(ModuleName); ЛогЯдра.пСтроку8(": "); ЛогЯдра.пСтроку8(string);
кон ShowModule;

проц Probe(dev : Usbdi.UsbDevice; id : Usbdi.InterfaceDescriptor) : Usbdi.Driver;
перем driver : UsbFtdiDriver;
нач
	если ((dev.descriptor.idVendor = IdVendorFTDI) и (dev.descriptor.idProduct = IdProductFT232)) то (* FTDI FT2232 *)
	иначе (* device not supported *)
		возврат НУЛЬ;
	всё;
	нов(driver);
	возврат driver;
кон Probe;

проц Cleanup;
нач
	Usbdi.drivers.Remove(Name);
кон Cleanup;

проц Install*;
кон Install;

нач
	Modules.InstallTermHandler(Cleanup);
	Usbdi.drivers.Add(Probe, Name, Description, Priority)
кон UsbFTDI.
System.Free UsbFTDI ~
UsbFTDI.Install ~
UsbFTDI.Open ~
UsbFTDI.Send ~
UsbFTDI.Close~
