модуль  UsbNetworkUSB200M;  (** AUTHOR "staubesv"; PURPOSE "USB device driver for Linksys USB200M network adapter"; *)
(**
 * This driver should basically work with USB ethernet adapters based on the ASIX AX88772 chipset. Currently it has been tested only
 * with the Linksys USB200M Rev2 device. Different devices may require device-specific configuration for the GPIO Pins, for example.
 *
 * References:
 *
 *	ASIX AX88772 USB to 10/100 Mbps Fast Ethernet/HomePNA Controller specification, www.asix.com.tw
 *
 * History:
 *
 *	03.11.2006	First release (staubesv)
 *	19.12.2006	User can specify the MAC address to be used using the MacAddress constant (staubesv)
 *)

использует НИЗКОУР, ЛогЯдра, Modules, Kernel, Usbdi, UsbNetwork, Network, Mii := NetworkMii, Strings;

конст

	Name = "USB200M";
	Description = "Linksys USB200M network adapter";
	Priority = 1;

	(* Pad Ethernet frame to minimum length of 60 Byte? *)
	Min60BytePacket = истина;

	PromiscuousMode = ложь;

	(* Specifiy MAC address to be used:
	 *	- "EEPROM": use MAC address stored in the adapters EEPROM
	 *	- "aa:bb:cc:ee:ff:gg": use aa:bb:cc:ee:ff:gg as MAC address
	 *)
	MacAddress = "EEPROM";

	BulkInRequestSize = 16384;
	RxBufferSize = 4 * BulkInRequestSize;

	TraceSend = {0};
	TraceReceive = {1};
	TraceReceiveDetailed = {2};
	Trace = {};

	Debug = истина;

	Verbose = истина;

	ModuleName = "UsbNetworkAsix88772";

	ReadCommand = Usbdi.ToHost + Usbdi.Vendor + Usbdi.Device;
	WriteCommand = Usbdi.ToDevice + Usbdi.Vendor + Usbdi.Device;

	(* Vendor-specific requests *)
	ReadRxTxRegister = 02H;
	WriteRxTxRegister = 03H;
	SetSoftwareSerialManagement = 06H;
	ReadPhyRegister = 07H;
	WritePhyRegister = 08H;
	ReadSerialManagementStatus = 09H;
	SetHardwareSerialManagement = 0AH;
	ReadSromRegister = 0BH;
	WriteSromRegister = 0CH;
	WriteSromEnable = 0DH;
	WriteSromDisable = 0EH;
	ReadRxControlRegister = 0FH;
	WriteRxControlRegister = 10H;
	ReadIpgControlRegister = 11H;
	WriteIpgControlRegister = 12H;
	ReadNodeId = 13H;
	WriteNodeId = 14H;
	ReadMcastFilterArray = 15H;
	WriteMcastFilterArray = 16H;
	WriteTestRegister = 17H;
	ReadPhyAddressRegister = 19H;
	ReadMediumStatus = 1AH;
	WriteMediumModeRegister = 1BH;
	ReadMonitorModeStatus = 1CH;
	WriteMonitorModeRegister = 1DH;
	ReadGPIOStatusRegister = 1EH;
	WriteGPIORegister = 1FH;
	WriteSoftwareReset = 20H;
	ReadPhySelectStatus = 21H;
	WritePhySelectRegister = 22H;

	(* Software Reset register encoding *)
	SRS_ClearFrameLengthErrorIn = {0};
	SRS_ClearFrameLengthErrorOut = {1};
	SRS_ExtPhyResetPinTristate = {2};
	SRS_ExtPhyResetPinLevel = {3};
	SRS_ForceZeroPacketIn = {4};
	SRS_IntPhyResetControl = {5};
	SRS_IntPhyPowerdownControl = {6};

	(* Medium Status/Mode Register Encoding (16bit) *)
	MSR_FullDuplex = 1;
	MSR_RxFlowControlEnable = 4;
	MSR_TxFlowControlEnable = 5;
	MSR_PauseFrameSimpleCheck = 7;
	MSR_ReceiveEnable = 8;
	MSR_PortSpeed = 9;
	MSR_StopBackpressure = 11;
	MSR_SuperMacSupport = 12;
	MSR_AlwaysZero = {0, 3, 6};
	MSR_AlwaysOne = {2};
	MSR_Reserved = {10, 13..15};

	(* Default medium mode when no auto-negotiation took place *)
	MSR_Default = MSR_AlwaysOne + {MSR_ReceiveEnable} + {MSR_TxFlowControlEnable} + {MSR_RxFlowControlEnable} + {MSR_PortSpeed} + {MSR_FullDuplex};

	(* Monitor Mode register encoding (8bit) *)
	MMR_MonitorMode = 0;
	MMR_WakeupOnLinkup = 1;
	MMR_WakeupOnMagicPacket = 2;
	MMR_UsbHighSpeed = 4;
	MMR_Reserved = {3..7};

	(* RX Control register encoding (16bit) *)
	RXCR_PromiscuousMode = 0;
	RXCR_AllMulticastFrames = 1;
	RXCR_SaveErrorPacket = 2;
	RXCR_AllBroadcasts = 3;
	RXCR_Multicast = 4;
	RXCR_AcceptPhysical = 5;
	RXCR_StartOperation = 7;
	RXCR_Msb = {8..9};
	RXCR_Reserved = {6, 10,11};

	(* GPIO register encoding (8bit)*)
	GP0OutputEnable = 0;
	GP1OutputEnable = 2;
	GP2OutputEnable = 4;
	GP0Value = 1;
	GP1Value = 3;
	GP2Value = 5;
	ReloadSerialEEPROM = 7;

	(* Interrupt Endpoint *)
	(* 3rd Byte *)
	IEB3_PrimaryPhyLinkUp = 0;
	IEB3_SecondaryPhyLinkUp = 1;
	IEB3_EthernetFrameLengthError = 2;
	IEB3_MdIntPinLevel = 3;

	(* SRAM access parameters *)
	RX = 0;
	TX = 1;

	TxPadBytes = цел32(0FFFF0000H);

	UsbHeaderSize = 4;

тип

	(* Access to media independent interface *)
	MII = окласс (Mii.MII)
	перем
		device : Usbdi.UsbDevice;
		buffer : Usbdi.BufferPtr;

		проц {перекрыта}AcquirePhyOwnership*() : булево;
		перем status : Usbdi.Status;
		нач
			status := device.Request(WriteCommand, SetSoftwareSerialManagement, 0, 0, 0, Usbdi.NoData);
			возврат status = Usbdi.Ok;
		кон AcquirePhyOwnership;

		проц {перекрыта}ReleasePhyOwnership*() : булево;
		перем status : Usbdi.Status;
		нач
			status := device.Request(WriteCommand, SetHardwareSerialManagement, 0, 0, 0, Usbdi.NoData);
			возврат status = Usbdi.Ok;
		кон ReleasePhyOwnership;

		проц HasPhyOwnership*() : булево;
		перем ownership : булево; status : Usbdi.Status;
		нач
			status := device.Request(ReadCommand, ReadSerialManagementStatus, 0, 0, 1, buffer^);
			если status = Usbdi.Ok то
				ownership := 0 в НИЗКОУР.подмениТипЗначения(мнвоНаБитахМЗ, кодСимв8(buffer[0]));
			иначе
				если Debug то Show("Error: Could not get status of PHY ownership."); ЛогЯдра.пВК_ПС; всё;
			всё;
			возврат ownership;
		кон HasPhyOwnership;

		проц {перекрыта}ReadRegister16*(register: цел32; перем value : мнвоНаБитахМЗ; перем res : целМЗ);
		перем status : Usbdi.Status;
		нач
			status := device.Request(ReadCommand, ReadPhyRegister, phyId, register, 2, buffer^);
			если status = Usbdi.Ok то
				value := НИЗКОУР.подмениТипЗначения(мнвоНаБитахМЗ, кодСимв8(buffer[0])) + логСдвиг(НИЗКОУР.подмениТипЗначения(мнвоНаБитахМЗ, кодСимв8(buffer[1])), 8);
				res := Mii.Ok;
			иначе
				res := Mii.ErrorRead;
			всё;
		кон ReadRegister16;

		проц {перекрыта}WriteRegister16*(register : цел32; value : мнвоНаБитахМЗ; перем res : целМЗ);
		перем status : Usbdi.Status;
		нач
			buffer[0] := симв8ИзКода(НИЗКОУР.подмениТипЗначения(цел32, value));
			buffer[1] := симв8ИзКода(НИЗКОУР.подмениТипЗначения(цел32, логСдвиг(value, -8)));
			status := device.Request(WriteCommand, WritePhyRegister, phyId, register, 2, buffer^);
			если status = Usbdi.Ok то
				res := Mii.Ok;
			иначе
				res := Mii.ErrorWrite;
			всё;
		кон WriteRegister16;

		проц &New*(device : Usbdi.UsbDevice; phyId : цел32);
		нач
			Init(phyId);
			сам.device := device;
			нов(buffer, 2);
		кон New;

	кон MII;

тип

	Usb200MDriver = окласс (UsbNetwork.UsbNetworkController)
	перем
		txBuffer : Usbdi.BufferPtr;
		txBufferAdr : адресВПамяти;

		(* Receiving data is somewhat more complicated than sending it. Since the device expects us to always ask
		for at least bulkInPipe.maxPacketSize data, we can't use a standard ring buffer. Instead, we use a ring buffer with
		variable buffer end indicated by rxBufferLastIndex *)
		rxBufferHead : размерМЗ; 		(* index in rxBuffer: next byte to be processed *)
		rxBufferTail : размерМЗ; 			(* index in rxBuffer: next unused byte *)
		rxBufferLastIndex : размерМЗ;	(* index in rxBuffer:  last byte that contains valid data *)
		rxBufferBytes : размерМЗ; 		(* number of bytes in rxBuffer *)

		(* To make the parsing of the USB header & ethernet header simpler, we copy the header to the buffer start if it's
		not contiguous in the buffer. A headerBytes value n > 0 indicates that n bytes of the header are located at the end
		of the buffer and have to be copied to its start *)
		headerBytes : размерМЗ;

		sRomWriteEnabled : булево;

		mii : MII;

		primaryPhyId, primaryPhyType : цел32;
		secondaryPhyId, secondaryPhyType : цел32;

		gpioConfiguration : мнвоНаБитахМЗ;

		проц {перекрыта}SendFrame*(dst: Network.LinkAdr; type: цел32; конст l3hdr, l4hdr, data: массив из симв8;  h3len, h4len, dofs, dlen: цел32);
		перем status : Usbdi.Status; i, packetSize, padLength : цел32;
		нач {единолично}
			(* 4 Byte USB header *)
			packetSize := UsbNetwork.EthernetHeaderSize + h3len + h4len + dlen;
			если packetSize > UsbNetwork.MaxEthernetFrameSize то
				packetSize := UsbNetwork.MinEthernetFrameSize;
			аесли packetSize < UsbNetwork.MinEthernetFrameSize то
				packetSize := UsbNetwork.MinEthernetFrameSize;
			всё;

			НИЗКОУР.запиши16битПоАдресу(txBufferAdr, packetSize);
			НИЗКОУР.запиши16битПоАдресу(txBufferAdr + 2, НИЗКОУР.подмениТипЗначения(цел32, НИЗКОУР.подмениТипЗначения(мнвоНаБитахМЗ, packetSize) / {0..15})); (* Checksum *)

			(* 14 Byte Ethernet Frame Header (destination address - source address - Frame type *)
			НИЗКОУР.копируйПамять(адресОт(dst[0]), txBufferAdr + 4, 6);
			НИЗКОУР.копируйПамять(адресОт(linkDevice.local[0]), txBufferAdr + 10, 6);
			НИЗКОУР.запиши16битПоАдресу(txBufferAdr + 16, вращБит(НИЗКОУР.подмениТипЗначения(цел16, цел32(type)), 8));

			i := UsbNetwork.EthernetHeaderSize + UsbHeaderSize;
			(* Network Layer Header *)
			если h3len > 0 то НИЗКОУР.копируйПамять(адресОт(l3hdr[0]), txBufferAdr+i, h3len); увел(i, h3len) всё;

			(* Transport Layer Header *)
			если h4len > 0 то НИЗКОУР.копируйПамять(адресОт(l4hdr[0]), txBufferAdr+i, h4len); увел(i, h4len) всё;

			(* Payload *)
			если i + dlen < UsbNetwork.MaxEthernetFrameSize то
				НИЗКОУР.копируйПамять(адресОт(data[0]) + dofs, txBufferAdr + i, dlen); увел(i, dlen);
			иначе
				Show("Warning: Maximum ethernet frame size exceeded. Packet dropped."); ЛогЯдра.пВК_ПС;
			всё;

			(* Pad Ethernet frame to minimum frame length if necessary *)
			если Min60BytePacket то нцПока i < UsbNetwork.MinEthernetFrameSize + UsbHeaderSize делай txBuffer[i] := симв8ИзКода(0); увел(i) кц; всё;
			если Trace * TraceSend # {} то
				 ЛогЯдра.пСтроку8("[TRANSMIT] Packet length:"); ЛогЯдра.пЦел64(i, 5); ЛогЯдра.пВК_ПС;
			всё;

			padLength := 0;
			если packetSize + UsbHeaderSize остОтДеленияНа bulkOutPipe.maxPacketSize = 0 то (* append pad bytes to force shortpacket *)
				padLength := 4;
				Network.Put4(txBuffer^, i, TxPadBytes);
			всё;

			status := bulkOutPipe.Transfer(UsbHeaderSize + packetSize + padLength, 0, txBuffer^);

			если status # Usbdi.Ok то
				если Debug то Show("Bulk Out Pipe Error, res: "); ЛогЯдра.пЦел64(status, 0); ЛогЯдра.пВК_ПС; всё;
				если status = Usbdi.Stalled то
					если ~bulkOutPipe.ClearHalt() то
						Show("Bulk Out Pipe Fatal Error: Could not clear stall condition."); ЛогЯдра.пВК_ПС;
					всё;
				всё;
			всё;
		кон SendFrame;

		проц SoftwareReset(value : мнвоНаБитахМЗ) : булево;
		перем status : Usbdi.Status;
		нач
			status := device.Request(WriteCommand, WriteSoftwareReset, НИЗКОУР.подмениТипЗначения(цел32, value), 0, 0, Usbdi.NoData);
			возврат status = Usbdi.Ok;
		кон SoftwareReset;

		проц {перекрыта}GetLinkAddress(перем linkAddress : Network.LinkAdr; перем res : целМЗ);
		перем buffer : Usbdi.BufferPtr; status : Usbdi.Status; i : цел32;
		нач
			нов(buffer, 6);
			status := device.Request(ReadCommand, ReadNodeId, 0, 0, 6, buffer^);
			если status = Usbdi.Ok то
				нцДля i := 0 до 5 делай linkAddress[i] := buffer[i]; кц;
				res := UsbNetwork.Ok;
			иначе
				res := UsbNetwork.Error;
			всё;
		кон GetLinkAddress;

		проц {перекрыта}SetLinkAddress(linkAddress : Network.LinkAdr; перем res : целМЗ);
		перем buffer : Usbdi.BufferPtr; status : Usbdi.Status; i : цел32;
		нач
			нов(buffer, 6);
			нцДля i := 0 до 5 делай buffer[i] := linkAddress[i]; кц;
			status := device.Request(WriteCommand, WriteNodeId, 0, 0, 6, buffer^);
			если status = Usbdi.Ok то
				res := UsbNetwork.Ok;
			аесли status = Usbdi.Stalled то
				res := UsbNetwork.Unsupported;
			иначе
				res := UsbNetwork.Error;
			всё;
		кон SetLinkAddress;

		проц LinkReset(verbose : булево; перем res : целМЗ);
		перем mediumMode : мнвоНаБитахМЗ; fullDuplex : булево; linkSpeed : цел32;
		нач
			mediumMode := MSR_Default;
			mii.Acquire;
			mii.GetAutoNegotiationResult(linkSpeed, fullDuplex, res);
			mii.Release;
			если res = Mii.Ok то
				если linkSpeed = 10 то mediumMode := mediumMode - {MSR_PortSpeed}; всё;
				если ~fullDuplex то mediumMode := mediumMode - {MSR_FullDuplex}; всё;
			всё;
			если ~WriteMediumMode(mediumMode - MSR_AlwaysZero) то
				Show("Error: Could not set medium mode."); ЛогЯдра.пВК_ПС;
				res := UsbNetwork.Error;
			иначе
				если verbose и Verbose то
					если linkDevice # НУЛЬ то linkDevice.Show("Link speed: "); иначе Show("Link speed: "); всё;
					если MSR_PortSpeed в mediumMode то ЛогЯдра.пСтроку8("100 Mbps"); иначе ЛогЯдра.пСтроку8("10 Mbps"); всё;
					если MSR_FullDuplex в mediumMode то ЛогЯдра.пСтроку8(", Full Duplex"); иначе ЛогЯдра.пСтроку8(", Half Duplex"); всё;
					если res = Mii.Ok то ЛогЯдра.пСтроку8(" (Auto-Negotiation)"); иначе ЛогЯдра.пСтроку8(" (Manually selected)"); всё;
					ЛогЯдра.пВК_ПС;
				всё;
				res := UsbNetwork.Ok;
			всё;
		кон LinkReset;

		(* Read RX control register *)
		проц ReadRxControl(rxControl16bit : мнвоНаБитахМЗ) : булево;
		перем buffer : Usbdi.BufferPtr; status : Usbdi.Status;
		нач
			нов(buffer, 2);
			status := device.Request(ReadCommand, ReadRxControlRegister, 0, 0, 2, buffer^);
			если status = Usbdi.Ok то
				rxControl16bit := НИЗКОУР.подмениТипЗначения(мнвоНаБитахМЗ, кодСимв8(buffer[0])) + логСдвиг(НИЗКОУР.подмениТипЗначения(мнвоНаБитахМЗ, кодСимв8(buffer[1])), 8);
			всё;
			возврат status = Usbdi.Ok;
		кон ReadRxControl;

		(* Write RX control register *)
		проц WriteRxControl(rxControl16Bit : мнвоНаБитахМЗ) : булево;
		перем status : Usbdi.Status;
		нач
			status := device.Request(WriteCommand, WriteRxControlRegister, НИЗКОУР.подмениТипЗначения(цел32, rxControl16Bit), 0, 0, Usbdi.NoData);
			возврат status = Usbdi.Ok;
		кон WriteRxControl;

		(* Read medium mode status register *)
		проц ReadMediumMode*(перем mediumMode16bit : мнвоНаБитахМЗ) : булево;
		перем buffer : Usbdi.BufferPtr; status : Usbdi.Status;
		нач
			нов(buffer, 2);
			status := device.Request(ReadCommand, ReadMediumStatus, 0, 0, 2, buffer^);
			если status = Usbdi.Ok то
				mediumMode16bit := НИЗКОУР.подмениТипЗначения(мнвоНаБитахМЗ, кодСимв8(buffer[0])) + логСдвиг(НИЗКОУР.подмениТипЗначения(мнвоНаБитахМЗ, кодСимв8(buffer[1])), 8);
			всё;
			возврат status = Usbdi.Ok;
		кон ReadMediumMode;

		(* Write medium mode register *)
		проц WriteMediumMode*(mediumMode16bit : мнвоНаБитахМЗ) : булево;
		перем status : Usbdi.Status;
		нач
			status := device.Request(WriteCommand, WriteMediumModeRegister, НИЗКОУР.подмениТипЗначения(цел32, mediumMode16bit), 0, 0, Usbdi.NoData);
			возврат status = Usbdi.Ok;
		кон WriteMediumMode;

		проц ScanRxBuffer;
		перем
			packetSize, packetSizeChecksum, packetSizeEven, type : цел32; res : целМЗ;
			index, packetStart, contiguousLength, bytesCopied : размерМЗ;
			error : булево;
			buffer : Network.Buffer;
		нач
			(* packet format:
				USB header
					2 byte packet length (excl. USB header)
					2 byte packet length checksum
				Ethernet header
					6 byte source address
					6 byte destination address
					2 byte type
				Payload
					packet length data bytes

				The device always sends 16-bit quantities, for uneven amounts of data, one padding byte will be added.
			*)
			index := rxBufferHead; error := ложь;
			нц
				если Trace * TraceReceiveDetailed # {} то
					ЛогЯдра.пСтроку8("[RECEIVE] RX Buffer: Head: "); ЛогЯдра.пЦел64(rxBufferHead, 0); ЛогЯдра.пСтроку8(", Tail: "); ЛогЯдра.пЦел64(rxBufferTail, 0);
					ЛогЯдра.пСтроку8(", last Index: "); ЛогЯдра.пЦел64(rxBufferLastIndex, 0); ЛогЯдра.пСтроку8(", Bytes: "); ЛогЯдра.пЦел64(rxBufferBytes, 0); ЛогЯдра.пВК_ПС;
				всё;
				(* The way we're doing the bulk in transfers guarantees that the header is always contiguous in the buffer *)
				headerBytes := 0;

				если rxBufferBytes = 0 то
					если Trace * TraceReceiveDetailed # {} то ЛогЯдра.пСтроку8("[RECEIVE] RX buffer empty"); ЛогЯдра.пВК_ПС; всё;
					прервиЦикл;
				аесли rxBufferBytes < UsbHeaderSize + UsbNetwork.EthernetHeaderSize то (* wait for more bytes *)
					headerBytes := rxBufferBytes;
					если Trace * TraceReceiveDetailed # {} то
						ЛогЯдра.пСтроку8("[RECEIVE] Header not yet complete, have "); ЛогЯдра.пЦел64(headerBytes, 0); ЛогЯдра.пСтроку8(" bytes so far"); ЛогЯдра.пВК_ПС;
					всё;
					прервиЦикл;
				всё;

				packetSize := Network.Get2(rxBuffer^, index);
				packetSizeChecksum := Network.Get2(rxBuffer^, index + 2);
				packetSizeEven := НИЗКОУР.подмениТипЗначения(цел32, НИЗКОУР.подмениТипЗначения(мнвоНаБитахМЗ, packetSize + 1) * {1..31});
				packetStart := index + 4;

				если packetSize # НИЗКОУР.подмениТипЗначения(цел32, НИЗКОУР.подмениТипЗначения(мнвоНаБитахМЗ, packetSizeChecksum) / {0..15}) то
					error := истина;
					Show("Packet size checksum error"); ЛогЯдра.пВК_ПС;
					прервиЦикл;
				аесли packetSize = 0FFF0H то
					error := истина;
					Show("Invalid packet size error"); ЛогЯдра.пВК_ПС;
					прервиЦикл;
				аесли packetSize > UsbNetwork.MaxEthernetFrameSize то
					error := истина;
					Show("Packet too big."); ЛогЯдра.пВК_ПС;
					прервиЦикл;
				всё;

				если Trace * TraceReceive # {} то ЛогЯдра.пСтроку8("[RECEIVE] PacketSize:"); ЛогЯдра.пЦел64(packetSize, 4); ЛогЯдра.пВК_ПС; всё;

				если rxBufferBytes >= UsbHeaderSize + packetSizeEven то

					buffer := Network.GetNewBuffer();

					если buffer # НУЛЬ то

						type := Network.GetNet2(rxBuffer^, packetStart + 6 + 6);

						buffer.ofs := 0;
						buffer.len := packetSize - 14;
						buffer.src := НИЗКОУР.подмениТипЗначения(Network.LinkAdr, rxBuffer^[packetStart + 6]);
						buffer.calcChecksum := {};

						contiguousLength := rxBufferLastIndex - packetStart + 1;
						утв(contiguousLength >= 0);

						если packetSize <= contiguousLength то (* no wrap aroung within packet boundaries *)
							если Trace * TraceReceiveDetailed # {} то ЛогЯдра.пСтроку8("[RECEIVE] Contiguous packet"); ЛогЯдра.пВК_ПС; всё;
							Network.Copy(rxBuffer^, buffer.data, packetStart + UsbNetwork.EthernetHeaderSize, 0, packetSize - UsbNetwork.EthernetHeaderSize);
							увел(rxBufferHead, packetSize + UsbHeaderSize);
						иначе
							если Trace * TraceReceiveDetailed # {} то
								ЛогЯдра.пСтроку8("[RECEIVE] Non-contiguous packet: "); ЛогЯдра.пЦел64(contiguousLength, 0); ЛогЯдра.пСтроку8(" bytes at end, ");
								ЛогЯдра.пЦел64(packetSize - contiguousLength, 0); ЛогЯдра.пСтроку8(" bytes at start"); ЛогЯдра.пВК_ПС;
							всё;
							bytesCopied := 0;
							если contiguousLength - UsbNetwork.EthernetHeaderSize > 0 то
								bytesCopied := contiguousLength - UsbNetwork.EthernetHeaderSize;
								Network.Copy(rxBuffer^, buffer.data, packetStart + UsbNetwork.EthernetHeaderSize, 0, bytesCopied);
							всё;
							rxBufferHead := 0;
							Network.Copy(rxBuffer^, buffer.data, rxBufferHead, bytesCopied, packetSize - bytesCopied);
							увел(rxBufferHead, packetSize - contiguousLength);
							rxBufferLastIndex := rxBufferTail - 1;
						всё;

						linkDevice.QueueBuffer(buffer, type);

						умень(rxBufferBytes, packetSize + UsbHeaderSize);

						если rxBufferHead остОтДеленияНа 2 = 1 то (* pad byte since device sends 2byte quantities *)
							увел(rxBufferHead);
							умень(rxBufferBytes);
						всё;

						(* incrementing rxBufferHead above could do a wrap around -> handle it *)
						если (rxBufferBytes > 0) и (rxBufferHead > rxBufferLastIndex) то
							rxBufferHead := 0;
							rxBufferLastIndex := rxBufferTail - 1;
						всё;

						если rxBufferHead = rxBufferTail то rxBufferLastIndex := rxBufferTail; всё;

						index := rxBufferHead;
					иначе
						Show("Receive buffer underrun."); ЛогЯдра.пВК_ПС;
					всё;

				иначе
					если Trace * TraceReceive # {} то ЛогЯдра.пСтроку8("[RECEIVE] Waiting for more data"); ЛогЯдра.пВК_ПС; всё;
					прервиЦикл; (* Wait until the complete packet is in the buffer *)
				всё;
			кц;
			если error то
				если Debug то Show("Link reset forced."); ЛогЯдра.пВК_ПС; всё;
				ResetRxBuffer;
				LinkReset(ложь, res);
				если res # UsbNetwork.Ok то Show("Fatal error. Link reset failed."); ЛогЯдра.пВК_ПС; всё;
			всё;
		кон ScanRxBuffer;

		проц ResetRxBuffer;
		нач
			rxBufferHead := 0; rxBufferTail := 0; rxBufferLastIndex := 0;
			rxBufferBytes := 0; headerBytes := 0;
		кон ResetRxBuffer;

		проц {перекрыта}HandleBulkIn*(status : Usbdi.Status; actLen : размерМЗ);
		перем i : размерМЗ;
		нач
			если (status = Usbdi.Ok) или (status = Usbdi.ShortPacket) то
				если Trace * TraceReceive # {} то Show("[USB RECEIVE] "); ЛогЯдра.пЦел64(actLen, 5); ЛогЯдра.пСтроку8(" Bytes"); ЛогЯдра.пВК_ПС; всё;
				если actLen = 0 то возврат; всё;

				(* Buffer accounting *)
				увел(rxBufferTail, actLen);
				если rxBufferLastIndex < rxBufferTail - 1 то rxBufferLastIndex := rxBufferTail - 1; всё;
				увел(rxBufferBytes, actLen);

				ScanRxBuffer;

				если rxBufferTail + BulkInRequestSize > длинаМассива(rxBuffer) то (* wrap around *)
					(* Unfortunately, requesting less bytes than maxPacketSize results in a babble when the device has more data to send
					, so	we have to ask for maxPacketSize bytes of data *)
					если Trace * TraceReceiveDetailed # {} то ЛогЯдра.пСтроку8("[RECEIVE] Buffer wrap"); ЛогЯдра.пВК_ПС; всё;
					если headerBytes > 0 то (* copy the header at the end of the buffer to the buffer start *)
						если Trace * TraceReceiveDetailed # {} то
							ЛогЯдра.пСтроку8("[RECEIVE] Copying header to buffer start:: "); ЛогЯдра.пЦел64(headerBytes, 0); ЛогЯдра.пСтроку8(" bytes from index ");
							ЛогЯдра.пЦел64(rxBufferHead, 0); ЛогЯдра.пВК_ПС;
						всё;
						нцДля i := 0 до headerBytes-1 делай
							rxBuffer[i] := rxBuffer[rxBufferHead + i];
						кц;
						rxBufferHead := 0;
						rxBufferLastIndex := headerBytes - 1;
						rxBufferTail := headerBytes;
					иначе
						rxBufferTail := 0;
						если rxBufferBytes = 0 то
							rxBufferHead := 0;
							rxBufferLastIndex := 0;
						всё;
					всё;
				всё;

				status := bulkInPipe.Transfer(BulkInRequestSize, rxBufferTail, rxBuffer^);
			иначе
				если Debug то Show("Bulk IN Pipe Error, res: "); ЛогЯдра.пЦел64(status, 0); ЛогЯдра.пВК_ПС; всё;
				если status = Usbdi.Stalled то
					если ~bulkInPipe.ClearHalt() то
						Show("Bulk IN Pipe Fatal Error: Could not clear stall condition."); ЛогЯдра.пВК_ПС;
					всё;
				всё;
			всё;
		кон HandleBulkIn;

		проц {перекрыта}HandleInterrupt*(status : Usbdi.Status; actLen : размерМЗ);
		перем s, register1, register2 : мнвоНаБитахМЗ; oldLinkStatus : цел32; res : целМЗ;
		нач
			если (status = Usbdi.Ok) или ((status = Usbdi.ShortPacket) и (actLen >=8)) то
				s := НИЗКОУР.подмениТипЗначения(мнвоНаБитахМЗ, кодСимв8(interruptInBuffer[2]));
				oldLinkStatus := linkStatus;

				если IEB3_PrimaryPhyLinkUp в s то
					linkStatus := Network.LinkLinked;
				иначе
					linkStatus := Network.LinkNotLinked;
				всё;

				если IEB3_EthernetFrameLengthError в s то
					если Debug то Show("Bulk out ethernet frame length error detected. Forcing Link reset."); ЛогЯдра.пВК_ПС; всё;
					LinkReset(ложь, res); (* ignore res *)
				всё;

				если Verbose то
					если oldLinkStatus # linkStatus то
						если linkStatus = Network.LinkUnknown то
							linkDevice.Show("No cable connected."); ЛогЯдра.пВК_ПС;
						аесли linkStatus = Network.LinkNotLinked то
							linkDevice.Show("Connection lost."); ЛогЯдра.пВК_ПС;
						аесли linkStatus = Network.LinkLinked то
							linkDevice.Show("Connection established."); ЛогЯдра.пВК_ПС;
						всё;
					всё;
				всё;

				если oldLinkStatus # linkStatus то
					если linkStatus = Network.LinkLinked то
						LinkReset(истина, res);
					иначе
						LinkReset(ложь, res);
					всё;
					если res # UsbNetwork.Ok то
						если Debug то Show("Link Reset failed."); ЛогЯдра.пВК_ПС; всё;
					всё;
				всё;

				(* Registers of primary Phy. Offset specified in EEPROM at 0Fh *)
				register1 := НИЗКОУР.подмениТипЗначения(мнвоНаБитахМЗ, кодСимв8(interruptInBuffer[4])) + логСдвиг(НИЗКОУР.подмениТипЗначения(мнвоНаБитахМЗ, кодСимв8(interruptInBuffer[5])), 8);
				register2 := НИЗКОУР.подмениТипЗначения(мнвоНаБитахМЗ, кодСимв8(interruptInBuffer[6])) + логСдвиг(НИЗКОУР.подмениТипЗначения(мнвоНаБитахМЗ, кодСимв8(interruptInBuffer[7])), 8);

				status := interruptInPipe.Transfer(interruptInPipe.maxPacketSize, 0, interruptInBuffer^); (* ignore status *)
			иначе
				если Debug то Show("Interrupt IN Pipe Error, res: "); ЛогЯдра.пЦел64(status, 0); ЛогЯдра.пВК_ПС; всё;
				если status = Usbdi.Stalled то
					если ~interruptInPipe.ClearHalt() то
						Show("Interrupt IN Pipe Fatal Error: Could not clear stall condition."); ЛогЯдра.пВК_ПС;
					всё;
				всё;
			всё;
		кон HandleInterrupt;

		проц {перекрыта}InitController*(перем rxBuffer : Usbdi.BufferPtr) : булево;
		перем
			rxControl : мнвоНаБитахМЗ;
			res : целМЗ; timer : Kernel.Timer;
			customLinkAdr : Network.LinkAdr;
		нач
			GetPhyId(primaryPhyId, primaryPhyType, secondaryPhyId, secondaryPhyType, res);
			если res # UsbNetwork.Ok то
				Show("Error: Could not read PHY ID/Type."); ЛогЯдра.пВК_ПС;
				возврат ложь;
			всё;

			(* Manufactur/model-specific GPIO configuration *)
			если ~WriteGpioRegister(gpioConfiguration) то
				Show("Error: Could not configure GPIO pins."); ЛогЯдра.пВК_ПС;
				возврат ложь;
			всё;

			(* Select the internal PHY *)
			SetPhySelect(истина, ложь, res);
			если res # UsbNetwork.Ok то
				Show("Error: Could not select PHY."); ЛогЯдра.пВК_ПС;
				возврат ложь;
			всё;

			(* Power down internal PHY *)
			если ~SoftwareReset(SRS_IntPhyPowerdownControl) то
				Show("Error: Could not power down internal PHY."); ЛогЯдра.пВК_ПС;
				возврат ложь;
			всё;

			(* Power up and reset internal PHY *)
			если ~SoftwareReset({}) то
				Show("Error: Could not set internal PHY state to operating."); ЛогЯдра.пВК_ПС;
				возврат ложь;
			всё;

			(* Set internal PHY to operating mode and set external PHY reset pin level to high *)
			если ~SoftwareReset(SRS_IntPhyResetControl + SRS_ExtPhyResetPinLevel) то
				Show("Error: Configuration error."); ЛогЯдра.пВК_ПС;
				возврат ложь;
			всё;

			(* Ethernet MAC stop operation *)
			если ~WriteRxControl({}) то
				Show("Error: Could not write RX control register."); ЛогЯдра.пВК_ПС;
				возврат ложь;
			всё;

			если ~WriteIPGRegisters(15X, 0CX, 0EX) то
				Show("Error: Could not set IPG registers."); ЛогЯдра.пВК_ПС;
				возврат ложь;
			всё;

			нов(mii, device, primaryPhyId);

			mii.Acquire;

			mii.Reset(res);
			если res # Mii.Ok то
				Show("Error: MII Reset failed."); ЛогЯдра.пВК_ПС;
				mii.Release;
				возврат ложь;
			всё;

			mii.EnableAutoNegotiation(истина, res);
			если res # Mii.Ok то
				Show("Error: Enabling Auto-Negotiation failed."); ЛогЯдра.пВК_ПС;
				mii.Release;
				возврат ложь;
			всё;

			mii.Release;

			(* Wait shortly so auto-negotiation takes place *)
			нов(timer); timer.Sleep(200);

			LinkReset(ложь, res);
			если res # Mii.Ok то
				Show("Error: Could not reset link."); ЛогЯдра.пВК_ПС;
				возврат ложь;
			всё;

			если MacAddress # "EEPROM" то (* Use user-specific MAC address *)
				если StringToLinkAdr(MacAddress, customLinkAdr) то
					SetLinkAddress(customLinkAdr, res);
					если res = UsbNetwork.Ok то
						ЛогЯдра.пСтроку8(name); ЛогЯдра.пСтроку8(": Using user-specific MAC address: "); ЛогЯдра.пСтроку8(MacAddress); ЛогЯдра.пВК_ПС;
					иначе
						ЛогЯдра.пСтроку8(name); ЛогЯдра.пСтроку8(": Failed to set user-specific MAC address"); ЛогЯдра.пВК_ПС;
					всё;
				иначе
					ЛогЯдра.пСтроку8(name); ЛогЯдра.пСтроку8(" Failed to convert user-specified MAC address into link address."); ЛогЯдра.пВК_ПС;
				всё;
			всё;

			bulkOutPipe.mode := Usbdi.MaxPerformance;

			(* Start MAC operation *)
			rxControl := {RXCR_AllBroadcasts} + {RXCR_StartOperation};
			rxControl := rxControl + RXCR_Msb; (* 16K Frame Bursts on USB *)
			если PromiscuousMode то
				если Verbose то Show("Enabled promiscuous mode."); ЛогЯдра.пВК_ПС; всё;
				включиВоМнвоНаБитах(rxControl, RXCR_PromiscuousMode);
			всё;
			если  ~WriteRxControl(rxControl) то
				Show("Error: Could not enable MAC operation."); ЛогЯдра.пВК_ПС;
				возврат ложь;
			всё;

			нов(rxBuffer, RxBufferSize);
			ResetRxBuffer;

			нов(txBuffer, UsbNetwork.MaxEthernetFrameSize + UsbHeaderSize);
			txBufferAdr := адресОт(txBuffer[0]);

			возврат истина;
		кон InitController;

		проц ReadMulticastFilterArray(bitmap : Usbdi.BufferPtr) : булево;
		перем status : Usbdi.Status;
		нач
			утв((bitmap # НУЛЬ) и (длинаМассива(bitmap) >= 8));
			status := device.Request(ReadCommand, ReadMcastFilterArray, 0, 0, 8, bitmap^);
			возврат status = Usbdi.Ok;
		кон ReadMulticastFilterArray;

		проц WriteMulticastFilterArray(bitmap : Usbdi.BufferPtr) : булево;
		перем status : Usbdi.Status;
		нач
			утв((bitmap # НУЛЬ) и (длинаМассива(bitmap) >= 8));
			status := device.Request(WriteCommand, ReadMcastFilterArray, 0, 0, 8, bitmap^);
			возврат status = Usbdi.Ok;
		кон WriteMulticastFilterArray;

		проц ReadIPGRegisters(перем ipg, ipg1, ipg2 : симв8) : булево;
		перем buffer : Usbdi.BufferPtr; status : Usbdi.Status;
		нач
			нов(buffer, 3);
			status := device.Request(ReadCommand, ReadIpgControlRegister, 0, 0, 3, buffer^);
			если status = Usbdi.Ok то
				ipg := buffer[0];
				ipg1 := buffer[1];
				ipg2 := buffer[2];
			всё;
			возврат status = Usbdi.Ok;
		кон ReadIPGRegisters;

		проц WriteIPGRegisters(ipg, ipg1, ipg2 : симв8) : булево;
		перем wValue, wIndex : цел32; status : Usbdi.Status;
		нач
			wValue := кодСимв8(ipg) + 100H* НИЗКОУР.подмениТипЗначения(цел32, кодСимв8(ipg1));
			wIndex := НИЗКОУР.подмениТипЗначения(цел32, кодСимв8(ipg2));
			status := device.Request(WriteCommand, WriteIpgControlRegister, wValue, wIndex, 0, Usbdi.NoData);
			возврат status = Usbdi.Ok;
		кон WriteIPGRegisters;

		проц ReadMonitorMode(перем monitorMode, wakeupOnLinkup, wakeupOnMagicPacket : булево; перем usbSpeed : цел32) : булево;
		перем s : мнвоНаБитахМЗ; buffer : Usbdi.BufferPtr; status : Usbdi.Status;
		нач
			нов(buffer, 1);
			status := device.Request(ReadCommand, ReadMonitorModeStatus, 0, 0, 1, buffer^);
			если status = Usbdi.Ok то
				s := НИЗКОУР.подмениТипЗначения(мнвоНаБитахМЗ, кодСимв8(buffer[0]));
				monitorMode := MMR_MonitorMode в s;
				wakeupOnLinkup := MMR_WakeupOnLinkup в s;
				wakeupOnMagicPacket := MMR_WakeupOnMagicPacket в s;
				если MMR_UsbHighSpeed в s то usbSpeed := 480; иначе usbSpeed := 12; всё
			всё;
			возврат status = Usbdi.Ok;
		кон ReadMonitorMode;

		проц WriteMonitorMode(monitorMode, wakeupOnLinkup, wakeupOnMagicPacket : булево) : булево;
		перем set : мнвоНаБитахМЗ; status : Usbdi.Status;
		нач
			если monitorMode то включиВоМнвоНаБитах(set, MMR_MonitorMode); всё;
			если wakeupOnLinkup то включиВоМнвоНаБитах(set, MMR_WakeupOnLinkup); всё;
			если wakeupOnMagicPacket то включиВоМнвоНаБитах(set, MMR_WakeupOnMagicPacket); всё;
			status := device.Request(WriteCommand, WriteMonitorModeRegister, НИЗКОУР.подмениТипЗначения(цел32, set), 0, 0, Usbdi.NoData);
			возврат status = Usbdi.Ok;
		кон WriteMonitorMode;

		проц GetPhyId(перем primaryPhyId, primaryPhyType, secondaryPhyId, secondaryPhyType: цел32; перем res : целМЗ);
		перем set : мнвоНаБитахМЗ; buffer : Usbdi.BufferPtr; status : Usbdi.Status;
		нач
			нов(buffer, 2);
			status := device.Request(ReadCommand, ReadPhyAddressRegister, 0, 0, 2, buffer^);
			если status = Usbdi.Ok то
				set := НИЗКОУР.подмениТипЗначения(мнвоНаБитахМЗ, кодСимв8(buffer[0]));
				secondaryPhyId := НИЗКОУР.подмениТипЗначения(цел32, set * {0..4});
				secondaryPhyType := НИЗКОУР.подмениТипЗначения(цел32, логСдвиг(set * {5..7}, -5));
				set := НИЗКОУР.подмениТипЗначения(мнвоНаБитахМЗ, кодСимв8(buffer[1]));
				primaryPhyId := НИЗКОУР.подмениТипЗначения(цел32, set * {0..4});
				primaryPhyType := НИЗКОУР.подмениТипЗначения(цел32, логСдвиг(set * {5..7}, -5));
				res := UsbNetwork.Ok;
			иначе
				res := UsbNetwork.Error;
			всё;
		кон GetPhyId;

		(**
			Which PHY is selected?
			@embedded: If TRUE: Embedded 10/100Mbps PHY is select; If FALSE; External PHY is selected
			@autoSelect: If TRUE, Automatically selected on link status of embedded PHY; If FALSE: Manually selected PHY
			@res: UsbNetwork.Ok if command succeeded
		*)
		проц GetPhySelectStatus(перем embedded, autoSelect : булево; перем res : целМЗ);
		перем buffer : Usbdi.BufferPtr; status : Usbdi.Status;
		нач
			нов(buffer, 1);
			status := device.Request(ReadCommand, ReadPhySelectStatus, 0, 0, 1, buffer^);
			если status = Usbdi.Ok то
				embedded := 0 в НИЗКОУР.подмениТипЗначения(мнвоНаБитахМЗ, кодСимв8(buffer[0]));
				autoSelect := 1 в НИЗКОУР.подмениТипЗначения(мнвоНаБитахМЗ, кодСимв8(buffer[0]));
				res := UsbNetwork.Ok;
			иначе
				res := UsbNetwork.Error;
			всё;
		кон GetPhySelectStatus;

		проц SetPhySelect(embedded, autoSelect : булево; перем res : целМЗ);
		перем set : мнвоНаБитахМЗ; status : Usbdi.Status;
		нач
			если embedded то включиВоМнвоНаБитах(set, 0); всё;
			если autoSelect то включиВоМнвоНаБитах(set, 1); всё;
			status := device.Request(WriteCommand, WritePhySelectRegister, НИЗКОУР.подмениТипЗначения(цел32, set), 0, 0, Usbdi.NoData);
			если status = Usbdi.Ok то
				res := UsbNetwork.Ok;
			иначе
				res := UsbNetwork.Error;
			всё;
		кон SetPhySelect;

		проц ReadGpioRegister(перем gpio8bit : мнвоНаБитахМЗ; перем res : целМЗ);
		перем buffer : Usbdi.BufferPtr; status : Usbdi.Status;
		нач
			нов(buffer, 1);
			status := device.Request(ReadCommand, ReadGPIOStatusRegister, 0, 0, 1, buffer^);
			если status = Usbdi.Ok то
				gpio8bit := НИЗКОУР.подмениТипЗначения(мнвоНаБитахМЗ, кодСимв8(buffer[0]));
				res := UsbNetwork.Ok;
			иначе
				res := UsbNetwork.Error;
			всё;
		кон ReadGpioRegister;

		проц WriteGpioRegister(gpio8bit : мнвоНаБитахМЗ) : булево;
		перем status : Usbdi.Status;
		нач
			status := device.Request(WriteCommand, WriteGPIORegister, НИЗКОУР.подмениТипЗначения(цел32, gpio8bit), 0, 0, Usbdi.NoData);
			возврат status = Usbdi.Ok;
		кон WriteGpioRegister;

		(** Enable/disable write access to SROM *)
		проц SromWriteEnable(enable : булево) : булево;
		перем status : Usbdi.Status;
		нач
			если enable то
				status := device.Request(WriteCommand, WriteSromEnable, 0, 0, 0, Usbdi.NoData);
			иначе
				status := device.Request(WriteCommand, WriteSromDisable, 0, 0, 0, Usbdi.NoData);
			всё;
			если status = Usbdi.Ok то sRomWriteEnabled := enable; всё;
			возврат status = Usbdi.Ok;
		кон SromWriteEnable;

		(* Read register from 2-byte addressed SROM *)
		проц SromRead16(address : цел32; перем word : цел32;  перем res : целМЗ);
		перем buffer : Usbdi.BufferPtr; status : Usbdi.Status;
		нач
			утв(address < 256);
			нов(buffer, 2);
			status := device.Request(ReadCommand, ReadSromRegister, address, 0, 2, buffer^);
			если status = Usbdi.Ok то
				word := НИЗКОУР.подмениТипЗначения(цел32, кодСимв8(buffer[0])) + 100H*НИЗКОУР.подмениТипЗначения(цел32, кодСимв8(buffer[1]));
				res := UsbNetwork.Ok;
			иначе
				res := UsbNetwork.Error;
			всё;
		кон SromRead16;

		(* Write register to 2-byte addressed SROM *)
		проц SromWrite16(address : цел32; word : цел32;  перем res : целМЗ);
		перем status : Usbdi.Status;
		нач
			утв(sRomWriteEnabled);
			утв(address < 256);
			status := device.Request(WriteCommand, WriteSromRegister, address, word, 0, Usbdi.NoData);
			если status = Usbdi.Ok то
				res := UsbNetwork.Ok;
			иначе
				res := UsbNetwork.Error;
			всё;
		кон SromWrite16;

		(** SRAM buffer access *)

		проц WriteSRAM(ram, address : цел32; buffer : Usbdi.BufferPtr) : булево;
		перем a : мнвоНаБитахМЗ; wValue, wIndex : цел32; status : Usbdi.Status;
		нач (* UNTESTED *)
			a := НИЗКОУР.подмениТипЗначения(мнвоНаБитахМЗ, address);
			wValue := НИЗКОУР.подмениТипЗначения(цел32, логСдвиг(a * {0..7}, 8) + логСдвиг(a * {8..10}, -8));
			wIndex := логСдвиг(ram, 8);
			status := device.Request(WriteCommand, WriteRxTxRegister, wValue, wIndex, 8, buffer^);
			возврат status = Usbdi.Ok;
		кон WriteSRAM;

		проц ReadSRAM(ram, address : цел32; buffer : Usbdi.BufferPtr) : булево;
		перем a : мнвоНаБитахМЗ; wValue, wIndex : цел32; status : Usbdi.Status;
		нач (* UNTESTED *)
			a := НИЗКОУР.подмениТипЗначения(мнвоНаБитахМЗ, address);
			wValue := НИЗКОУР.подмениТипЗначения(цел32, логСдвиг(a * {0..7}, 8) + логСдвиг(a * {8..10}, -8));
			wIndex := логСдвиг(ram, 8);
			status := device.Request(ReadCommand, ReadRxTxRegister, wValue, wIndex, 8, buffer^);
			возврат status = Usbdi.Ok;
		кон ReadSRAM;

		проц {перекрыта}Finalize;
			(* do nothing *)
		кон Finalize;

		проц {перекрыта}Diag;
		перем
			linkAdr : Network.LinkAdr;
			embeddedPhy, autoSelect : булево;
			monitorMode, wakeupOnLinkup, wakeupOnMagicPacket : булево; usbSpeed : цел32;
			priId, priType, secId, secType : цел32;
			set : мнвоНаБитахМЗ;
			i, word : цел32; res : целМЗ;
		нач
			Diag^;
			GetLinkAddress(linkAdr, res);
			если res = UsbNetwork.Ok то
				ЛогЯдра.пСтроку8("Link Address: "); Network.OutLinkAdr(linkAdr, 6);ЛогЯдра.пВК_ПС;
			иначе ЛогЯдра.пСтроку8("Error: Could not get link address information."); ЛогЯдра.пВК_ПС;
			всё;

			если ReadMediumMode(set) то ShowMediumModeRegister(set);
			иначе ЛогЯдра.пСтроку8("Error: Could not get medium mode information."); ЛогЯдра.пВК_ПС;
			всё;

			если ReadMonitorMode(monitorMode, wakeupOnLinkup, wakeupOnMagicPacket, usbSpeed) то
				ShowMonitorMode(monitorMode, wakeupOnLinkup, wakeupOnMagicPacket, usbSpeed);
			иначе ЛогЯдра.пСтроку8("Error: Could not get monitor mode information."); ЛогЯдра.пВК_ПС;
			всё;

			если ReadRxControl(set) то ShowRxControlRegister(set);
			иначе ЛогЯдра.пСтроку8("Error: Could not get RX control status."); ЛогЯдра.пВК_ПС;
			всё;

			GetPhySelectStatus(embeddedPhy, autoSelect, res);
			если res = UsbNetwork.Ok то ShowPhySelectStatus(embeddedPhy, autoSelect);
			иначе ЛогЯдра.пСтроку8("Error: Could not get PHY select status information."); ЛогЯдра.пВК_ПС;
			всё;

			GetPhyId(priId, priType, secId, secType, res);
			если res = UsbNetwork.Ok то
				ЛогЯдра.пСтроку8("Primary PHY: ID: "); ЛогЯдра.пЦел64(priId, 0); ЛогЯдра.пСтроку8(", Type: "); ЛогЯдра.пЦел64(priType, 0); ЛогЯдра.пВК_ПС;
				ЛогЯдра.пСтроку8("Secondary PHY: ID: "); ЛогЯдра.пЦел64(secId, 0); ЛогЯдра.пСтроку8(", Type: "); ЛогЯдра.пЦел64(secType, 0); ЛогЯдра.пВК_ПС;
			иначе ЛогЯдра.пСтроку8("Error: Could not get PHY ID/Type information."); ЛогЯдра.пВК_ПС;
			всё;

			ReadGpioRegister(set, res);
			если res = UsbNetwork.Ok то ShowGpioStatusRegister(set);
			иначе ЛогЯдра.пСтроку8("Error: Could not read GPIO status register."); ЛогЯдра.пВК_ПС;
			всё;

			mii.Acquire;
			mii.Diag;
			mii.Release;

			ЛогЯдра.пСтроку8("First 28H Bytes of EEPROM: "); ЛогЯдра.пВК_ПС;
			i := 0;
			нц
				ЛогЯдра.п16ричное(i, -2); ЛогЯдра.пСтроку8("H: ");
				SromRead16(i, word, res);
				если res # UsbNetwork.Ok то
					Show("Error: Could not read SROM."); ЛогЯдра.пВК_ПС;
				иначе
					ЛогЯдра.п16ричное(word, 0); ЛогЯдра.пВК_ПС;
				всё;
				увел(i);
				если i > 14H то прервиЦикл; всё;
			кц;

		кон Diag;

	кон Usb200MDriver;

(* Converts a string formatted as AA:BB:CC:DD:EE:FF:GG into a Network link address *)
проц StringToLinkAdr(конст string : массив из симв8; перем linkAdr : Network.LinkAdr) : булево;
перем stringArray : Strings.StringArray; value : цел32; i : размерМЗ; res : целМЗ;
нач
	stringArray := Strings.Split(string, ":");
	если длинаМассива(stringArray) = 6 то
		нцДля i := 0 до длинаМассива(stringArray)-1 делай
			Strings.HexStrToInt(stringArray[i]^, value, res);
			если res = 0 то
				linkAdr[i] := симв8ИзКода(value);
			иначе
				возврат ложь;
			всё;
		кц;
		возврат истина;
	всё;
	возврат ложь;
кон StringToLinkAdr;

проц ShowMonitorMode(monitorMode, wakeupOnLinkup, wakeupOnMagicPacket : булево;  usbSpeed : цел32);
нач
	ЛогЯдра.пСтроку8("Monitor Mode Status:"); ЛогЯдра.пВК_ПС;
	ЛогЯдра.пСтроку8("   Monitor Mode: "); ЛогЯдра.пБулево(monitorMode); ЛогЯдра.пВК_ПС;
	ЛогЯдра.пСтроку8("   Remote Wakeup triggered by Ethernet Link-up: "); ЛогЯдра.пБулево(wakeupOnLinkup); ЛогЯдра.пВК_ПС;
	ЛогЯдра.пСтроку8("   Remote Wakeup triggered by Magic Packet: "); ЛогЯдра.пБулево(wakeupOnMagicPacket); ЛогЯдра.пВК_ПС;
	ЛогЯдра.пСтроку8("   USB speed: "); ЛогЯдра.пЦел64(usbSpeed, 0); ЛогЯдра.пСтроку8("Mbps");
	ЛогЯдра.пВК_ПС;
кон ShowMonitorMode;

проц ShowPhySelectStatus(embeddedPhy, autoSelect : булево);
нач
	ЛогЯдра.пСтроку8("PHY Select Status:"); ЛогЯдра.пВК_ПС;
	ЛогЯдра.пСтроку8("   Selected PHY: ");
	если embeddedPhy то
		ЛогЯдра.пСтроку8("Embedded 10/100Mbps PHY");
	иначе
		ЛогЯдра.пСтроку8("External PHY");
	всё;
	ЛогЯдра.пСтроку8(" (");
	если autoSelect то ЛогЯдра.пСтроку8("Auto Select"); иначе ЛогЯдра.пСтроку8("Manual Select"); всё;
	ЛогЯдра.пСтроку8(")");
	ЛогЯдра.пВК_ПС;
кон ShowPhySelectStatus;

проц ShowMediumModeRegister(s : мнвоНаБитахМЗ);
нач
	ЛогЯдра.пСтроку8("Medium status: "); ЛогЯдра.пВК_ПС;
	ЛогЯдра.пСтроку8("   Port speed: ");
	если MSR_PortSpeed в s то ЛогЯдра.пСтроку8("100 MBps"); иначе ЛогЯдра.пСтроку8("10 MBps"); всё; ЛогЯдра.пСтроку8(", ");
	если MSR_FullDuplex в s то ЛогЯдра.пСтроку8("Full Duplex"); иначе ЛогЯдра.пСтроку8("Half Duplex"); всё;
	ЛогЯдра.пВК_ПС;
	ЛогЯдра.пСтроку8("   Flow control: ");
	ЛогЯдра.пСтроку8("RX: "); ЛогЯдра.пБулево(MSR_RxFlowControlEnable в s);
	ЛогЯдра.пСтроку8(", TX: "); ЛогЯдра.пБулево(MSR_TxFlowControlEnable в s);
	ЛогЯдра.пВК_ПС;
	ЛогЯдра.пСтроку8("   Pause Frame only length/type: "); ЛогЯдра.пБулево(MSR_PauseFrameSimpleCheck в s);
	ЛогЯдра.пСтроку8(", Receive Enable: "); ЛогЯдра.пБулево(MSR_ReceiveEnable в s);
	ЛогЯдра.пСтроку8(", Stop Backpressure: "); ЛогЯдра.пБулево(MSR_StopBackpressure в s);
	ЛогЯдра.пСтроку8(", Super Max support: "); ЛогЯдра.пБулево(MSR_SuperMacSupport в s);
	ЛогЯдра.пВК_ПС;
кон ShowMediumModeRegister;

проц ShowRxControlRegister(s : мнвоНаБитахМЗ);
перем value : цел32;
нач
	ЛогЯдра.пСтроку8("RX Control:"); ЛогЯдра.пВК_ПС;
	ЛогЯдра.пСтроку8("   Promiscuous mode: "); ЛогЯдра.пБулево(RXCR_PromiscuousMode в s); ЛогЯдра.пВК_ПС;
	ЛогЯдра.пСтроку8("   Forward packets to host: "); ЛогЯдра.пВК_ПС;
	ЛогЯдра.пСтроку8("      All Multicasts: "); ЛогЯдра.пБулево(RXCR_AllMulticastFrames в s); ЛогЯдра.пВК_ПС;
	ЛогЯдра.пСтроку8("      Packets with CRC error: "); ЛогЯдра.пБулево(RXCR_SaveErrorPacket в s); ЛогЯдра.пВК_ПС;
	ЛогЯдра.пСтроку8("      Multicasts whose DA match multicast address list: "); ЛогЯдра.пБулево(RXCR_Multicast в s); ЛогЯдра.пВК_ПС;
	ЛогЯдра.пСтроку8("      Unicasts whos DA match multicast address list: "); ЛогЯдра.пБулево(RXCR_AcceptPhysical в s); ЛогЯдра.пВК_ПС;
	ЛогЯдра.пСтроку8("   Ethernet MAC start operating: "); ЛогЯдра.пБулево(RXCR_StartOperation в s); ЛогЯдра.пВК_ПС;
	ЛогЯдра.пСтроку8("   Maximum frame burst transfer on USB: ");
	value := НИЗКОУР.подмениТипЗначения(цел32, логСдвиг(s * RXCR_Msb, -8));
	просей value из
		|0: ЛогЯдра.пСтроку8("2048 Bytes");
		|1: ЛогЯдра.пСтроку8("4096 Bytes");
		|2: ЛогЯдра.пСтроку8("8192 Bytes");
		|3: ЛогЯдра.пСтроку8("16384 Bytes");
	иначе
		ЛогЯдра.пСтроку8("Invalid Value");
	всё;
	ЛогЯдра.пВК_ПС;
кон ShowRxControlRegister;

проц ShowGpioStatusRegister(s : мнвоНаБитахМЗ);
нач
	ЛогЯдра.пСтроку8("GPIO Configuration: ");
	ЛогЯдра.пСтроку8("GP0: "); если GP0OutputEnable в s то ЛогЯдра.пСтроку8("OUT"); иначе ЛогЯдра.пСтроку8("IN"); всё;
	ЛогЯдра.пСтроку8(", GP1: "); если GP1OutputEnable в s то ЛогЯдра.пСтроку8("OUT"); иначе ЛогЯдра.пСтроку8("IN"); всё;
	ЛогЯдра.пСтроку8(", GP2: "); если GP2OutputEnable в s то ЛогЯдра.пСтроку8("OUT"); иначе ЛогЯдра.пСтроку8("IN"); всё;
	ЛогЯдра.пВК_ПС;
кон ShowGpioStatusRegister;

проц Show(конст string : массив из симв8);
нач
	ЛогЯдра.пСтроку8(ModuleName); ЛогЯдра.пСтроку8(": "); ЛогЯдра.пСтроку8(string);
кон Show;

проц Probe(dev : Usbdi.UsbDevice; id : Usbdi.InterfaceDescriptor) : Usbdi.Driver;
перем driver : Usb200MDriver;
нач
	если (dev.descriptor.idVendor = 13B1H) и (dev.descriptor.idProduct = 0018H) и (id.bInterfaceNumber = 0) то (* Linksys USB200M *)
		нов(driver); driver.gpioConfiguration := {GP2OutputEnable, GP2Value, ReloadSerialEEPROM};
	всё;
	возврат driver;
кон Probe;

проц Cleanup;
нач
	Usbdi.drivers.Remove(Name);
кон Cleanup;

проц Install*;
кон Install;

нач
	Modules.InstallTermHandler(Cleanup);
	Usbdi.drivers.Add(Probe, Name, Description, Priority)
кон UsbNetworkUSB200M.

UsbNetworkUSB200M.Install ~

System.Free UsbNetworkUSB200M UsbNetwork NetworkMii ~
