модуль Display;   (** fof , source Win32.Windows.Mod+Win32.Displays.Mod+Windows.Display.Mod+Win32.Viewers.Mod **)

использует НИЗКОУР, Kernel32, User32, Modules, ЛогЯдра, GDI32, Displays, Strings,
	AosInputs := Inputs, Commands, Objects,WinFS, Options, Потоки;

конст
	dbgDisableReleaseMsg = ложь;

конст
	WMSetup = User32.WMUser + 1;  WMCreateWindow = User32.WMUser + 2;
	(* Windows, WinMenus: User32.WMUser .. User32.WMUser+9
			NetSystem: User32.WMUser+10 .. User32.WMUser+19
			NPPlugIns: User32.WMUser+20 .. User32.WMUser+29
			OLE*: User32.WMUser+30 .. User32.WMUser+39 *)
	(* IDFirstAccelCmd = 0;   (* addAccel *) *)
	IDFirstMenuCmd* = 64;   (** first ID to be used by menus (see: WinMenus) *)
	Insert = 0A0X;  Delete = 0A1X;  Backspace = 07FX;  Home = 0A8X;  End = 0A9X;  PageUp = 0A2X;  PageDown = 0A3X;
	Up = 0C1X;  Down = 0C2X;  Right = 0C3X;  Left = 0C4X;   (* cursor keys *) Enter = 0DX;  F1 = 0A4X;  F2 = 0A5X;
	F3 = 0A6X;  F4 = 0A7X;  F5 = 0F5X;  F6 = 0F6X;  F7 = 0F7X;  F8 = 0F8X;  F9 = 0F9X;  F10 = 0FAX;  F11 = 0FBX;  F12 = 0FCX;
	update = 0;  dummy = 1;  minimized = 2;  external = 3;  (* control = 4;  *) maximized = 5;  (* MaxAccel = 32;  MaxCmd = 128; *)
	ML = 0;  MM = 1;  MR = 2;  MX = 3;  (* WHEEL = 31; *) GWLWindow* = 0;  GWLControl* = 4;  SHIFT* = 0;  CTRL* = 1;
	ALT* = 2;   (** constants for KeyState *)
	create* = 0;  remove* = 1;   (** display has been created or destroyed *)
	restore* = 2;  suspend* = 3;   (** display has been minimized or restored *)
	redraw* = 4;  resize* = 5;   (** display needs redraw *)
	print* = 6;   (** print the display in the give context *)
	focus* = 7;  defocus* = 8;   (** display got or lost the keyboard focus *)
	consume* = 9;  track* = 10;   (** keyboard or mouse data available *)
	dupdate* = 11;   (** notification, that an object has been updated *)
	execute* = 12;   (** request to execute a command *)
	quit* = 13;   (** notification, that the Event service is shutdown *)
	ping* = 14;   (** checks whether the event dispatcher (Oberon.Loop) is running *)
	wheel* = 15;   (** mouse wheel *)
	get* = 0;  set* = 1;

	pressed = 15; (* toggled = 0; *)

	letWindowsHandleTheBuffer = ложь;

конст
	kPageUp = User32.VKPrior;  kPageDown = User32.VKNext;  kEnd = User32.VKEnd;  kHome = User32.VKHome;
	kLeft = User32.VKLeft;  kRight = User32.VKRight;  kUp = User32.VKUp;  kDown = User32.VKDown;
	kInsert = User32.VKInsert;  kDelete = User32.VKDelete;  kF1 = User32.VKF1;  kF2 = User32.VKF2;  kF3 = User32.VKF3;
	kF4 = User32.VKF4;  kF5 = User32.VKF5;  kF6 = User32.VKF6;  kF7 = User32.VKF7;  kF8 = User32.VKF8;  kF9 = User32.VKF9;
	kF10 = User32.VKF10;  kF11 = User32.VKF11;  kF12 = User32.VKF12;  kCtrl = 17;  kAlt = 18; (* kWindows = 91;*)  kShift = 16;
	kMenu = 93;  kNumlock = 144;  kEnter = 13;  (* kPAdd = 107;  kPMinus = 109;  kPDiv = 111;  kPMult = 106; *) kPause = 19;
	kCapsLock = 20;  kEscape = 27;  kTab = 9;  (* kReturn = User32.VKReturn; *)
	VK0 = 030H; VK9 = 39H;

	(* VKMenu = 18;
	VKScroll = 145; *)
	VKLShift = 160;  VKRShift = 161;   VKLCtrl = 162; VKRCtrl = 163; VKLMenu = 164; VKRMenu = 165;
	VKLWin = 05BH; VKRWin = 05CH;

	(* SMCXFullscreen = 16;  SMCYFullscreen = 17;  *) SMCYScreen = 1;  SMCXScreen = 0;  (* MODWin = 8; *)

	(* WMHOTKEY = 786;

	Sizemaximized = 2;  Sizeminimized = 1;  Sizerestored = 0; *)

	WindowTitle = "WinAOS";

	WM_DEVICECHANGE = 0219H;

	(* DBT_CONFIGCHANGECANCELED = 00019H  ;
	DBT_CONFIGCHANGED =00018H  ;
	DBT_CUSTOMEVENT =08006H ; *)
	DBT_DEVICEARRIVAL =08000H  ;
	(* DBT_DEVICEQUERYREMOVE =08001H  ;
	DBT_DEVICEQUERYREMOVEFAILED = 08002H  ; *)
	DBT_DEVICEREMOVECOMPLETE = 08004H  ;
	(* DBT_DEVICEREMOVEPENDING = 08003H  ;
	DBT_DEVICETYPESPECIFIC =08005H ;
	DBT_DEVNODES_CHANGED = 00007H ;
	DBT_QUERYCHANGECONFIG =  00017H;
	DBT_USERDEFINED = 0FFFFH ; *)

	DBT_DEVTYP_VOLUME = 00002H;

тип

	DEV_BROADCAST_HDR  = запись
		dbch_size-: цел32;
		dbch_devicetype: цел32 ;
		dbch_reserved-: цел32;
	кон;
	DEV_BROADCAST_HDRP  = укль  на DEV_BROADCAST_HDR;

	DEV_BROADCAST_VOLUME = запись   (DEV_BROADCAST_HDR)
		dbcv_unitmask: мнвоНаБитахМЗ;
		dbcv_flags-: цел16;
		padding-: цел16;
	кон;
	DEV_BROADCAST_VOLUMEP= укль на DEV_BROADCAST_VOLUME;

	Inputs = запись
		keys: мнвоНаБитахМЗ;
		X, Y, Z, dx, dy: цел32;
		flags: мнвоНаБитахМЗ;
	кон;
	(** The BITMAPINFO structure defines the dimensions and color information for a Win32 DIB. *)


	BitmapInfo* = запись
		bmiHeader*: GDI32.BitmapInfoHeader;
		colors: массив 3 из цел32;
		(* old: colors: ANY;  *)
	кон;

	Window = укль на запись
		hWnd: User32.HWND;   (** handle of this window *)
		hWndParent: User32.HWND;   (** handle of the parent window, = hWnd for document windows *)
		hDC: User32.HDC;

		width, height: цел32;   (** current size *)

		defWindowProc: User32.WndProc;   (** default window procedure for all messages not handled here *)
		windowRect: User32.Rect;
		state: мнвоНаБитахМЗ (* update, dummy, minimized, external, control *) ;
		link: Window;

		bmp: GDI32.HBitmap;
		bmadr: цел32;

		bmphdc: User32.HDC;
		track: Inputs;
		pal: укль на массив из GDI32.PaletteEntry;
		dx, dy: цел32;
		hBrush: GDI32.HBrush;
		frame: булево;
	кон;

	DisplayProc* = проц ( disp: Window );
	PaintProc* = проц ( disp: Window;  x, y, w, h: цел32 );

	CreateStruct = укль на запись
		win: Window;
		finished: булево;
		className: массив 32 из симв8;
		style: INTEGERSET;
		x, y, w, h: цел32;
		hMenu: User32.HMenu
	кон;

	(** handler called for registered window messages *)
	WindowHandlerProc* = проц {WINAPI} ( win: Window;  uMsg: цел32;  wParam: User32.WParam;
																					  lParam: User32.LParam ): User32.LResult;

	WinMain = окласс
	перем create: CreateStruct; process: Objects.Process;

		проц & Init*( c: CreateStruct );
		нач
			create := c;
		кон Init;

		проц MsgLoop;
		перем msg: User32.Msg;  i: цел32; mode: цел32;
		нач
			нц
				mode := process.mode;
				НИЗКОУР.запиши32битаПоАдресу(операцияАдресОт process.mode, Objects.AwaitingEvent); (* for the profiler *)
				i := User32.GetMessage( msg, 0, 0, 0 );
				НИЗКОУР.запиши32битаПоАдресу(операцияАдресОт process.mode, mode); (* for the profiler *)
				если i = 0 то прервиЦикл
				аесли i # -1 то
					если ( msg.message = User32.WMKeyDown ) то
						(* Translate virtual key code  to character. This generates a WMChar message if translation succeeds. Since
						AOS doesn't allow ALT-Printable-Keys combinations, we don't translate User32.WMSysKeyDown messages
						that would generate WMSysChar messages *)
						i := User32.TranslateMessage( msg );
					всё;
					i := User32.DispatchMessage( msg )
				всё;
				mode := process.mode;
				НИЗКОУР.запиши32битаПоАдресу(операцияАдресОт process.mode, Objects.AwaitingEvent); (* for the profiler *)
				Kernel32.Sleep( 10 );   (*ALEX 2005.11.30 this is essential*)
				НИЗКОУР.запиши32битаПоАдресу(операцияАдресОт process.mode, mode); (* for the profiler *)
			кц
		кон MsgLoop;

	нач {активное}
		process := Objects.CurrentProcess();
		ЛогЯдра.пСтроку8( "Display: Initialize message dispatcher..." );  ЛогЯдра.пВК_ПС;
		RegisterClasses();  CreateHWND( create );  create := НУЛЬ;
		ЛогЯдра.пСтроку8( "Display: Start message dispatching" ); ЛогЯдра.пВК_ПС;
		MsgLoop();   (* EXIT *)  (*ALEX 2005.11.29 commented the LOOP*)
		UnregisterClasses();
	кон WinMain;

	Display = окласс (Displays.Display) (* only one instance of this object allowed ! *)

		проц {перекрыта}Transfer*( перем buf: массив из симв8;  ofs, stride, x, y, w, h: размерМЗ; op: цел32 );
		нач

			если letWindowsHandleTheBuffer то
				если op = Displays.set то
					ToMemory( root, buf, ofs, stride, x, y, w, h );  ToWindow( root, x, y, w, h, root.dx, root.dy );
				иначе FromMemory( root, buf, ofs, stride, x, y, w, h );
				всё;
			иначе
				если root.bmadr = 0 то GetDC( root ) всё;
				InitFrameBuffer( root.bmadr, disp.width * disp.height * format, disp.width * disp.format);  Transfer^( buf, ofs, stride, x, y, w, h, op );
				если Displays.reverse то
					если op = Displays.set то ToWindow( root, disp.width-x-w,disp.height-y-h, w, h, root.dx, root.dy );  всё;
				иначе
					если op = Displays.set то ToWindow( root, x, y, w, h, root.dx, root.dy );  всё;
				всё;
			всё;

		кон Transfer;

	кон Display;

перем
	dummyClass, windowClass: User32.WndClassEx;
	dummyClassName, windowClassName, controlClassName, windowTitle : массив 32 из симв8;
	nWindows: цел32;  aControlWinClass: цел32;  fixedFrameX, fixedFrameY, frameX, frameY, captionY, menuY: цел32;
	hCurrentCursor, hAlternativeCursor: User32.HCursor;  capture, hook, mouse: Window;  kioskmode*: булево;
	dummyWin*: Window;
	ISOToOberon: массив 256 из симв8;
	moduleCS: Kernel32.CriticalSection;  root: Window;
	bmi: запись
		info: BitmapInfo;
		pal: массив 256 из GDI32.ColorRef
	кон;
	disp: Display;
	format* : цел8;

	KeyHandled: булево;
	CapsLockOn: булево;

	fullscreen: булево;   (*ALEX 2005.11.30*)

	closeRequests: цел32;

	проц CreateHWND( create: CreateStruct );
	перем str: массив 32 из симв8;
		ret: Kernel32.BOOL;
	нач
		str := "";
		create.win.hWnd :=
			User32.CreateWindowEx( 0, create.className, str, create.style, create.x, create.y, create.w, create.h,
													   create.win.hWndParent, create.hMenu, Kernel32.hInstance,
													   НИЗКОУР.подмениТипЗначения( User32.LParam, create ) );
		если User32.WSMaximize в create.style то
			включиВоМнвоНаБитах( create.win.state, maximized );  ret := User32.ShowWindow( create.win.hWnd, User32.SWShowMaximized )
		аесли User32.WSVisible в create.style то ret := User32.ShowWindow( create.win.hWnd, User32.SWShow )
		всё;
		если create.win.hWndParent = Kernel32.NULL то create.win.hWndParent := create.win.hWnd всё;
	кон CreateHWND;

	(* wParam contains the virtual key code
	 	lParam: {0..15}: Key repeat count, {16..23}: Scan code, {24}: Extended-key flag, {25..28}: Reserved,
	 	{29}: Context code (1 if ALT was down, 0 otherwise), {30}: Previous key-state flag, {31}: Transition-state flag *)
	проц DecomposeKeyEvent( wParam, lParam: цел32;  перем ch: симв8;  перем key: цел32;  char: булево );
	перем scancode: цел32;  previous: цел32;  repeat: цел32;  extended: булево;
	нач
		repeat := lParam остОтДеленияНа арифмСдвиг( 1, 16 );  scancode := арифмСдвиг( lParam, -16 ) остОтДеленияНа арифмСдвиг( 1, 8 );  extended := нечётноеЛи¿( арифмСдвиг( lParam, -24 ) );
		previous := арифмСдвиг( lParam, -30 ) остОтДеленияНа 2;

		key := 0;  ch := 0X;

		просей wParam из
		| kEnter:
				если extended то key := AosInputs.KsKPEnter иначе key := AosInputs.KsReturn всё; ch := Enter;
		| kPageUp:
				key := AosInputs.KsPageUp; ch := PageUp (* if ~extended then on numerical pad *)
		| kPageDown:
				key := AosInputs.KsPageDown;  ch := PageDown;
		| kEnd:
				key := AosInputs.KsEnd;  ch := End;
		| kHome:
				key := AosInputs.KsHome;  ch := Home;
		| kLeft:
				key := AosInputs.KsLeft;  ch := Left;
		| kRight:
				key := AosInputs.KsRight;  ch := Right;
		| kUp:
				key := AosInputs.KsUp;  ch := Up;
		| kDown:
				key := AosInputs.KsDown;  ch := Down;
		| kInsert:
				key := AosInputs.KsInsert;  ch := Insert;
		| kDelete:
				key := AosInputs.KsDelete;  ch := Delete;
		| kF1:
				key := AosInputs.KsF1;  ch := F1;
		| kF2:
				key := AosInputs.KsF2;  ch := F2;
		| kF3:
				key := AosInputs.KsF3;  ch := F3;
		| kF4:
				key := AosInputs.KsF4;  ch := F4;
		| kF5:
				key := AosInputs.KsF5;  ch := F5;
		| kF6:
				key := AosInputs.KsF6;  ch := F6;
		| kF7:
				key := AosInputs.KsF7;  ch := F7;
		| kF8:
				key := AosInputs.KsF8;  ch := F8;
		| kF9:
				key := AosInputs.KsF9;  ch := F9;
		| kF10:
				key := AosInputs.KsF10;  ch := F10;
		| kF11:
				key := AosInputs.KsF11;  ch := F11;
		| kF12:
				key := AosInputs.KsF12;  ch := F12;
		| kCtrl:
				если extended то key := AosInputs.KsControlR иначе key := AosInputs.KsControlL всё;
		| kAlt:
				если extended то key := AosInputs.KsAltR иначе key := AosInputs.KsAltL всё;
		| kMenu:
				key := AosInputs.KsMenu;
		| kNumlock:
				key := AosInputs.KsNumLock
		| kShift:
				если extended то key := AosInputs.KsShiftR иначе key := AosInputs.KsShiftL всё;
		| kPause:
				key := AosInputs.KsPause
		| kCapsLock:
				key := AosInputs.KsCapsLock;
		| kEscape:
				key := AosInputs.KsEscape;
		| kTab:
				key := AosInputs.KsTab;  ch := 09X;
		| User32.VKBack:
				key := AosInputs.KsBackSpace; ch := Backspace;
		иначе
			если char то GetChar( wParam, lParam, ch, key ); всё;
		всё;
	кон DecomposeKeyEvent;

	проц GetChar( wParam, lParam: цел32;  перем ch: симв8;  перем key: цел32 );
	нач
		ch := ISOToOberon[wParam]; key := кодСимв8( ch );
	кон GetChar;

	проц GetKeyState( key: цел32;  what: цел16 ): булево;
	перем state: цел16;
	нач
		state := User32.GetKeyState( key );  возврат what в мнвоНаБитахМЗ(state);
	кон GetKeyState;

(* Common base handler for all variants of windows provided by this module. *)
	проц DummyHandler( win: Window;  uMsg: цел32;  wParam: User32.WParam;  lParam: User32.LParam ): User32.LResult;
	перем res: User32.LResult; proc: User32.WndProc; hhWnd: адресВПамяти;  ret: Kernel32.BOOL;
	нач
		если (uMsg = User32.WMDestroy) и ~(external в win.state) то
			исключиИзМнваНаБитах( win.state, update );  умень( nWindows );
			если (nWindows = 1) и (dummyWin # НУЛЬ ) то  (* only dummyWin left *)
				если win = dummyWin то dummyWin := НУЛЬ всё;
				если res > 1 то возврат 0 всё
			аесли nWindows >= 1 то  (* other windows left *)
				возврат 0
			всё;
			User32.PostQuitMessage( 0 )
		аесли uMsg = User32.WMClose то
			исключиИзМнваНаБитах( win.state, update );
			если hook = win то HandleFocus( win, User32.WMKillFocus, 0 );  всё;
			если mouse = win то mouse := НУЛЬ всё;
			если root = win то root := НУЛЬ всё;
			если capture = win то ret := User32.ReleaseCapture();  capture := НУЛЬ всё;
			если Objects.oberonLoop = НУЛЬ то Modules.Shutdown( Modules.PowerDown );  всё;
			(*		win.getDC := GetDC;  win.releaseDC := ReleaseDC; *)
			win.hDC := -1;   (* ??? *)
			если ~(external в win.state) то ret := User32.DestroyWindow( win.hWnd );  win.hWnd := Kernel32.NULL всё
		аесли uMsg = WMCreateWindow то CreateHWND( НИЗКОУР.подмениТипЗначения( CreateStruct, lParam ) )
		иначе proc := win.defWindowProc;  hhWnd := НИЗКОУР.подмениТипЗначения( динамическиТипизированныйУкль, win.hWnd );
			утв ( proc # НУЛЬ );
			возврат win.defWindowProc( win.hWnd, uMsg, wParam, lParam )
		всё;
		возврат 0
	кон DummyHandler;

	проц HandleFocus( win: Window;  uMsg: цел32;  wParam: User32.WParam );
	нач
		если (uMsg = User32.WMSetFocus) и (hook # win) то
			Kernel32.Sleep( 0 );   (* ????????????????????? *)
		аесли uMsg = User32.WMKillFocus то

			если wParam # Kernel32.NULL то
				если wParam = win.hWnd то возврат всё;
			всё;
		всё
	кон HandleFocus;

(** add a new display to the list of installed displays *)
	проц Add( disp: Window;  noView: булево );
	нач
		Kernel32.EnterCriticalSection( moduleCS );  disp.link := root;  root := disp;  Kernel32.LeaveCriticalSection( moduleCS )
	кон Add;

	проц SetupWin( win: Window );
	перем rect: User32.Rect;  ret: Kernel32.BOOL;
	нач
		ret := User32.GetWindowRect( win.hWnd, win.windowRect );  ret := User32.GetClientRect( win.hWnd, rect );
		win.width := rect.right - rect.left;  win.height := rect.bottom - rect.top;  Add( win, ложь );
		если User32.GetFocus() = win.hWnd то HandleFocus( win, User32.WMSetFocus, 0 ) всё;
	кон SetupWin;

	проц {WINAPI} DummyProc( hwnd: User32.HWND;  uMsg: цел32;  wParam: User32.WParam;
															  lParam: User32.LParam ): User32.LResult;
	перем win: Window;  create: CreateStruct;  ret: Kernel32.BOOL;
	нач
		win := НИЗКОУР.подмениТипЗначения( Window, адресВПамяти(User32.GetWindowLong( hwnd, GWLWindow )) );

		если win # НУЛЬ то возврат DummyHandler( win, uMsg, wParam, lParam )
		аесли uMsg = User32.WMCreate то
			НИЗКОУР.прочтиОбъектПоАдресу( lParam, create );  wParam := НИЗКОУР.подмениТипЗначения( User32.WParam, create );
			lParam := НИЗКОУР.подмениТипЗначения( User32.LParam, create.win );
			ret := User32.PostMessage( hwnd, WMSetup, wParam, lParam )
		аесли uMsg = WMSetup то
			win := НИЗКОУР.подмениТипЗначения( Window, lParam );  ret := User32.SetWindowLong( hwnd, GWLWindow, цел32(lParam) );
			create := НИЗКОУР.подмениТипЗначения( CreateStruct, wParam );
			если ~(dummy в win.state) то SetupWin( win ) иначе Add( win, истина ) всё;
			если ~(external в win.state) то увел( nWindows ) всё;
			нач{единолично}
				create.finished := истина
			кон;
		всё;
		возврат User32.DefWindowProc( hwnd, uMsg, wParam, lParam )
	кон DummyProc;

	(* PROCEDURE ChangeCursor;
	VAR point: User32.Point;  ret: Kernel32.HANDLE;
	BEGIN
		ret := User32.GetCursorPos( point );  ret := User32.SetCursor( hCurrentCursor );
		IF hCurrentCursor = Kernel32.NULL THEN
			REPEAT UNTIL User32.ShowCursor( Kernel32.False ) < 0
		ELSIF hCurrentCursor # Kernel32.NULL THEN
			REPEAT UNTIL User32.ShowCursor( Kernel32.True ) >= 0
		END;
		INC( point.x );  INC( point.y );  ret := User32.SetCursorPos( point.x, point.y );  DEC( point.x );  DEC( point.y );
		ret := User32.SetCursorPos( point.x, point.y )
	END ChangeCursor; *)

	(* PROCEDURE SetCursor( hCursor: User32.HCursor );
	BEGIN
		IF hCurrentCursor # hCursor THEN hCurrentCursor := hCursor;  ChangeCursor() END
	END SetCursor; *)

	проц HandleMouse( win: Window;  uMsg: цел32;  wParam: User32.WParam;  lParam: User32.LParam );
	перем m: AosInputs.AbsMouseMsg;  oldx, oldy: цел32;  keys: мнвоНаБитахМЗ; ret: Kernel32.HANDLE;
	нач
		(* User32.SetCursor(hCurrentCursor);*)
		oldx := win.track.X;  oldy := win.track.Y;
		win.track.X := цел32( lParam остОтДеленияНа арифмСдвиг( 1, 16 ) ) - win.dx;
		win.track.Y := цел32( (* win.height-*) арифмСдвиг( lParam, -16 ) - 1 ) - win.dy;
		m.x := win.track.X;  m.y := win.track.Y;  m.z := win.track.Z;

		m.dx := 0;  m.dy := 0;  m.dz := 0;

		если (m.x <= 0) то m.dx := win.track.dx - 2;
		аесли (m.x >= матМинимум( win.width, disp.width ) - 1) то m.x := disp.width - 1;  m.dx := win.track.dx + 2;
		всё;

		если (m.y <= 0) то m.dy := win.track.dy - 2;
		аесли (m.y >= матМинимум( win.height, disp.height ) - 1) то m.y := disp.height - 1;  m.dy := win.track.dy + 2;
		всё;

		win.track.dx := m.dx;  win.track.dy := m.dy;

		если (m.dx # 0) или (m.dy # 0) то ret := User32.SetCursor( hAlternativeCursor );
		иначе ret := User32.SetCursor( hCurrentCursor )
		всё;

		keys := win.track.keys;
		просей uMsg из
		User32.WMLButtonDown:
				включиВоМнвоНаБитах( keys, ML )
		| User32.WMLButtonUp:
				исключиИзМнваНаБитах( keys, ML )
		| User32.WMMButtonDown:
				включиВоМнвоНаБитах( keys, MM )
		| User32.WMMButtonUp:
				исключиИзМнваНаБитах( keys, MM )
		| User32.WMRButtonDown:
				включиВоМнвоНаБитах( keys, MR )
		| User32.WMRButtonUp:
				исключиИзМнваНаБитах( keys, MR )
		| User32.WMXButtonDown:
				включиВоМнвоНаБитах( keys, MX )
		| User32.WMXButtonUp:
				исключиИзМнваНаБитах( keys, MX )
		| User32.WMMouseWheel:
				если цел32(wParam) DIV 10000H  > 0 то m.dz := -1 иначе m.dz := 1 всё;
				m.x := oldx;  m.y := oldy;  win.track.X := oldx;  win.track.Y := oldy;
				(* strange: if wheel used, then coordinates are not realtive to windows -> use coordinates of last event, fof *)
		иначе
		всё;

		если (keys # {}) и (capture # win) то ret := User32.SetCapture( win.hWnd );  capture := win
		аесли (keys = {}) и (capture # НУЛЬ ) то ret := User32.ReleaseCapture();  capture := НУЛЬ
		всё;
		win.track.keys := keys;  m.keys := keys;

		AosInputs.mouse.Handle( m );
	кон HandleMouse;

	(* Get the state of CTRL, ALT and SHIFT keys *)
	проц GetKeyFlags(перем flags : мнвоНаБитахМЗ);
	нач
		flags := {};
		если GetKeyState( VKLShift, pressed ) то включиВоМнвоНаБитах( flags, AosInputs.LeftShift );  всё;
		если GetKeyState( VKRShift, pressed ) то включиВоМнвоНаБитах( flags, AosInputs.RightShift );  всё;
		если GetKeyState( VKLCtrl, pressed ) то включиВоМнвоНаБитах( flags, AosInputs.LeftCtrl ); всё;
		если GetKeyState( VKRCtrl, pressed ) то включиВоМнвоНаБитах( flags, AosInputs.RightCtrl ); всё;
		если GetKeyState( VKLMenu, pressed ) то включиВоМнвоНаБитах( flags, AosInputs.LeftAlt ); всё;
		если GetKeyState( VKRMenu, pressed ) то включиВоМнвоНаБитах( flags, AosInputs.RightAlt ); всё;
		если GetKeyState( VKLWin, pressed) то включиВоМнвоНаБитах(flags, AosInputs.LeftMeta); всё;
		если GetKeyState( VKRWin, pressed) то включиВоМнвоНаБитах(flags, AosInputs.RightMeta); всё;
	кон GetKeyFlags;

(* default handler for WMChar messages *)
	проц HandleChar( win: Window;  wParam: User32.WParam;  lParam: User32.LParam );
	перем ch: симв8;  msg: AosInputs.KeyboardMsg;  key: цел32; 
	нач
		(* KernelLog.String("HandleChar: wParam"); KernelLog.Int(SIGNED32(wParam),0); KernelLog.Ln; *)
		GetChar( цел32(wParam), цел32(lParam), ch, key );
		GetKeyFlags(msg.flags);
		msg.ch := ch;  msg.keysym := key;
		
		Report(msg, цел32(wParam));

		если  (*ch # 0X*) истина то
			lParam := lParam остОтДеленияНа арифмСдвиг( 1, 16 );
			нцПока lParam > 0 делай AosInputs.keyboard.Handle( msg );
				(* Displays.WriteChar(win, ch); *)
				умень( lParam )
			кц
		всё
	кон HandleChar;

	
	перем ww- : Потоки.Писарь;
	тип R1 = укль на запись
		wParamS- : цел32;
		msg- : AosInputs.KeyboardMsg; кон;
	перем r1- : R1;
	
	проц Report(перем msg: AosInputs.KeyboardMsg; wParamS : цел32);
	нач
		(* KernelLog.String("wParam: "); KernelLog.Int(wParamS, 0); KernelLog.Ln; *)
		(* PodrobnajaPechatq.ZadajjKontekstPechatiPoUmolch(kkk);
		Streams.OpenWriter(ww, KernelLog.Send);
		kkk.w := ww;
		kkk.pechKomandy := FALSE;
		NEW(r1);
		r1.wParamS := wParamS;
		r1.msg := msg;
		PodrobnajaPechatq.PechVKontekste(kkk, r1, TRUE); *)
	кон Report;
	

(* default handler for WMKeyDown or WMKeyUp messages *)
	проц HandleKey( win: Window;  wParam: User32.WParam;  lParam: User32.LParam );
	перем ch: симв8;  msg: AosInputs.KeyboardMsg;  key : цел32; repeatCount : цел32;
	нач
		DecomposeKeyEvent( цел32(wParam), цел32(lParam), ch, key, ложь (*111*));
		(* KernelLog.String("HandleKey, ch, key="); KernelLog.Int(ORD(ch),10); KernelLog.Hex(key,10); KernelLog.Bits(msg.flags,0,32); KernelLog.Ln; *)
		
		(* ASCII знаки, вn.ч. знаки с кодом < 020H нужны в терминале, но между кнопкой F12 
			и знаками с кодом > 127 возникает конфликт, поэтому очистим такие знаки *)
		если ch >= 80X то 
			ch := 0X
		всё;
		
		GetKeyFlags(msg.flags);
				
		
		если (msg.flags * AosInputs.Ctrl # {}) и (msg.flags * AosInputs.Alt = {}) и (VK0 <= wParam) и (wParam <= VK9) то
			(* Same behaviour as AOS - ne ponjal, chto ehto. Po-moemu, esli ehto ubratq, nichego ne izmenitsja *)
			ch := симв8ИзКода(wParam); key := цел32(wParam);
		всё;
		
		если (msg.flags = {}) и (key = AosInputs.KsCapsLock) то
			CapsLockOn := ~CapsLockOn;
		всё;

		если (AosInputs.LeftAlt в msg.flags) и (AosInputs.LeftShift в msg.flags) то
			включиВоМнвоНаБитах(win.track.flags, AosInputs.LeftMeta);
		всё;

		просей key из
		| AosInputs.KsMenu:
				включиВоМнвоНаБитах( win.track.flags, AosInputs.LeftMeta );
		| AosInputs.KsF9:
				включиВоМнвоНаБитах( win.track.flags, AosInputs.RightMeta );
		| AosInputs.KsF1:
				включиВоМнвоНаБитах( win.track.flags, AosInputs.LeftMeta );
		иначе
		всё;
		msg.flags := msg.flags + win.track.flags;  msg.ch := ch;  msg.keysym := key;

		(* ch := TranslateKey(wParam, FALSE);  *)
		(*IF ch # 0X THEN*)
		repeatCount := цел32(lParam) остОтДеленияНа цел32(арифмСдвиг( 1, 16 ));


		(* KernelLog.String("HandleKey finally..."); KernelLog.Ln; *)
		Report(msg, цел32(wParam));

		
		ObrabotajjCifroBukvy(msg,цел32(wParam));
		
		если (msg.keysym # 0) или (msg.ch # 0X)  то
			(* UchtiShiftICapsLock(msg); *)
			(* KernelLog.String("HandleKey set KeyHandled to TRUE"); KernelLog.Ln; *)
			KeyHandled := истина;
			нцПока repeatCount > 0 делай AosInputs.keyboard.Handle( msg );
				(*Displays.WriteChar(win, ch); *) умень( repeatCount )
			кц;

		иначе KeyHandled := ложь;

			(* KernelLog.String("HandleKey set KeyHandled to FALSE"); KernelLog.Ln; *)

		всё;
	кон HandleKey;
	
	(* flags: shift = 1, capslock = 2, control = 4 *)
	конст NumVirtualKeys = 256;
	(* v tablice dlja kazhdogo vozmozhnogo koda naznachen massiv char-ov. Pri ehtom char = 0 oznachaetq,
	chto ehta knopka dolzhna obrabatyvatqsja windows (tut my nadeemsja, chto raskladka bolee-menee 
	standartnaja, v protivnom sluchae u nas budut problemy - i togda budetq nado vnesti vse bukvy bez nulejj
	i vsegda ignorirovatq WM). 
	  char = CharIgnoreThisKey oznachaet, chto my knotim proignorirovatq ehtu knopku
	 *)
	тип keyCodesToLowerUpperControlCharsType = массив[NumVirtualKeys+1] из массив[8] из бцел16; 
	перем keyCodesToLowerUpperControlChars : keyCodesToLowerUpperControlCharsType;
	проц Init_keyCodesToLowerUpperControlChars;
		перем i:бцел8; 		
		перем shift, caps, ctrl : бцел8;
		
		проц Digit(keyCode: бцел8; shifted : бцел8); 
		нач
			keyCodesToLowerUpperControlChars[keyCode][shift] := shifted;
			keyCodesToLowerUpperControlChars[keyCode][shift + caps] := shifted;
			(* dlja Ctrl nichego ne delaem - ehtot sluchajj obrabatyvaetsja otdelqnym kostyljom v
			   HandleKey *)
			(* Ctrl+Shift ne dolzhny rabotatq, no dlja igr - dolzhny, poehtomu ostavim ikh zhitq *)
			keyCodesToLowerUpperControlChars[keyCode][ctrl+shift] := keyCode;
			keyCodesToLowerUpperControlChars[keyCode][ctrl+caps+shift] := keyCode;
		кон Digit;

  	проц KirillicaIZnakPrepinanija(virtualKeyCode, normal, shifted : бцел8);
		нач
			keyCodesToLowerUpperControlChars[virtualKeyCode][0] := normal; 
			keyCodesToLowerUpperControlChars[virtualKeyCode][shift] := shifted; 
			keyCodesToLowerUpperControlChars[virtualKeyCode][caps] := shifted; 
			keyCodesToLowerUpperControlChars[virtualKeyCode][caps + shift] := normal; 
			keyCodesToLowerUpperControlChars[virtualKeyCode][ctrl] := normal;
			keyCodesToLowerUpperControlChars[virtualKeyCode][ctrl + shift ] := normal;
			keyCodesToLowerUpperControlChars[virtualKeyCode][ctrl + caps] := normal;
			keyCodesToLowerUpperControlChars[virtualKeyCode][ctrl + caps + shift] := normal
	 кон KirillicaIZnakPrepinanija;
		
		нач 
			shift := 1;
			caps := 2; 
			ctrl := 4;
			нцДля i := 65 до 90 делай (* A..Z = 041H ..  05AH *)
				keyCodesToLowerUpperControlChars[i][0] := i + 32; 	
				keyCodesToLowerUpperControlChars[i][shift] := i;
				keyCodesToLowerUpperControlChars[i][caps] := i;
				keyCodesToLowerUpperControlChars[i][caps + shift] := i + 32;
				keyCodesToLowerUpperControlChars[i][ctrl] := i - 64;
				keyCodesToLowerUpperControlChars[i][ctrl + shift ] := i - 64;
				keyCodesToLowerUpperControlChars[i][ctrl + caps] := i - 64;
				keyCodesToLowerUpperControlChars[i][ctrl + caps + shift] := i - 64;	 кц; 	
		
			Digit(48,41); (* 030H - knopka 0 *)
			Digit(49,33); (* knopka 1 *)
			Digit(50,64); (* knopka 2 *) 
			Digit(51,35); (* knopka 3 *)
			Digit(52,36); (* knopka 4 *)			
			Digit(53,37); (* knopka 5 *)
			Digit(54,94); (* knopka 6 *)
			Digit(55,38); (* knopka 7 *)
			Digit(56,42); (* knopka 8 *)
			Digit(57,40); (* knopka 9 *)

  		KirillicaIZnakPrepinanija(192, 96, 126); (* knopka ` = jo *)
			KirillicaIZnakPrepinanija(219,91,123); (* knopka [ *)
			KirillicaIZnakPrepinanija(221,93,125); (* knopka ] *)
			KirillicaIZnakPrepinanija(189,45,95); (* knopka - *)
			KirillicaIZnakPrepinanija(187,61,43); (* knopka =*)
			KirillicaIZnakPrepinanija(186,59,58); (* knopka : *)
			KirillicaIZnakPrepinanija(222,39,34); (* knopka '*)
			KirillicaIZnakPrepinanija(188,44,60); (* knopka ,*)
			KirillicaIZnakPrepinanija(190,46,62); (* knopka . *)
			KirillicaIZnakPrepinanija(191,47,63); (* knopka / *)
			
			кон Init_keyCodesToLowerUpperControlChars;
	
	проц ObrabotajjCifroBukvy(перем msg : AosInputs.KeyboardMsg; virtualKeyCode: цел32);
	перем ShiftCapsCtrl : бцел8;
  (* virtual key codes = https://docs.microsoft.com/en-us/windows/win32/inputdev/virtual-key-codes *)
	ord : цел32; 
	нач
		(* a = 97, z = 122, A = 65, Z = 90 
		   
		KernelLog.String("UchtiShiftICapsLock: "); KernelLog.Int(ORD(msg.ch),0); KernelLog.Ln;
		RETURN;*)
	
		если msg.flags * AosInputs.Alt # {} то 
			(* KernelLog.String("ObrobotajjCifroBukvy: avoiding processing Alt-key combination"); KernelLog.Ln; *)
			возврат всё;
			
		если msg.flags * AosInputs.Shift # {} то 
			увел(ShiftCapsCtrl,1) всё;
		если CapsLockOn то
			увел(ShiftCapsCtrl,2) всё;
		если msg.flags * AosInputs.Ctrl # {} то
			увел(ShiftCapsCtrl,4) всё;
		
		если virtualKeyCode < NumVirtualKeys то
			ord := keyCodesToLowerUpperControlChars[virtualKeyCode][ShiftCapsCtrl] всё;
		если ord # 0 то
			msg.ch := симв8ИзКода(ord);
			msg.keysym := ord;
			(* KernelLog.String("ObrabotajjCifroBukvy itog"); KernelLog.Ln; *)
			Report(msg, virtualKeyCode);
			возврат всё кон ObrabotajjCifroBukvy; 

	(* default handler for WMKeyDown or WMKeyUp messages *)
	проц HandleKeyUp( win: Window;  wParam: User32.WParam;  lParam: User32.LParam );
	перем ch: симв8;  msg: AosInputs.KeyboardMsg; key : цел32;
	нач
		DecomposeKeyEvent( цел32(wParam), цел32(lParam), ch, key, истина );
		GetKeyFlags(msg.flags);

		если ~((AosInputs.LeftAlt в msg.flags) и (AosInputs.LeftShift в msg.flags)) то
			исключиИзМнваНаБитах(win.track.flags, AosInputs.LeftMeta);
		всё;

		просей key из
		| AosInputs.KsMenu:
				исключиИзМнваНаБитах( win.track.flags, AosInputs.LeftMeta );
		| AosInputs.KsF9:
				исключиИзМнваНаБитах( win.track.flags, AosInputs.RightMeta );
		| AosInputs.KsF1:
				исключиИзМнваНаБитах( win.track.flags, AosInputs.LeftMeta );
		иначе
		всё;
		msg.flags := msg.flags + win.track.flags + {AosInputs.Release};  msg.ch := ch;  msg.keysym := key;

		если dbgDisableReleaseMsg то msg.ch := 0X;  msg.keysym := AosInputs.KsNil; всё;

		AosInputs.keyboard.Handle( msg );
	кон HandleKeyUp;

	проц SetDocRect( win: Window;  resize: булево );
	перем rect: User32.Rect;  ret: Kernel32.BOOL;
	нач
		если ~(minimized в win.state) то
			если resize то ret := User32.GetWindowRect( win.hWnd, win.windowRect )
			иначе
				ret := User32.GetWindowRect( win.hWnd, rect );
				win.windowRect.right := rect.left + (win.windowRect.right - win.windowRect.left);
				win.windowRect.left := rect.left;
				win.windowRect.bottom := rect.top + (win.windowRect.bottom - win.windowRect.top);
				win.windowRect.top := rect.top
			всё;
		всё;
	кон SetDocRect;

	проц UpdateDisplay( win: Window;  id: цел32;  lParam: User32.LParam;  wParam: User32.WParam );
	перем x, y, w, h, dx, dy, bw, bh: цел32;  hOldBr: GDI32.HBrush;  ret: Kernel32.BOOL;
	нач
		если ~(minimized в win.state) то
			если id = resize то win.width := цел32(lParam) остОтДеленияНа цел32(арифмСдвиг( 1, 16 ));  win.height := цел32(lParam) DIV арифмСдвиг( 1, 16 );  SetDocRect( win, истина ) всё;
			ret := User32.ValidateRect( win.hWnd, НУЛЬ );
			если win.hDC = 0 то GetDC( win );  всё;

			если win.hBrush = 0 то
				win.hBrush := GDI32.CreateSolidBrush( GDI32.RGB( 100, 0, 0 ) );
				hOldBr := GDI32.SelectObject( win.hDC, win.hBrush );
			всё;

			w := win.width;  h := win.height;
			если disp.width < w то  (* fill rest with color *)
				dx := (w - disp.width) DIV 2;  bw := disp.width;  ret := GDI32.PatBlt( win.hDC, 0, 0, dx, h, GDI32.PatCopy );
				ret := GDI32.PatBlt( win.hDC, w - dx, 0, dx, h, GDI32.PatCopy );
			иначе bw := w;
			всё;

			если disp.height < h то  (* fill rest with color *)
				dy := (h - disp.height) DIV 2;  bh := disp.height;  ret := GDI32.PatBlt( win.hDC, 0, 0, w, dy, GDI32.PatCopy );
				ret := GDI32.PatBlt( win.hDC, 0, h - dy, w, dy, GDI32.PatCopy );
			иначе bh := h;
			всё;

			hOldBr := GDI32.SelectObject( win.hDC, hOldBr );

			(* IF win.fullScreen THEN dy := dy- User32.GetSystemMetrics(User32.SMCYCaption); END; *)

			win.dx := dx;  win.dy := dy;  ToWindow( win, x, y, bw, bh, dx, dy );

		всё
	кон UpdateDisplay;

	проц FromMemory( win: Window;  перем buf: массив из симв8;  ofs, stride, x, y, w, h: размерМЗ );
	кон FromMemory;

	проц ToMemory( win: Window;  перем buf: массив из симв8;  ofs, stride, x, y, w, h: размерМЗ );
	перем adr: адресВПамяти;  hDC: User32.HDC;  ret: Kernel32.BOOL;
	нач
		hDC := win.bmphdc;   (*  hDC := win.hDC; (* writes to screen*) *)
		bmi.info.bmiHeader.biWidth := цел32(stride) DIV format (* w *) ;  bmi.info.bmiHeader.biHeight := -цел32(h);   (* top-down *)
		adr := адресОт( buf[ofs] );

		ret :=
			GDI32.SetDIBitsToDevice( hDC, цел32(x), цел32(y), цел32(w), цел32(h), 0, 0, 0, цел32(h), adr, НИЗКОУР.подмениТипЗначения( GDI32.BitmapInfo, bmi.info ),
													   GDI32.DIBPalColors )
		(*	ELSE
			bmi.info.bmiHeader.biHeight := 1;

			WHILE h > 0 DO
				ret :=
					GDI32.SetDIBitsToDevice( hDC, x, y, w, 1, 0, 0, 0, 1, adr, SYSTEM.VAL( GDI32.BitmapInfo, bmi.info ),
															   GDI32.DIBPalColors );
				INC( adr, stride );  DEC( h );  INC( y )
			END;

		END;
		*)
	кон ToMemory;

	проц ToWindow*( win: Window;  x, y, w, h: размерМЗ;  dx, dy: цел32 );
	перем ret: Kernel32.BOOL;
	нач
		если traceDisplay то
			ret := GDI32.BitBlt( win.hDC (* = destination *) , цел32(x) + dx, цел32(y) + dy, цел32(w), цел32(h), win.bmphdc (* source *) , цел32(x), цел32(y), GDI32.NotSrcCopy );
			Kernel32.Sleep(50);
		всё;
		ret := GDI32.BitBlt( win.hDC (* = destination *) , цел32(x) + dx, цел32(y) + dy, цел32(w), цел32(h), win.bmphdc (* source *) , цел32(x), цел32(y), GDI32.SrcCopy );
	кон ToWindow;

	проц GetMinMaxInfo( win: Window;  lParam: User32.LParam ): булево;
	перем mm: User32.MinMaxInfo;
	нач
		НИЗКОУР.копируйПамять( lParam, адресОт( mm ), размер16_от( User32.MinMaxInfo ) );  mm.ptMaxSize.x := disp.width;
		mm.ptMaxSize.y := disp.height;  mm.ptMaxTrackSize := mm.ptMaxSize;  возврат истина;
	кон GetMinMaxInfo;

	проц Minimize( win: Window );
	нач
		включиВоМнвоНаБитах( win.state, minimized );  исключиИзМнваНаБитах( win.state, maximized );
	кон Minimize;

	проц Maximize( win: Window );
	нач
		исключиИзМнваНаБитах( win.state, minimized );  включиВоМнвоНаБитах( win.state, maximized );
	кон Maximize;

	проц Restore( win: Window );
	нач
		исключиИзМнваНаБитах( win.state, minimized );  исключиИзМнваНаБитах( win.state, maximized );
	кон Restore;

	проц PosChanging( win: Window;  lParam: User32.LParam );
	перем pos: User32.WindowPos;
	нач
		НИЗКОУР.копируйПамять( lParam, адресОт( pos ), размер16_от( User32.WindowPos ) );
		если ~(User32.SWPNoMove в pos.flags) то
			если (pos.x < -disp.width) и (pos.y < -disp.height) то Minimize( win )
			аесли (pos.x >= 0) и (pos.y >= 0) то Restore( win )
			всё
		всё;
		(* Viewers.sorted := FALSE*)
	кон PosChanging;

(** Common base handler for all visual windows (document or control) provided by this module. *)
	проц WindowHandler( win: Window;  uMsg: цел32;  wParam: User32.WParam;
													  lParam: User32.LParam ): User32.LResult;

	перем handled: булево; ret: Kernel32.HANDLE;

		closer: окласс (* to call a close request in an A2 thread, otherwise finalization does not work etc. *)
		нач{активное}
			Modules.Shutdown(Modules.PowerDown);
			User32.PostQuitMessage(0);
		кон;
	нач
		если update в win.state то
			handled := истина;
			если uMsg < User32.WMKeyFirst то
				просей uMsg из
				User32.WMMove:
						SetDocRect( win, ложь )
				| User32.WMSize:
						если wParam = User32.SizeMaximized то Maximize( win );  UpdateDisplay( win, resize, lParam, wParam );
						аесли wParam = User32.SizeMinimized то Minimize( win );
						аесли wParam = User32.SizeRestored то Restore( win );  UpdateDisplay( win, resize, lParam, wParam );
						всё;
				| User32.WMPaint:
						UpdateDisplay( win, redraw, lParam, wParam );
				| User32.WMMouseActivate:
						если (hook = НУЛЬ ) или ((lParam остОтДеленияНа 65536) # (User32.HTClient)) то ret := User32.SetFocus( win.hWnd ) всё;
						возврат User32.MANoActivate
				| User32.WMGetMinMaxInfo:
						handled := GetMinMaxInfo( win, lParam )
				| User32.WMWindowPosChanging:
						handled := GetMinMaxInfo( win, lParam );  PosChanging( win, lParam );  handled := ложь
				| User32.WMSetFocus, User32.WMKillFocus:
						HandleFocus( win, uMsg, wParam )
				| User32.WMClose:
						если closeRequests < 3 то
							нов(closer); увел(closeRequests);
						иначе
							Modules.Shutdown(Modules.PowerDown);
							User32.PostQuitMessage( 0 ) (*ALEX 2005.12.13 added this line*)
						всё;
				иначе handled := ложь
				всё
			аесли (User32.WMKeyFirst <= uMsg) и (uMsg <= User32.WMKeyLast) то
				просей uMsg из
				| User32.WMKeyDown:
						HandleKey( win, wParam, lParam);
				| User32.WMKeyUp:
						HandleKeyUp( win, wParam, lParam );
				| User32.WMChar:
						если ~KeyHandled то
							HandleChar( win, wParam, lParam )
						всё;
				| User32.WMSysKeyDown: HandleKey(win, wParam, lParam);
				| User32.WMSysKeyUp: HandleKeyUp(win, wParam, lParam);
				иначе handled := ложь;
				всё;
			аесли (User32.WMMouseFirst <= uMsg) и (uMsg <= User32.WMMouseLast) то
				HandleMouse( win, uMsg, wParam, lParam )
			иначе handled := ложь
			всё
		иначе handled := ложь
		всё;
		если ~handled то возврат DummyHandler( win, uMsg, wParam, lParam ) иначе возврат 0 всё
	кон WindowHandler;

	проц {WINAPI} WindowProc( hwnd: User32.HWND;  uMsg: цел32;  wParam: User32.WParam;
															    lParam: User32.LParam ): User32.LResult;
	перем win {неОтслСборщиком}: Window;  dbh {неОтслСборщиком}: DEV_BROADCAST_HDRP; dbv  {неОтслСборщиком}: DEV_BROADCAST_VOLUMEP; 
	нач

		если uMsg = WM_DEVICECHANGE то
			если wParam = DBT_DEVICEARRIVAL то
				dbh := НИЗКОУР.подмениТипЗначения(DEV_BROADCAST_HDRP,lParam);
				если dbh.dbch_devicetype = DBT_DEVTYP_VOLUME то
					dbv := НИЗКОУР.подмениТипЗначения(DEV_BROADCAST_VOLUMEP,lParam);
					WinFS.DeviceNotification(цел32(wParam),dbv.dbcv_unitmask);
				всё;
			аесли wParam = DBT_DEVICEREMOVECOMPLETE то
				dbh := НИЗКОУР.подмениТипЗначения(DEV_BROADCAST_HDRP,lParam);
				если dbh.dbch_devicetype = DBT_DEVTYP_VOLUME то
					dbv := НИЗКОУР.подмениТипЗначения(DEV_BROADCAST_VOLUMEP,lParam);
					WinFS.DeviceNotification(цел32(wParam),dbv.dbcv_unitmask);
				всё;
			всё;
		всё;

		win := НИЗКОУР.подмениТипЗначения( Window, адресВПамяти(User32.GetWindowLong( hwnd, GWLWindow )) );
		если win # НУЛЬ то возврат WindowHandler( win, uMsg, wParam, lParam )
		иначе возврат DummyProc( hwnd, uMsg, wParam, lParam )
		всё
	кон WindowProc;
(** Implementation of GetDC for all visual windows (document or control) provided by this module. *)
	проц GetDC( win: Window );
	перем oldhbm: GDI32.HBitmap;  ret: цел32;
	нач
		если win.hWnd # Kernel32.NULL то
			win.hDC := User32.GetDC( win.hWnd );

			если letWindowsHandleTheBuffer то
				win.bmp := GDI32.CreateCompatibleBitmap( win.hDC, disp.width, disp.height );
				win.bmphdc := GDI32.CreateCompatibleDC( win.hDC );  oldhbm := GDI32.SelectObject( win.bmphdc, win.bmp );
				нов( win.pal, 1024 );  ret := GDI32.GetSystemPaletteEntries( win.hDC, 0, 1024, win.pal^ )
			иначе win.bmphdc := GDI32.CreateCompatibleDC( win.hDC );

				win.bmadr := 0;

				bmi.info.bmiHeader.biSizeImage := disp.width * disp.height * format;  bmi.info.bmiHeader.biWidth := disp.width;
				bmi.info.bmiHeader.biHeight := -disp.height;   (* top-down *)

				win.bmp :=
					GDI32.CreateDIBSection( win.hDC, НИЗКОУР.подмениТипЗначения( GDI32.BitmapInfo, bmi.info ), GDI32.DIBRGBColors,
															  win.bmadr, 0, 0 );
				утв ( win.bmadr # 0 );
				oldhbm := GDI32.SelectObject( win.bmphdc, win.bmp );


				(*oldhbm := GDI32.SelectObject( win.bmphdc, win.bmp );  *)
				нов( win.pal, 1024 );  ret := GDI32.GetSystemPaletteEntries( win.hDC, 0, 1024, win.pal^ )
			всё;

		иначе win.hDC := Kernel32.NULL
		всё;
		(*
	depth := GDI32.GetDeviceCaps(win.hDC, GDI32.BitsPixel);
	*)
		(*	IF disp = root THEN 	Msg2(TRUE,"RegisterHotkey:",User32.RegisterHotKey(disp.hWnd,100,MODWin,65),0);  END;  *)

	кон GetDC;


(** Install a externaly created window in the display space.
		You must already have set up the fields:
		handle, getDC, releaseDC, hWnd and defWindowProc *)
	(* PROCEDURE InstallW( win: Window;  ctrl: BOOLEAN );
	VAR h: User32.HWND;
	BEGIN
		INCL( win.state, external );
		IF ctrl THEN INCL( win.state, control ) END;
		h := win.hWnd;
		WHILE h # Kernel32.NULL DO win.hWndParent := h;  h := User32.GetParent( h ) END;
		SetupWin( win )
	END InstallW; *)

(** Initialize the fields of a new Window instance with default values.
		You must call this procedure whenever you alloc a new Window instance
		or an extension of it. *)
	проц Init( win: Window );
	нач
		(*
		Viewers.InitWindow(win);
		win.viewer := NIL;
		win.getDC := Displays.GetDC; win.releaseDC := Displays.ReleaseDC;
		*)
		win.defWindowProc := User32.DefWindowProc;  win.windowRect.left := 0;  win.windowRect.right := 0;
		win.windowRect.top := 0;  win.windowRect.bottom := 0;  win.state := {update}
	кон Init;

	проц RegisterClasses;
	перем str: массив 32 из симв8;
		ret: Kernel32.ATOM;
	нач
		dummyClass.cbSize := размер16_от( User32.WndClassEx );  dummyClass.style := {};  dummyClass.lpfnWndProc := DummyProc;
		dummyClass.cbClsExtra := 0;  dummyClass.cbWndExtra := 4;  dummyClass.hInstance := Kernel32.hInstance;
		dummyClass.hIcon := Kernel32.NULL;  dummyClass.hIconSm := Kernel32.NULL;  dummyClass.hCursor := Kernel32.NULL;
		dummyClass.hbrBackground := Kernel32.NULL;  dummyClass.lpszMenuName := Kernel32.NULL;
		dummyClass.lpszClassName := НИЗКОУР.подмениТипЗначения( Kernel32.LPSTR, адресОт( dummyClassName ) );
		ret := User32.RegisterClassEx( dummyClass );

		windowClass.cbSize := размер16_от( User32.WndClassEx );
		windowClass.style := {7};   (* Cs_parentdc: SIGNED16 is 128  = 2^7 *)
		windowClass.lpfnWndProc := WindowProc;  windowClass.cbClsExtra := 0;  windowClass.cbWndExtra := 4;
		windowClass.hInstance := Kernel32.hInstance;  str := "Console";  windowClass.hIcon := User32.LoadIcon( Kernel32.hInstance, str );
		str := "Console.Small";  windowClass.hIconSm := User32.LoadIcon( Kernel32.hInstance, str );  windowClass.hCursor := Kernel32.NULL;
		windowClass.hbrBackground := Kernel32.NULL;  windowClass.lpszMenuName := Kernel32.NULL;
		windowClass.lpszClassName := НИЗКОУР.подмениТипЗначения( Kernel32.LPSTR, адресОт( windowClassName ) );
		ret := User32.RegisterClassEx( windowClass )
	кон RegisterClasses;

	проц UnregisterClasses;
	перем ret: Kernel32.BOOL;
	нач
		ret := User32.UnregisterClass( dummyClassName, Kernel32.hInstance );
		ret := User32.UnregisterClass( windowClassName, Kernel32.hInstance )
	кон UnregisterClasses;

	проц FirstWindow( ): Window;
	перем disp: Window;  w: Window;
	нач
		w := НУЛЬ;  disp := root;
		нцПока (w = НУЛЬ ) и (disp # НУЛЬ ) делай
			если disp суть Window то
				w := disp( Window );
				если (w.hWnd = Kernel32.NULL) или (~(update в w.state) и ~(dummy в w.state)) или (external в w.state) то
					w := НУЛЬ
				всё
			всё;
			disp := disp.link
		кц;
		возврат w
	кон FirstWindow;

	проц CreateWin( create: CreateStruct );
	перем theWin: Window; winMain: WinMain;  ret: Kernel32.BOOL;
	нач
		если nWindows <= 0 то
			нов( winMain, create );  root := create.win;
		иначе
			theWin := FirstWindow();
			ret := User32.PostMessage( theWin.hWnd, WMCreateWindow, 0, НИЗКОУР.подмениТипЗначения( User32.LParam, create ) )
		всё;
		нач {единолично}
			дождись(create.finished)
		кон;
	кон CreateWin;

	(* PROCEDURE {WINAPI} ControlWindowProc( hwnd: User32.HWND;  uMsg: SIGNED32;  wParam: User32.WParam;
																		    lParam: User32.LParam ): User32.LResult;
	VAR win: Window;  ret: Kernel32.BOOL;
	BEGIN
		win := SYSTEM.VAL( Window, ADDRESS(User32.GetWindowLong( hwnd, GWLWindow )) );
		IF win # NIL THEN RETURN WindowHandler( win, uMsg, wParam, lParam )
		ELSIF uMsg = User32.WMCreate THEN
			SYSTEM.GET( lParam, win );  win.hWnd := hwnd;
			ret := User32.SetWindowLong( hwnd, GWLWindow, SIGNED32( ADDRESS(win) ) );  InstallW( win, TRUE );  RETURN 0
		ELSE RETURN DummyProc(hwnd,uMsg,wParam,lParam);
		END
	END ControlWindowProc; *)

	проц {WINAPI} UnregisterControlWinClass;
	перем ret: Kernel32.BOOL;
	нач
		если aControlWinClass # Kernel32.NULL то
			ret := User32.UnregisterClass( controlClassName, Kernel32.hInstance );  aControlWinClass := Kernel32.NULL
		всё
	кон UnregisterControlWinClass;

	проц InitMod;
	перем  (*  path: FileDir.FileName;*) i: цел32;
		str: массив 32 из симв8;
	нач
		fixedFrameX := User32.GetSystemMetrics( User32.SMCXFixedFrame );
		fixedFrameY := User32.GetSystemMetrics( User32.SMCYFixedFrame );
		frameX := User32.GetSystemMetrics( User32.SMCXFrame );  frameY := User32.GetSystemMetrics( User32.SMCYFrame );
		captionY := User32.GetSystemMetrics( User32.SMCYCaption );
		menuY := User32.GetSystemMetrics( User32.SMCYMenu );  capture := НУЛЬ;  hook := НУЛЬ;  mouse := НУЛЬ;
		(* winMain := NIL; *) nWindows := 0;  str := "PointCircle";
		hCurrentCursor := User32.LoadCursor( Kernel32.hInstance, str );   (* Kernel32.NULL;  *);
		str := "Cross";  hAlternativeCursor := User32.LoadCursor( Kernel32.hInstance, str );  dummyClassName := "Aos.Dummy.Class";
		windowClassName := "Aos.Window.Class";  controlClassName := "Aos.ControlWindow.Class";  aControlWinClass := Kernel32.NULL;  kioskmode := ложь;
		Kernel32.InitializeCriticalSection( moduleCS );
		(*
		nAccel := 0; Registry.OberonPath("HotKeys", path);
		Registry.EnumerateKeyValue(Registry.CurrentUser, path, AddRegHotKeys); (* done in Oberon.Mod, needs configuration Oberon.Text *)
		*)
		dummyWin := НУЛЬ;
		нцДля i := 0 до 255 делай ISOToOberon[i] := симв8ИзКода( i );  кц;
		ISOToOberon[146] := симв8ИзКода( 39 );  ISOToOberon[160] := симв8ИзКода( 32 );  ISOToOberon[162] := симв8ИзКода( 99 );
		ISOToOberon[166] := симв8ИзКода( 124 );  ISOToOberon[168] := симв8ИзКода( 34 );  ISOToOberon[169] := симв8ИзКода( 99 );  ISOToOberon[170] := симв8ИзКода( 97 );
		ISOToOberon[171] := симв8ИзКода( 60 );  ISOToOberon[173] := симв8ИзКода( 45 );  ISOToOberon[174] := симв8ИзКода( 114 );  ISOToOberon[175] := симв8ИзКода( 45 );
		ISOToOberon[176] := симв8ИзКода( 111 );  ISOToOberon[178] := симв8ИзКода( 50 );  ISOToOberon[179] := симв8ИзКода( 51 );  ISOToOberon[180] := симв8ИзКода( 39 );
		ISOToOberon[183] := симв8ИзКода( 46 );  ISOToOberon[185] := симв8ИзКода( 49 );  ISOToOberon[186] := симв8ИзКода( 48 );  ISOToOberon[187] := симв8ИзКода( 62 );
		ISOToOberon[192] := симв8ИзКода( 65 );  ISOToOberon[193] := симв8ИзКода( 65 );  ISOToOberon[194] := симв8ИзКода( 65 );  ISOToOberon[195] := симв8ИзКода( 65 );
		ISOToOberon[196] := симв8ИзКода( 128 );  ISOToOberon[197] := симв8ИзКода( 65 );  ISOToOberon[198] := симв8ИзКода( 65 );  ISOToOberon[199] := симв8ИзКода( 67 );
		ISOToOberon[200] := симв8ИзКода( 69 );  ISOToOberon[201] := симв8ИзКода( 69 );  ISOToOberon[202] := симв8ИзКода( 69 );  ISOToOberon[203] := симв8ИзКода( 69 );
		ISOToOberon[204] := симв8ИзКода( 73 );  ISOToOberon[205] := симв8ИзКода( 73 );  ISOToOberon[206] := симв8ИзКода( 73 );  ISOToOberon[207] := симв8ИзКода( 73 );
		ISOToOberon[208] := симв8ИзКода( 68 );  ISOToOberon[209] := симв8ИзКода( 78 );  ISOToOberon[210] := симв8ИзКода( 79 );  ISOToOberon[211] := симв8ИзКода( 79 );
		ISOToOberon[212] := симв8ИзКода( 79 );  ISOToOberon[213] := симв8ИзКода( 79 );  ISOToOberon[214] := симв8ИзКода( 129 );  ISOToOberon[215] := симв8ИзКода( 42 );
		ISOToOberon[216] := симв8ИзКода( 79 );  ISOToOberon[217] := симв8ИзКода( 85 );  ISOToOberon[218] := симв8ИзКода( 85 );  ISOToOberon[219] := симв8ИзКода( 85 );
		ISOToOberon[220] := симв8ИзКода( 130 );  ISOToOberon[221] := симв8ИзКода( 89 );  ISOToOberon[222] := симв8ИзКода( 80 );
		ISOToOberon[223] := симв8ИзКода( 150 );  ISOToOberon[224] := симв8ИзКода( 139 );  ISOToOberon[225] := симв8ИзКода( 148 );
		ISOToOberon[226] := симв8ИзКода( 134 );  ISOToOberon[227] := симв8ИзКода( 97 );  ISOToOberon[228] := симв8ИзКода( 131 );
		ISOToOberon[229] := симв8ИзКода( 97 );  ISOToOberon[230] := симв8ИзКода( 97 );  ISOToOberon[231] := симв8ИзКода( 147 );
		ISOToOberon[232] := симв8ИзКода( 140 );  ISOToOberon[233] := симв8ИзКода( 144 );  ISOToOberon[234] := симв8ИзКода( 135 );
		ISOToOberon[235] := симв8ИзКода( 145 );  ISOToOberon[236] := симв8ИзКода( 141 );  ISOToOberon[237] := симв8ИзКода( 105 );
		ISOToOberon[238] := симв8ИзКода( 136 );  ISOToOberon[239] := симв8ИзКода( 146 );  ISOToOberon[240] := симв8ИзКода( 100 );
		ISOToOberon[241] := симв8ИзКода( 149 );  ISOToOberon[242] := симв8ИзКода( 142 );  ISOToOberon[243] := симв8ИзКода( 111 );
		ISOToOberon[244] := симв8ИзКода( 137 );  ISOToOberon[245] := симв8ИзКода( 111 );  ISOToOberon[246] := симв8ИзКода( 132 );
		ISOToOberon[248] := симв8ИзКода( 111 );  ISOToOberon[249] := симв8ИзКода( 143 );  ISOToOberon[250] := симв8ИзКода( 117 );
		ISOToOberon[251] := симв8ИзКода( 138 );  ISOToOberon[252] := симв8ИзКода( 133 );  ISOToOberon[253] := симв8ИзКода( 121 );
		ISOToOberon[254] := симв8ИзКода( 112 );  ISOToOberon[255] := симв8ИзКода( 121 );

		InitBMI;
		копируйСтрокуДо0(WindowTitle, windowTitle);
	кон InitMod;

	проц DisableCursor*;
	нач
		hCurrentCursor := Kernel32.NULL
	кон DisableCursor;


	проц InitBMI;
	нач
		bmi.info.bmiHeader.biSize := размер16_от( GDI32.BitmapInfoHeader );  bmi.info.bmiHeader.biWidth := 0;
		bmi.info.bmiHeader.biHeight := 0;  bmi.info.bmiHeader.biPlanes := 1;  bmi.info.bmiHeader.biBitCount := (format * 8);
		bmi.info.bmiHeader.biCompression := GDI32.BIRGB;  bmi.info.bmiHeader.biSizeImage := 0;
		bmi.info.bmiHeader.biXPelsPerMeter := 0;  bmi.info.bmiHeader.biYPelsPerMeter := 0;
		если format > 1 то bmi.info.bmiHeader.biClrUsed := 0;  bmi.info.bmiHeader.biClrImportant := 0
		иначе bmi.info.bmiHeader.biClrUsed := 256;  bmi.info.bmiHeader.biClrImportant := 256;
		всё;
		если format = Displays.color565 то
			bmi.info.bmiHeader.biCompression := 3;   (*: BIBITFIELDS *)
			bmi.info.colors[0] := 15 * 16 * 16 * 16 + 8 * 16 * 16;  bmi.info.colors[1] := 14 * 16 + 7 * 16 * 16;
			bmi.info.colors[2] := 15 + 16;
		всё;
	кон InitBMI;

	проц Shutdown;
	нач
		(*
		disp := Displays.root;
		WHILE disp # NIL DO
			IF disp IS Window THEN
				WITH disp: Window DO
					IF disp.hWnd # Kernel32.NULL THEN
						User32.PostMessage(disp.hWnd, User32.WMClose, 0, 0)
					END
				END
			END;
			disp := disp.link
		END;
		IF dummyWin # NIL THEN
			User32.PostMessage(dummyWin.hWnd, User32.WMClose, 0, 0)
		END;
		*)
		UnregisterControlWinClass()
	кон Shutdown;

	проц DoInstall( w, h, left, top: цел32 );
	перем ts: массив 16 из симв8;
		res: целМЗ;  create: CreateStruct;  win: Window;  hMenu: User32.HMenu;  x, y: цел32;
	перем border: цел32;  rect: User32.Rect;   (*ALEX 2005.11.30*)

		hDC: User32.HDC;

	конст SMCYMaximized = 62;  SMCXMaximized = 61;
	нач
		если disp = НУЛЬ то
			нов( win );  Init( win );  hMenu := Kernel32.NULL;  RegisterClasses();  нов( create );  create.win := win;
			create.hMenu := hMenu;
			если ~fullscreen то
				create.style :=
					{User32.WSMinimizeBox, User32.WSMaximizeBox, User32.WSSysMenu, User32.WSVisible, User32.WSBorder, User32.WSThickFrame};
				x := User32.CWUseDefault;  y := User32.CWUseDefault;  копируйСтрокуДо0( windowClassName, create.className );  border := 0;
				если h = 0 то
					h := User32.GetSystemMetrics( SMCYMaximized ) - captionY - 2 * frameY;
					если w = 0 то
						w := User32.GetSystemMetrics( SMCXMaximized ) - 2 * frameX;
						create.style := create.style + {User32.WSMaximize};
					всё;
				иначе
					h := h - captionY - 2 * frameY;
					если (w # 0) то
						w := w - 2 * frameX;
					всё;
				всё;
				если w = 0 то w := User32.GetSystemMetrics( SMCXMaximized ) - 2 * frameX;  всё;
				create.w := w + 2 * frameX;  create.h := h  + captionY + 2*frameY;
				create.x := x;  create.y := y;

				если (left # 0) то
					create.x := left; create.y := top;
				всё;
			иначе
				create.style := {};  x := User32.CWUseDefault;  y := User32.CWUseDefault;
				копируйСтрокуДо0( windowClassName, create.className );  border := 0;  h := User32.GetSystemMetrics( SMCYScreen );
				w := User32.GetSystemMetrics( SMCXScreen );  create.style := create.style + {User32.WSMaximize};
				create.x := x;  create.y := y;  create.w := w;  create.h := h + captionY;
			всё;

			нов( disp );  disp.width := w;  disp.height := h;  disp.format := format;  disp.desc := "Display driver (";  Strings.IntToStr( disp.width, ts );
			Strings.Append( disp.desc, ts );  Strings.Append( disp.desc, "x" );  Strings.IntToStr( disp.height, ts );
			Strings.Append( disp.desc, ts );  Strings.Append( disp.desc, "x" );  Strings.IntToStr( disp.format, ts );
			Strings.Append( disp.desc, ts );  Strings.Append( disp.desc, ")" );  create.finished := ложь;
			CreateWin( create );
			неважно User32.SetWindowText(root.hWnd, windowTitle);
			неважно User32.BringWindowToTop( root.hWnd );
			неважно User32.SetForegroundWindow( root.hWnd );
			Displays.registry.Add( disp, res );
			утв ( res = 0 );
			если fullscreen то
				res :=
					User32.SetWindowLong( win.hWnd, User32.GWLStyle,
															 цел32(мнвоНаБитахМЗ(User32.GetWindowLong( win.hWnd, User32.GWLStyle ) ) - мнвоНаБитахМЗ( 12582912 (* WScaption *) ) ) );

				res := User32.GetWindowRect( win.hWnd, rect );
				res := User32.SetWindowRgn( win.hWnd, GDI32.CreateRectRgn( rect.left, rect.bottom, rect.right, rect.top ), 1 );
				win.frame := истина
			всё

		аесли root = НУЛЬ то w := disp.width;  h := disp.height;

			нов( win );  Init( win );  hMenu := Kernel32.NULL;  RegisterClasses();  нов( create );  create.win := win;
			create.hMenu := hMenu;
			create.style :=
				{User32.WSMinimizeBox, User32.WSMaximizeBox,  User32.WSSysMenu,  User32.WSVisible, User32.WSBorder, User32.WSThickFrame};
			x := User32.CWUseDefault;  y := User32.CWUseDefault;  копируйСтрокуДо0( windowClassName, create.className );  create.x := x;
			create.y := y;  create.w := w;  create.h := h + User32.GetSystemMetrics( User32.SMCYCaption );
			create.finished := ложь;
			CreateWin( create );
			неважно User32.SetWindowText(root.hWnd, windowTitle);
			неважно User32.BringWindowToTop( root.hWnd );  disp.Update;
			неважно User32.SetForegroundWindow( root.hWnd );
		иначе
			ЛогЯдра.ЗахватВЕдиноличноеПользование;  ЛогЯдра.пСтроку8( "Display: Display already open, window still open" );  ЛогЯдра.ОсвобождениеИзЕдиноличногоПользования;
			если minimized в root.state то неважно User32.ShowWindow( root.hWnd, User32.SWRestore );  всё;

			неважно User32.BringWindowToTop( root.hWnd ); неважно User32.SetForegroundWindow( root.hWnd );
		всё;

		hDC := User32.GetDC(0);
		disp.unit := GDI32.GetDeviceCaps(hDC,GDI32.LogPixelsX);
		disp.unit := округлиВниз((36000.0*disp.unit)/25.4);
		неважно User32.ReleaseDC(0,hDC);
	кон DoInstall;

	проц Install*(context : Commands.Context); (** ["H"] [ width [height] ] ["FULLSCREEN"] [ x [y] ] *)
	перем x,y,w,h : цел32; options: Options.Options;
	нач
		нов(options);
		options.Add("b","bits16",Options.Flag);
		options.Add("f","fullscreen",Options.Flag);
		options.Add("w","width",Options.Integer);
		options.Add("h","height",Options.Integer);
		options.Add("x","xOffset",Options.Integer);
		options.Add("y","yOffset",Options.Integer);
		options.Add("n","noMouseCursor",Options.Flag);
		если ~options.Parse(context.arg, context.error) то
			w := 0; h := 0; x := 0; y := 0;
		иначе
			если options.GetFlag("b") то format := Displays.color565; InitBMI всё;
			fullscreen := options.GetFlag("f");
			если ~options.GetInteger("x", x) то x := 0 всё;
			если ~options.GetInteger("y", y) то y := 0 всё;
			если ~options.GetInteger("w", w) то w := 0 всё;
			если ~options.GetInteger("h", h) то h := 0 всё;
			если options.GetFlag("n") то DisableCursor всё;
		всё;
		closeRequests := 0;

		DoInstall( w, h, x, y);
	кон Install;

перем traceDisplay: булево;
	проц TraceDisplay*;
	нач
		traceDisplay := ~traceDisplay;
	кон TraceDisplay;


нач
	traceDisplay := ложь;
	format := Displays.color8888;
	InitMod();  Modules.InstallTermHandler( Shutdown );  KeyHandled := ложь; CapsLockOn := ложь;
	Init_keyCodesToLowerUpperControlChars;
кон Display.

Aos.Call Display.Install 1024 768 ~
Aos.Call Display.Install  ~
Aos.Call WindowManager.Install
Aos.Call MM.Open Menu.XML ~



(* window constants :

indexing
description: "Window message (WM) constants."
status: "See notice at end of class."
date: "$Date: 2001/11/12 17:58:05 $"
revision: "$Revision: 1.3 $"
class interface
WEL_WM_CONSTANTS
feature -- Access
Wm_activate: SIGNED16 is 6
-- Declared in Windows as WM_ACTIVATE
Wm_activateapp: SIGNED16 is 28
-- Declared in Windows as WM_ACTIVATEAPP
Wm_afxfirst: SIGNED16 is 864
-- Declared in Windows as WM_AFXFIRST
Wm_afxlast: SIGNED16 is 895
-- Declared in Windows as WM_AFXLAST
Wm_app: SIGNED16 is 32768
-- Declared in Windows as WM_APP
Wm_appcommand: SIGNED16 is 793
-- Declared in Windows as WM_APPCOMMAND
Wm_askcbformatname: SIGNED16 is 780
-- Declared in Windows as WM_ASKCBFORMATNAME
Wm_canceljournal: SIGNED16 is 75
-- Declared in Windows as WM_CANCELJOURNAL
Wm_cancelmode: SIGNED16 is 31
-- Declared in Windows as WM_CANCELMODE
Wm_capturechanged: SIGNED16 is 533
-- Declared in Windows as WM_CAPTURECHANGED
Wm_changecbchain: SIGNED16 is 781
-- Declared in Windows as WM_CHANGECBCHAIN
Wm_changeuistate: SIGNED16 is 295
-- Declared in Windows as WM_CHANGEUISTATE
Wm_char: SIGNED16 is 258
-- Declared in Windows as WM_CHAR
Wm_chartoitem: SIGNED16 is 47
-- Declared in Windows as WM_CHARTOITEM
Wm_childactivate: SIGNED16 is 34
-- Declared in Windows as WM_CHILDACTIVATE
Wm_clear: SIGNED16 is 771
-- Declared in Windows as WM_CLEAR
Wm_close: SIGNED16 is 16
-- Declared in Windows as WM_CLOSE
Wm_command: SIGNED16 is 273
-- Declared in Windows as WM_COMMAND
Wm_commnotify: SIGNED16 is 68
-- Declared in Windows as WM_COMMNOTIFY
Wm_compacting: SIGNED16 is 65
-- Declared in Windows as WM_COMPACTING
Wm_compareitem: SIGNED16 is 57
-- Declared in Windows as WM_COMPAREITEM
Wm_contextmenu: SIGNED16 is 123
-- Declared in Windows as WM_CONTEXTMENU
Wm_copy: SIGNED16 is 769
-- Declared in Windows as WM_COPY
Wm_copydata: SIGNED16 is 74
-- Declared in Windows as WM_COPYDATA
Wm_create: SIGNED16 is 1
-- Declared in Windows as WM_CREATE
Wm_cut: SIGNED16 is 768
-- Declared in Windows as WM_CUT
Wm_deadchar: SIGNED16 is 259
-- Declared in Windows as WM_DEADCHAR
Wm_deleteitem: SIGNED16 is 45
-- Declared in Windows as WM_DELETEITEM
Wm_destroy: SIGNED16 is 2
-- Declared in Windows as WM_DESTROY
Wm_destroyclipboard: SIGNED16 is 775
-- Declared in Windows as WM_DESTROYCLIPBOARD
Wm_devicechange: SIGNED16 is 537
-- Declared in Windows as WM_DEVICECHANGE
Wm_devmodechange: SIGNED16 is 27
-- Declared in Windows as WM_DEVMODECHANGE
Wm_displaychange: SIGNED16 is 126
-- Declared in Windows as WM_DISPLAYCHANGE
Wm_drawclipboard: SIGNED16 is 776
-- Declared in Windows as WM_DRAWCLIPBOARD
Wm_drawitem: SIGNED16 is 43
-- Declared in Windows as WM_DRAWITEM
Wm_dropfiles: SIGNED16 is 563
-- Declared in Windows as WM_DROPFILES
Wm_enable: SIGNED16 is 10
-- Declared in Windows as WM_ENABLE
Wm_endsession: SIGNED16 is 22
-- Declared in Windows as WM_ENDSESSION
Wm_enteridle: SIGNED16 is 289
-- Declared in Windows as WM_ENTERIDLE
Wm_entermenuloop: SIGNED16 is 529
-- Declared in Windows as WM_ENTERMENULOOP
Wm_entersizemove: SIGNED16 is 561
-- Declared in Windows as WM_ENTERSIZEOFMOVE
Wm_erasebkgnd: SIGNED16 is 20
-- Declared in Windows as WM_ERASEBKGND
Wm_exitmenuloop: SIGNED16 is 530
-- Declared in Windows as WM_EXITMENULOOP
Wm_exitsizemove: SIGNED16 is 562
-- Declared in Windows as WM_EXITSIZEOFMOVE
Wm_fontchange: SIGNED16 is 29
-- Declared in Windows as WM_FONTCHANGE
Wm_getdlgcode: SIGNED16 is 135
-- Declared in Windows as WM_GETDLGCODE
Wm_getfont: SIGNED16 is 49
-- Declared in Windows as WM_GETFONT
Wm_gethotkey: SIGNED16 is 51
-- Declared in Windows as WM_GETHOTKEY
Wm_geticon: SIGNED16 is 127
-- Declared in Windows as WM_GETICON
Wm_getminmaxinfo: SIGNED16 is 36
-- Declared in Windows as WM_GETMINMAXINFO
Wm_getobject: SIGNED16 is 61
-- Declared in Windows as WM_GETOBJECT
Wm_gettext: SIGNED16 is 13
-- Declared in Windows as WM_GETTEXT
Wm_gettextlength: SIGNED16 is 14
-- Declared in Windows as WM_GETTEXTLENGTH
Wm_handheldfirst: SIGNED16 is 856
-- Declared in Windows as WM_HANDHELDFIRST
Wm_handheldlast: SIGNED16 is 863
-- Declared in Windows as WM_HANDHELDLAST
Wm_help: SIGNED16 is 83
-- Declared in Windows as WM_HELP
Wm_hotkey: SIGNED16 is 786
-- Declared in Windows as WM_HOTKEY
Wm_hscroll: SIGNED16 is 276
-- Declared in Windows as WM_HSCROLL
Wm_hscrollclipboard: SIGNED16 is 782
-- Declared in Windows as WM_HSCROLLCLIPBOARD
Wm_iconerasebkgnd: SIGNED16 is 39
-- Declared in Windows as WM_ICONERASEBKGND
Wm_ime_char: SIGNED16 is 646
-- Declared in Windows as WM_IME_CHAR
Wm_ime_composition: SIGNED16 is 271
-- Declared in Windows as WM_IME_COMPOSITION
Wm_ime_compositionfull: SIGNED16 is 644
-- Declared in Windows as WM_IME_COMPOSITIONFULL
Wm_ime_control: SIGNED16 is 643
-- Declared in Windows as WM_IME_CONTROL
Wm_ime_endcomposition: SIGNED16 is 270
-- Declared in Windows as WM_IME_ENDCOMPOSITION
Wm_ime_keydown: SIGNED16 is 656
-- Declared in Windows as WM_IME_KEYDOWN
wm_ime_keylast: SIGNED16
-- Declared in Windows as WM_IME_KEYLAST
Wm_ime_keyup: SIGNED16 is 657
-- Declared in Windows as WM_IME_KEYUP
Wm_ime_notify: SIGNED16 is 642
-- Declared in Windows as WM_IME_NOTIFY
Wm_ime_request: SIGNED16 is 648
-- Declared in Windows as WM_IME_REQUEST
Wm_ime_select: SIGNED16 is 645
-- Declared in Windows as WM_IME_SELECT
Wm_ime_setcontext: SIGNED16 is 641
-- Declared in Windows as WM_IME_SETCONTEXT
Wm_ime_startcomposition: SIGNED16 is 269
-- Declared in Windows as WM_IME_STARTCOMPOSITION
Wm_initdialog: SIGNED16 is 272
-- Declared in Windows as WM_INITDIALOG
Wm_initmenu: SIGNED16 is 278
-- Declared in Windows as WM_INITMENU
Wm_initmenupopup: SIGNED16 is 279
-- Declared in Windows as WM_INITMENUPOPUP
Wm_inputlangchange: SIGNED16 is 81
-- Declared in Windows as WM_INPUTLANGCHANGE
Wm_inputlangchangerequest: SIGNED16 is 80
-- Declared in Windows as WM_INPUTLANGCHANGEREQUEST
Wm_keydown: SIGNED16 is 256
-- Declared in Windows as WM_KEYDOWN
Wm_keyfirst: SIGNED16 is 256
-- Declared in Windows as WM_KEYFIRST
wm_keylast: SIGNED16
-- Declared in Windows as WM_KEYLAST
Wm_keyup: SIGNED16 is 257
-- Declared in Windows as WM_KEYUP
Wm_killfocus: SIGNED16 is 8
-- Declared in Windows as WM_KILLFOCUS
Wm_lbuttondblclk: SIGNED16 is 515
-- Declared in Windows as WM_LBUTTONDBLCLK
Wm_lbuttondown: SIGNED16 is 513
-- Declared in Windows as WM_LBUTTONDOWN
Wm_lbuttonup: SIGNED16 is 514
-- Declared in Windows as WM_LBUTTONUP
Wm_mbuttondblclk: SIGNED16 is 521
-- Declared in Windows as WM_MBUTTONDBLCLK
Wm_mbuttondown: SIGNED16 is 519
-- Declared in Windows as WM_MBUTTONDOWN
Wm_mbuttonup: SIGNED16 is 520
-- Declared in Windows as WM_MBUTTONUP
Wm_mdiactivate: SIGNED16 is 546
-- Declared in Windows as WM_MDIACTIVATE
Wm_mdicascade: SIGNED16 is 551
-- Declared in Windows as WM_MDICASCADE
Wm_mdicreate: SIGNED16 is 544
-- Declared in Windows as WM_MDICREATE
Wm_mdidestroy: SIGNED16 is 545
-- Declared in Windows as WM_MDIDESTROY
Wm_mdigetactive: SIGNED16 is 553
-- Declared in Windows as WM_MDIGETACTIVE
Wm_mdiiconarrange: SIGNED16 is 552
-- Declared in Windows as WM_MDIICONARRANGE
Wm_mdimaximize: SIGNED16 is 549
-- Declared in Windows as WM_MDIMAXIMIZE
Wm_mdinext: SIGNED16 is 548
-- Declared in Windows as WM_MDINEXT
Wm_mdirefreshmenu: SIGNED16 is 564
-- Declared in Windows as WM_MDIREFRESHMENU
Wm_mdirestore: SIGNED16 is 547
-- Declared in Windows as WM_MDIRESTORE
Wm_mdisetmenu: SIGNED16 is 560
-- Declared in Windows as WM_MDISETMENU
Wm_mditile: SIGNED16 is 550
-- Declared in Windows as WM_MDITILE
Wm_measureitem: SIGNED16 is 44
-- Declared in Windows as WM_MEASUREITEM
Wm_menuchar: SIGNED16 is 288
-- Declared in Windows as WM_MENUCHAR
Wm_menucommand: SIGNED16 is 294
-- Declared in Windows as WM_MENUCOMMAND
Wm_menudrag: SIGNED16 is 291
-- Declared in Windows as WM_MENUDRAG
Wm_menugetobject: SIGNED16 is 292
-- Declared in Windows as WM_MENUGETOBJECT
Wm_menurbuttonup: SIGNED16 is 290
-- Declared in Windows as WM_MENURBUTTONUP
Wm_menuselect: SIGNED16 is 287
-- Declared in Windows as WM_MENUSELECT
Wm_mouseactivate: SIGNED16 is 33
-- Declared in Windows as WM_MOUSEACTIVATE
Wm_mousefirst: SIGNED16 is 512
-- Declared in Windows as WM_MOUSEFIRST
Wm_mousehover: SIGNED16 is 673
-- Require Windows98, Windows NT 4.0 or later
-- Declared in Windows as WM_MOUSEHOVER
wm_mouselast: SIGNED16
-- Declared in Windows as WM_MOUSELAST
Wm_mouseleave: SIGNED16 is 675
-- Require Windows98, Windows NT 4.0 or later
-- Declared in Windows as WM_MOUSELEAVE
Wm_mousemove: SIGNED16 is 512
-- Declared in Windows as WM_MOUSEMOVE
Wm_mousewheel: SIGNED16 is 522
-- Declared in Windows as WM_MOUSEWHEEL
Wm_move: SIGNED16 is 3
-- Declared in Windows as WM_MOVE
Wm_moving: SIGNED16 is 534
-- Declared in Windows as WM_MOVING
Wm_ncactivate: SIGNED16 is 134
-- Declared in Windows as WM_NCACTIVATE
Wm_nccalcsize: SIGNED16 is 131
-- Declared in Windows as WM_NCCALCSIZEOF
Wm_nccreate: SIGNED16 is 129
-- Declared in Windows as WM_NCCREATE
Wm_ncdestroy: SIGNED16 is 130
-- Declared in Windows as WM_NCDESTROY
Wm_nchittest: SIGNED16 is 132
-- Declared in Windows as WM_NCHITTEST
Wm_nclbuttondblclk: SIGNED16 is 163
-- Declared in Windows as WM_NCLBUTTONDBLCLK
Wm_nclbuttondown: SIGNED16 is 161
-- Declared in Windows as WM_NCLBUTTONDOWN
Wm_nclbuttonup: SIGNED16 is 162
-- Declared in Windows as WM_NCLBUTTONUP
Wm_ncmbuttondblclk: SIGNED16 is 169
-- Declared in Windows as WM_NCMBUTTONDBLCLK
Wm_ncmbuttondown: SIGNED16 is 167
-- Declared in Windows as WM_NCMBUTTONDOWN
Wm_ncmbuttonup: SIGNED16 is 168
-- Declared in Windows as WM_NCMBUTTONUP
Wm_ncmousehover: SIGNED16 is 672
-- Require Windows98, Windows NT 5.0 or later
-- Declared in Windows as WM_NCMOUSEHOVER
Wm_ncmouseleave: SIGNED16 is 674
-- Require Windows98, Windows NT 5.0 or later
-- Declared in Windows as WM_NCMOUSELEAVE
Wm_ncmousemove: SIGNED16 is 160
-- Declared in Windows as WM_NCMOUSEMOVE
Wm_ncpaint: SIGNED16 is 133
-- Declared in Windows as WM_NCPAINT
Wm_ncrbuttondblclk: SIGNED16 is 166
-- Declared in Windows as WM_NCRBUTTONDBLCLK
Wm_ncrbuttondown: SIGNED16 is 164
-- Declared in Windows as WM_NCRBUTTONDOWN
Wm_ncrbuttonup: SIGNED16 is 165
-- Declared in Windows as WM_NCRBUTTONUP
Wm_ncxbuttondblclk: SIGNED16 is 173
-- Declared in Windows as WM_NCXBUTTONDBLCLK
Wm_ncxbuttondown: SIGNED16 is 171
-- Declared in Windows as WM_NCXBUTTONDOWN
Wm_ncxbuttonup: SIGNED16 is 172
-- Declared in Windows as WM_NCXBUTTONUP
Wm_nextdlgctl: SIGNED16 is 40
-- Declared in Windows as WM_NEXTDLGCTL
Wm_nextmenu: SIGNED16 is 531
-- Declared in Windows as WM_NEXTMENU
Wm_notify: SIGNED16 is 78
-- Declared in Windows as WM_NOTIFY
Wm_notifyformat: SIGNED16 is 85
-- Declared in Windows as WM_NOTIFYFORMAT
Wm_null: SIGNED16 is 0
-- Declared in Windows as WM_NULL
Wm_paint: SIGNED16 is 15
-- Declared in Windows as WM_PAINT
Wm_paintclipboard: SIGNED16 is 777
-- Declared in Windows as WM_PAINTCLIPBOARD
Wm_painticon: SIGNED16 is 38
-- Declared in Windows as WM_PAINTICON
Wm_palettechanged: SIGNED16 is 785
-- Declared in Windows as WM_PALETTECHANGED
Wm_paletteischanging: SIGNED16 is 784
-- Declared in Windows as WM_PALETTEISCHANGING
Wm_parentnotify: SIGNED16 is 528
-- Declared in Windows as WM_PARENTNOTIFY
Wm_paste: SIGNED16 is 770
-- Declared in Windows as WM_PASTE
Wm_penwinfirst: SIGNED16 is 896
-- Declared in Windows as WM_PENWINFIRST
Wm_penwinlast: SIGNED16 is 911
-- Declared in Windows as WM_PENWINLAST
Wm_power: SIGNED16 is 72
-- Declared in Windows as WM_POWER
Wm_powerbroadcast: SIGNED16 is 536
-- Declared in Windows as WM_POWERBROADCAST
Wm_print: SIGNED16 is 791
-- Declared in Windows as WM_PRINT
Wm_printclient: SIGNED16 is 792
-- Declared in Windows as WM_PRINTCLIENT
Wm_querydragicon: SIGNED16 is 55
-- Declared in Windows as WM_QUERYDRAGICON
Wm_queryendsession: SIGNED16 is 17
-- Declared in Windows as WM_QUERYENDSESSION
Wm_querynewpalette: SIGNED16 is 783
-- Declared in Windows as WM_QUERYNEWPALETTE
Wm_queryopen: SIGNED16 is 19
-- Declared in Windows as WM_QUERYOPEN
Wm_queryuistate: SIGNED16 is 297
-- Declared in Windows as WM_QUERYUISTATE
Wm_queuesync: SIGNED16 is 35
-- Declared in Windows as WM_QUEUESYNC
Wm_quit: SIGNED16 is 18
-- Declared in Windows as WM_QUIT
Wm_rbuttondblclk: SIGNED16 is 518
-- Declared in Windows as WM_RBUTTONDBLCLK
Wm_rbuttondown: SIGNED16 is 516
-- Declared in Windows as WM_RBUTTONDOWN
Wm_rbuttonup: SIGNED16 is 517
-- Declared in Windows as WM_RBUTTONUP
Wm_renderallformats: SIGNED16 is 774
-- Declared in Windows as WM_RENDERALLFORMATS
Wm_renderformat: SIGNED16 is 773
-- Declared in Windows as WM_RENDERFORMAT
Wm_setcursor: SIGNED16 is 32
-- Declared in Windows as WM_SETCURSOR
Wm_setfocus: SIGNED16 is 7
-- Declared in Windows as WM_SETFOCUS
Wm_setfont: SIGNED16 is 48
-- Declared in Windows as WM_SETFONT
Wm_sethotkey: SIGNED16 is 50
-- Declared in Windows as WM_SETHOTKEY
Wm_seticon: SIGNED16 is 128
-- Declared in Windows as WM_SETICON
Wm_setredraw: SIGNED16 is 11
-- Declared in Windows as WM_SETREDRAW
Wm_settext: SIGNED16 is 12
-- Declared in Windows as WM_SETTEXT
Wm_settingchange: SIGNED16 is 26
-- Declared in Windows as WM_WININICHANGE
-- Was declared in WEL_WM_CONSTANTS as synonym of wm_wininichange.
Wm_showwindow: SIGNED16 is 24
-- Declared in Windows as WM_SHOWWINDOW
Wm_size: SIGNED16 is 5
-- Declared in Windows as WM_SIZEOF
Wm_sizeclipboard: SIGNED16 is 779
-- Declared in Windows as WM_SIZEOFCLIPBOARD
Wm_sizing: SIGNED16 is 532
-- Declared in Windows as WM_SIZING
Wm_spoolerstatus: SIGNED16 is 42
-- Declared in Windows as WM_SPOOLERSTATUS
Wm_stylechanged: SIGNED16 is 125
-- Declared in Windows as WM_STYLECHANGED
Wm_stylechanging: SIGNED16 is 124
-- Declared in Windows as WM_STYLECHANGING
Wm_syncpaint: SIGNED16 is 136
-- Declared in Windows as WM_SYNCPAINT
Wm_syschar: SIGNED16 is 262
-- Declared in Windows as WM_SYSCHAR
Wm_syscolorchange: SIGNED16 is 21
-- Declared in Windows as WM_SYSCOLORCHANGE
Wm_syscommand: SIGNED16 is 274
-- Declared in Windows as WM_SYSCOMMAND
Wm_sysdeadchar: SIGNED16 is 263
-- Declared in Windows as WM_SYSDEADCHAR
Wm_syskeydown: SIGNED16 is 260
-- Declared in Windows as WM_SYSKEYDOWN
Wm_syskeyup: SIGNED16 is 261
-- Declared in Windows as WM_SYSKEYUP
Wm_tcard: SIGNED16 is 82
-- Declared in Windows as WM_TCARD
Wm_timechange: SIGNED16 is 30
-- Declared in Windows as WM_TIMECHANGE
Wm_timer: SIGNED16 is 275
-- Declared in Windows as WM_TIMER
Wm_undo: SIGNED16 is 772
-- Declared in Windows as WM_UNDO
Wm_uninitmenupopup: SIGNED16 is 293
-- Declared in Windows as WM_UNINITMENUPOPUP
Wm_updateuistate: SIGNED16 is 296
-- Declared in Windows as WM_UPDATEUISTATE
Wm_user: SIGNED16 is 1024
-- Declared in Windows as WM_USER
Wm_userchanged: SIGNED16 is 84
-- Declared in Windows as WM_USERCHANGED
Wm_vkeytoitem: SIGNED16 is 46
-- Declared in Windows as WM_VKEYTOITEM
Wm_vscroll: SIGNED16 is 277
-- Declared in Windows as WM_VSCROLL
Wm_vscrollclipboard: SIGNED16 is 778
-- Declared in Windows as WM_VSCROLLCLIPBOARD
Wm_windowposchanged: SIGNED16 is 71
-- Declared in Windows as WM_WINDOWPOSCHANGED
Wm_windowposchanging: SIGNED16 is 70
-- Declared in Windows as WM_WINDOWPOSCHANGING
Wm_wininichange: SIGNED16 is 26
-- Declared in Windows as WM_WININICHANGE
-- Was declared in WEL_WM_CONSTANTS as synonym of wm_settingchange.
Wm_xbuttondblclk: SIGNED16 is 525
-- Declared in Windows as WM_XBUTTONDBLCLK
Wm_xbuttondown: SIGNED16 is 523
-- Declared in Windows as WM_XBUTTONDOWN
Wm_xbuttonup: SIGNED16 is 524
-- Declared in Windows as WM_XBUTTONUP

invariant
-- from ANY
reflexive_equality: standard_is_equal (Current)
reflexive_conformance: conforms_to (Current)
end -- class WEL_WM_CONSTANTS


WM Key down
Parameters
wParam
Specifies the virtual-key code of the nonsystem key.
lParam
Specifies the repeat count, scan code, extended-key flag, context code, previous key-state flag, and transition-state flag, as shown in the following table.

0-15
Specifies the repeat count for the current message. The value is the number of times the keystroke is autorepeated as a result of the user holding down the key.
If the keystroke is held long enough, multiple messages are sent. However, the repeat count is not cumulative.

16-23
Specifies the scan code. The value depends on the OEM.
24
Specifies whether the key is an extended key, such as the right-hand ALT and CTRL keys that appear on an enhanced 101- or 102-key keyboard. The value is 1 if it is an extended key; otherwise, it is 0.
25-28
Reserved; do not use.
29
Specifies the context code. The value is always 0 for a WM_KEYDOWN message.
30
Specifies the previous key state. The value is 1 if the key is down before the message is sent, or it is zero if the key is up.
31
Specifies the transition state. The value is always zero for a WM_KEYDOWN message.

wm key up
wParam
Specifies the virtual-key code of the nonsystem key.
lParam
Specifies the repeat count, scan code, extended-key flag, context code, previous key-state flag, and transition-state flag, as shown in the following table. 0-15
Specifies the repeat count for the current message. The value is the number of times the keystroke is autorepeated as a result of the user holding down the key. The repeat count is always one for a WM_KEYUP message.

16-23
Specifies the scan code. The value depends on the OEM.
24
Specifies whether the key is an extended key, such as the right-hand ALT and CTRL keys that appear on an enhanced 101- or 102-key keyboard. The value is 1 if it is an extended key; otherwise, it is 0.
25-28
Reserved; do not use.
29
Specifies the context code. The value is always 0 for a WM_KEYUP message.
30
Specifies the previous key state. The value is always 1 for a WM_KEYUP message.
31
Specifies the transition state. The value is always 1 for a WM_KEYUP message.

indexing
	description: "Virtual Key code (VK) constants."
	status: "See notice at end of class."
	date: "$Date: 2001/11/12 17:58:05 $"
	revision: "$Revision: 1.3 $"

class interface
	WEL_VK_CONSTANTS

feature -- Access

	Vk_0: SIGNED16 is 48

	Vk_1: SIGNED16 is 49

	Vk_2: SIGNED16 is 50

	Vk_3: SIGNED16 is 51

	Vk_4: SIGNED16 is 52

	Vk_5: SIGNED16 is 53

	Vk_6: SIGNED16 is 54

	Vk_7: SIGNED16 is 55

	Vk_8: SIGNED16 is 56

	Vk_9: SIGNED16 is 57
			-- Vk_a thru Vk_z are the same as their ASCII equivalents: 'A' thru 'Z'.

	Vk_a: SIGNED16 is 65

	Vk_add: SIGNED16 is 107
			-- Declared in Windows as VK_ADD

	Vk_b: SIGNED16 is 66

	Vk_back: SIGNED16 is 8
			-- Declared in Windows as VK_BACK

	Vk_c: SIGNED16 is 67

	Vk_cancel: SIGNED16 is 3
			-- Declared in Windows as VK_CANCEL

	Vk_capital: SIGNED16 is 20
			-- Declared in Windows as VK_CAPITAL

	Vk_clear: SIGNED16 is 12
			-- Declared in Windows as VK_CLEAR

	Vk_control: SIGNED16 is 17
			-- Declared in Windows as VK_CONTROL

	Vk_d: SIGNED16 is 68

	Vk_decimal: SIGNED16 is 110
			-- Declared in Windows as VK_DECIMAL

	Vk_delete: SIGNED16 is 46
			-- Declared in Windows as VK_DELETE

	Vk_divide: SIGNED16 is 111
			-- Declared in Windows as VK_DIVIDE

	Vk_down: SIGNED16 is 40
			-- Declared in Windows as VK_DOWN

	Vk_e: SIGNED16 is 69

	Vk_end: SIGNED16 is 35
			-- Declared in Windows as VK_END

	Vk_escape: SIGNED16 is 27
			-- Declared in Windows as VK_ESCAPE

	Vk_execute: SIGNED16 is 43
			-- Declared in Windows as VK_EXECUTE

	Vk_f: SIGNED16 is 70

	Vk_f1: SIGNED16 is 112
			-- Declared in Windows as VK_F1

	Vk_f10: SIGNED16 is 121
			-- Declared in Windows as VK_F10

	Vk_f11: SIGNED16 is 122
			-- Declared in Windows as VK_F11

	Vk_f12: SIGNED16 is 123
			-- Declared in Windows as VK_F12

	Vk_f13: SIGNED16 is 124
			-- Declared in Windows as VK_F13

	Vk_f14: SIGNED16 is 125
			-- Declared in Windows as VK_F14

	Vk_f15: SIGNED16 is 126
			-- Declared in Windows as VK_F15

	Vk_f16: SIGNED16 is 127
			-- Declared in Windows as VK_F16

	Vk_f17: SIGNED16 is 128
			-- Declared in Windows as VK_F17

	Vk_f18: SIGNED16 is 129
			-- Declared in Windows as VK_F18

	Vk_f19: SIGNED16 is 130
			-- Declared in Windows as VK_F19

	Vk_f2: SIGNED16 is 113
			-- Declared in Windows as VK_F2

	Vk_f20: SIGNED16 is 131
			-- Declared in Windows as VK_F20

	Vk_f21: SIGNED16 is 132
			-- Declared in Windows as VK_F21

	Vk_f22: SIGNED16 is 133
			-- Declared in Windows as VK_F22

	Vk_f23: SIGNED16 is 134
			-- Declared in Windows as VK_F23

	Vk_f24: SIGNED16 is 135
			-- Declared in Windows as VK_F24

	Vk_f3: SIGNED16 is 114
			-- Declared in Windows as VK_F3

	Vk_f4: SIGNED16 is 115
			-- Declared in Windows as VK_F4

	Vk_f5: SIGNED16 is 116
			-- Declared in Windows as VK_F5

	Vk_f6: SIGNED16 is 117
			-- Declared in Windows as VK_F6

	Vk_f7: SIGNED16 is 118
			-- Declared in Windows as VK_F7

	Vk_f8: SIGNED16 is 119
			-- Declared in Windows as VK_F8

	Vk_f9: SIGNED16 is 120
			-- Declared in Windows as VK_F9

	Vk_g: SIGNED16 is 71

	Vk_h: SIGNED16 is 72

	Vk_help: SIGNED16 is 47
			-- Declared in Windows as VK_HELP

	Vk_home: SIGNED16 is 36
			-- Declared in Windows as VK_HOME

	Vk_i: SIGNED16 is 73

	Vk_insert: SIGNED16 is 45
			-- Declared in Windows as VK_INSERT

	Vk_j: SIGNED16 is 74

	Vk_k: SIGNED16 is 75

	Vk_l: SIGNED16 is 76

	Vk_lbutton: SIGNED16 is 1
			-- Declared in Windows as VK_LBUTTON

	Vk_lcontrol: SIGNED16 is 162
			-- Declared in Windows as VK_LCONTROL

	Vk_left: SIGNED16 is 37
			-- Declared in Windows as VK_LEFT

	Vk_lmenu: SIGNED16 is 164
			-- Declared in Windows as VK_LMENU

	Vk_lshift: SIGNED16 is 160
			-- Declared in Windows as VK_LSHIFT

	Vk_m: SIGNED16 is 77

	Vk_mbutton: SIGNED16 is 4
			-- Declared in Windows as VK_MBUTTON

	Vk_menu: SIGNED16 is 18
			-- Declared in Windows as VK_MENU

	Vk_multiply: SIGNED16 is 106
			-- Declared in Windows as VK_MULTIPLY

	Vk_n: SIGNED16 is 78

	Vk_next: SIGNED16 is 34
			-- Declared in Windows as VK_NEXT

	Vk_numlock: SIGNED16 is 144
			-- Declared in Windows as VK_NUMLOCK

	Vk_numpad0: SIGNED16 is 96
			-- Declared in Windows as VK_NUMPAD0

	Vk_numpad1: SIGNED16 is 97
			-- Declared in Windows as VK_NUMPAD1

	Vk_numpad2: SIGNED16 is 98
			-- Declared in Windows as VK_NUMPAD2

	Vk_numpad3: SIGNED16 is 99
			-- Declared in Windows as VK_NUMPAD3

	Vk_numpad4: SIGNED16 is 100
			-- Declared in Windows as VK_NUMPAD4

	Vk_numpad5: SIGNED16 is 101
			-- Declared in Windows as VK_NUMPAD5

	Vk_numpad6: SIGNED16 is 102
			-- Declared in Windows as VK_NUMPAD6

	Vk_numpad7: SIGNED16 is 103
			-- Declared in Windows as VK_NUMPAD7

	Vk_numpad8: SIGNED16 is 104
			-- Declared in Windows as VK_NUMPAD8

	Vk_numpad9: SIGNED16 is 105
			-- Declared in Windows as VK_NUMPAD9

	Vk_o: SIGNED16 is 79

	Vk_p: SIGNED16 is 80

	Vk_pause: SIGNED16 is 19
			-- Declared in Windows as VK_PAUSE

	Vk_print: SIGNED16 is 42
			-- Declared in Windows as VK_PRINT

	Vk_prior: SIGNED16 is 33
			-- Declared in Windows as VK_PRIOR

	Vk_q: SIGNED16 is 81

	Vk_r: SIGNED16 is 82

	Vk_rbutton: SIGNED16 is 2
			-- Declared in Windows as VK_RBUTTON

	Vk_rcontrol: SIGNED16 is 163
			-- Declared in Windows as VK_RCONTROL

	Vk_return: SIGNED16 is 13
			-- Declared in Windows as VK_RETURN

	Vk_right: SIGNED16 is 39
			-- Declared in Windows as VK_RIGHT

	Vk_rmenu: SIGNED16 is 165
			-- Declared in Windows as VK_RMENU
			-- Vk_0 thru Vk_9 are the same as their ASCII equivalents: '0' thru '9'.

	Vk_rshift: SIGNED16 is 161
			-- Declared in Windows as VK_RSHIFT

	Vk_s: SIGNED16 is 83

	Vk_scroll: SIGNED16 is 145
			-- Declared in Windows as VK_SCROLL

	Vk_select: SIGNED16 is 41
			-- Declared in Windows as VK_SELECT

	Vk_separator: SIGNED16 is 108
			-- Declared in Windows as VK_SEPARATOR

	Vk_shift: SIGNED16 is 16
			-- Declared in Windows as VK_SHIFT

	Vk_snapshot: SIGNED16 is 44nn
			-- Declared in Windows as VK_SNAPSHOT

	Vk_space: SIGNED16 is 32
			-- Declared in Windows as VK_SPACE

	Vk_subtract: SIGNED16 is 109
			-- Declared in Windows as VK_SUBTRACT

	Vk_t: SIGNED16 is 84

	Vk_tab: SIGNED16 is 9
			-- Declared in Windows as VK_TAB

	Vk_u: SIGNED16 is 85

	Vk_up: SIGNED16 is 38
			-- Declared in Windows as VK_UP

	Vk_v: SIGNED16 is 86

	Vk_w: SIGNED16 is 87

	Vk_x: SIGNED16 is 88

	Vk_y: SIGNED16 is 89

	Vk_z: SIGNED16 is 90

invariant

Sm_cmetrics: SIGNED16 is 76
Sm_cxborder: SIGNED16 is 5
Sm_cxcursor: SIGNED16 is 13
Sm_cxdlgframe: SIGNED16 is 7
Sm_cxdoubleclk: SIGNED16 is 36
Sm_cxframe: SIGNED16 is 32
Sm_cxfullscreen: SIGNED16 is 16
Sm_cxhscroll: SIGNED16 is 21
Sm_cxhthumb: SIGNED16 is 10
Sm_cxicon: SIGNED16 is 11
Sm_cxiconspacing: SIGNED16 is 38
Sm_cxmaximized: SIGNED16 is 61
Sm_cxmin: SIGNED16 is 28
Sm_cxmintrack: SIGNED16 is 34
Sm_cxscreen: SIGNED16 is 0
Sm_cxsize: SIGNED16 is 30
Sm_cxvscroll: SIGNED16 is 2
Sm_cyborder: SIGNED16 is 6
Sm_cycaption: SIGNED16 is 4
Sm_cycursor: SIGNED16 is 14
Sm_cydlgframe: SIGNED16 is 8
Sm_cydoubleclk: SIGNED16 is 37
Sm_cyframe: SIGNED16 is 33
Sm_cyfullscreen: SIGNED16 is 17
Sm_cyhscroll: SIGNED16 is 3
Sm_cyicon: SIGNED16 is 12
Sm_cyiconspacing: SIGNED16 is 39
Sm_cykanjiwindow: SIGNED16 is 18
Sm_cymaximized: SIGNED16 is 62
Sm_cymenu: SIGNED16 is 15
Sm_cymin: SIGNED16 is 29
Sm_cymintrack: SIGNED16 is 35
Sm_cyscreen: SIGNED16 is 1
Sm_cysize: SIGNED16 is 31
Sm_cyvscroll: SIGNED16 is 20
Sm_cyvthumb: SIGNED16 is 9
Sm_dbcsenabled: SIGNED16 is 42
Sm_debug: SIGNED16 is 22
Sm_menudropalignment: SIGNED16 is 40
Sm_mousepresent: SIGNED16 is 19
Sm_penwindows: SIGNED16 is 41
Sm_reserved1: SIGNED16 is 24
Sm_reserved2: SIGNED16 is 25
Sm_reserved3: SIGNED16 is 26
Sm_reserved4: SIGNED16 is 27
Sm_swapbutton: SIGNED16 is 23

indexing
description: "Window style (WS) constants."
status: "See notice at end of class."
date: "$Date: 2001/11/12 17:58:06 $"
revision: "$Revision: 1.3 $"
class interface
WEL_WS_CONSTANTS
feature -- Miscellaneous
Cw_usedefault: SIGNED16 is -2147483648
-- Declared in Windows as CW_USEDEFAULT

feature -- Basic window types
Ws_child: SIGNED16 is 1073741824
-- Declared in Windows as WS_CHILD
Ws_overlapped: SIGNED16 is 0
-- Declared in Windows as WS_OVERLAPPED
-- Was declared in WEL_WS_CONSTANTS as synonym of ws_tiled.
Ws_popup: SIGNED16 is -2147483648
-- Declared in Windows as WS_POPUP
Ws_tiled: SIGNED16 is 0
-- Declared in Windows as WS_OVERLAPPED
-- Was declared in WEL_WS_CONSTANTS as synonym of ws_overlapped.

feature -- Clipping styles
Ws_clipchildren: SIGNED16 is 33554432
-- Declared in Windows as WS_CLIPCHILDREN
Ws_clipsiblings: SIGNED16 is 67108864
-- Declared in Windows as WS_CLIPSIBLINGS

feature -- Common window styles
Ws_childwindow: SIGNED16 is 1073741824
-- Declared in Windows as WS_CHILDWINDOW
Ws_overlappedwindow: SIGNED16 is 13565952
-- Declared in Windows as WS_OVERLAPPEDWINDOW
-- Was declared in WEL_WS_CONSTANTS as synonym of ws_tiledwindow.
Ws_popupwindow: SIGNED16 is -2138570752
-- Declared in Windows as WS_POPUPWINDOW
Ws_tiledwindow: SIGNED16 is 13565952
-- Declared in Windows as WS_OVERLAPPEDWINDOW
-- Was declared in WEL_WS_CONSTANTS as synonym of ws_overlappedwindow.

feature -- Control window styles
Ws_group: SIGNED16 is 131072
-- Declared in Windows as WS_GROUP
Ws_tabstop: SIGNED16 is 65536
-- Declared in Windows as WS_TABSTOP

feature -- Extended window styles
Ws_ex_acceptfiles: SIGNED16 is 16
-- Declared in Windows as WS_EX_ACCEPTFILES
Ws_ex_clientedge: SIGNED16 is 512
-- Declared in Windows as WS_EX_CLIENTEDGE
Ws_ex_contexthelp: SIGNED16 is 1024
-- Declared in Windows as WS_EX_CONTEXTHELP
Ws_ex_controlparent: SIGNED16 is 65536
-- Declared in Windows as WS_EX_CONTROLPARENT
Ws_ex_dlgmodalframe: SIGNED16 is 1
-- Declared in Windows as WS_EX_DLGMODALFRAME
Ws_ex_left: SIGNED16 is 0
-- Declared in Windows as WS_EX_LEFT
Ws_ex_leftscrollbar: SIGNED16 is 16384
-- Declared in Windows as WS_EX_LEFTSCROLLBAR
Ws_ex_ltrreading: SIGNED16 is 0
-- Declared in Windows as WS_EX_LTRREADING
Ws_ex_mdichild: SIGNED16 is 64
-- Declared in Windows as WS_EX_MDICHILD
Ws_ex_noparentnotify: SIGNED16 is 4
-- Declared in Windows as WS_EX_NOPARENTNOTIFY
Ws_ex_overlappedwindow: SIGNED16 is 768
-- Declared in Windows as WS_EX_OVERLAPPEDWINDOW
Ws_ex_palettewindow: SIGNED16 is 392
-- Declared in Windows as WS_EX_PALETTEWINDOW
Ws_ex_right: SIGNED16 is 4096
-- Declared in Windows as WS_EX_RIGHT
Ws_ex_rightscrollbar: SIGNED16 is 0
-- Declared in Windows as WS_EX_RIGHTSCROLLBAR
Ws_ex_rtlreading: SIGNED16 is 8192
-- Declared in Windows as WS_EX_RTLREADING
Ws_ex_staticedge: SIGNED16 is 131072
-- Declared in Windows as WS_EX_STATICEDGE
Ws_ex_toolwindow: SIGNED16 is 128
-- Declared in Windows as WS_EX_TOOLWINDOW
Ws_ex_topmost: SIGNED16 is 8
-- Declared in Windows as WS_EX_TOPMOST
Ws_ex_transparent: SIGNED16 is 32
-- Declared in Windows as WS_EX_TRANSPARENT
Ws_ex_windowedge: SIGNED16 is 256
-- Declared in Windows as WS_EX_WINDOWEDGE

feature -- Generic window states
Ws_disabled: SIGNED16 is 134217728
-- Declared in Windows as WS_DISABLED
Ws_visible: SIGNED16 is 268435456
-- Declared in Windows as WS_VISIBLE

feature -- Main window states
Ws_iconic: SIGNED16 is 536870912
-- Declared in Windows as WS_MINIMIZE
-- Was declared in WEL_WS_CONSTANTS as synonym of ws_minimize.
Ws_maximize: SIGNED16 is 16777216
-- Declared in Windows as WS_MAXIMIZE
Ws_minimize: SIGNED16 is 536870912
-- Declared in Windows as WS_MINIMIZE
-- Was declared in WEL_WS_CONSTANTS as synonym of ws_iconic.

feature -- Main window styles
Ws_border: SIGNED16 is 8388608
-- Declared in Windows as WS_BORDER
Ws_caption: SIGNED16 is 12582912
-- Declared in Windows as WS_CAPTION
Ws_dlgframe: SIGNED16 is 4194304
-- Declared in Windows as WS_DLGFRAME
Ws_hscroll: SIGNED16 is 1048576
-- Declared in Windows as WS_HSCROLL
Ws_maximizebox: SIGNED16 is 65536
-- Declared in Windows as WS_MAXIMIZEBOX
Ws_minimizebox: SIGNED16 is 131072
-- Declared in Windows as WS_MINIMIZEBOX
Ws_sizebox: SIGNED16 is 262144
-- Declared in Windows as WS_THICKFRAME
-- Was declared in WEL_WS_CONSTANTS as synonym of ws_thickframe.
Ws_sysmenu: SIGNED16 is 524288
-- Declared in Windows as WS_SYSMENU
Ws_thickframe: SIGNED16 is 262144
-- Declared in Windows as WS_THICKFRAME
-- Was declared in WEL_WS_CONSTANTS as synonym of ws_sizebox.
Ws_vscroll: SIGNED16 is 2097152
-- Declared in Windows as WS_VSCROLL

invariant
-- from ANY
reflexive_equality: standard_is_equal (Current)
reflexive_conformance: conforms_to (Current)
end -- class WEL_WS_CONSTANTS

indexing
description: "Size (SIZEOF) constants."
status: "See notice at end of class."
date: "$Date: 2001/11/12 17:58:04 $"
revision: "$Revision: 1.3 $"
class interface
WEL_SIZEOF_CONSTANTS
feature -- Access
Size_maxhide: SIGNED16 is 4
-- Declared in Windows as SIZEOF_MAXHIDE
Size_maximized: SIGNED16 is 2
-- Declared in Windows as SIZEOF_MAXIMIZED
Size_maxshow: SIGNED16 is 3
-- Declared in Windows as SIZEOF_MAXSHOW
Size_minimized: SIGNED16 is 1
-- Declared in Windows as SIZEOF_MINIMIZED
Size_restored: SIGNED16 is 0
-- Declared in Windows as SIZEOF_RESTORED

invariant
-- from ANY
reflexive_equality: standard_is_equal (Current)
reflexive_conformance: conforms_to (Current)
end -- class WEL_SIZEOF_CONSTANTS


SetPriorityClass

The SetPriorityClass function sets the priority class for the specified process. This value together with the priority value of each thread of the process determines each thread's base priority level.

BOOLSetPriorityClass(HANDLEhProcess, DWORDdwPriorityClass);

Parameters
hProcess
[in] Handle to the process. The handle must have the PROCESS_SET_INFORMATION access right. For more information, see Process Security and Access Rights.

dwPriorityClass
[in] Priority class for the process. This parameter can be one of the following values. Priority
Meaning
ABOVE_NORMAL_PRIORITY_CLASS
Process that has priority above NORMAL_PRIORITY_CLASS but below HIGH_PRIORITY_CLASS.
Windows NT and Windows Me/98/95:  This value is not supported.

BELOW_NORMAL_PRIORITY_CLASS
Process that has priority above IDLE_PRIORITY_CLASS but below NORMAL_PRIORITY_CLASS.
Windows NT and Windows Me/98/95:  This value is not supported.

HIGH_PRIORITY_CLASS
Process that performs time-critical tasks that must be executed immediately. The threads of the process preempt the threads of normal or idle priority class processes. An example is the Task List, which must respond quickly when called by the user, regardless of the load on the operating system. Use extreme care when using the high-priority class, because a high-priority class application can use nearly all available CPU time.
IDLE_PRIORITY_CLASS
Process whose threads run only when the system is idle. The threads of the process are preempted by the threads of any process running in a higher priority class. An example is a screen saver. The idle-priority class is inherited by child processes.
NORMAL_PRIORITY_CLASS
Process with no special scheduling needs.
REALTIME_PRIORITY_CLASS
Process that has the highest possible priority. The threads of the process preempt the threads of all other processes, including operating system processes performing important tasks. For example, a real-time process that executes for more than a very brief interval can cause disk caches not to flush or cause the mouse to be unresponsive.



Return Values
If the function succeeds, the return value is nonzero.
If the function fails, the return value is zero. To get extended error information, call GetLastError.
Remarks
Every thread has a base priority level determined by the thread's priority value and the priority class of its process. The system uses the base priority level of all executable threads to determine which thread gets the next slice of CPU time. The SetThreadPriority function enables setting the base priority level of a thread relative to the priority class of its process. For more information, see Scheduling Priorities.
Requirements
Client: Included in Windows XP, Windows 2000 Professional, Windows NT Workstation, Windows Me, Windows 98, and Windows 95.
Server: Included in Windows Server 2003, Windows 2000 Server, and Windows NT Server.
Header: Declared in Winbase.h; include Windows.h.
Library: Use Kernel32.lib.

See Also
CreateProcess, CreateThread, GetPriorityClass, GetThreadPriority, Process and Thread Functions, Processes and Threads Overview, SetThreadPriority

   Normal_Priority_Class   : constant := 16#00000020#;
   Idle_Priority_Class     : constant := 16#00000040#;
   High_Priority_Class     : constant := 16#00000080#;
   Realtime_Priority_Class : constant := 16#00000100#; hex numbers !

   ' Flags returned by LocalFlags (in addition to LMEM_DISCARDABLE)
Const LMEM_DISCARDED = &H4000
Const LMEM_LOCKCOUNT = &HFF
'  dwCreationFlag values
Const DEBUG_PROCESS = &H1
Const DEBUG_ONLY_THIS_PROCESS = &H2
Const CREATE_SUSPENDED = &H4
Const DETACHED_PROCESS = &H8
Const CREATE_NEW_CONSOLE = &H10
Const NORMAL_PRIORITY_CLASS = &H20
Const IDLE_PRIORITY_CLASS = &H40
Const HIGH_PRIORITY_CLASS = &H80
Const REALTIME_PRIORITY_CLASS = &H100
*)


(* ObrabotajjCifroBukvy. Для кнопок, которые служат для ввода букв и цифр
	  и которые должны иметь разный регистр. Мы обрабатываем их сами, а сообщение
	  WM_CHAR, которое Windows пришлёт позже, мы проигнорируем. Нам нужно, чтобы
	  эти кнопки всегда были латиницей и в правильном регистре. В кириллицу их позже
	  переведёт IME от A2, если в A2 включена кириллица. Также мы должны игнорировать 
	  сочетания с Control и Alt, для этого мы ставим KeyHandled := FALSE; *)
