модуль WMProperties; (** AUTHOR "TF"; PURPOSE "Properties" *)

использует
	WMRectangles, WMGraphics, Strings, Localization, Repositories, WMEvents, Locks, XML, XMLObjects, Потоки, Commands, Modules, ЛогЯдра, Models, Types, UCS32;

тип
	String = Strings.String;

	Property* = окласс
	перем
		name, info : String;
		prototype : Property;
		nonDefault : булево;
		list : PropertyList; (* contains the list, the property is added to *)
		timestamp : цел32; (* incremented when property state is changed; *)
		repository: Repositories.Repository;

		object : Repositories.Component;

		repositoryName : Strings.String;
		componentName : Strings.String;
		generator : Strings.String;
		componentID : размерМЗ;

		inLinkUpdate: булево;

		проц &New*(prototype : Property; name, info : String);
		нач
			сам.name := name;
			сам.info := info;
			сам.prototype := prototype;
			nonDefault := ложь;
			list := НУЛЬ;
			timestamp := 0;
		кон New;

		проц ReplaceLink*(object: Repositories.Component);
		нач
			если сам.object # object то
				если (сам.object # НУЛЬ) то сам.object.onChanged.Remove(LinkChanged) всё;
				сам.object := object;
				если object # НУЛЬ то object.onChanged.Add(LinkChanged); LinkChanged(сам, object)  всё;
			всё;
		кон ReplaceLink;

		проц LinkChanged(sender, object: динамическиТипизированныйУкль);
		нач
			AcquireWrite;
			inLinkUpdate := истина;
			UpdateProperty;
			inLinkUpdate := ложь;
			ReleaseWrite;
		кон LinkChanged;

		проц SetLinkAsString*(конст string : массив из симв8);
		перем repositoryName : массив 256 из симв8; componentName : массив 128 из симв8; componentID : размерМЗ;
		context : Repositories.Context; res : целМЗ; object: Repositories.Component;
		нач
			если Repositories.IsCommandString(string) то
				AcquireWrite;
				сам.repositoryName := НУЛЬ;
				сам.componentName := НУЛЬ;
				сам.componentID := 0;
				сам.generator := Strings.NewString(string);
				ReplaceLink(НУЛЬ);
				NotDefault;
				Changed;
				ReleaseWrite;
			аесли Repositories.SplitName(string, repositoryName, componentName, componentID) то
				AcquireWrite;
				если repositoryName # "" то
					сам.repositoryName := Strings.NewString(repositoryName);
				иначе (*ASSERT(repository # NIL);*)
				всё;
				сам.componentName := Strings.NewString(componentName);
				сам.componentID := componentID;
				сам.generator := НУЛЬ;
				ReplaceLink(НУЛЬ); (* invalidate reference *)
				NotDefault;
				Changed;
				ReleaseWrite;
			иначе
				Reset;
			всё;
		кон SetLinkAsString;

		проц GetLinkAsString*(перем string : массив из симв8);
		перем nbrStr : массив 16 из симв8;
		нач
			AcquireRead;
			если (сам.generator # НУЛЬ) то
				копируйСтрокуДо0(сам.generator^, string);
			аесли (repositoryName # НУЛЬ) и (componentName # НУЛЬ) то
				копируйСтрокуДо0(repositoryName^, string); Strings.Append(string, Repositories.Delimiter);
				Strings.Append(string, componentName^); Strings.Append(string, Repositories.Delimiter);
				Strings.IntToStr(componentID, nbrStr); Strings.Append(string, nbrStr);
			иначе
				string := "";
			всё;
			ReleaseRead;
		кон GetLinkAsString;

		проц IsLink(p: динамическиТипизированныйУкль): булево;
		перем s:Strings.String; xml: XML.Element; en:XMLObjects.Enumerator;
		нач
			если (p суть XML.Element) то
				xml := p(XML.Element);
				s := xml.GetName();
				если s # НУЛЬ то
					если s^ = "Object" то
						en := xml.GetContents();
						p := en.GetNext();
						NotDefault;
						если (p # НУЛЬ ) и (p суть XML.Chars) то
							s := p(XML.Chars).GetStr();
							если s # НУЛЬ то
								Strings.Trim(s^, " ");
								SetLinkAsString(s^);
								object := GetLink();
								возврат истина
							всё
						аесли (p # НУЛЬ) и (p суть XML.Element) то
							ReplaceLink( Repositories.ComponentFromXML(p(XML.Element)));
							object := GetLink();
							возврат истина
						всё
					всё;
				всё;
			всё;
			возврат ложь
		кон IsLink;

		проц WriteLink*(w : Потоки.Писарь; context: динамическиТипизированныйУкль;  indent : цел32): булево;
		перем name : String; id: размерМЗ; res: целМЗ; repository: Repositories.Repository; objectName: String;
		нач
			если object # НУЛЬ то
				Indent(w, indent);
				(*level := indent+1;*)
				w.пСимв8("<"); w.пСтроку8("Object"); w.пСимв8(">");
				если (context # НУЛЬ) и (context суть Repositories.StoreContext) то
					repository := context(Repositories.StoreContext).repository;
					id := 1;
					objectName := object.GetName();
					если (objectName=НУЛЬ) или (objectName^="") то objectName :=anonymous всё;
					repository.PutComponent(object, objectName^,id,res);
					w.пСтроку8(":"); (* <-- THIS repository *) w.пСтроку8(objectName^); w.пСтроку8(":"); w.пЦел64(id, 0);
				иначе
					ToStream(w);
				всё;
				w.пСтроку8("</"); w.пСтроку8("Object"); w.пСимв8(">"); w.пВК_ПС;
				возврат истина
			всё;
			возврат ложь;
		кон WriteLink;

		проц UpdateModel;
		нач
		кон UpdateModel;

		проц UpdateProperty;
		нач
		кон UpdateProperty;

		проц SetLink*(object : Repositories.Component);
		нач
			AcquireWrite; (* TBD: Store object to repository *)
			если (сам.object # object) то ReplaceLink(object); Changed
			аесли ~ nonDefault то Changed всё;
			NotDefault;
			ReleaseWrite;
		кон SetLink;

		проц GetLink*() : Repositories.Component;
		перем object : Repositories.Component; context : Repositories.Context; res : целМЗ;
		нач
			AcquireRead;
			object := сам.object;
			ReleaseRead;
			(* late time generation of object for supporting of loading repositories *)
			если (object = НУЛЬ) то
				если (generator # НУЛЬ) то
					Repositories.CallCommand(generator^, context, res);
					если (res = Repositories.Ok) и (context.object # НУЛЬ) и (context.object суть Repositories.Component) то
						object := context.object(Repositories.Component);
						SetLink(object)
					всё;
				аесли (repositoryName # НУЛЬ) и (componentName # НУЛЬ) то
					Repositories.GetComponent(repositoryName^, componentName^, componentID, object, res);
					SetLink(object);
				аесли (componentName # НУЛЬ) и (repository # НУЛЬ) то
					object := repository.GetComponent(componentName^, componentID);
					SetLink(object);
				всё;
			всё;
			возврат object
		кон GetLink;



		проц SetPrototype*(prototype : Property);
		нач
			сам.prototype := prototype;
			Stamp;
		кон SetPrototype;

		проц HasPrototype*() : булево;
		нач
			возврат prototype # НУЛЬ
		кон HasPrototype;

		(** Meta-data *)
		проц GetInfo*() : String;
		нач
			если info # НУЛЬ то возврат info
			аесли prototype # НУЛЬ то возврат prototype.GetInfo()
			иначе возврат НУЛЬ
			всё
		кон GetInfo;

		проц GetName*() : String;
		нач
			если name # НУЛЬ то возврат name
			аесли prototype # НУЛЬ то возврат prototype.GetName()
			иначе возврат НУЛЬ
			всё
		кон GetName;

		проц Stamp*;
		нач (* need protection? *)
			увел(timestamp)
		кон Stamp;

		проц GetTimestamp*() : цел32;
		нач
			возврат timestamp;
		кон GetTimestamp;

		проц Reset*;
		нач
			AcquireWrite;
			если nonDefault то nonDefault := ложь; Changed всё;
			ReleaseWrite
		кон Reset;

		проц Changed*; (** PROTECTED *)
		нач
			если list # НУЛЬ то list.Changed(сам) всё;
			Stamp;
		кон Changed;

		проц AcquireWrite*;
		нач
			если list # НУЛЬ то list.AcquireWrite всё
		кон AcquireWrite;

		проц ReleaseWrite*;
		нач
			если list # НУЛЬ то list.ReleaseWrite всё
		кон ReleaseWrite;

		проц AcquireRead*;
		нач
			если list # НУЛЬ то list.AcquireRead всё
		кон AcquireRead;

		проц ReleaseRead*;
		нач
			если list # НУЛЬ то list.ReleaseRead всё
		кон ReleaseRead;

		проц NotDefault*; (** PROTECTED *)
		нач
			если (nonDefault = ложь) то
				nonDefault := истина;
				Stamp;
			всё;
		кон NotDefault;

		проц GetIsDefault*() :  булево;
		нач
			возврат ~nonDefault
		кон GetIsDefault;

		проц FromStream*(r : Потоки.Чтец); (** ABSTRACT *)
		кон FromStream;

		проц ToStream*(w : Потоки.Писарь); (** ABSTRACT *)
		кон ToStream;

		проц FromXML*(xml : XML.Element);
		кон FromXML;

		проц ToXML*(перем element: XML.Element);
		перем name: String;
		нач
			name := GetName();
			нов(element); если name # НУЛЬ то element.SetName(name^); всё;
		кон ToXML;

		проц WriteXML*(w : Потоки.Писарь; context: динамическиТипизированныйУкль; indent : цел32);
		кон WriteXML;

		проц Finalize*;
		нач
		кон Finalize;

	кон Property;

тип

	BooleanProperty* = окласс(Property)
	перем
		value : булево;

		проц {перекрыта}FromStream*(r : Потоки.Чтец);
		перем token : массив 5 из симв8; v : булево;
		нач
			AcquireWrite;
			NotDefault;
			r.чЦепочкуСимв8ДоБелогоПоля(token); Strings.UpperCase(token); v := token = "TRUE";
			если v # value то value := v; Changed всё;
			ReleaseWrite
		кон FromStream;

		проц {перекрыта}ToStream*(w : Потоки.Писарь);
		нач
			AcquireRead;
			если Get() то w.пСтроку8("true") иначе w.пСтроку8("false") всё;
			ReleaseRead
		кон ToStream;

		проц {перекрыта}UpdateProperty;
		перем boolean: Types.Boolean; model: Models.Model; res: целМЗ;
		нач
			если GetModel(object, model) то
				 model.GetGeneric(boolean, res);
				 если res = 0 то Set(boolean.value) всё;
			всё;
		кон UpdateProperty;

		проц {перекрыта}UpdateModel;
		перем type: Types.Boolean; model: Models.Model; res: целМЗ;
		нач
			если inLinkUpdate то возврат всё;
			если GetModel(object, model) то
				type.value := value;
				model.SetGeneric(type, res);
			всё;
		кон UpdateModel;


		проц Get*() : булево;
		перем r : булево;
		нач
			AcquireRead;
			если nonDefault или (prototype = НУЛЬ) то r := value
			иначе r := prototype(BooleanProperty).Get()
			всё;
			ReleaseRead;
			возврат r
		кон Get;

		проц Set*(value : булево);
		нач
			AcquireWrite;
			если value # сам.value то сам.value := value; Changed;
				если (object # НУЛЬ) то UpdateModel всё;
			аесли ~ nonDefault то Changed всё;
			NotDefault;
			ReleaseWrite;
		кон Set;

		проц SetPassive*(value: булево);
		нач
			AcquireWrite;
			если value # сам.value то
				сам.value := value;
				NotDefault;
			всё;
			ReleaseWrite
		кон SetPassive;

		проц {перекрыта}FromXML*(xml : XML.Element);
		перем en : XMLObjects.Enumerator; p : динамическиТипизированныйУкль; s : String;
		нач
			en := xml.GetContents();
			p := en.GetNext();
			value := ложь; NotDefault;
			если IsLink(p) то
			аесли p суть XML.Chars то
				s := p(XML.Chars).GetStr();
				если s # НУЛЬ то
					Strings.Trim(s^, " "); Strings.LowerCase(s^);
					Set(s^ = "true")
				всё
			всё;
		кон FromXML;

		проц {перекрыта}ToXML*(перем element: XML.Element);
		перем chars: XML.ArrayChars; s: String;
		нач
			если (GetName # НУЛЬ) и nonDefault то
				ToXML^(element);
				element.SetAttributeValue("loader","WMProperties.NewBoolean");
				нов(chars); element.AddContent(chars);
				если Get() то chars.SetStr("true") иначе chars.SetStr("false") всё;
				s := GetName();
			всё;
		кон ToXML;

		проц {перекрыта}WriteXML*(w : Потоки.Писарь; context: динамическиТипизированныйУкль; indent : цел32);
		перем name : String;
		нач
			name := GetName();
			если name = НУЛЬ то ЛогЯдра.пСтроку8("Nameless boolean property encountered. Ignored"); ЛогЯдра.пВК_ПС; возврат всё;
			если nonDefault то
				Indent(w, indent);
				w.пСимв8("<"); w.пСтроку8(name^); w.пСтроку8(' loader="WMProperties.NewBoolean"'); w.пСимв8(">");
				если ~WriteLink(w,context,indent) то
					если value то w.пСтроку8("true") иначе w.пСтроку8("false") всё;
				всё;
				w.пСтроку8("</"); w.пСтроку8(name^); w.пСимв8(">"); w.пВК_ПС;
			всё
		кон WriteXML;

	кон BooleanProperty;


тип

	SetProperty* = окласс(Property)
	перем
		value : мнвоНаБитахМЗ;

		проц IntToSet(h:цел32):мнвоНаБитахМЗ;
		перем i:цел32; set:мнвоНаБитахМЗ;
		нач
			i:=0;
			нцПока h#0 делай
				если h остОтДеленияНа 2=1 то включиВоМнвоНаБитах(set,i) всё;
				h:=h DIV 2;
				увел(i);
			кц;
			возврат set;
		кон IntToSet;

		проц SetToInt(set:мнвоНаБитахМЗ):цел64;
		перем i:цел32; int:цел64; s: String;
		нач
			нов(s, 18);
			нцДля i:=31 до 0 шаг -1 делай
				int:=int * 2;
				если i в set то увел(int) всё;
			кц;
			возврат int
		кон SetToInt;

		проц {перекрыта}FromStream*(r : Потоки.Чтец);
		перем token : массив 10 из симв8; v : мнвоНаБитахМЗ; i:цел32; res: целМЗ;
		нач
			AcquireWrite;
			NotDefault;
			r.чЦепочкуСимволов8ДоБелогоПоляИлиВКавычках(token); Strings.HexStrToInt(token,i,res);
			если res=Strings.Ok то
				v:=IntToSet(i);
				если v # value то value := v; Changed всё;
			всё;
			ReleaseWrite
		кон FromStream;


(*! to discuss: should a SET be written explicitely ? readability  vs overhead*)
		проц {перекрыта}ToStream*(w : Потоки.Писарь);
		перем s:массив 10 из симв8;
		нач
			AcquireRead;
			Strings.IntToHexStr(SetToInt(Get()),8,s);
			Strings.AppendChar(s,"H");
			w.пСтроку8(s);
			ReleaseRead
		кон ToStream;

		проц {перекрыта}UpdateProperty;
		перем boolean: Types.Set; model: Models.Model; res: целМЗ;
		нач
			если GetModel(object, model) то
				 model.GetGeneric(boolean, res);
				 если res = 0 то Set(boolean.value) всё;
			всё;
		кон UpdateProperty;

		проц {перекрыта}UpdateModel;
		перем type: Types.Set; model: Models.Model; res: целМЗ;
		нач
			если inLinkUpdate то возврат всё;
			если GetModel(object, model) то
				type.value := value;
				model.SetGeneric(type, res);
			всё;
		кон UpdateModel;

		проц Get*() : мнвоНаБитахМЗ;
		перем r : мнвоНаБитахМЗ;
		нач
			AcquireRead;
			если nonDefault или (prototype = НУЛЬ) то r := value
			иначе r := prototype(SetProperty).Get()
			всё;
			ReleaseRead;
			возврат r
		кон Get;

		проц Set*(value : мнвоНаБитахМЗ);
		нач
			AcquireWrite;
			если value # сам.value то
				сам.value := value;
				если (object # НУЛЬ) то UpdateModel всё;
				Changed
			аесли ~ nonDefault то Changed всё;
			NotDefault;
			ReleaseWrite;
		кон Set;

		(* set without updates -- use only when you definitely want to avoid updates *)
		проц SetPassive*(value: мнвоНаБитахМЗ);
		нач
			AcquireWrite;
			если value # сам.value то
				сам.value := value;
				NotDefault;
			всё;
			ReleaseWrite
		кон SetPassive;


(*! to discuss: should a SET be written explicitely - readability at cost of overhead*)
		проц {перекрыта}FromXML*(xml : XML.Element);
		перем en : XMLObjects.Enumerator; p : динамическиТипизированныйУкль; s : String; i:цел32;
		нач
			en := xml.GetContents();
			p := en.GetNext();
			NotDefault;
			если IsLink(p) то
			аесли p суть XML.Chars то
				s := p(XML.Chars).GetStr();
				если s # НУЛЬ то
					Strings.Trim(s^, " ");
					Strings.StrToInt(s^,i);
					Set(IntToSet(i))
				всё
			всё
		кон FromXML;

		проц {перекрыта}ToXML*(перем element: XML.Element);
		перем chars: XML.ArrayChars;s: массив 10 из симв8;
		нач
			если (GetName # НУЛЬ) и nonDefault то
				ToXML^(element);
				element.SetAttributeValue("loader","WMProperties.NewSet");
				нов(chars); element.AddContent(chars);
				Strings.IntToHexStr(SetToInt(value),8,s); Strings.AppendChar(s,"H");
				chars.SetStr(s);
			всё;
		кон ToXML;


		проц {перекрыта}WriteXML*(w : Потоки.Писарь; context: динамическиТипизированныйУкль; indent : цел32);
		перем name : String; s: массив 10 из симв8;
		нач
			name := GetName();
			если name = НУЛЬ то ЛогЯдра.пСтроку8("Nameless boolean property encountered. Ignored"); ЛогЯдра.пВК_ПС; возврат всё;
			если nonDefault то
				Indent(w, indent);
				w.пСимв8("<"); w.пСтроку8(name^); w.пСтроку8(' loader="WMProperties.NewSet"'); w.пСимв8(">");
				если ~WriteLink(w,context,indent) то
					Strings.IntToHexStr(SetToInt(value),8,s); Strings.AppendChar(s,"H");
					w.пСтроку8(s);
				всё;
				w.пСтроку8("</"); w.пСтроку8(name^); w.пСимв8(">"); w.пВК_ПС;
			всё
		кон WriteXML;

	кон SetProperty;


тип
	(** Accessor property to an integer value. The range of possible values can be restricted. *)
	Int32Property* = окласс(Property)
	перем
		value : цел32;
		min, max : цел32;
		bounded : булево;

		проц {перекрыта}UpdateProperty;
		перем integer: Types.Integer; model: Models.Model; res: целМЗ;
		нач
			если GetModel(object, model) то
				 model.GetGeneric(integer, res);
				 если res = 0 то Set(integer.value) всё;
			всё;
		кон UpdateProperty;

		проц {перекрыта}UpdateModel;
		перем type: Types.Integer; model: Models.Model; res: целМЗ;
		нач
			если inLinkUpdate то возврат всё;
			если GetModel(object, model) то
				type.value := value;
				model.SetGeneric(type, res);
			всё;
		кон UpdateModel;

		(** Confines the possible input values between min and max. Implicitly activates the bounds check. If the current value
			lies outside the bounds, it is truncated to the nearest and a change notification is sent after the end of the transaction. *)
		проц SetBounds*(min, max : цел32);
		нач
			AcquireWrite;
			сам.min := min; сам.max := max; bounded := истина;
			Stamp;
			Set(value);
			ReleaseWrite
		кон SetBounds;

		проц GetBounds*(перем min, max : цел32);
		нач
			AcquireRead;
			min := сам.min; max := сам.max;
			ReleaseRead;
		кон GetBounds;

		(** enables or disables the bounds of the value. If enabled, a change notification is sent if the current value had to be
			changed to lie within the bounds *)
		проц SetIsBounded*(isBounded : булево);
		нач
			AcquireWrite;
			если isBounded # bounded то
				bounded := isBounded;
				Stamp;
				Set(value);
			всё;
			ReleaseWrite
		кон SetIsBounded;

		проц GetIsBounded*(перем isBounded : булево);
		нач
			AcquireRead;
			isBounded := bounded;
			ReleaseRead;
		кон GetIsBounded;

		проц Validate(v : цел32) : цел32;
		нач
			если bounded то возврат матМаксимум(min, матМинимум(max, v))
			иначе возврат v
			всё
		кон Validate;

		проц {перекрыта}FromStream*(r : Потоки.Чтец);
		перем v : цел32;
		нач
			AcquireWrite;
			r.чЦел32(v, истина);
			Set(v);
			ReleaseWrite
		кон FromStream;

		проц {перекрыта}ToStream*(w : Потоки.Писарь);
		нач
			AcquireRead;
			w.пЦел64(value, 0);
			ReleaseRead
		кон ToStream;

		проц Get*() : цел32;
		перем r : цел32;
		нач
			AcquireRead;
			если nonDefault или (prototype = НУЛЬ) то r := value
			иначе r := prototype(Int32Property).Get()
			всё;
			ReleaseRead;
			возврат r
		кон Get;


		проц Set*(value : цел32);
		перем v: цел32;
		нач
			v := Validate(value);
			AcquireWrite;
			если v # сам.value то
				сам.value := v;
				Changed;
				если object # НУЛЬ то UpdateModel всё;
			аесли ~nonDefault то
				Changed;
			всё;
			NotDefault;
			ReleaseWrite
		кон Set;

		проц SetPassive*(value : цел32);
		перем v: цел32;
		нач
			v := Validate(value);
			AcquireWrite;
			если v # сам.value то
				сам.value := v;
				NotDefault;
			всё;
			ReleaseWrite
		кон SetPassive;


		проц {перекрыта}FromXML*(xml : XML.Element);
		перем
			en : XMLObjects.Enumerator;
			p : динамическиТипизированныйУкль;
			s, mins, maxs : String;
		нач
			AcquireWrite; NotDefault;
			mins := xml.GetAttributeValue("min");
			maxs := xml.GetAttributeValue("max");
			если mins # НУЛЬ то Strings.StrToInt(mins^, min) иначе min := матМинимум(цел32) всё;
			если maxs # НУЛЬ то Strings.StrToInt(maxs^, max) иначе max := матМаксимум(цел32) всё;
			bounded := (mins # НУЛЬ) или (maxs # НУЛЬ);
			en := xml.GetContents();
			если en.HasMoreElements() то
				p := en.GetNext();
				если IsLink(p) то
				аесли p суть XML.Chars то
					s := p(XML.Chars).GetStr();
					если s # НУЛЬ то Strings.StrToInt(s^, value); Set(value) всё
				всё
			всё;
			Stamp;
			ReleaseWrite
		кон FromXML;

		проц {перекрыта}ToXML*(перем element: XML.Element);
		перем chars: XML.ArrayChars;s: массив 20 из симв8;
		нач
			если (GetName # НУЛЬ) и nonDefault то
				ToXML^(element);
				element.SetAttributeValue("loader","WMProperties.NewInt32");
				element.AddContent(NewIntChars(value));
			всё;
		кон ToXML;

		проц {перекрыта}WriteXML*(w : Потоки.Писарь; context: динамическиТипизированныйУкль;  indent : цел32);
		перем name : String;
		нач
			name := GetName();
			если name = НУЛЬ то ЛогЯдра.пСтроку8("Nameless Int32 property encountered. Ignored"); ЛогЯдра.пВК_ПС; возврат всё;
			если nonDefault то
				Indent(w, indent);
				w.пСимв8("<"); w.пСтроку8(name^); w.пСтроку8(' loader="WMProperties.NewInt32"'); w.пСимв8(">");
				если ~WriteLink(w,context,indent) то
					w.пЦел64(value, 0);
				всё;
				w.пСтроку8("</"); w.пСтроку8(name^); w.пСимв8(">"); w.пВК_ПС
			всё
		кон WriteXML;

	кон Int32Property;

тип
	(** Accessor property to an integer value. The range of possible values can be restricted. *)
	IntegerProperty* = окласс(Property)
	перем
		value : цел64;
		min, max : цел64;
		bounded : булево;

		проц {перекрыта}UpdateProperty;
		перем integer: Types.Hugeint; model: Models.Model; res: целМЗ;
		нач
			если GetModel(object, model) то
				 model.GetGeneric(integer, res);
				 если res = 0 то Set(integer.value) всё;
			всё;
		кон UpdateProperty;

		проц {перекрыта}UpdateModel;
		перем type: Types.Hugeint; model: Models.Model; res: целМЗ;
		нач
			если inLinkUpdate то возврат всё;
			если GetModel(object, model) то
				type.value := value;
				model.SetGeneric(type, res);
			всё;
		кон UpdateModel;

		(** Confines the possible input values between min and max. Implicitly activates the bounds check. If the current value
			lies outside the bounds, it is truncated to the nearest and a change notification is sent after the end of the transaction. *)
		проц SetBounds*(min, max : цел64);
		нач
			AcquireWrite;
			сам.min := min; сам.max := max; bounded := истина;
			Stamp;
			Set(value);
			ReleaseWrite
		кон SetBounds;

		проц GetBounds*(перем min, max : цел64);
		нач
			AcquireRead;
			min := сам.min; max := сам.max;
			ReleaseRead;
		кон GetBounds;

		(** enables or disables the bounds of the value. If enabled, a change notification is sent if the current value had to be
			changed to lie within the bounds *)
		проц SetIsBounded*(isBounded : булево);
		нач
			AcquireWrite;
			если isBounded # bounded то
				bounded := isBounded;
				Stamp;
				Set(value);
			всё;
			ReleaseWrite
		кон SetIsBounded;

		проц GetIsBounded*(перем isBounded : булево);
		нач
			AcquireRead;
			isBounded := bounded;
			ReleaseRead;
		кон GetIsBounded;

		проц Validate(v : цел64) : цел64;
		нач
			если bounded то возврат матМаксимум(min, матМинимум(max, v))
			иначе возврат v
			всё
		кон Validate;

		проц {перекрыта}FromStream*(r : Потоки.Чтец);
		перем v : цел64;
		нач
			AcquireWrite;
			r.чЦел64(v, истина);
			Set(v);
			ReleaseWrite
		кон FromStream;

		проц {перекрыта}ToStream*(w : Потоки.Писарь);
		нач
			AcquireRead;
			w.пЦел64(value, 0);
			ReleaseRead
		кон ToStream;

		проц Get*() : цел64;
		перем r : цел64;
		нач
			AcquireRead;
			если nonDefault или (prototype = НУЛЬ) то r := value
			иначе r := prototype(IntegerProperty).Get()
			всё;
			ReleaseRead;
			возврат r
		кон Get;


		проц Set*(value : цел64);
		перем v: цел64;
		нач
			v := Validate(value);
			AcquireWrite;
			если v # сам.value то
				сам.value := v;
				Changed;
				если object # НУЛЬ то UpdateModel всё;
			аесли ~nonDefault то
				Changed;
			всё;
			NotDefault;
			ReleaseWrite
		кон Set;

		проц SetPassive*(value : цел64);
		перем v: цел64;
		нач
			v := Validate(value);
			AcquireWrite;
			если v # сам.value то
				сам.value := v;
				NotDefault;
			всё;
			ReleaseWrite
		кон SetPassive;


		проц {перекрыта}FromXML*(xml : XML.Element);
		перем
			en : XMLObjects.Enumerator;
			p : динамическиТипизированныйУкль;
			s, mins, maxs : String;
		нач
			AcquireWrite; NotDefault;
			mins := xml.GetAttributeValue("min");
			maxs := xml.GetAttributeValue("max");
			если mins # НУЛЬ то Strings.StrToHInt(mins^, min) иначе min := матМинимум(цел64) всё;
			если maxs # НУЛЬ то Strings.StrToHInt(maxs^, max) иначе max := матМаксимум(цел64) всё;
			bounded := (mins # НУЛЬ) или (maxs # НУЛЬ);
			en := xml.GetContents();
			если en.HasMoreElements() то
				p := en.GetNext();
				если IsLink(p) то
				аесли p суть XML.Chars то
					s := p(XML.Chars).GetStr();
					если s # НУЛЬ то Strings.StrToHInt(s^, value); Set(value) всё
				всё
			всё;
			Stamp;
			ReleaseWrite
		кон FromXML;

		проц {перекрыта}ToXML*(перем element: XML.Element);
		перем chars: XML.ArrayChars;s: массив 20 из симв8;
		нач
			если (GetName # НУЛЬ) и nonDefault то
				ToXML^(element);
				element.SetAttributeValue("loader","WMProperties.NewInteger");
				element.AddContent(NewIntChars(value));
			всё;
		кон ToXML;

		проц {перекрыта}WriteXML*(w : Потоки.Писарь; context: динамическиТипизированныйУкль;  indent : цел32);
		перем name : String;
		нач
			name := GetName();
			если name = НУЛЬ то ЛогЯдра.пСтроку8("Nameless Integer property encountered. Ignored"); ЛогЯдра.пВК_ПС; возврат всё;
			если nonDefault то
				Indent(w, indent);
				w.пСимв8("<"); w.пСтроку8(name^); w.пСтроку8(' loader="WMProperties.NewInteger"'); w.пСимв8(">");
				если ~WriteLink(w,context,indent) то
					w.пЦел64(value, 0);
				всё;
				w.пСтроку8("</"); w.пСтроку8(name^); w.пСимв8(">"); w.пВК_ПС
			всё
		кон WriteXML;

	кон IntegerProperty;

	(** Accessor property to a size value. The range of possible values can be restricted. *)
	SizeProperty* = окласс(Property)
	перем
		value : размерМЗ;
		min, max : размерМЗ;
		bounded : булево;

		проц {перекрыта}UpdateProperty;
		перем integer: Types.Size; model: Models.Model; res: целМЗ;
		нач
			если GetModel(object, model) то
				 model.GetGeneric(integer, res);
				 если res = 0 то Set(integer.value) всё;
			всё;
		кон UpdateProperty;

		проц {перекрыта}UpdateModel;
		перем type: Types.Size; model: Models.Model; res: целМЗ;
		нач
			если inLinkUpdate то возврат всё;
			если GetModel(object, model) то
				type.value := value;
				model.SetGeneric(type, res);
			всё;
		кон UpdateModel;

		(** Confines the possible input values between min and max. Implicitly activates the bounds check. If the current value
			lies outside the bounds, it is truncated to the nearest and a change notification is sent after the end of the transaction. *)
		проц SetBounds*(min, max : размерМЗ);
		нач
			AcquireWrite;
			сам.min := min; сам.max := max; bounded := истина;
			Stamp;
			Set(value);
			ReleaseWrite
		кон SetBounds;

		проц GetBounds*(перем min, max : размерМЗ);
		нач
			AcquireRead;
			min := сам.min; max := сам.max;
			ReleaseRead;
		кон GetBounds;

		(** enables or disables the bounds of the value. If enabled, a change notification is sent if the current value had to be
			changed to lie within the bounds *)
		проц SetIsBounded*(isBounded : булево);
		нач
			AcquireWrite;
			если isBounded # bounded то
				bounded := isBounded;
				Stamp;
				Set(value);
			всё;
			ReleaseWrite
		кон SetIsBounded;

		проц GetIsBounded*(перем isBounded : булево);
		нач
			AcquireRead;
			isBounded := bounded;
			ReleaseRead;
		кон GetIsBounded;

		проц Validate(v : размерМЗ) : размерМЗ;
		нач
			если bounded то возврат матМаксимум(min, матМинимум(max, v))
			иначе возврат v
			всё
		кон Validate;

		проц {перекрыта}FromStream*(r : Потоки.Чтец);
		перем v : цел64;
		нач
			AcquireWrite;
			r.чЦел64(v, истина);
			Set(v(размерМЗ));
			ReleaseWrite
		кон FromStream;

		проц {перекрыта}ToStream*(w : Потоки.Писарь);
		нач
			AcquireRead;
			w.пЦел64(value, 0);
			ReleaseRead
		кон ToStream;

		проц Get*() : размерМЗ;
		перем r : размерМЗ;
		нач
			AcquireRead;
			если nonDefault или (prototype = НУЛЬ) то r := value
			аесли prototype суть SizeProperty то 
				r := prototype(SizeProperty).Get()
			иначе
				r := value; (* почему-то эта ветка понадобилась, а почему - то мне неведомо... *)
			всё;
			ReleaseRead;
			возврат r
		кон Get;


		проц Set*(value : размерМЗ);
		перем v: размерМЗ;
		нач
			v := Validate(value);
			AcquireWrite;
			если v # сам.value то
				сам.value := v;
				Changed;
				если object # НУЛЬ то UpdateModel всё;
			аесли ~nonDefault то
				Changed;
			всё;
			NotDefault;
			ReleaseWrite
		кон Set;

		проц SetPassive*(value : размерМЗ);
		перем v: размерМЗ;
		нач
			v := Validate(value);
			AcquireWrite;
			если v # сам.value то
				сам.value := v;
				NotDefault;
			всё;
			ReleaseWrite
		кон SetPassive;


		проц {перекрыта}FromXML*(xml : XML.Element);
		перем
			en : XMLObjects.Enumerator;
			p : динамическиТипизированныйУкль;
			s, mins, maxs : String;
		нач
			AcquireWrite; NotDefault;
			mins := xml.GetAttributeValue("min");
			maxs := xml.GetAttributeValue("max");
			если mins # НУЛЬ то Strings.StrToSize(mins^, min) иначе min := матМинимум(размерМЗ) всё;
			если maxs # НУЛЬ то Strings.StrToSize(maxs^, max) иначе max := матМаксимум(размерМЗ) всё;
			bounded := (mins # НУЛЬ) или (maxs # НУЛЬ);
			en := xml.GetContents();
			если en.HasMoreElements() то
				p := en.GetNext();
				если IsLink(p) то
				аесли p суть XML.Chars то
					s := p(XML.Chars).GetStr();
					если s # НУЛЬ то Strings.StrToSize(s^, value); Set(value) всё
				всё
			всё;
			Stamp;
			ReleaseWrite
		кон FromXML;

		проц {перекрыта}ToXML*(перем element: XML.Element);
		перем chars: XML.ArrayChars;s: массив 20 из симв8;
		нач
			если (GetName # НУЛЬ) и nonDefault то
				ToXML^(element);
				element.SetAttributeValue("loader","WMProperties.NewSize");
				element.AddContent(NewIntChars(value));
			всё;
		кон ToXML;

		проц {перекрыта}WriteXML*(w : Потоки.Писарь; context: динамическиТипизированныйУкль;  indent : цел32);
		перем name : String;
		нач
			name := GetName();
			если name = НУЛЬ то ЛогЯдра.пСтроку8("Nameless Integer property encountered. Ignored"); ЛогЯдра.пВК_ПС; возврат всё;
			если nonDefault то
				Indent(w, indent);
				w.пСимв8("<"); w.пСтроку8(name^); w.пСтроку8(' loader="WMProperties.NewSize"'); w.пСимв8(">");
				если ~WriteLink(w,context,indent) то
					w.пЦел64(value, 0);
				всё;
				w.пСтроку8("</"); w.пСтроку8(name^); w.пСимв8(">"); w.пВК_ПС
			всё
		кон WriteXML;

	кон SizeProperty;

тип

	(** Accessor property to an real value. The range of possible values can be restricted. *)
	RealProperty* = окласс(Property)
	перем
		value : вещ64;
		min, max : вещ64;
		bounded : булево;

		(** Confines the possible input values between min and max. Implicitly activates the bounds check. If the current value
			lies outside the bounds, it is truncated to the nearest and a change notification is sent after the end of the transaction. *)
		проц SetBounds*(min, max : вещ64);
		нач
			AcquireWrite;
			сам.min := min; сам.max := max; bounded := истина;
			Stamp;
			Set(value);
			ReleaseWrite
		кон SetBounds;

		проц GetBounds*(перем min, max : вещ64);
		нач
			AcquireRead;
			min := сам.min; max := сам.max;
			ReleaseRead;
		кон GetBounds;

		(** enables or disables the bounds of the value. If enabled, a change notification is sent if the current value had to be
			changed to lie within the bounds *)
		проц SetIsBounded*(isBounded : булево);
		нач
			AcquireWrite;
			если isBounded # bounded то
				bounded := isBounded;
				Stamp;
				Set(value);
			всё;
			ReleaseWrite
		кон SetIsBounded;

		проц GetIsBounded*(перем isBounded : булево);
		нач
			AcquireRead;
			isBounded := bounded;
			ReleaseRead;
		кон GetIsBounded;

		проц Validate(v : вещ64) : вещ64;
		перем result : вещ64;
		нач
			result := v;
			если bounded то
				если (result < min) то result := min; аесли (result > max) то result := max; всё;
			всё;
			возврат result;
		кон Validate;

		проц {перекрыта}FromStream*(r : Потоки.Чтец);
		перем temp : массив 64 из симв8; value : вещ64;
		нач
			r.чЦепочкуСимволов8ДоБелогоПоляИлиВКавычках(temp);
			value := 0.0;
			Strings.StrToFloat(temp, value);
			Set(value);
		кон FromStream;

		проц {перекрыта}ToStream*(w : Потоки.Писарь);
		нач
			AcquireRead;
			w.пВещ64(value, 24);
			ReleaseRead
		кон ToStream;

		проц {перекрыта}UpdateProperty;
		перем longreal: Types.Longreal; model: Models.Model; res: целМЗ; silent: булево;
		нач
			если GetModel(object, model) то
				 model.GetGeneric(longreal, res);
				 если res = 0 то Set(longreal.value) всё;
			всё;
		кон UpdateProperty;

		проц {перекрыта}UpdateModel;
		перем type: Types.Longreal; model: Models.Model; res: целМЗ;
		нач
			если inLinkUpdate то возврат всё;
			если GetModel(object, model) то
				type.value := value;
				model.SetGeneric(type, res);
			всё;
		кон UpdateModel;

		проц Get*() : вещ64;
		перем r : вещ64;
		нач
			AcquireRead;
			если nonDefault или (prototype = НУЛЬ) то r := value;
			иначе r := prototype(RealProperty).Get();
			всё;
			ReleaseRead;
			возврат r
		кон Get;

		проц Set*(value : вещ64);
		перем v: вещ64;
		нач
			v := Validate(value);
			AcquireWrite;
			если v # сам.value то
				сам.value := v;
				Changed;
				если object # НУЛЬ то UpdateModel всё;
			аесли ~nonDefault то
				Changed;
			всё;
			NotDefault;
			ReleaseWrite
		кон Set;

		проц SetPassive*(value: вещ64);
		перем v: вещ64;
		нач
			v := Validate(value);
			AcquireWrite;
			если v#сам.value то
				сам.value := v;
				NotDefault;
			всё;
			ReleaseWrite
		кон SetPassive;

		проц {перекрыта}FromXML*(xml : XML.Element);
		перем
			en : XMLObjects.Enumerator;
			p : динамическиТипизированныйУкль;
			s, mins, maxs : String;
		нач
			AcquireWrite; NotDefault;
			mins := xml.GetAttributeValue("min");
			maxs := xml.GetAttributeValue("max");
			если mins # НУЛЬ то Strings.StrToFloat(mins^, min) иначе min := матМинимум(вещ64) всё;
			если maxs # НУЛЬ то Strings.StrToFloat(maxs^, max) иначе max := матМаксимум(вещ64) всё;
			bounded := (mins # НУЛЬ) или (maxs # НУЛЬ);
			en := xml.GetContents();
			если en.HasMoreElements() то
				p := en.GetNext();
					если IsLink(p) то
					аесли p суть XML.Chars то
					s := p(XML.Chars).GetStr();
					если s # НУЛЬ то Strings.StrToFloat(s^, value); Set(value) всё
				всё
			всё;
			Stamp;
			ReleaseWrite
		кон FromXML;

		проц {перекрыта}ToXML*(перем element: XML.Element);
		перем chars: XML.ArrayChars;s: массив 20 из симв8; w: Потоки.ПисарьВСтроку8ФиксированногоРазмера;
		нач
			если (GetName # НУЛЬ) и nonDefault то
				ToXML^(element);
				element.SetAttributeValue("loader","WMProperties.NewReal");
				нов(chars); element.AddContent(chars);
				нов(w,30); w.пВещ64(value,24); w.ДайПрочитанное˛сколькоПоместитсяИСимвол0(s);
				chars.SetStr(s);
			всё;
		кон ToXML;

		проц {перекрыта}WriteXML*(w : Потоки.Писарь; context: динамическиТипизированныйУкль; indent : цел32);
		перем name : String;
		нач
			name := GetName();
			если name = НУЛЬ то ЛогЯдра.пСтроку8("Nameless Real property encountered. Ignored"); ЛогЯдра.пВК_ПС; возврат всё;
			если nonDefault то
				Indent(w, indent);
				w.пСимв8("<"); w.пСтроку8(name^); w.пСтроку8(' loader="WMProperties.NewReal"'); w.пСимв8(">");
				если ~WriteLink(w,context,indent) то
					w.пВещ64(value, 24);
				всё;
				w.пСтроку8("</"); w.пСтроку8(name^); w.пСимв8(">"); w.пВК_ПС
			всё
		кон WriteXML;

	кон RealProperty;

тип

	StringProperty* = окласс(Property)
	перем
		value, word : String;
		dictionary : Repositories.Dictionary;
		languages : Localization.Languages;
		translate : булево;

		проц &{перекрыта}New*(prototype : Property; name, info : String);
		нач
			New^(prototype, name, info);
			value := НУЛЬ; word := НУЛЬ;
			dictionary := НУЛЬ;
			languages := Localization.GetLanguagePreferences();
			translate := истина;
		кон New;

		проц SetTranslate*(translate : булево);
		нач
			AcquireWrite;
			если (сам.translate # translate) то
				сам.translate := translate;
				если ~translate то
					dictionary := НУЛЬ; word := НУЛЬ;
				иначе
					Translate;
				всё;
				NotDefault;
				Changed;
			всё;
			ReleaseWrite;
		кон SetTranslate;

		проц Translate;
		перем res : целМЗ; temp : Strings.String;
		нач (* caller holds lock *)
			если translate и (сам.value # НУЛЬ) то
				Repositories.GetTranslationInfo(сам.value^, dictionary, word, res);
				если (dictionary # НУЛЬ) и (word # НУЛЬ) то
					temp := dictionary.Translate(word, languages);
					если (temp # word) то
						value := temp;
					всё;
				всё;
			всё;
		кон Translate;

		проц SetLanguage*(languages : Localization.Languages);
		нач
			AcquireWrite;
			сам.languages := languages;
			если (dictionary # НУЛЬ) и (word # НУЛЬ) то
				value := dictionary.Translate(word, languages);
				NotDefault;
				Changed;
			всё;
			ReleaseWrite;
		кон SetLanguage;

		проц {перекрыта}FromStream*(r : Потоки.Чтец);
		перем buffer : массив 1024 из симв8; res : целМЗ;
		нач
			AcquireWrite;
			XML.UTF8FromStream(buffer, r, res);
			value := Strings.NewString(buffer); Translate; NotDefault; Changed;
			ReleaseWrite
		кон FromStream;

		проц {перекрыта}ToStream*(w : Потоки.Писарь);
		нач
			AcquireRead;
			если (dictionary # НУЛЬ) и (word # НУЛЬ) то
				w.пСтроку8("::"); w.пСтроку8(dictionary.fullname^); w.пСтроку8(":"); w.пСтроку8(word^);
			аесли value # НУЛЬ то
				w.пСтроку8(value^);
			всё;
			ReleaseRead
		кон ToStream;

		проц Get*() : String;
		перем r : String;
		нач
			AcquireRead;
			если nonDefault или (prototype = НУЛЬ) то r := value
			иначе r := prototype(StringProperty).Get()
			всё;
			ReleaseRead;
			возврат r
		кон Get;

		проц {перекрыта}UpdateModel;
		перем type: Types.String; model: Models.Model; res: целМЗ;
		нач
			если inLinkUpdate то возврат всё;
			если GetModel(object, model) то
				type.value := value;
				model.SetGeneric(type, res);
			всё;
		кон UpdateModel;

		проц Set*(value : String);
		нач
			AcquireWrite;
				если (value = сам.value) (* reset with self must lead to update *) или (value = НУЛЬ) или (сам.value = НУЛЬ) или (value^ # сам.value^) то
					сам.value := value; Translate;Changed;
					если (object # НУЛЬ) то UpdateModel всё;
				аесли ~nonDefault то
					Changed
				всё;
				NotDefault;
			ReleaseWrite
		кон Set;

		(* set without updates -- use only when you definitely want to avoid updates *)
		проц SetPassive*(value : String);
		нач
			AcquireWrite;
			если (value # НУЛЬ) и (сам.value # НУЛЬ) и (value^ # сам.value^) то
				сам.value := value; Translate;
			иначе
				сам.value := value;
			всё;
			NotDefault;
			ReleaseWrite
		кон SetPassive;

		проц {перекрыта}UpdateProperty;
		перем type: Types.String; model: Models.Model; res: целМЗ;
		нач
			если GetModel(object, model) то
				type.value := value; (* pass pointer to string *)
				model.GetGeneric(type, res);
				 если res = 0 то Set(type.value) всё;
			всё;
		кон UpdateProperty;

		проц GetAOC*(перем value : массив из симв8);
		нач
			value := "";
			AcquireRead;
			если (сам.value # НУЛЬ) то
				копируйСтрокуДо0(сам.value^, value);
			всё;
			ReleaseRead;
		кон GetAOC;

		(* См. также SetAOCJQ *)
		проц SetAOC*(конст value : массив из симв8);
		нач
			AcquireWrite;
				Strings.SetAOC(value, сам.value);
				Set(сам.value);
			ReleaseWrite;
		кон SetAOC;


		проц SetAOCJQ*(конст value : UCS32.StringJQ);
		нач SetAOC(UCS32.JQvNovU8(value)^); кон SetAOCJQ;


		проц {перекрыта}FromXML*(xml : XML.Element);
		перем en : XMLObjects.Enumerator; p : динамическиТипизированныйУкль;
		нач
			en := xml.GetContents();
			p := en.GetNext();
			если p # НУЛЬ то
				если IsLink(p) то
				аесли p суть XML.Chars то
					Set(p(XML.Chars).GetStr())
				всё
			иначе
				Set(НУЛЬ)
			всё
		кон FromXML;

		проц {перекрыта}ToXML*(перем element: XML.Element);
		перем chars: XML.ArrayChars;s: String; w: Потоки.ПисарьВСтроку8ФиксированногоРазмера; res: целМЗ; len: размерМЗ;
		нач
			если (GetName # НУЛЬ) и nonDefault то
				ToXML^(element);
				element.SetAttributeValue("loader","WMProperties.NewString");
				если (value # НУЛЬ) или ((dictionary # НУЛЬ) и (word # НУЛЬ)) то
					нов(chars); element.AddContent(chars);
					len := 64;
					если (value # НУЛЬ) то увел(len, длинаМассива(value^)) всё;
					нов(w, len);
					если (dictionary # НУЛЬ) и (word # НУЛЬ) то
						w.пСтроку8("::");
						XML.UTF8ToStream(dictionary.fullname^, w, res);
						если (res = XML.Ok) то
							w.пСтроку8(":");
							XML.UTF8ToStream(word^, w, res);
						всё;
					иначе
						XML.UTF8ToStream(value^, w, res);
					всё;
					нов(s, размерМЗ(w.МестоВПотоке())+1); w.ДайПрочитанное˛сколькоПоместитсяИСимвол0(s^);
					chars.SetStr(s^);
				всё;
			всё;
		кон ToXML;

		проц {перекрыта}WriteXML*(w : Потоки.Писарь; context: динамическиТипизированныйУкль; indent : цел32);
		перем name : String; res : целМЗ;
		нач
			name := GetName();
			если name = НУЛЬ то ЛогЯдра.пСтроку8("WMProperties: Nameless string property encountered. Ignored "); ЛогЯдра.пВК_ПС; возврат всё;
			если nonDefault то
				если (value # НУЛЬ) или ((dictionary # НУЛЬ) и (word # НУЛЬ)) то
					Indent(w, indent);
					w.пСимв8("<"); w.пСтроку8(name^); w.пСтроку8(' loader="WMProperties.NewString"'); w.пСимв8(">");
					если ~WriteLink(w,context,indent) то
						если (dictionary # НУЛЬ) и (word # НУЛЬ) то
							w.пСтроку8("::");
							XML.UTF8ToStream(dictionary.fullname^, w, res);
							если (res = XML.Ok) то
								w.пСтроку8(":");
								XML.UTF8ToStream(word^, w, res);
							всё;
						иначе
							XML.UTF8ToStream(value^, w, res);
						всё;
					всё;
					w.пСтроку8("</"); w.пСтроку8(name^); w.пСимв8(">"); w.пВК_ПС;
					если (res # XML.Ok) то
						ЛогЯдра.пСтроку8("WMProperties.StringProperty.WriteXML: Warning!"); ЛогЯдра.пВК_ПС;
					всё;
				всё;
			всё
		кон WriteXML;

	кон StringProperty;

тип

	ColorProperty* = окласс(Property)
	перем
		value : WMGraphics.Color;

		(* TODO: read hex from CCG FontConverter *)
		проц {перекрыта}FromStream*(r : Потоки.Чтец);
		перем v : цел32;
		нач
			AcquireWrite;
			r.чЦел32(v, истина); NotDefault;
			если v # value то value := v; Changed всё;
			ReleaseWrite
		кон FromStream;

		проц {перекрыта}ToStream*(w : Потоки.Писарь);
		нач
			AcquireRead;
			w.п16ричное(value, -8);
			ReleaseRead
		кон ToStream;

		проц {перекрыта}UpdateProperty;
		перем boolean: Types.Integer; model: Models.Model; res: целМЗ;
		нач
			если GetModel(object, model) то
				 model.GetGeneric(boolean, res);
				 если res = 0 то Set(boolean.value) всё;
			всё;
		кон UpdateProperty;

		проц {перекрыта}UpdateModel;
		перем type: Types.Integer; model: Models.Model; res: целМЗ;
		нач
			если inLinkUpdate то возврат всё;
			если GetModel(object, model) то
				type.value := value;
				model.SetGeneric(type, res);
			всё;
		кон UpdateModel;

		проц Get*() : WMGraphics.Color;
		перем r : WMGraphics.Color;
		нач
			AcquireRead;
			если nonDefault или (prototype = НУЛЬ) то r := value
			иначе r := prototype(ColorProperty).Get()
			всё;
			ReleaseRead;
			возврат r
		кон Get;

		проц Set*(value : цел64);
		нач
			AcquireWrite;
			если устарПреобразуйКБолееУзкомуЦел(value) # сам.value то
				сам.value := устарПреобразуйКБолееУзкомуЦел(value); Changed;
				если (object # НУЛЬ) то UpdateModel всё;
			аесли ~nonDefault то Changed
			всё;
			NotDefault;
			ReleaseWrite
		кон Set;

		проц SetPassive*(value : цел64);
		нач
			AcquireWrite;
			если устарПреобразуйКБолееУзкомуЦел(value) # сам.value то
				сам.value := устарПреобразуйКБолееУзкомуЦел(value);
				NotDefault;
			всё;
			ReleaseWrite
		кон SetPassive;


		проц {перекрыта}FromXML*(xml : XML.Element);
		перем
			en : XMLObjects.Enumerator;
			p : динамическиТипизированныйУкль;
			s : String; res : целМЗ;
		нач
			AcquireWrite;
			en := xml.GetContents();
			если en.HasMoreElements() то
				p := en.GetNext();
				если IsLink(p) то
				аесли p суть XML.Chars то
					s := p(XML.Chars).GetStr();
					если s # НУЛЬ то Strings.HexStrToInt(s^, value, res) всё; NotDefault
				всё
			всё;
			Stamp;
			ReleaseWrite
		кон FromXML;

		проц {перекрыта}ToXML*(перем element: XML.Element);
		перем chars: XML.ArrayChars;s: String; w: Потоки.ПисарьВСтроку8ФиксированногоРазмера; res: целМЗ;
		нач
			если (GetName # НУЛЬ) и nonDefault то
				ToXML^(element);
				element.SetAttributeValue("loader","WMProperties.NewColor");
				нов(chars); element.AddContent(chars);
				нов(w,10 );
				w.п16ричное(value, -8);
				нов(s, размерМЗ(w.МестоВПотоке())+1); w.ДайПрочитанное˛сколькоПоместитсяИСимвол0(s^);
				chars.SetStr(s^);
			всё;
		кон ToXML;

		проц {перекрыта}WriteXML*(w : Потоки.Писарь; context: динамическиТипизированныйУкль; indent : цел32);
		перем name : String;
		нач
			name := GetName();
			если name = НУЛЬ то ЛогЯдра.пСтроку8("Nameless color property encountered. Ignored"); ЛогЯдра.пВК_ПС; возврат всё;
			если nonDefault то
				Indent(w, indent);
				w.пСимв8("<"); w.пСтроку8(name^); w.пСтроку8(' loader="WMProperties.NewColor"'); w.пСимв8(">");
				если ~WriteLink(w,context,indent) то
					w.п16ричное(value, -8);
				всё;
				w.пСтроку8("</"); w.пСтроку8(name^); w.пСимв8(">"); w.пВК_ПС;
			всё
		кон WriteXML;

	кон ColorProperty;

тип

	FontProperty* = окласс(Property)
	перем
		font : WMGraphics.Font; (* { font # NIL } *)

		проц &{перекрыта}New*(prototype : Property; name, info : String);
		нач
			New^(prototype, name, info);
			font := WMGraphics.GetDefaultFont();
		кон New;

		проц {перекрыта}FromStream*(r : Потоки.Чтец);
		перем font : WMGraphics.Font; name, temp : массив 32 из симв8; size : цел32; style : мнвоНаБитахМЗ;
		нач
			AcquireWrite;
			NotDefault;
			name := ""; size := 0; style := {};
			если r.ПропустиБелоеПолеИЧитайЦепочкуСимволов8ДоБелогоПоляИлиВКавычках(name) и r.ПропустиБелоеПолеИЧитайЦел32(size, ложь) и r.ПропустиБелоеПолеИЧитайЦепочкуСимволов8ДоБелогоПоляИлиВКавычках(temp) то
				Strings.StrToSet(temp, style);
				если size < 6 то size := 6 всё;
				font := WMGraphics.GetFont(name, size, style);
				если (font = НУЛЬ) то font := WMGraphics.GetDefaultFont(); всё;
				если (сам.font # font) то сам.font := font; Changed всё;
			всё;
			ReleaseWrite
		кон FromStream;

		проц {перекрыта}ToStream*(w : Потоки.Писарь);
		перем font : WMGraphics.Font; temp : массив 32 из симв8;
		нач
			AcquireRead;
			font := Get();
			w.пСтроку8(font.name); w.пСимв8(" "); w.пЦел64(font.size, 0); w.пСимв8(" ");
			Strings.SetToStr(font.style, temp); w.пСтроку8(temp);
			ReleaseRead
		кон ToStream;

		проц Get*() : WMGraphics.Font;
		перем font : WMGraphics.Font;
		нач
			AcquireRead;
			если nonDefault или (prototype = НУЛЬ) то font := сам.font;
			иначе font := prototype(FontProperty).Get()
			всё;
			ReleaseRead;
			если (font = НУЛЬ) то font := WMGraphics.GetDefaultFont(); всё;
			утв(font # НУЛЬ);
			возврат font;
		кон Get;

		проц Set*(font : WMGraphics.Font);
		нач
			если (font = НУЛЬ) то font := WMGraphics.GetDefaultFont(); всё;
			утв(font # НУЛЬ);
			AcquireWrite;
			если font # сам.font то
				сам.font := font; Changed;
				если object # НУЛЬ то UpdateModel всё;
			аесли ~ nonDefault то Changed всё;
			NotDefault;
			ReleaseWrite;
		кон Set;

		проц SetPassive*(font : WMGraphics.Font);
		нач
			если (font = НУЛЬ) то font := WMGraphics.GetDefaultFont(); всё;
			утв(font # НУЛЬ);
			AcquireWrite;
			если font # сам.font то
				сам.font := font;
				NotDefault;
			всё;
			ReleaseWrite;
		кон SetPassive;

		проц GetFont*(перем name : массив из симв8; перем size : размерМЗ; перем style : мнвоНаБитахМЗ);
		перем font : WMGraphics.Font;
		нач
			font := Get();
			копируйСтрокуДо0(font.name, name); size := font.size; style := font.style;
		кон GetFont;

		проц SetFont*(конст name : массив из симв8; size : цел32; style : мнвоНаБитахМЗ);
		перем font : WMGraphics.Font;
		нач
			если size < 6 то size := 6 всё;
			font := WMGraphics.GetFont(name, size, style);
			если (font = НУЛЬ) то font := WMGraphics.GetDefaultFont(); всё;
			утв(font  # НУЛЬ);
			AcquireWrite;
			если (сам.font # font) то сам.font := font; Changed; всё;
			NotDefault;
			ReleaseWrite;
		кон SetFont;

		проц SetFontName*(конст name : массив из симв8);
		перем font : WMGraphics.Font;
		нач
			AcquireWrite;
			font := Get();
			если (font.name # name) то
				font := WMGraphics.GetFont(name, font.size, font.style);
				если (font = НУЛЬ) то font := WMGraphics.GetDefaultFont(); всё;
				если (сам.font # font) то
					сам.font := font;
					Changed;
				всё;
			всё;
			NotDefault;
			ReleaseWrite;
		кон SetFontName;

		проц GetFontName*(перем name : массив из симв8);
		перем font : WMGraphics.Font;
		нач
			font := Get();
			копируйСтрокуДо0(font.name, name);
		кон GetFontName;

		проц SetSize*(size : размерМЗ);
		перем font : WMGraphics.Font;
		нач
			AcquireWrite;
			font := Get();
			если size < 6 то size := 6 всё;
			если (font.size # size) то
				font := WMGraphics.GetFont(font.name, size, font.style);
				если (font = НУЛЬ) то font := WMGraphics.GetDefaultFont(); всё;
				если (сам.font # font) то
					сам.font := font;
					Changed;
				всё;
			всё;
			NotDefault;
			ReleaseWrite;
		кон SetSize;

		проц GetSize*() : размерМЗ;
		перем font : WMGraphics.Font;
		нач
			font := Get();
			возврат font.size;
		кон GetSize;

		проц SetStyle*(style : мнвоНаБитахМЗ);
		перем font : WMGraphics.Font;
		нач
			AcquireWrite;
			font := Get();
			если (font.style # style) то
				font := WMGraphics.GetFont(font.name, font.size, style);
				если (font = НУЛЬ) то font := WMGraphics.GetDefaultFont(); всё;
				если (сам.font # font) то
					сам.font := font;
					Changed;
				всё;
			всё;
			NotDefault;
			ReleaseWrite;
		кон SetStyle;

		проц GetSyle*() : мнвоНаБитахМЗ;
		перем font : WMGraphics.Font;
		нач
			font := Get();
			возврат font.style;
		кон GetSyle;

		проц {перекрыта}FromXML*(xml : XML.Element);
		перем s : String; name : массив 32 из симв8; size : цел32; style : мнвоНаБитахМЗ;
		нач
			s := xml.GetAttributeValue("name");
			если (s # НУЛЬ) то копируйСтрокуДо0(s^, name); иначе name := ""; всё;
			s := xml.GetAttributeValue("size");
			если (s  # НУЛЬ) то Strings.StrToInt(s^, size); иначе size := 0; всё;
			s := xml.GetAttributeValue("style");
			если (s # НУЛЬ) то Strings.StrToSet(s^, style); иначе style := {}; всё;
			SetFont(name, size, style);
		кон FromXML;

		проц {перекрыта}ToXML*(перем element: XML.Element);
		перем s: массив 32 из симв8;
		нач
			если (GetName # НУЛЬ) и nonDefault то
				ToXML^(element);
				element.SetAttributeValue("loader","WMProperties.NewFont");
				element.SetAttributeValue("name",font.name);
				Strings.IntToStr(font.size, s);
				element.SetAttributeValue("size",s);
				Strings.SetToStr(font.style, s);
				element.SetAttributeValue("style",s);
			всё;
		кон ToXML;

		проц {перекрыта}WriteXML*(w : Потоки.Писарь; context: динамическиТипизированныйУкль; indent : цел32);
		перем name : String; font : WMGraphics.Font; temp : массив 32 из симв8;
		нач
			name := GetName();
			если name = НУЛЬ то ЛогЯдра.пСтроку8("Nameless boolean property encountered. Ignored"); ЛогЯдра.пВК_ПС; возврат всё;
			если nonDefault то
				font := Get();
				Indent(w, indent);
				w.пСимв8("<"); w.пСтроку8(name^); w.пСтроку8(' loader="WMProperties.NewFont"');
				w.пСтроку8(' name="'); w.пСтроку8(font.name); w.пСтроку8('" size="'); w.пЦел64(font.size, 0); w.пСтроку8('" style="');
				Strings.SetToStr(font.style, temp); w.пСтроку8(temp); w.пСтроку8('"');
				w.пСтроку8("/>");
				w.пВК_ПС;
			всё
		кон WriteXML;

	кон FontProperty;


тип
	(** Accessor property to an Point (in integer  coordinates). *)
	PointProperty*= окласс(Property)
	перем
		value : WMGraphics.Point2d;

		проц {перекрыта}FromStream*(r : Потоки.Чтец);
		перем new : WMGraphics.Point2d;
		нач
			AcquireWrite;
			r.ПропустиБелоеПоле; r.чРазмерМЗ(new.x, ложь);
			r.ПропустиБелоеПоле; r.чРазмерМЗ(new.y, ложь);
			NotDefault;
			если (new.x=value.x) и (new.y=value.y) то
				value := new;
				Changed;
			всё;
			ReleaseWrite
		кон FromStream;

		проц {перекрыта}ToStream*(w : Потоки.Писарь);
		нач
			AcquireRead;
			w.пЦел64(value.x, 0); w.пСимв8(" ");
			w.пЦел64(value.y, 0);
			ReleaseRead
		кон ToStream;


		проц Get*() : WMGraphics.Point2d;
		перем r : WMGraphics.Point2d;
		нач
			AcquireRead;
			если nonDefault или (prototype = НУЛЬ) то r := value
			иначе r := prototype(PointProperty).Get()
			всё;
			ReleaseRead;
			возврат r
		кон Get;

		проц Set*(value : WMGraphics.Point2d);
		нач
			AcquireWrite;
			если (сам.value.x#value.x) или (сам.value.y#value.y) то
				сам.value:=value;
				если object # НУЛЬ то UpdateModel всё;
				Changed;
			аесли ~nonDefault то Changed
			всё;
			NotDefault;
			ReleaseWrite
		кон Set;

		(* set without updates -- use only when you definitely want to avoid updates *)
		проц SetPassive*(value : WMGraphics.Point2d);
		нач
			AcquireWrite;
			сам.value := value;
			NotDefault;
			ReleaseWrite
		кон SetPassive;

		проц SetCoordinate*(x,y : размерМЗ);
		нач
			AcquireWrite;
			если (x#value.x) или (y#value.y) то
				value.x:=x; value.y:=y;
				Changed
			всё;
			NotDefault;
			ReleaseWrite
		кон SetCoordinate;

		проц GetCoordinate*(перем x,y: размерМЗ);
		нач
			x:=value.x; y:=value.y
		кон GetCoordinate;


		проц SetX*(x : размерМЗ);
		нач
			AcquireWrite;
			если value.x # x то value.x := x; Changed всё; NotDefault;
			ReleaseWrite
		кон SetX;

		проц SetY*(y : размерМЗ);
		нач
			AcquireWrite;
			если value.y # y то value.y := y; Changed всё; NotDefault;
			ReleaseWrite
		кон SetY;

		проц GetX*() : размерМЗ;
		нач
			возврат value.x
		кон GetX;

		проц GetY*(): размерМЗ;
		нач
			возврат value.y
		кон GetY;

		проц {перекрыта}FromXML*(xml : XML.Element);
		перем en : XMLObjects.Enumerator; p : динамическиТипизированныйУкль; s: String;
		нач
			AcquireWrite;
			en := xml.GetContents();
			нцПока en.HasMoreElements() делай
				если en.HasMoreElements() то
					p := en.GetNext();
					если (p суть XML.Element) то
						s := p(XML.Element).GetName();
						если s # НУЛЬ то
							если s^ = "X" то SetX(ReadCharDataInt(p(XML.Element)))
							аесли s^ = "Y" то SetY(ReadCharDataInt(p(XML.Element)))
							всё
						всё
					всё
				всё
			кц;
			Stamp;
			ReleaseWrite
		кон FromXML;

		проц {перекрыта}ToXML*(перем element: XML.Element);
		перем cs: массив 10 из симв8; sub: XML.Element; t: WMGraphics.Point2d;
		нач
			если (GetName # НУЛЬ) и nonDefault то
				ToXML^(element);
				element.SetAttributeValue("loader","WMProperties.NewPoint");
				t := Get();
				нов(sub); sub.SetName("X"); element.AddContent(sub);
				sub.AddContent(NewIntChars(t.x));
				нов(sub); sub.SetName("Y");element.AddContent(sub);
				sub.AddContent(NewIntChars(t.y));
			всё;
		кон ToXML;

		проц {перекрыта}WriteXML*(w : Потоки.Писарь; context: динамическиТипизированныйУкль; indent : цел32);
		перем name : String; t : WMGraphics.Point2d;
		нач
			name := GetName();
			если name = НУЛЬ то ЛогЯдра.пСтроку8("Nameless point property encountered. Ignored"); ЛогЯдра.пВК_ПС; возврат всё;
			если nonDefault то
				t := Get();
				Indent(w, indent);w.пСимв8("<"); w.пСтроку8(name^); w.пСтроку8(' loader="WMProperties.NewPoint"'); w.пСимв8(">"); w.пВК_ПС;
				Indent(w, indent + 1); w.пСтроку8("<X>"); w.пЦел64(t.x, 0); w.пСтроку8("</X>"); w.пВК_ПС;
				Indent(w, indent + 1); w.пСтроку8("<Y>"); w.пЦел64(t.y, 0); w.пСтроку8("</Y>"); w.пВК_ПС;
				Indent(w, indent); w.пСтроку8("</"); w.пСтроку8(name^); w.пСимв8(">"); w.пВК_ПС;
			всё
		кон WriteXML;

	кон PointProperty;


тип

	(** Accessor property to an integer value. The range of possible values can be restricted. *)
	RectangleProperty* = окласс(Property)
	перем
		value : WMRectangles.Rectangle;

		проц {перекрыта}FromStream*(r : Потоки.Чтец);
		перем new : WMRectangles.Rectangle; v: цел32;
		нач
			AcquireWrite;
			r.ПропустиБелоеПоле; r.чЦел32(v, ложь); new.l := v;
			r.ПропустиБелоеПоле; r.чЦел32(v, ложь); new.t := v;
			r.ПропустиБелоеПоле; r.чЦел32(v, ложь); new.r := v;
			r.ПропустиБелоеПоле; r.чЦел32(v, ложь); new.b := v;
			NotDefault;
			если ~WMRectangles.IsEqual(new, value) то
				value := new;
				Changed;
			всё;
			ReleaseWrite
		кон FromStream;

		проц {перекрыта}ToStream*(w : Потоки.Писарь);
		нач
			AcquireRead;
			w.пЦел64(value.l, 0); w.пСимв8(" "); w.пЦел64(value.t, 0); w.пСимв8(" ");
			w.пЦел64(value.r, 0); w.пСимв8(" "); w.пЦел64(value.b, 0);
			ReleaseRead
		кон ToStream;

		проц Get*() : WMRectangles.Rectangle;
		перем r : WMRectangles.Rectangle;
		нач
			AcquireRead;
			если nonDefault или (prototype = НУЛЬ) то r := value
			иначе r := prototype(RectangleProperty).Get()
			всё;
			ReleaseRead;
			возврат r
		кон Get;

		проц Set*(value : WMRectangles.Rectangle);
		нач
			AcquireWrite;
			если (сам.value.l # value.l) или (сам.value.t # value.t) или
				(сам.value.r # value.r) или (сам.value.b # value.b) то
				сам.value := value; Changed;
				если object # НУЛЬ то UpdateModel всё;
			аесли ~nonDefault то Changed
			всё;
			NotDefault;
			ReleaseWrite
		кон Set;

		проц SetPassive*(value : WMRectangles.Rectangle);
		нач
			AcquireWrite;
			если (сам.value.l # value.l) или (сам.value.t # value.t) или
				(сам.value.r # value.r) или (сам.value.b # value.b) то
				сам.value := value;
				NotDefault;
			всё;
			ReleaseWrite
		кон SetPassive;


		проц SetWidth*(w : размерМЗ);
		нач
			AcquireWrite;
			если GetWidth() # w то Changed всё; value.r := value.l + w; NotDefault;
			ReleaseWrite
		кон SetWidth;

		проц SetHeight*(h : размерМЗ);
		нач
			AcquireWrite;
			если GetHeight() # h то Changed всё; value.b := value.t + h; NotDefault;
			ReleaseWrite
		кон SetHeight;

		проц SetLeft*(l : размерМЗ);
		нач
			AcquireWrite;
			если value.l # l то Changed всё; value.r := l + GetWidth(); value.l := l; NotDefault;
			ReleaseWrite
		кон SetLeft;

		проц SetTop*(t : размерМЗ);
		нач
			AcquireWrite;
			если value.t # t то Changed всё; value.b := t + GetHeight(); value.t := t;  NotDefault;
			ReleaseWrite
		кон SetTop;

		проц SetRight*(r : размерМЗ);
		нач
			AcquireWrite;
			если value.r # r то Changed всё; value.r := r;  NotDefault;
			ReleaseWrite
		кон SetRight;

		проц SetBottom*(b : размерМЗ);
		нач
			AcquireWrite;
			если value.b # b то Changed всё; value.b := b; NotDefault;
			ReleaseWrite
		кон SetBottom;

		проц SetExtents*(w, h : размерМЗ);
		нач
			AcquireWrite; (* protective transaction *)
			SetWidth(w); SetHeight(h);
			ReleaseWrite
		кон SetExtents;

		проц GetWidth*() : размерМЗ;
		перем r : WMRectangles.Rectangle;
		нач
			r := Get();
			возврат r.r - r.l;
		кон GetWidth;

		проц GetHeight*() : размерМЗ;
		перем r : WMRectangles.Rectangle;
		нач
			r := Get();
			возврат r.b - r.t;
		кон GetHeight;

		проц GetLeft*() : размерМЗ;
		перем r : WMRectangles.Rectangle;
		нач
			r := Get();
			возврат r.l;
		кон GetLeft;

		проц GetTop*() : размерМЗ;
		перем r : WMRectangles.Rectangle;
		нач
			r := Get();
			возврат r.t;
		кон GetTop;

		проц GetRight*() : размерМЗ;
		перем r : WMRectangles.Rectangle;
		нач
			r := Get();
			возврат r.r;
		кон GetRight;

		проц GetBottom*() : размерМЗ;
		перем r : WMRectangles.Rectangle;
		нач
			r := Get();
			возврат r.b;
		кон GetBottom;

		проц GetExtents*(перем width, height : размерМЗ);
		перем r : WMRectangles.Rectangle;
		нач
			r := Get();
			width := r.r - r.l;
			height := r.b - r.t;
		кон GetExtents;

		проц {перекрыта}FromXML*(xml : XML.Element);
		перем en : XMLObjects.Enumerator; p : динамическиТипизированныйУкль; s: String;
		нач
			AcquireWrite;
			en := xml.GetContents();
			нцПока en.HasMoreElements() делай
				если en.HasMoreElements() то
					p := en.GetNext();
					если (p суть XML.Element) то
						s := p(XML.Element).GetName();
						если s # НУЛЬ то
							если s^ = "Left" то SetLeft(ReadCharDataInt(p(XML.Element)))
							аесли s^ = "Top" то SetTop(ReadCharDataInt(p(XML.Element)))
							аесли s^ = "Right" то SetRight(ReadCharDataInt(p(XML.Element)))
							аесли s^ = "Bottom" то SetBottom(ReadCharDataInt(p(XML.Element)))
							аесли s^ = "Width" то SetWidth(ReadCharDataInt(p(XML.Element)))
							аесли s^ = "Height" то SetHeight(ReadCharDataInt(p(XML.Element)))
							всё
						всё
					всё
				всё
			кц;
			Stamp;
			ReleaseWrite
		кон FromXML;


		проц {перекрыта}ToXML*(перем element: XML.Element);
		перем cs: массив 10 из симв8; sub: XML.Element; t: WMRectangles.Rectangle;
		нач
			если (GetName # НУЛЬ) и nonDefault то
				ToXML^(element);
				element.SetAttributeValue("loader","WMProperties.NewRectangle");
				t := Get();
				нов(sub); sub.SetName("Left"); element.AddContent(sub);
				sub.AddContent(NewIntChars(t.l));
				нов(sub); sub.SetName("Top");element.AddContent(sub);
				sub.AddContent(NewIntChars(t.t));
				нов(sub); sub.SetName("Width");element.AddContent(sub);
				sub.AddContent(NewIntChars(t.r-t.l));
				нов(sub); sub.SetName("Height");element.AddContent(sub);
				sub.AddContent(NewIntChars(t.b-t.t));
			всё;
		кон ToXML;

		проц {перекрыта}WriteXML*(w : Потоки.Писарь; context: динамическиТипизированныйУкль; indent : цел32);
		перем name : String; t : WMRectangles.Rectangle;
		нач
			name := GetName();
			если name = НУЛЬ то ЛогЯдра.пСтроку8("Nameless rectangle property encountered. Ignored"); ЛогЯдра.пВК_ПС; возврат всё;
			если nonDefault то
				t := Get();
				Indent(w, indent);w.пСимв8("<"); w.пСтроку8(name^); w.пСтроку8(' loader="WMProperties.NewRectangle"'); w.пСимв8(">"); w.пВК_ПС;
				Indent(w, indent + 1); w.пСтроку8("<Left>"); w.пЦел64(t.l, 0); w.пСтроку8("</Left>"); w.пВК_ПС;
				Indent(w, indent + 1); w.пСтроку8("<Top>"); w.пЦел64(t.t, 0); w.пСтроку8("</Top>"); w.пВК_ПС;
				Indent(w, indent + 1); w.пСтроку8("<Width>"); w.пЦел64(t.r-t.l, 0); w.пСтроку8("</Width>"); w.пВК_ПС;
				Indent(w, indent + 1); w.пСтроку8("<Height>"); w.пЦел64(t.b-t.t, 0); w.пСтроку8("</Height>"); w.пВК_ПС;
				Indent(w, indent); w.пСтроку8("</"); w.пСтроку8(name^); w.пСимв8(">"); w.пВК_ПС;
			всё
		кон WriteXML;

	кон RectangleProperty;

тип

	ReferenceProperty* = окласс(Property)
	перем
		(*
		object : Repositories.Component;

		repositoryName : Strings.String;
		componentName : Strings.String;
		generator : Strings.String;
		componentID : SIZE;
		*)
		(* temporary used in WriteXML *)
		level: цел32;

		проц &NewRef*(prototype : Property; name, info : String);
		нач
			New(prototype, name, info);
		кон NewRef;

		проц {перекрыта}FromStream*(r : Потоки.Чтец);
		перем
			fullname, repositoryName : массив 256 из симв8; componentName : массив 128 из симв8;
			writer : Потоки.Писарь; buffer : Strings.Buffer; ch : симв8;
		нач
			r.чЦепочкуСимволов8ДоБелогоПоляИлиВКавычках(fullname);
			если Repositories.IsCommandString(fullname) то
				AcquireWrite;
				сам.repositoryName := НУЛЬ;
				сам.componentName := НУЛЬ;
				componentID := 0;
				нов(buffer, 256); writer := buffer.GetWriter();
				writer.пСтроку8(fullname);
				нцПока (r.кодВозвратаПоследнейОперации = Потоки.Успех) делай
					r.чСимв8(ch); writer.пСимв8(ch);
				кц;
				сам.generator := buffer.GetString();
				ReleaseWrite;
			аесли Repositories.SplitName(fullname, repositoryName, componentName, сам.componentID) то
				AcquireWrite;
				NotDefault;
				сам.repositoryName := Strings.NewString(repositoryName);
				сам.componentName := Strings.NewString(componentName);
				generator := НУЛЬ;
				ReleaseWrite
			иначе
				AcquireWrite;
				сам.repositoryName := НУЛЬ;
				сам.componentName := НУЛЬ;
				componentID := 0;
				generator := НУЛЬ;
				ReleaseWrite
			всё;
		кон FromStream;

		проц {перекрыта}ToStream*(w : Потоки.Писарь);
		нач
			AcquireRead;
			если (generator # НУЛЬ) то
				w.пСтроку8(generator^);
			аесли (repositoryName # НУЛЬ) и (componentName # НУЛЬ) то
				w.пСтроку8(repositoryName^); w.пСтроку8(":"); w.пСтроку8(componentName^); w.пСтроку8(":"); w.пЦел64(componentID, 0);
			аесли  (object # НУЛЬ) то
				w.пВК_ПС;
				Indent(w,level); object.Write(w, НУЛЬ, level);
				w.пВК_ПС; Indent(w,level-1);
			всё;
			ReleaseRead
		кон ToStream;

		проц Get*() : Repositories.Component;
		перем object : Repositories.Component; context : Repositories.Context; res : целМЗ;
		нач
			AcquireRead;
			object := сам.object;
			ReleaseRead;
			(* late time generation of object for supporting of loading repositories *)
			если (object = НУЛЬ) то
				если (generator # НУЛЬ) то
					Repositories.CallCommand(generator^, context, res);
					если (res = Repositories.Ok) и (context.object # НУЛЬ) и (context.object суть Repositories.Component) то
						object := context.object(Repositories.Component);
						Set(object)
					всё;
				аесли (repositoryName # НУЛЬ) и (componentName # НУЛЬ) то
					Repositories.GetComponent(repositoryName^, componentName^, componentID, object, res);
					Set(object);
				аесли (componentName # НУЛЬ) и (repository # НУЛЬ) то
					object := repository.GetComponent(componentName^, componentID);
					Set(object);
				всё;
			всё;
			возврат object
		кон Get;

		проц Set*(object : Repositories.Component);
		нач
			AcquireWrite; (* TBD: Store object to repository *)
			если (сам.object # object) то
				ReplaceLink(object); Changed;
			аесли ~ nonDefault то Changed всё;
			NotDefault;
			ReleaseWrite;
		кон Set;

		(* set without updates -- use only when you definitely want to avoid updates *)
		проц SetPassive*(object : Repositories.Component);
		нач
			AcquireWrite;
			ReplaceLink(object);
			NotDefault;
			ReleaseWrite
		кон SetPassive;

	проц {перекрыта}LinkChanged(sender, object: динамическиТипизированныйУкль);
		нач
			если (list # НУЛЬ) то list.onLinkChanged.CallWithSender(сам,object) всё;
		кон LinkChanged;

		проц SetAsString*(конст string : массив из симв8);
		нач
			SetLinkAsString(string)
		кон SetAsString;

		проц GetAsString*(перем string : массив из симв8);
		нач
			GetLinkAsString(string)
		кон GetAsString;

		проц {перекрыта}Reset*;
		нач
			AcquireWrite;
			ReplaceLink(НУЛЬ);
			repositoryName := НУЛЬ; componentName := НУЛЬ; componentID := 0;
			generator := НУЛЬ;
			NotDefault;
			Changed;
			ReleaseWrite;
		кон Reset;

		проц {перекрыта}FromXML*(xml : XML.Element);
		перем en : XMLObjects.Enumerator; p : динамическиТипизированныйУкль; s : String;
		нач
			ReplaceLink(НУЛЬ);
			object := НУЛЬ;
			repositoryName := НУЛЬ; componentName := НУЛЬ;
			componentID := 0;
			en := xml.GetContents();
			p := en.GetNext();
			NotDefault;

			если (p # НУЛЬ ) и (p суть XML.Chars) то
				s := p(XML.Chars).GetStr();
				если s # НУЛЬ то
					Strings.Trim(s^, " ");
					SetAsString(s^);
					object := Get();
				всё
			аесли (p # НУЛЬ) и (p суть XML.Element) то
				ReplaceLink( Repositories.ComponentFromXML(p(XML.Element)));
			всё
		кон FromXML;

		проц {перекрыта}ToXML*(перем element: XML.Element);
		перем cs: массив 10 из симв8; sub: XML.Element; t: WMRectangles.Rectangle;
		нач
			если (GetName # НУЛЬ) и nonDefault то
				ToXML^(element);
				element.SetAttributeValue("loader","WMProperties.NewReference");
				(*??? how to represent this ? *)
			всё;
		кон ToXML;

		проц {перекрыта}WriteXML*(w : Потоки.Писарь; context: динамическиТипизированныйУкль;  indent : цел32);
		перем name : String; id: размерМЗ; res: целМЗ; repository: Repositories.Repository; objectName: String;
		нач
			name := GetName();
			если name = НУЛЬ то ЛогЯдра.пСтроку8("Nameless boolean property encountered. Ignored"); ЛогЯдра.пВК_ПС; возврат всё;
			если nonDefault то
				Indent(w, indent);
				level := indent+1;
				w.пСимв8("<"); w.пСтроку8(name^); w.пСтроку8(' loader="WMProperties.NewReference"'); w.пСимв8(">");
				если (context # НУЛЬ) и (context суть Repositories.StoreContext) и (object # НУЛЬ) то
					repository := context(Repositories.StoreContext).repository;
					id := 1;
					objectName := object.GetName();
					если (objectName=НУЛЬ) или (objectName^="") то objectName :=anonymous всё;
					repository.PutComponent(object, objectName^,id,res);
					w.пСтроку8(":"); (* <-- THIS repository *) w.пСтроку8(objectName^); w.пСтроку8(":"); w.пЦел64(id, 0);
				иначе
					ToStream(w);
				всё;
				w.пСтроку8("</"); w.пСтроку8(name^); w.пСимв8(">"); w.пВК_ПС;
			всё
		кон WriteXML;

		проц {перекрыта}Finalize*;
		нач
			AcquireWrite;
			ReplaceLink(НУЛЬ);
			ReleaseWrite;
		кон Finalize;

	кон ReferenceProperty;

тип

	PropertyArray* = укль на массив из Property;

	PropertyList* = окласс
	перем
		properties : PropertyArray;
		nofProperties- : цел32;
		onPropertyChanged- : WMEvents.EventSource;
		onLinkChanged-: WMEvents.EventSource;
		lock : Locks.RWLock;
		upNofChanges : цел32;
		upChanged : Property;

		propertyChanged, linkChanged: WMEvents.EventListener;

		проц &New*;
		нач
			нов(properties, 8);
			нов(onPropertyChanged, сам, StringProperties, StringPropertiesInfo, НУЛЬ);
			нов(onLinkChanged, сам, StringLinks, StringLinksInfo, НУЛЬ);
			нов(lock)
		кон New;

		(** acquire a write lock on the object *)
		проц AcquireWrite*;
		нач
			lock.AcquireWrite
		кон AcquireWrite;

		(** release the write lock on the object *)
		проц ReleaseWrite*;
		перем
			removeLock : булево;
			changed : Property; nofChanges : цел32;
		нач
			removeLock := lock.GetWLockLevel() = 1;
			если removeLock то
				changed := upChanged; nofChanges := upNofChanges;
				upNofChanges := 0; upChanged := НУЛЬ;
			всё;
			lock.ReleaseWrite;
			если removeLock то
				если nofChanges = 1 то onPropertyChanged.Call(changed)
				аесли nofChanges > 0 то onPropertyChanged.Call(сам)
				всё
			всё
		кон ReleaseWrite;

		проц AcquireRead;
		нач
			lock.AcquireRead
		кон AcquireRead;

		проц ReleaseRead;
		нач
			lock.ReleaseRead
		кон ReleaseRead;

		проц Add*(x : Property);
		нач
			AcquireWrite;
			x.list := сам;
			если nofProperties = длинаМассива(properties) то Grow всё;
			properties[nofProperties] := x;
			увел(nofProperties);
			ReleaseWrite
		кон Add;

		проц Remove*(x : Property);
		перем i : цел32;
		нач
			AcquireWrite;
			i := 0; нцПока (i < nofProperties) и (properties[i] # x) делай увел(i) кц;
			если i < nofProperties то
				нцПока (i < nofProperties - 1) делай properties[i] := properties[i + 1]; увел(i) кц;
				умень(nofProperties);
				properties[nofProperties] := НУЛЬ
			всё;
			ReleaseWrite
		кон Remove;

		проц Get*(конст name : массив из симв8) : Property;
		перем property : Property; n : String; i : цел32;
		нач
			AcquireRead;
			i := 0; property := НУЛЬ;
			нцПока (i < nofProperties) и (property = НУЛЬ) делай
				n := properties[i].GetName();
				если (n # НУЛЬ) и (n^ = name) то
					property := properties[i];
				всё;
				увел(i);
			кц;
			ReleaseRead;
			возврат property;
		кон Get;

		проц Grow;
		перем new: PropertyArray; i : цел32;
		нач
			нов(new, длинаМассива(properties) * 2);
			нцДля i := 0 до nofProperties - 1 делай new[i] := properties[i] кц;
			properties := new
		кон Grow;

		проц Enumerate*() : PropertyArray;
		перем current : PropertyArray; i : цел32;
		нач
			AcquireWrite;
			нов(current, nofProperties);
			нцДля i := 0 до nofProperties - 1 делай current[i] := properties[i] кц;
			ReleaseWrite;
			возврат current
		кон Enumerate;

		проц HasProperty*(конст name : массив из симв8) : булево;
		перем n : Strings.String; found : булево; i : цел32;
		нач
			found := ложь;
			AcquireRead;
			i := 0;
			нцПока ~found и (i < nofProperties) делай
				n := properties[i].GetName();
				found := (n # НУЛЬ) и (n^ = name);
				увел(i);
			кц;
			ReleaseRead;
			возврат found;
		кон HasProperty;

		проц GetPropertyValue*(конст name : массив из симв8; перем value : массив из симв8) : булево;
		перем i : цел32; n : String; vs : Потоки.ПисарьВСтроку8ФиксированногоРазмера; len : размерМЗ;
		нач
			AcquireRead;
			i := 0;
			нцПока i < nofProperties делай
				n := properties[i].GetName();
				если (n # НУЛЬ) и (n^ = name) то
					len := длинаМассива(value);
					нов(vs, длинаМассива(value)); vs.ДайПрочитанное˛сколькоПоместится(value, len);
					properties[i].ToStream(vs);
					vs.ДайПрочитанное˛сколькоПоместитсяИСимвол0(value);
					ReleaseRead;
					возврат истина;
				всё;
				увел(i);
			кц;
			ReleaseRead;
			возврат ложь;
		кон GetPropertyValue;

		проц SetPropertyValue*(конст name, value: массив из симв8) : булево;
		перем i : цел32; n : String; vs : Потоки.ЧтецИзСтроки;
		нач
			AcquireWrite;
			i := 0;
			нцПока i < nofProperties делай
				n := properties[i].GetName();
				если (n # НУЛЬ) и (n^ = name) то
					нов(vs, длинаМассива(value)); vs.ПримиСрезСтроки8ВСтрокуДляЧтения(value, 0, длинаМассива(value));
					properties[i].FromStream(vs); i := nofProperties
				всё;
				увел(i)
			кц;
			ReleaseWrite;
			возврат (i > nofProperties) (* if no success, then i=nofProperties;  patch PH 06/12 *)
		кон SetPropertyValue;

		проц SetXML*(xml : XML.Element);
		перем
			en : XMLObjects.Enumerator;
			p : динамическиТипизированныйУкль; s, n : String; i : цел32;
			repository: Repositories.Repository;
		нач
			AcquireWrite;
			если xml суть Repositories.Properties то repository := xml(Repositories.Properties).repository иначе repository := НУЛЬ всё;
			en := xml.GetContents();
			нцПока en.HasMoreElements() делай
				p := en.GetNext();
				если p суть XML.Element то
					s := p(XML.Element).GetName();
					i := 0;
					нцПока i < nofProperties делай
						properties[i].repository := repository;
						n := properties[i].GetName();
						если (n # НУЛЬ) и (n^ = s^) то
							properties[i].FromXML(p(XML.Element)); i := nofProperties
						всё;
						увел(i)
					кц
				всё
			кц;
			ReleaseWrite
		кон SetXML;

		проц FromXML*(xml: XML.Element);
		перем generator: проц(): Property;
		перем
			property: Property;
			l: Strings.String;
			en : XMLObjects.Enumerator;
			p : динамическиТипизированныйУкль; s, n : String; i : цел32;
			moduleName, procedureName: Modules.Name;
			res: целМЗ; msg: массив 32 из симв8;
			found: булево;
		нач
			если xml # НУЛЬ то
				AcquireWrite;
				en := xml.GetContents();
				нцПока en.HasMoreElements() делай
					p := en.GetNext();
					если p суть XML.Element то
						s := p(XML.Element).GetName();

						(* check if property is already there (and potentially linked in application, in which case it should not be reinstalled *)
						i := 0; found := ложь;
						нцПока (i < nofProperties) и ~found делай
							n := properties[i].GetName();
							если (n # НУЛЬ) и (n^ = s^) то
								found := истина;
								properties[i].FromXML(p(XML.Element)); i := nofProperties
							всё;
							увел(i)
						кц;
						если ~found то
							l := p(XML.Element).GetAttributeValue("loader");
							если l # НУЛЬ то
								Commands.Split(l^, moduleName, procedureName, res, msg);
								если (res = Commands.Ok) то
									дайПроцПоИмени(moduleName, procedureName, generator);
									если (generator # НУЛЬ) то
										property := generator();
										если (property # НУЛЬ) то
											property.New(НУЛЬ, s, НУЛЬ);
											property.FromXML(p(XML.Element));
											Add(property);
										всё;
									всё;
								всё;
							всё;
						всё;
					всё
				кц;
				ReleaseWrite
			всё;
		кон FromXML;

		проц ToXML*(перем element: XML.Element);
		перем sub: XML.Element; i : цел32; self: динамическиТипизированныйУкль;
		нач
			нов(element); element.SetName("Properties");
			нцДля i := 0 до nofProperties-1 делай
				sub := НУЛЬ;
				properties[i].ToXML(sub);
				если sub # НУЛЬ то
					element.AddContent(sub);
				всё;
			кц;
		кон ToXML;

		проц WriteXML*(w : Потоки.Писарь; context: динамическиТипизированныйУкль; indent : цел32);
		перем i : цел32;
		нач
			w.пВК_ПС;
			Indent(w, indent + 1);
			w.пСтроку8("<Properties>"); w.пВК_ПС;
			AcquireRead;

			нцДля i := 0 до nofProperties - 1 делай
				properties[i].WriteXML(w, context, indent + 2)
			кц;
			Indent(w, indent + 1);
			w.пСтроку8("</Properties>");
			ReleaseRead
		кон WriteXML;

		(*
		PROCEDURE ToRepository*(CONST repository: ARRAY OF CHAR; w : Streams.Writer; indent : SIGNED32);
		VAR i : SIGNED32;
		BEGIN
			w.Ln;
			Indent(w, indent + 1);
			w.String("<Properties>"); w.Ln;
			AcquireRead;
			FOR i := 0 TO nofProperties - 1 DO
				properties[i].ToRepository(repository, w, indent + 2)
			END;
			Indent(w, indent + 1);
			w.String("</Properties>");
			ReleaseRead
		END ToRepository;
		*)

		проц Changed(p : Property);
		нач (* {EXCLUSIVE} *)
			если p # upChanged то увел(upNofChanges); upChanged := p всё;
		кон Changed;

		проц Finalize*;
		перем i: цел32;
		нач
			AcquireWrite;
			нцДля i := 0 до nofProperties - 1 делай
				properties[i].Finalize
			кц;
			ReleaseWrite;
		кон Finalize;


	кон PropertyList;

	Properties* = Repositories.Properties;
перем
	StringProperties, StringLinks : String;
	StringPropertiesInfo, StringLinksInfo : String;
	anonymous: String;

проц Indent(w : Потоки.Писарь; indent : цел32);
перем i : цел32;
нач
	нцДля i := 0 до indent - 1 делай w.пСимв8(9X) кц
кон Indent;

проц ReadCharDataInt(xml : XML.Element) : цел32;
перем en : XMLObjects.Enumerator;
	p : динамическиТипизированныйУкль; s : String; value : цел32;
нач
	value := 0;
	en := xml.GetContents();
	если en.HasMoreElements() то
		p := en.GetNext();
		если p суть XML.Chars то
			s := p(XML.Chars).GetStr();
			если s # НУЛЬ то Strings.StrToInt(s^, value) всё
		всё;
	всё;
	возврат value
кон ReadCharDataInt;

проц NewIntChars(i: цел64): XML.Chars;
перем chars: XML.ArrayChars; s: массив 32 из симв8;
нач
	нов(chars);
	Strings.IntToStr(i, s);
	chars.SetStr(s);
	возврат chars
кон NewIntChars;


проц NewBoolean*(): Property;
перем property: BooleanProperty;
нач нов(property,НУЛЬ,НУЛЬ,НУЛЬ); возврат property
кон NewBoolean;

проц NewSet*(): Property;
перем property: SetProperty;
нач нов(property,НУЛЬ,НУЛЬ,НУЛЬ); возврат property
кон NewSet;

проц NewInt32*(): Property;
перем property: Int32Property;
нач нов(property,НУЛЬ,НУЛЬ,НУЛЬ); возврат property
кон NewInt32;

проц NewInteger*(): Property;
перем property: IntegerProperty;
нач нов(property,НУЛЬ,НУЛЬ,НУЛЬ); возврат property
кон NewInteger;

проц NewSize*(): Property;
перем property: SizeProperty;
нач нов(property,НУЛЬ,НУЛЬ,НУЛЬ); возврат property
кон NewSize;

проц NewReal*(): Property;
перем property: RealProperty;
нач нов(property,НУЛЬ,НУЛЬ,НУЛЬ); возврат property
кон NewReal;

проц NewString*(): Property;
перем property: StringProperty;
нач нов(property,НУЛЬ,НУЛЬ,НУЛЬ); возврат property
кон NewString;

проц NewColor*(): Property;
перем property: ColorProperty;
нач нов(property,НУЛЬ,НУЛЬ,НУЛЬ); возврат property
кон NewColor;

проц NewFont*(): Property;
перем property: FontProperty;
нач нов(property,НУЛЬ,НУЛЬ,НУЛЬ); возврат property
кон NewFont;

проц NewPoint*(): Property;
перем property: PointProperty;
нач нов(property,НУЛЬ,НУЛЬ,НУЛЬ); возврат property
кон NewPoint;

проц NewRectangle*(): Property;
перем property: RectangleProperty;
нач нов(property,НУЛЬ,НУЛЬ,НУЛЬ); возврат property
кон NewRectangle;

проц NewReference*(): Property;
перем property: ReferenceProperty;
нач нов(property,НУЛЬ,НУЛЬ,НУЛЬ); возврат property
кон NewReference;

(* Get a model from either a property reference or a model pointer *)
проц GetModel*(ref: динамическиТипизированныйУкль; перем m: Models.Model): булево;
нач
	если (ref # НУЛЬ) и (ref суть ReferenceProperty) то ref := ref(ReferenceProperty).Get() всё;
	если (ref # НУЛЬ) и (ref суть Models.Model) то m := ref(Models.Model); возврат истина всё;
	возврат ложь
кон GetModel;

нач
	StringProperties := Strings.NewString("PropertyChanged");
	StringLinks := Strings.NewString("LinkChanged");
	StringPropertiesInfo := Strings.NewString("the event is called if a property in the list is changed");
	StringLinksInfo := Strings.NewString("the event is called if a link in a reference property in the list is changed");
	anonymous := Strings.NewString("ANONYMOUS");
кон WMProperties.

