модуль WMWindowManager;	(** AUTHOR "TF"; PURPOSE "Generic window manager"; *)

использует
	Modules, ЛогЯдра, Plugins, Locks, Strings, Messages := WMMessages, Graphics := WMGraphics, Raster, Rectangles := WMRectangles;

конст
	FlagFrame* = 0; (** The window has a frame *)
	FlagClose* = 1; (** The window offers a close button; only frame windows *)
	FlagMinimize* = 2; (** The window offers a minimize button; only frame windows *)
	FlagStayOnTop* = 3; (** The window will always stay above all non stay on top windows *)
	FlagNonDispatched* = 4; (** The window has no message queue --> BE CAREFUL *)
	FlagNoFocus* = 5; (** The window can never get the keyboard focus *)
	FlagDecorWindow* = 6; (** The window is a decor window, associated to a master window *)
	FlagStayOnBottom* = 7; (** The window can not be moved up *)
	FlagNavigation* = 8; (** The window will always appear at the same position/size on the screen independent of the range of the viewport displaying it. *)
	FlagHidden* = 9; (** This flag indicates whether a window should be managed by window navigation tools. It does not influence the visibiliy or behaviour of the window *)
	FlagNoResizing* = 10; (** If set, window resizing is disabled *)
	FlagNoPointer*=11; (* if set, in window there will be no pointer visible --> touch screens *)
	FlagStorable*=12; (* window storable*)

	SizeMinHeight = 3; (* Minimum height of a window *)
	SizeMinWidth = 3; (* Minimum width of a window *)

	(* result codes for Window.OpenDocument *)
	Ok* = 0;
	Error* = 1;
	NotSupported* = 2;

	(* Window position for new windows added *)
	X0 = 30;
	Y0 = 80;

тип
	Rectangle = Rectangles.Rectangle;
	String = Strings.String;
	Message = Messages.Message;
	RealRect* = запись l*, t*, r*, b* : вещ32 кон;

	PointerInfo* = окласс
	перем hotX*, hotY* : цел32; img* : Graphics.Image;
	кон PointerInfo;

	(**	All fields are read-only except for the module SkinEngine.Mod!
		Modifications of the instance that is owned by the window manager require
		the window manager write lock being held!
		Most of the information is used by WMDefaultWindows.Mod *)
	WindowStyle* = окласс
	перем
		(** use bitmaps for frame windows? *)
		useBitmaps* : булево;

		(** frame color if not using bitmaps (a = active, i = inactive) *)
		baCol*, biCol* : цел32;

		(** frame shading width if not using bitmaps (a = active, i = inactive) *)
		basw*, bisw* : цел32;

		(** height / width of frame windows th = top height, bh = bottom height, lw = left width, rw = right width *)
		th*, bh*, lw*, rw* : размерМЗ;

		(** frame window bitmaps
			1st letter:	t = top, l = left, r = right, b = bottom decor window
			2nd letter:	a = active, i = inactive
			3rd letter:	a = left bitmap, b = middle bitmap (repeated), c = right bitmap
		*)
		taa*, tab*, tac*, tia*, tib*, tic*,
		laa*, lab*, lac*, lia*, lib*, lic*,
		raa*, rab*, rac*, ria*, rib*, ric*,
		baa*, bab*, bac*, bia*, bib*, bic* : Graphics.Image;

		(** Close and minimize button images (a = active, i = inactive) *)
		ca*, ci*, closeHover*,
		ma*, mi*, minimizeHover* : Graphics.Image;

		minimizeOffset* : цел32; (** offset correction for minimize button *)

		(** Window title position and color (a = active, i = inactive) *)
		atextX*, atextY*, atextColor*, itextX*, itextY*, itextColor* : цел32;

		bgColor*, fgColor*, selectCol*, desktopColor* : Graphics.Color;

		topFocusThreshold*, topThreshold*, bottomFocusThreshold*, bottomThreshold*,
		leftFocusThreshold*, leftThreshold*, rightFocusThreshold*, rightThreshold* : цел32;

		(* Initialize/reset to zero-style for windows *)
		проц &Init*;
		нач
			useBitmaps := ложь;
			baCol := 0FFFFH; biCol := 0FF40H;
			basw := 4; bisw := 3;
			th := 20; bh := 3; lw := 3; rw := 3;

			(* images *)
			taa := НУЛЬ; tab := НУЛЬ; tac := НУЛЬ; tia := НУЛЬ; tib := НУЛЬ; tic := НУЛЬ;
			laa := НУЛЬ; lab := НУЛЬ; lac := НУЛЬ; lia := НУЛЬ; lib := НУЛЬ; lic := НУЛЬ;
			raa := НУЛЬ; rab := НУЛЬ; rac := НУЛЬ; ria := НУЛЬ; rib := НУЛЬ; ric := НУЛЬ;
			baa := НУЛЬ; bab := НУЛЬ; bac := НУЛЬ; bia := НУЛЬ; bib := НУЛЬ; bic := НУЛЬ;
			ca := Graphics.LoadImage("ZeroSkin.zip://aclose.png", истина);
			ci := Graphics.LoadImage("ZeroSkin.zip://iclose.png", истина);
			closeHover := НУЛЬ;
			ma := НУЛЬ; mi := НУЛЬ; minimizeHover := НУЛЬ;
			minimizeOffset := 0;

			(* window caption *)
			atextX := 5; atextY := 15; atextColor := цел32(0FFFF00FFH);
			itextX := 5; itextY := 15; itextColor := 04444FFH;

			(* desktop *)
			bgColor := цел32(08080FFFFH);
			fgColor := 0000000FFH;
			selectCol := 0FFFFH;
			desktopColor := цел32(08080FFFFH);

			topFocusThreshold := 0; topThreshold := 0;
			bottomFocusThreshold := 0; bottomThreshold := 0;
			leftFocusThreshold := 0; leftThreshold := 0;
			rightFocusThreshold := 0; rightThreshold := 0;
		кон Init;

		(** calculate distances from images *)
		проц Initialize*;
		нач
			если useBitmaps то
				если tab # НУЛЬ то th := tab.height всё;
				если bab # НУЛЬ то bh := bab.height всё;
				если lab # НУЛЬ то lw := lab.width всё;
				если rab # НУЛЬ то rw := rab.width всё;
			всё
		кон Initialize;

	кон WindowStyle;

	DragInfo* = окласс
	перем
		data*, sender* : динамическиТипизированныйУкль;
		onAccept*, onReject* : Messages.CompCommand;
		offsetX*, offsetY*: размерМЗ;
	кон DragInfo;

	(** List of decoration - windows to a master window *)
	DecorList* = окласс
	перем next* : DecorList;
		w* : Window;
	кон DecorList;

	(** A message preview procedure can set discard to TRUE to discard the message *)
	MessagePreviewProc* = проц (перем msg : Message; перем discard : булево);
	MessagePreviewList* = окласс
	перем proc*: MessagePreviewProc;
			next*:MessagePreviewList;
	кон MessagePreviewList;

	DocumentInfo* = запись
		id* : цел32;
		name* : массив 32 из симв8; (* if name = "", this document info is not valid *)
		fullname* : массив 256 из симв8;
		modified*, hasFocus* : булево;
	кон;

	VisualComponentInfo* = запись
		width*, height* : цел32; (* preferred width and height of visual component *)
		generator* : проц {делегат} () : динамическиТипизированныйУкль; (* NIL if no visual component available *)
	кон;

	(** A window may provide information about currently opened documents. Additionally, it can provide a visual component that controls it. *)
	WindowInfo* = запись
		openDocuments* : массив 16 из DocumentInfo;
		handleDocumentInfo* : проц {делегат} (конст info : DocumentInfo; new : булево; перем res : целМЗ);
		vc* : VisualComponentInfo;
	кон;

	WindowInfoPtr = укль на WindowInfo;

	Window* = окласс
	перем
		id- : цел32;

		timestamp* : цел32; (* incremented at each call of procedure Draw *)

		(** Ranges in global coordinates *)
		bounds* : Rectangle; (** current range *)
		initialBounds* : Rectangle; (** range at window creation *)
		normalBounds* : Rectangle; (** range before toggling to fullscreen *)

		manager* : WindowManager;
		sequencer- : Messages.MsgSequencer;

		(** window state that may only be accessed by the window manager *)
		prev*, next* : Window; (** previous and next  window in z order *)
		title : String; (* window title *)
		info* : WindowInfoPtr;
		master* : Window; (** is only set if the window is a decor window *)
		view* : ViewPort;
		decor* : DecorList;
		flags* : мнвоНаБитахМЗ;
		icon* : Graphics.Image; (** Optional icon for Window *)
		topW*, bottomW*, leftW*, rightW* : Window; (** Optional decor windows *)
		useAlpha* : булево;
		isVisible* : булево;
		pointerInfo- : PointerInfo;
		acceptDrag : булево;
		reduceQuality- : булево;

		проц &Init*(w, h : размерМЗ; alpha : булево);
		нач
			id := GetId();
			timestamp := 0;
			bounds := Rectangles.MakeRect(0, 0, w, h);
			initialBounds := bounds;
			normalBounds := bounds;
			manager := НУЛЬ; sequencer := НУЛЬ;
			prev := НУЛЬ; next := НУЛЬ;
			title := НУЛЬ;
			info := НУЛЬ;
			master := НУЛЬ; decor := НУЛЬ;
			view := НУЛЬ;
			flags := {};
			icon := НУЛЬ;
			topW := НУЛЬ; bottomW := НУЛЬ; leftW := НУЛЬ; rightW := НУЛЬ;
			useAlpha := alpha;
			isVisible := истина;
			pointerInfo := НУЛЬ;
			acceptDrag := ложь;
			reduceQuality := ложь;
		кон Init;
		
		проц SetSequencer*(inSeq: Messages.MsgSequencer );
		нач
			sequencer := inSeq;
		кон SetSequencer;

		проц IsCallFromSequencer*() : булево;
		нач
			возврат (sequencer # НУЛЬ) и (sequencer.IsCallFromSequencer())
		кон IsCallFromSequencer;

		(** Return the window manager that handles the window *)
		проц GetManager*() : WindowManager;
		нач
			возврат manager
		кон GetManager;

		(** Set the window title as UTF8 string. *)
		проц SetTitle*(title : String);
		нач
			если manager # НУЛЬ то manager.SetWindowTitle(сам, title) иначе сам.title := title всё
		кон SetTitle;

		(** Return the title as UTF8 string. Returns NIL if no title is set *)
		проц GetTitle*() : String;
		нач
			если manager # НУЛЬ то возврат manager.GetWindowTitle(сам) иначе возврат title всё
		кон GetTitle;

		проц SetIcon*(icon : Graphics.Image);
		нач
			если (manager # НУЛЬ) то manager.SetWindowIcon(сам, icon); иначе сам.icon := icon; всё;
		кон SetIcon;

		(** Return the height in client space *) (* go via manager *)
		проц GetHeight*() : размерМЗ;
		нач
			возврат bounds.b - bounds.t
		кон GetHeight;

		(** Return the width in client space *) (* go via manager *)
		проц GetWidth*() : размерМЗ;
		нач
			возврат bounds.r - bounds.l
		кон GetWidth;

		проц SetInfo*(конст info : WindowInfo);
		нач
			если (manager # НУЛЬ) то
				manager.SetWindowInfo(сам, info);
			иначе
				если (сам.info = НУЛЬ) то нов(сам.info); всё;
				сам.info^ := info;
			всё;
		кон SetInfo;

		проц GetInfo*(перем info : WindowInfo) : булево;
		перем infoPtr : WindowInfoPtr;
		нач
			если (manager # НУЛЬ) то
				возврат manager.GetWindowInfo(сам, info);
			иначе
				infoPtr := сам.info;
				если (infoPtr # НУЛЬ) то
					info := infoPtr^;
				всё;
				возврат (infoPtr # НУЛЬ);
			всё;
		кон GetInfo;

		(** Resize is called by the WM if it wants to resize the window.
			width and height contain the desired new size. The Window should set width and height to acceptable
			values or return the current size, if resize is not supported *)
		проц Resizing*(перем width, height : размерМЗ);
		нач
			если FlagNoResizing в flags то
				width := GetWidth(); height := GetHeight();
			иначе
				если width < SizeMinWidth то
					width := GetWidth();
				всё;
				если height < SizeMinHeight то
					height := GetHeight();
				всё;
			всё;
		кон Resizing;

		(** May replace the back-image, if needed. MUST check if requested size is reasonable (0 < x * y < memory) *)
		проц Resized*(width, height : размерМЗ);
		кон Resized;

		(** Invalidate a rectangle in window coordinates*)
		проц Invalidate*(rect : Rectangle);
		нач
			Rectangles.MoveRel(rect, bounds.l, bounds.t);
			Rectangles.ClipRect(rect, bounds);
			если manager # НУЛЬ то manager.AddVisibleDirty(сам, rect) всё
		кон Invalidate;

(** Message procedures *)
	(** Pointer Messages *)
		(** PointerDown is called via the generic message handler if the pointer (or a mouse button) is pressed down and
			a) the pointer is in the bounding box of the window AND IsHit returns TRUE for this position
			or
			b) another mouse button was pressed down on a position where a) was met and has not yet been released.

			x and y are in window coordinates but may lie out of the window boundaries in case b)
			keys is the set of buttons that are down
		*)
		проц PointerDown*(x, y : размерМЗ; keys : мнвоНаБитахМЗ);
		кон PointerDown;

		(** PointerMove is called via the generic message handler if the pointer (mouse) is moved and
			a) the pointer is in the bounding box of the window AND IsHit returns TRUE for this position
			or
			b) the pointer was pressed down on a position where a) was met and has not yet been released.

			x and y are in window coordinates but may lie out of the window boundaries.
			keys is the set of buttons that are down
		*)
		проц PointerMove*(x, y : размерМЗ; keys : мнвоНаБитахМЗ);
		кон PointerMove;

		проц WheelMove*(dz : размерМЗ);
		кон WheelMove;

		(** PointerUp is called via the generic message handler if the pointer (or a mouse button) went up.
			x and y are in window coordinates but may lie out of the window boundaries.
			keys is the set of buttons that are STILL DOWN
		*)
		проц PointerUp*(x, y : размерМЗ; keys : мнвоНаБитахМЗ);
		кон PointerUp;

		(** PointerLeave is called via the generic message handler if the pointer has left the window with no button pressed. *)
		проц PointerLeave*;
		кон PointerLeave;

		(** DragOver is called via the message handler. *)
		проц DragOver*(x, y: размерМЗ; dragInfo : DragInfo);
		кон DragOver;

		(** Dropped is called via the message handler to indicate an item has been dropped. *)
		проц DragDropped*(x, y: размерМЗ; dragInfo : DragInfo);
		кон DragDropped;

		(** send the srcWindow a confirmation for the completed drag operation *)
		проц ConfirmDrag*(accept : булево; dragInfo : DragInfo);
		нач
			если dragInfo # НУЛЬ то
				если accept то
					если dragInfo.onAccept # НУЛЬ то dragInfo.onAccept(сам, dragInfo) всё
				иначе
					если dragInfo.onReject # НУЛЬ то dragInfo.onReject(сам, dragInfo) всё
				всё
			всё
		кон ConfirmDrag;

		(** Start a drag operation. *)
		проц StartDrag*(sender, data : динамическиТипизированныйУкль; img : Graphics.Image; offsetX, offsetY: размерМЗ; onAccept, onReject : Messages.CompCommand) : булево;
		нач
			возврат manager.StartDrag(сам, sender, data, img, offsetX, offsetY, onAccept, onReject)
		кон StartDrag;

(** Keyboard message *)

		(** KeyEvent is called via the generic message handler to signal a keyboard event.
			The window can determine wheter the key was pressed or released by examining the
			Inputs.Release flag in flags. ucs contains the unicode equivalent of the key. Special input editors
			send the generated unicode characters via KeyEvent.  *)
		проц KeyEvent*(ucs : размерМЗ; flags : мнвоНаБитахМЗ; keysym : размерМЗ);
		кон KeyEvent;

(**  Focus messages *)

		(** FocusGot is called via the generic message handler if the keyboard focus is transfered to this window *)
		проц FocusGot*;
		кон FocusGot;

		(** FocusList is called via the generic message handler if the keyboard focus is transfered to some other window *)
		проц FocusLost*;
		кон FocusLost;

(** Style *)

		(** StyleChanged is called via the generic message handler if a change in the global style occurs. The
			Window should read all the style information it relies on and redraw itself *)
		проц StyleChanged*;
		кон StyleChanged;

(** Closing *)

		проц CanClose*() : булево;
		нач
			возврат истина
		кон CanClose;

		(** Close is called via the generic message handler. *)
		проц Close*;
		нач
			если manager # НУЛЬ то manager.Remove(сам) всё;
		кон Close;

		(** Return true if the window is hit at the coordinates x and y (in window coordinates). Use
			this to generate non-rectangular windows.
			This Method will be called directly by the window manager. __> Don't block, don't crash !!
			*)
		проц IsHit*(x, y : размерМЗ) : булево;
		нач
			возврат истина
		кон IsHit;

		проц SetPointerInfo*(pi : PointerInfo);
		нач
			если FlagNoPointer в flags то pi := pointerNull всё;
			если pi # pointerInfo то
				pointerInfo := pi;
				если manager # НУЛЬ то manager.CheckPointerImage всё;
			всё
		кон SetPointerInfo;

		(** Generic message handler distributes messages to the different msg-handler methods *)
		проц Handle*(перем m : Message);
		нач
			если m.msgType = Messages.MsgKey то
				KeyEvent(m.x(цел32), m.flags, m.y(цел32))
			аесли m.msgType = Messages.MsgPointer то
				(* global to local transformation by sequencer thread: *)
				m.x := m.x-bounds.l;
				m.y := m.y-bounds.t;
				если m.msgSubType = Messages.MsgSubPointerMove то
					если (m.dz # 0) то WheelMove(m.dz) всё;
					PointerMove(m.x, m.y, m.flags)
				аесли m.msgSubType = Messages.MsgSubPointerDown то PointerDown(m.x, m.y, m.flags)
				аесли m.msgSubType = Messages.MsgSubPointerUp то PointerUp(m.x, m.y, m.flags)
				аесли m.msgSubType = Messages.MsgSubPointerLeave то PointerLeave
				всё
			аесли m.msgType = Messages.MsgDrag то
				если m.msgSubType = Messages.MsgDragOver то
					если (m.ext # НУЛЬ) то
						DragOver(m.x, m.y, m.ext(DragInfo))
					всё
				аесли m.msgSubType = Messages.MsgDragDropped то
					если (m.ext # НУЛЬ) то
						DragDropped(m.x, m.y, m.ext(DragInfo))
					всё
				всё
			аесли m.msgType = Messages.MsgClose то Close
			аесли m.msgType = Messages.MsgFocus то
				если m.msgSubType = Messages.MsgSubFocusGot то FocusGot
				аесли m.msgSubType = Messages.MsgSubFocusLost то FocusLost
				всё
			аесли m.msgType = Messages.MsgStyleChanged то StyleChanged
			аесли m.msgType = Messages.MsgResized то Resized(m.x, m.y)
			всё;
		кон Handle;

		(** Draw request form the window manager. The canvas becomes invalid when the method ends. The
		draw method may not modify window or WindowManager properties.
		w, h is the area in view coordinates, q is the Quality 0 lowest 1 mid 2 high. A window may ignore q  *)
		проц Draw*(canvas : Graphics.Canvas; w, h : размерМЗ; q : целМЗ);
		кон Draw;

		(** Is called by the windowmanager with reduce set, if the window is resized or moved on slow machines *)
		проц HintReduceQuality*(reduce : булево);
		нач
			если reduce # reduceQuality то
				reduceQuality := reduce;
				если ~reduceQuality то
					если manager # НУЛЬ то manager.AddVisibleDirty(сам, bounds) всё
				всё
			всё
		кон HintReduceQuality;

	кон Window;

	(** assumes the window is size agnostic, handles all the zooming issues directly *)
	BufferWindow* = окласс(Window)
	перем
		img* : Graphics.Image;
		canvas* : Graphics.BufferCanvas;
		canvasGen-: Graphics.CanvasGenerator;
		pointerThreshold*,
		maxInterpolation* : цел32; (* allows limiting the interpolation degree on Draw *)

		проц &{перекрыта}Init*(w, h : размерМЗ; alpha : булево);
		нач
			Init^(w, h, alpha);
			нов(img);
			если alpha то Raster.Create(img, w, h, Raster.BGRA8888) иначе Raster.Create(img, w, h, format) всё;
			SetCanvasGenerator(Graphics.GenCanvas);
			pointerThreshold := 1; (* invisible pixels are treated as invisible *)
			maxInterpolation := Graphics.ScaleBilinear;
		кон Init;

		проц SetCanvasGenerator*(canvasGen:Graphics.CanvasGenerator);
		нач{единолично}
			сам.canvasGen:=canvasGen; если img # НУЛЬ то canvas:=canvasGen(img); всё;
			если manager # НУЛЬ то manager.AddVisibleDirty(сам, bounds) всё
		кон SetCanvasGenerator;

		проц {перекрыта}IsHit*(x, y  : размерМЗ) : булево;
		перем w, h : размерМЗ; fx, fy : вещ32;
		нач
			w := GetWidth(); h := GetHeight();
			если (w > 0) и (h > 0) и ((w # img.width) или (h # img.height)) то
				fx := img.width / w; fy := img.height / h;
				возврат Graphics.IsBitmapHit(округлиВниз(x * fx), округлиВниз(y * fy), pointerThreshold, img)
			иначе возврат Graphics.IsBitmapHit(x, y, pointerThreshold, img)
			всё
		кон IsHit;

		проц {перекрыта}Draw*(canvas : Graphics.Canvas; w, h : размерМЗ; q : целМЗ);
		перем img: Graphics.Image;
		нач
			img := сам.img;
			если reduceQuality то q := 0 всё;
			если img # НУЛЬ то
				если (w = img.width) и (h = img.height) то
					если useAlpha то canvas.DrawImage(0, 0, img, Graphics.ModeSrcOverDst)
					иначе canvas.DrawImage(0, 0, img, Graphics.ModeCopy)
					всё
				иначе
					если useAlpha то
						canvas.ScaleImage(img, Rectangles.MakeRect(0, 0, img.width, img.height),
							Rectangles.MakeRect(0, 0, w, h), Graphics.ModeSrcOverDst, матМинимум( q,maxInterpolation))
					иначе
						canvas.ScaleImage(img, Rectangles.MakeRect(0, 0, img.width, img.height),
							Rectangles.MakeRect(0, 0, w, h), Graphics.ModeCopy, матМинимум(q,maxInterpolation))
					всё
				всё
			всё;
			увел(timestamp);
		кон Draw;

		проц {перекрыта}Invalidate*(rect : Rectangle);
		перем w, h : размерМЗ; fx, fy : вещ32;
		нач
			w := GetWidth(); h := GetHeight();
			если (w > 0) и (h > 0) и ((w # img.width) или (h # img.height))  то
				fx := w / img.width; fy := h / img.height;
				rect.l := округлиВниз(rect.l * fx); rect.t := округлиВниз(rect.t * fy);
				rect.r := округлиВниз(rect.r * fx + 0.5); rect.b := округлиВниз(rect.b * fy + 0.5)
			всё;
			Invalidate^(rect)
		кон Invalidate;

		проц {перекрыта}Handle*(перем m : Message);
		перем w, h : размерМЗ; fx, fy : вещ32;
		нач
			w := GetWidth(); h := GetHeight();
			если (w > 0) и (h > 0) и ((w # img.width) или (h # img.height)) и (m.msgType = Messages.MsgPointer) то
				m.x := m.x-bounds.l; m.y := m.y-bounds.t;
				fx := img.width / w; fy := img.height / h; m.x := округлиВниз(m.x * fx); m.y := округлиВниз(m.y * fy);
				m.x := m.x + bounds.l; m.y := m.y+bounds.l;
			всё;
			Handle^(m)
		кон Handle;

	кон BufferWindow;

	DoubleBufferWindow* = окласс(BufferWindow)
	перем
		visibleCanvas : Graphics.BufferCanvas;
		backImg* : Graphics.Image;
		swapping, drawing : булево;

		проц &{перекрыта}Init*(w, h: размерМЗ; alpha : булево);
		нач
			нов(backImg);
			если alpha то Raster.Create(backImg, w, h, Raster.BGRA8888) иначе Raster.Create(backImg, w, h, format) всё;
			Init^(w, h, alpha);
		кон Init;

		проц ReInit*(w, h : размерМЗ);
		нач {единолично}
			дождись(~drawing);
			если useAlpha то
				 Raster.Create(img, w, h, Raster.BGRA8888);
				 Raster.Create(backImg, w, h, Raster.BGRA8888)
			иначе
				Raster.Create(img, w, h, format);
				Raster.Create(backImg, w, h, format)
			всё;
			visibleCanvas:=canvasGen(img);
			canvas:=canvasGen(backImg);
		кон ReInit;

		проц {перекрыта}SetCanvasGenerator*(canvasGen:Graphics.CanvasGenerator);
		нач
			сам.canvasGen:=canvasGen;
			если img # НУЛЬ то visibleCanvas:=canvasGen(img); всё;
			если backImg # НУЛЬ то canvas:=canvasGen(backImg); всё;
			если manager # НУЛЬ то manager.AddVisibleDirty(сам, bounds) всё
		кон SetCanvasGenerator;

		проц {перекрыта}Draw*(canvas : Graphics.Canvas; w, h : размерМЗ; q : целМЗ);
		нач
			нач{единолично}
				дождись(~swapping); drawing := истина;
			кон;
			если reduceQuality то q := 0 всё;
			если img # НУЛЬ то
				если (w = img.width) и (h = img.height) то
					если useAlpha то canvas.DrawImage(0, 0, img, Graphics.ModeSrcOverDst)
					иначе canvas.DrawImage(0, 0, img, Graphics.ModeCopy)
					всё
				иначе
					если useAlpha то
						canvas.ScaleImage(img, Rectangles.MakeRect(0, 0, img.width, img.height),
							Rectangles.MakeRect(0, 0, w, h), Graphics.ModeSrcOverDst, матМинимум(q,maxInterpolation))
					иначе
						canvas.ScaleImage(img, Rectangles.MakeRect(0, 0, img.width, img.height),
							Rectangles.MakeRect(0, 0, w, h), Graphics.ModeCopy, матМинимум(q,maxInterpolation))
					всё
				всё
			всё;
			нач{единолично}
				drawing := ложь;
			кон;
			увел(timestamp);
		кон Draw;

		проц CopyRect*(rect : Rectangle);
		нач {единолично}
			swapping := истина;
			дождись(~drawing);
			visibleCanvas.SetClipRect(rect);
			visibleCanvas.DrawImage(0, 0, backImg, Graphics.ModeCopy);
			visibleCanvas.SetClipRect(visibleCanvas.limits);
			swapping := ложь
		кон CopyRect;

		проц Swap*;
		перем tmp : Graphics.Image; tmpc : Graphics.BufferCanvas;
		нач {единолично}
			swapping := истина;
			дождись(~drawing);
			tmp := img; img := backImg; backImg := tmp;
			tmpc := canvas; canvas := visibleCanvas; visibleCanvas := tmpc;
			swapping := ложь
		кон Swap;

	кон DoubleBufferWindow;


	(** A ViewPort observes the global coordinate space. The WindowManager calls the view on all changes that occur
		in the observed range. *)
	ViewPort* = окласс (Plugins.Plugin)
	перем
		next* : ViewPort;
		manager* : WindowManager;
		range* : RealRect;

		(* Width and height of viewport at 1:1 zoom. Will be set once in the constructor of the ViewPort implementation *)
		width0*, height0* : размерМЗ; (* read-only! *)

		(** The WindowManager calls the Update Procedure in locked state. *)
		проц Update*(r : Rectangle; top : Window);
		кон Update;

		(** The WindowManager calls the Update Procedure in locked state. *)
		проц Refresh*(top : Window);
		кон Refresh;

		(** Set the observed range *)
		проц SetRange*(x, y, w, h : вещ32; showTransition : булево);
		кон SetRange;

		(**  Return the modifier keys that are pressed in the view *)
		проц GetKeyState*(перем state : мнвоНаБитахМЗ);
		кон GetKeyState;

	кон ViewPort;

	Decorator* = проц {делегат} (w : Window);

	WindowManager* = окласс(Plugins.Plugin)
	перем
		pointerNull*, pointerStandard*, pointerMove*, pointerText*, pointerCrosshair*,
		pointerLeftRight*, pointerUpDown*, pointerULDR*, pointerURDL*, pointerLink* : PointerInfo;
		decorate* : Decorator;
		viewRegistry- : Plugins.Registry;
		sequencer- : Messages.MsgSequencer; (** PROTECTED *)
		lock- : Locks.RWLock; (** PROTECTED *)
		messagePreviewList : MessagePreviewList;
		style : WindowStyle;

		проц &Init*;
		нач
			нов(pointerNull);
			InitCursors;
			decorate := НУЛЬ;
			нов(viewRegistry, "View#", "Views Port Window Manager");
			нов(sequencer, Handle, Strings.NewString("a WindowManager")); lock := sequencer.lock;
			messagePreviewList := НУЛЬ;
			нов(style);
		кон Init;

		проц InitCursors;
		нач
			LoadCursor("ZeroSkin.zip://arrow.png", 0, 0, pointerStandard);
			LoadCursor("ZeroSkin.zip://move.png", 15, 15, pointerMove);
			LoadCursor("ZeroSkin.zip://text.png", 13, 12, pointerText);
			LoadCursor("ZeroSkin.zip://crosshair.png", 13, 12, pointerCrosshair);
			LoadCursor("ZeroSkin.zip://leftright.png", 13, 12, pointerLeftRight);
			LoadCursor("ZeroSkin.zip://updown.png", 13, 12, pointerUpDown);
			LoadCursor("ZeroSkin.zip://uldr.png", 13, 12, pointerULDR);
			LoadCursor("ZeroSkin.zip://urdl.png", 13, 12, pointerURDL);
			LoadCursor("ZeroSkin.zip://hand.png", 6, 0, pointerLink);
		кон InitCursors;

		проц ZeroSkin*;
		нач
			lock.AcquireWrite;
			style.Init;
			SetStyle(style);
			InitCursors;
			lock.ReleaseWrite
		кон ZeroSkin;

		проц ShutDown*;
		нач
			утв(lock.HasWriteLock());
			Plugins.main.Remove(viewRegistry)
		кон ShutDown;

(** Window management *)

		(** Add adds a window at pos l, t with flags *)
		проц Add*(l, t : размерМЗ; item : Window; flags:мнвоНаБитахМЗ);
		кон Add;

		(** Remove removes a window *)
		проц Remove*(item : Window);
		кон Remove;

		(** Set the position of a window *)
		проц SetWindowPos*(vs : Window; x, y : размерМЗ);
		кон SetWindowPos;

		(** Set the size of a window. Return the new size in width and height *)
		(** If the window contains left, top, right or bottom, SetWindowSize is called
			appropriately *)
		проц SetWindowSize*(vs : Window; перем width, height : размерМЗ);
		кон SetWindowSize;

		(** Add a region to be refreshed *)
		проц AddDirty*(перем rect:Rectangle);
		кон AddDirty;

		(** Add a dirty region. The region is in window coordinates and will be clipped against non transparent
			windows above *)
		проц AddVisibleDirty*(w : Window; rect : Rectangle);
		кон AddVisibleDirty;

		(** Set the keyboard focus to the window w *)
		проц SetFocus*(w : Window);
		кон SetFocus;

		(** Add a decoration window w to window to. The window w must separately be added to the wm *)
		(** A window MUST NOT be added more than once *)
		(** MUST hold lock *)
		проц AddDecorWindow*(to, decor : Window);
		перем dl : DecorList;
		нач
			lock.AcquireWrite;
			включиВоМнвоНаБитах(decor.flags, FlagDecorWindow);
			включиВоМнвоНаБитах(decor.flags, FlagHidden);
			decor.master := to;
			нов(dl); dl.w := decor; dl.next := to.decor; to.decor := dl;
			lock.ReleaseWrite
		кон AddDecorWindow;

		(** Remove a decoration window w from window from. The window w must separately be removed from the wm *)
		(** MUST hold lock *)
		проц RemoveDecorWindow*(w, from : Window);
		перем dl : DecorList;
		нач
			lock.AcquireWrite;
			если (from.decor # НУЛЬ) и (from.decor.w = w) то from.decor := from.decor.next
			иначе
				dl := from.decor;
				нцПока (dl.next # НУЛЬ) и (dl.next.w # w) делай dl := dl.next кц;
				если dl.next # НУЛЬ то dl.next := dl.next.next всё
			всё;
			lock.ReleaseWrite
		кон RemoveDecorWindow;

		проц SetStyle*(x : WindowStyle);
		перем m : Message;
		нач
			утв(style # НУЛЬ);
			style := x; m.msgType := Messages.MsgStyleChanged; m.ext := style;
			Broadcast(m)
		кон SetStyle;

		проц GetStyle*() : WindowStyle;
		нач
			утв(style # НУЛЬ);
			возврат style
		кон GetStyle;

		(** Move Window w to front. If FlagStayOnTop is not set in w.flags, w will stay behind all windows with this flag set *)
		проц ToFront*(w : Window);
		кон ToFront;

		(** Move Window w to the background. If FlagStayOnTop is not set in w.flags, w will stay behind all windows *)
		проц ToBack*(w : Window);
		кон ToBack;

		проц SetIsVisible*(w : Window; isVisible : булево);
		перем d : DecorList;
		нач
			утв(w # НУЛЬ);
			lock.AcquireWrite;
			если (w.isVisible # isVisible) то
				w.isVisible := isVisible;
				если (w.leftW # НУЛЬ) то w.leftW.isVisible := isVisible; всё;
				если (w.rightW # НУЛЬ) то w.rightW.isVisible := isVisible; всё;
				если (w.topW # НУЛЬ) то w.topW.isVisible := isVisible; всё;
				если (w.bottomW # НУЛЬ) то w.bottomW.isVisible := isVisible; всё;
				AddDirty(w.bounds);
				если (w.decor # НУЛЬ) то
					d := w.decor;
					нцПока (d # НУЛЬ) и (d.w # НУЛЬ) делай
						AddDirty(d.w.bounds);
						d := d.next;
					кц;
				всё;
				IncOTimestamp;
			всё;
			lock.ReleaseWrite;
		кон SetIsVisible;

		(** Set icon for a given window. Icon may be set to NIL. *)
		проц SetWindowIcon*(w : Window; icon : Graphics.Image);
		перем tw : Window;
		нач
			утв(w # НУЛЬ);
			lock.AcquireWrite;
			w.icon := icon;
			tw := w.topW;
			если tw # НУЛЬ то AddVisibleDirty(tw, tw.bounds) всё;
			lock.ReleaseWrite;
			IncOTimestamp;
		кон SetWindowIcon;

		(** Return the window at postition x, y in global space. *)
		(** Windows that have the FlagNavigate flag set will not be considered *)
		(** Must hold WM lock *)
		проц GetPositionOwner*(x, y : размерМЗ) : Window;
		кон GetPositionOwner;

		проц GetFocusOwner*() : Window;
		кон GetFocusOwner;

		(** Set the title of a window as UTF-8 string *)
		проц SetWindowTitle*(w : Window; title : String);
		перем tw : Window;
		нач
			lock.AcquireWrite;
			w.title := title;
			tw := w.topW;
			если tw # НУЛЬ то AddVisibleDirty(tw, tw.bounds) всё;
			lock.ReleaseWrite;
			IncWTimestamp; (* since navigation elements care about window title *)
		кон SetWindowTitle;

		(** Get the title of a window as UTF-8 string *)
		проц GetWindowTitle*(w : Window) : String;
		нач
			возврат w.title
		кон GetWindowTitle;

		проц SetWindowInfo*(w : Window; конст info : WindowInfo);
		нач
			утв(w # НУЛЬ);
			lock.AcquireWrite;
			если (w.info = НУЛЬ) то нов(w.info); всё;
			w.info^ := info;
			lock.ReleaseWrite;
			IncOTimestamp;
		кон SetWindowInfo;

		проц GetWindowInfo*(w : Window; перем info : WindowInfo) : булево;
		перем infoPtr : WindowInfoPtr;
		нач
			утв(w # НУЛЬ);
			lock.AcquireRead;
			infoPtr := w.info;
			если (infoPtr # НУЛЬ) то
				info := infoPtr^;
			всё;
			lock.ReleaseRead;
			возврат (infoPtr # НУЛЬ);
		кон GetWindowInfo;

		(**	Set or unset a window flag
			Note: Setting FlagStayOnTop unsets FlagStayOnBottom and vice versa *)
		проц SetWindowFlag*(w : Window; flag : цел32; value : булево);
		нач
			утв(w # НУЛЬ);
			утв((flag = FlagFrame) или (flag = FlagStayOnTop) или (flag = FlagStayOnBottom) или (flag = FlagHidden));
		кон SetWindowFlag;

		(** Set if the window is willing to accept a dropped item *)
		проц SetAcceptDrag*(w : Window; accept : булево);
		нач
			lock.AcquireWrite;
			w.acceptDrag := accept;
			lock.ReleaseWrite
		кон SetAcceptDrag;

		проц StartDrag*(w : Window; sender, data : динамическиТипизированныйУкль; img : Graphics.Image; offsetX, offsetY: размерМЗ; onAccept, onReject : Messages.CompCommand) : булево;
		кон StartDrag;

		(** a pointer button must be pressed *)
		проц TransferPointer*( to : Window) : булево;
		кон TransferPointer;

		(** Adjust pointer to new position / check picture *)
		проц CheckPointerImage*;
		кон CheckPointerImage;

(** View management *)

		(** Add a view *)
		проц AddView*(v : ViewPort);
		кон AddView;

		(** Add the whole View.range as dirty and cause a redraw *)
		проц RefreshView*(v : ViewPort);
		кон RefreshView;

		(** RemoveView from windowmanager *)
		проц RemoveView*(v : ViewPort);
		кон RemoveView;

(** Messages *)

		проц Broadcast*(перем m : Message);
		кон Broadcast;

		проц SendMessage*(dest : Window; перем m : Message) : булево;
		нач
			если dest.sequencer # НУЛЬ то возврат dest.sequencer.Add(m)
			иначе dest.Handle(m); возврат истина
			всё
		кон SendMessage;

		(** Install a message preview procedure. The window manager calls the MessagePreviewProc for
		all external messages so that they can be recorded, changed or discarded *)
		проц InstallMessagePreview*(x : MessagePreviewProc);
		перем mpl : MessagePreviewList;
		нач
			lock.AcquireWrite;
			нов(mpl); mpl.next := messagePreviewList; mpl.proc := x; messagePreviewList := mpl;
			lock.ReleaseWrite
		кон InstallMessagePreview;

		(** Remove a MessagePreviewProc *)
		проц RemoveMessagePreview*(x : MessagePreviewProc);
		перем cur : MessagePreviewList;
		нач
			lock.AcquireWrite;
			если (messagePreviewList # НУЛЬ) и (messagePreviewList.proc = x) то messagePreviewList := messagePreviewList.next
			иначе
				cur := messagePreviewList;
				нцПока cur # НУЛЬ делай
					если (cur.next # НУЛЬ) и (cur.next.proc = x) то cur.next := cur.next.next; lock.ReleaseWrite; возврат
					иначе cur := cur.next всё
				кц
			всё;
			lock.ReleaseWrite
		кон RemoveMessagePreview;

		(** Preview message to all installed message preview handlers. Only to be used by WindowManager itself *)
		проц PreviewMessage*(перем m : Message; перем discard : булево); (* protected *)
		перем mpl : MessagePreviewList;
		нач
			утв(lock.HasReadLock());
			discard := ложь;
			mpl := messagePreviewList;
			нцПока (mpl # НУЛЬ) и ~discard делай mpl.proc(m, discard); mpl := mpl.next кц;
		кон PreviewMessage;

(** Enumeration *)

	(** Get the first "user" window --> May return NIL if only background and pointer window are installed *)
	(** Must hold lock *)
		проц GetFirst*() : Window;
		кон GetFirst;

		(** Get the window next "user" window on top of x *)
		проц GetNext*(x : Window) : Window;
		кон GetNext;

		(** Get the "user" window below x *)
		проц GetPrev*(x : Window) : Window;
		кон GetPrev;

		(** Replace the background window with w. Return the current background window *)
		проц ReplaceBackground*(w : Window) : Window;
		кон ReplaceBackground;

		(** Return the area that is actually occupied *)
		проц GetPopulatedArea*(перем r : Rectangle);
		кон GetPopulatedArea;

		(** Internal handler for message that are directed to the window manager never call directly ! *)
		проц HandleInternal*(перем msg : Messages.Message); (** PROTECTED *)
		нач
			утв(sequencer.IsCallFromSequencer())
		кон HandleInternal;

		(** All external events of the window manager are inserted here *)
		проц Handle*(перем msg : Messages.Message);
		перем discard : булево;
		нач
			если sequencer.IsCallFromSequencer() то
				PreviewMessage(msg, discard);
				если ~discard то HandleInternal(msg) всё
			иначе
				если ~sequencer.Add(msg) то
					ЛогЯдра.пСтроку8("A message sent to the WM could not be handled "); ЛогЯдра.пВК_ПС
				всё
			всё
		кон Handle;

	кон WindowManager;

перем
	registry- : Plugins.Registry;
	pointerNull: PointerInfo;

	(* Changes whenever a Window is added or removed to/from a WindowManager *)
	wTimestamp- : цел32;

	(* Changes whenever the keyboard focus is given to another window or the visibility of a window changed *)
	oTimestamp- : цел32;

	(* Coordinate offsets use to determine position of a new window *)
	x1, y1 : размерМЗ;

	format* : Raster.Format;

	nextId : цел32;

	standardCursorImage: Graphics.Image;

(* Get a unique identifier *)
проц GetId() : цел32;
нач {единолично}
	увел(nextId);
	возврат nextId;
кон GetId;

проц IncWTimestamp*;
нач {единолично}
	увел(wTimestamp);
кон IncWTimestamp;

проц IncOTimestamp*;
нач {единолично}
	увел(oTimestamp);
кон IncOTimestamp;

(** Block until a window is added/removed, changes its visibility or the keyboard focus changes *)
проц AwaitChange*(wTs, oTs : цел32);
нач {единолично}
	дождись((wTimestamp # wTs) или (oTimestamp # oTs));
кон AwaitChange;

проц ClearInfo*(перем info : WindowInfo);
перем i : цел32;
нач
	нцДля i := 0 до длинаМассива(info.openDocuments)-1 делай
		info.openDocuments[i].id := 0;
		info.openDocuments[i].name := "";
		info.openDocuments[i].fullname := "";
		info.openDocuments[i].modified := ложь;
		info.openDocuments[i].hasFocus := ложь;
	кц;
	info.handleDocumentInfo := НУЛЬ;
	info.vc.width := 0;
	info.vc.height := 0;
	info.vc.generator := НУЛЬ;
кон ClearInfo;

проц NewString*(конст x : массив из симв8) : String;
перем t : String;
нач
	нов(t, длинаМассива(x)); копируйСтрокуДо0(x, t^); возврат t
кон NewString;

проц LoadCursor*(конст name : массив из симв8; hx, hy : цел32; перем pi : PointerInfo);
нач
	если pi = НУЛЬ то нов(pi) всё;
	pi.img := Graphics.LoadImage(name, истина); pi.hotX := hx; pi.hotY := hy;
	если pi.img = НУЛЬ то
		ЛогЯдра.пСтроку8("Picture not loaded : "); ЛогЯдра.пСтроку8(name); ЛогЯдра.пВК_ПС;
		если standardCursorImage = НУЛЬ то CreateStandardCursorImage всё;
		pi.img := standardCursorImage; pi.hotX := 0; pi.hotY := 0;
	всё
кон LoadCursor;

проц GetDefaultManager*() : WindowManager;
перем p : Plugins.Plugin;
нач
	p := registry.Await("");
	возврат p(WindowManager)
кон GetDefaultManager;

проц GetDefaultView*() : ViewPort;
перем p : Plugins.Plugin; m : WindowManager;
нач
	m := GetDefaultManager();
	p := m.viewRegistry.Await("");
	возврат p(ViewPort)
кон GetDefaultView;

проц ResetNextPosition*;
нач {единолично}
	x1 := 0; y1 := 0;
кон ResetNextPosition;

проц GetNextPosition*(window : Window; manager : WindowManager; view : ViewPort; перем dx, dy : размерМЗ);
перем style : WindowStyle; x, y : размерМЗ;
нач {единолично}
	утв((window # НУЛЬ) и (manager # НУЛЬ) и (view # НУЛЬ));
	style := manager.GetStyle();
	x := style.lw; y := style.th;
	dx := x + X0 + x1; dy := y + Y0 + y1;
	увел(x1, x); увел(y1, y);
	если (x1 > округлиВниз(0.3 * view.width0)) или (y1 > округлиВниз(0.3 * view.height0)) то
		x1 := 0; y1 := 0;
	всё;
кон GetNextPosition;

проц DefaultAddWindow*(w : Window);
перем manager : WindowManager; view : ViewPort; dy, dx : размерМЗ;
нач
	manager := GetDefaultManager();
	view := GetDefaultView();
	GetNextPosition(w, manager, view, dx, dy);
	manager.Add(округлиВниз(view.range.l) + dx, округлиВниз(view.range.t) + dy, w, {FlagFrame, FlagClose, FlagMinimize});
	manager.SetFocus(w)
кон DefaultAddWindow;

проц AddWindow*(w : Window; dx, dy : размерМЗ);
перем manager : WindowManager; view : ViewPort;
нач
	manager := GetDefaultManager();
	view := GetDefaultView();
	manager.Add(округлиВниз(view.range.l) + dx, округлиВниз(view.range.t) + dy, w, {FlagFrame, FlagClose, FlagMinimize})
кон AddWindow;

проц ExtAddWindow*(w : Window; dx, dy : размерМЗ; flags : мнвоНаБитахМЗ);
перем manager : WindowManager; view : ViewPort;
нач
	manager := GetDefaultManager();
	view := GetDefaultView();
	manager.Add(округлиВниз(view.range.l) + dx, округлиВниз(view.range.t) + dy, w, flags)
кон ExtAddWindow;

проц ExtAddViewBoundWindow*(w : Window; dx, dy : размерМЗ; view : ViewPort; flags : мнвоНаБитахМЗ);
перем manager : WindowManager;
нач
	flags := flags + {FlagNavigation};
	manager := GetDefaultManager();
	manager.Add(dx, dy, w, flags);
кон ExtAddViewBoundWindow;

(** move a window to the default view *)
проц DefaultBringToView*(w : Window; toFront : булево);
перем manager : WindowManager; view : ViewPort; dy, dx : размерМЗ;
нач
	manager := GetDefaultManager();
	view := GetDefaultView();
	GetNextPosition(w, manager, view, dx, dy);
	manager.SetWindowPos(w, округлиВниз(view.range.l) + dx, округлиВниз(view.range.t) + dy);
	manager.SetFocus(w);
	если toFront то manager.ToFront(w) всё
кон DefaultBringToView;

проц CleanUp;
нач
	Plugins.main.Remove(registry)
кон CleanUp;

проц CreateStandardCursorImage;
конст Width = 32; Height = 32;
перем canvas: Graphics.BufferCanvas; rect: Rectangles.Rectangle; points: массив 3 из Graphics.Point2d;
нач
	нов(standardCursorImage);
	Raster.Create(standardCursorImage, Width, Height, Raster.BGRA8888);
	нов(canvas, standardCursorImage);
	Rectangles.SetRect (rect, 0, 0, Width, Height);
	canvas.Fill(rect, 0H, Graphics.ModeCopy);
	points[0].x := Width; points[0].y := Height DIV 2;
	points[1].x := 0; points[1].y := 0;
	points[2].x := Width DIV 2; points[2].y := Height;
	canvas.FillPolygonFlat(points, 3, Graphics.White - 080H, Graphics.ModeCopy);
	canvas.PolyLine(points, 3, ложь, Graphics.Black, Graphics.ModeCopy);
кон CreateStandardCursorImage;

нач
	Modules.InstallTermHandler(CleanUp);
	нов(registry, "WM#", "Window Managers");
	nextId := 0; x1 := 0; y1 := 0;
	wTimestamp := 0; oTimestamp := 0;
	format := Raster.BGRA8888;
	нов(pointerNull);
	standardCursorImage := НУЛЬ;
кон WMWindowManager.
